{
  "By": "nrad6949", 
  "Contents": " เมื่อวานนี้ Google ปล่อยส่วนเสริม Network File Share for Chrome OS ให้กับระบบปฏิบัติการ Chrome OS ทำให้ Chrome OS สามารถเข้าถึงไฟล์ที่แชร์อยู่บนเครือข่ายผ่านโปรโตคอล SMB (Server Message Block) ได้โดยง่าย พร้อมเปิดโค้ดเอาไว้บน GitHub ให้กับนักพัฒนาด้วย ส่วนเสริมดังกล่าวใช้ API ของระบบที่มีชื่อว่า File System Provider ทำให้ตัวระบบปฏิบัติการสามารถเข้าถึงไฟล์จากเครือข่ายได้ทันที แบบเดียวกับที่เข้าถึง Google Drive ได้ (ผู้ใช้ที่น่าจะได้ประโยชน์ที่สุดจากส่วนเสริมนี้ น่าจะเป็นผู้ใช้ในองค์กร หรือไม่ก็คนที่มีระบบเก็บข้อมูลภายในบ้านแบบไร้สายอย่างพวก NAS) โดยในคำบรรยายของส่วนเสริมระบุว่าพอร์ตมาจากไคลเอนต์ของ Samba ตัวส่วนเสริมมีขนาด 27.15 เมกะไบต์ และเปิดให้ดาวน์โหลดแล้ววันนี้ ใครสนใจสามารถดาวน์โหลดได้จากที่มาครับ (ผมทดลองแล้ว ใช้กับ Chrome Browser ปกติไม่ได้นะครับ แม้จะติดตั้งได้) ที่มา - Chrome Extension Store ผ่าน PCWorld     ", 
  "Date": "2/June/2016", 
  "Image-Link": [
    "https://www.blognone.com/sites/default/files/styles/thumbnail/public/topics-images/Google_2015_logo.svg_.png?itok=bd4RvVLK", 
    "https://i.imgur.com/jZaVcFH.png", 
    "https://i.imgur.com/oxhPbOc.png", 
    "/sites/all/themes/blognone42/images/linebutton.png"
  ], 
  "Link": "https://www.blognone.com/node/81751", 
  "News": "Google ปล่อยส่วนเสริม Network File Share ให้ Chrome OS เข้าถึงไฟล์ที่แชร์ผ่าน SMB", 
  "Tags": [
    "Chrome OS", 
    "Google", 
    "Networking", 
    "Extension"
  ], 
  "Time": "13:04"
}