{
  "By": "nismod", 
  "Contents": " เฟซบุ๊กประกาศเปิดตัวเครื่องมือสำหรับคนทั่วไป ได้ริเริ่มโครงการระดมทุนเพื่อการกุศล ให้กับองค์กรไม่แสวงหาผลกำไรที่ทางเฟซบุ๊กอนุมัติ อาทิ The Nature Conservancy, Alzheimer's Association และ Oxfam ทีมงาน Social Good ที่พัฒนาเครื่องมือนี้ระบุว่า พวกเขาสำรวจพบว่าผู้คนจะมีแนวโน้มบริจาคมากกว่า หากคนมีคนที่รู้จักแชร์เรื่องราวหรือโครงการต่างๆ มาให้ โดยหน้าบริจาคนี้จะคล้ายกับหน้าอีเวนท์ และกระบวนการบริจาคเงินจะทำผ่านเฟซบุ๊กทั้งหมด อย่างไรก็ตามเงินบริจาคทั้งหมดเฟซบุ๊กจะหักไว้ 5% แบ่งเป็น 2% สำหรับเป็นค่าใช้จ่ายในการตรวจสอบและป้องกันการโกง และอีก 3% สำหรับค่าใช้จ่ายในกระบวนการจ่ายเงิน ทำให้องค์กรการกุศลจะได้รับเงิน 95% จากจำนวนที่ได้รับบริจาค เครื่องมือนี้จะใช้ได้ก่อนในบางพื้นที่ของสหรัฐเท่านั้น ขณะเดียวกันเบื้องต้นมีองค์กรไม่แสวงหาผลกำไรที่อยู่ในลิสต์ของเฟซบุ๊กเพียง 100 องค์กรเท่านั้น ที่มา - Engadget   ", 
  "Date": "1/July/2016", 
  "Image-Link": [
    "https://www.blognone.com/sites/default/files/styles/thumbnail/public/topics-images/fb-500.png?itok=7KEmyKx1", 
    "/sites/all/themes/blognone42/images/linebutton.png"
  ], 
  "Link": "https://www.blognone.com/node/82898", 
  "News": "เฟซบุ๊กเปิดตัวเครื่องมือระดมทุนเพื่อการกุศล ให้องค์กรไม่แสวงหาผลกำไร สำหรับคนทั่วไป", 
  "Tags": [
    "Facebook", 
    "Crowdfunding", 
    "Social Media"
  ], 
  "Time": "13:06"
}