{
  "By": "nismod", 
  "Contents": " เฟซบุ๊กกำลังซุ่มทดสอบปุ่ม \"Notify a few friends about the post\" หรือส่งการแจ้งเตือนของโพสต์นี้ไปให้เพื่อน โดยทาง Adweek ระบุว่าสามารถส่งการแจ้งเตือนไปให้เพื่อนพร้อมกัน 10 คนต่อ 1 ครั้ง โดยปุ่มนี้ปรากฎอยู่ด้านล่างแถบปุ่มไลค์ คอมเมนท์และแชร์ โฆษกของเฟซบุ๊กยืนยันว่ากำลังทดสอบระบบนี้อยู่ โดยระบุว่าต้องการให้ใช้แทนการแท็กเพื่อนในคอมเมนท์ พร้อมระบุด้วยว่ากำลังทดสอบตัวเลือกอื่นๆ ในการแจ้งเตือนเพื่อนลักษณะนี้อยู่ด้วย ที่มา - Adweek   ", 
  "Date": "7/June/2016", 
  "Image-Link": [
    "https://www.blognone.com/sites/default/files/styles/thumbnail/public/topics-images/fb-500.png?itok=7KEmyKx1", 
    "/sites/all/themes/blognone42/images/linebutton.png"
  ], 
  "Link": "https://www.blognone.com/node/81965", 
  "News": "เฟซบุ๊กกำลังทดสอบระบบส่งการแจ้งเตือนโพสต์ไปให้เพื่อน", 
  "Tags": [
    "Facebook", 
    "Social Media"
  ], 
  "Time": "16:22"
}