{
  "By": "twometre", 
  "Contents": " ซีพียูตระกูล Core จากอินเทลลำดับที่ 7 ในชื่อ \"Kaby Lake\" มีสเปคของชิปเรือธงบนเดสก์ทอปอย่าง Core i7-7700K หลุดมาบนซอฟต์แวร์วัดประสิทธิภาพเครื่อง SiSoft Sandra ครับ สรุปได้ดังนี้  ผลิตด้วยเทคโนโลยี 14nm เหมือน Broadwell และ Skylake, ใช้ซ็อกเก็ต LGA1151 เหมือนเดิม ยังเป็นชิป 4 แกน 8 เธรด ทำงานที่สัญญาณนาฬิกา 3.6GHz และเร่งได้ถึง 4.2GHz ซึ่งข้อมูลนี้ขัดกับ i7-6700K ที่ทำงานที่ 4.0/4.2GHz แหล่งข่าวระบุว่าอาจมีการเปลี่ยนแปลงได้ ด้าน GPU GT2 ชิปมี execution unit 24 ชุด ที่ 1.15GHz เท่า i7-6700K เหมือนเดิม มีแคชระดับสามที่ 8MB เท่าเดิม ยังไม่ระบุสเปคความร้อน รองรับ USB3.1 และ HDCP2.2 แบบ native และถอดรหัส HEVC main10 และ VP9 10-bit ในตัวชิปได้แล้ว ในขณะเดียวกันก็มีข้อมูลของชิปบนแล็ปท็อปอย่าง Kaby Lake-U (i7-7500U) และ Y (M7-7Y75) ออกมาด้วย แต่ยังไม่ใช่ตัวเรือธงครับ   ที่มา - WCCF Tech    ", 
  "Date": "3/May/2016", 
  "Image-Link": [
    "https://www.blognone.com/sites/default/files/styles/thumbnail/public/topics-images/intel300.png?itok=gcH8Mojc", 
    "//upic.me/i/7h/intel-core-i7-7700k-kaby-lake.jpg", 
    "/sites/all/themes/blognone42/images/linebutton.png"
  ], 
  "Link": "https://www.blognone.com/node/80554", 
  "News": "หลุดสเปค Core i7-7700K: ใช้ LGA1151 เหมือนเดิม เพิ่มเติมคือรับ USB3.1, HDCP 2.2", 
  "Tags": [
    "Intel", 
    "Hardware", 
    "CPU"
  ], 
  "Time": "11:57"
}