{
  "By": "lew", 
  "Contents": " Das Keyboard เป็นคีย์บอร์ดที่มีชื่อเสียงพอสมควรในกลุ่มคนใช้คีย์บอร์ดแมคคานิค ตอนนี้บริษัทก็เลือกเปิดตัวคีย์บอร์ดรุ่นล่าสุด Das Keyboard Q5 ในรูปแบบการระดมทุนบน Kickstarter ความพิเศษของ Das Keyboard Q5 คือมันสามารถแสดงสีแต่ละปุ่มแยกจากกันได้ทั้งหมด และมี API สำหรับการแสดงผลให้ใช้งาน ทำให้เราสามารถใช้คีย์บอร์ดมาเป็นตัวแสดงผลได้ด้วย ตัวซอฟต์แวร์ Q app เปิด API ให้เข้าควบคุมคีย์บอร์ดได้ผ่าน REST API และมีชุมชนสำหรับแชร์โค้ดเพื่อใช้งานแบบต่างๆ กันได้ ตัว Q app รองรับทั้งวินโดวส์, แมค, และลินุกซ์ สำหรับตัวคีย์เป็นคีย์จาก Omron ทาง Das ระบุว่าสัมผัสจะคล้ายกับ Cherry MX brown ราคาระดมทุนเริ่มต้น 109 ดอลลาร์ กำหนดส่งสินค้าเดือนมกราคมปีหน้า แต่ความคิดว่า \"คีย์บอร์ดต่ออินเทอร์เน็ต\" ก็ดูน่ากลัวอยู่ไม่น้อยสำหรับคนกังวลเรื่องความปลอดภัย ที่มา - Kickstarter     ", 
  "Date": "1/July/2016", 
  "Image-Link": [
    "https://www.blognone.com/sites/default/files/styles/thumbnail/public/topics-images/1-1232472255xXip.jpg?itok=-Ab1vL0i", 
    "//upic.me/i/j0/087d17d02a8eed5c7e833597d4e0c353_original.jpg", 
    "/sites/all/themes/blognone42/images/linebutton.png"
  ], 
  "Link": "https://www.blognone.com/node/82883", 
  "News": "Das Keyboard Q5 คียบอร์ดเชื่อมต่อคลาวด์ เปิดระดมทุนแล้ว", 
  "Tags": [
    "Keyboard", 
    "Kickstarter"
  ], 
  "Time": "02:14"
}