{
  "By": "lew", 
  "Contents": " ธนาคารแห่งประเทศไทยเปิดตัวบริการ \"พร้อมเพย์\" (PromptPay) บริการชำระเงินผ่าน Any ID ใช้โอนเงินระหว่างบุคคลและโอนเงินไปยังนิติบุคคล Any ID เปิดให้ใช้หมายเลขบัตรประชาชนหรือหมายเลขโทรศัพท์มือถือแทน การลงทะเบียนจะเปิดให้ลงทะเบียนบางธนาคารที่พร้อมตั้งแต่วันที่ 1 กรกฎาคม และทุกธนาคารตั้งแต่วันที่ 15 กรกฎาคม  ส่วนการให้บริการพร้อมเพย์จะเปิดให้บริการตั้งแต่วันที่ 31 ตุลาคมนี้ ก่อนหน้านี้เว็บไซต์ลงทะเบียนของธนาคารไทยพาณิชย์เคยระบุว่าการโอนด้วย Any ID จะมีค่าธรรมเนียมถูกกว่าการโอนข้ามธนาคารตามปกติ อย่างไรก็ตามเว็บไม่ได้ระบุว่าค่าธรรมเนียมเป็นเท่าใด ที่มา - ธนาคารแห่งประเทศไทย, ข่าวช่อง8   ", 
  "Date": "15/June/2016", 
  "Image-Link": [
    "https://www.blognone.com/sites/default/files/styles/thumbnail/public/topics-images/bot.png?itok=GTizUwNb", 
    "/sites/all/themes/blognone42/images/linebutton.png"
  ], 
  "Link": "https://www.blognone.com/node/82277", 
  "News": "ธนาคารแห่งประเทศไทยเปิดตัว \"พร้อมเพย์\" บริการรับจ่ายผ่าน Any ID เริ่มใช้งาน 31 ตุลาคมนี้", 
  "Tags": [
    "Bank of Thailand", 
    "Thailand", 
    "Mobile Payment", 
    "Banking"
  ], 
  "Time": "11:49"
}