{
  "By": "nismod", 
  "Contents": " วันจันทร์ที่ 18 กรกฎาคมนี้ (ตามเวลาในสหรัฐ) จะเป็นวันที่สมาชิกพรรครีพับลิกันและเดโมแครตจัดการประชุมใหญ่ เพื่อเลือกตัวแทนพรรคสู้ศึกประธานาธิบดีในช่วงปลายปีนี้ ซึ่ง Twitch ที่รายการถ่ายทอดสดเกี่ยวข้องกับเกมเสียส่วนใหญ่ ได้ประกาศว่าจะถ่ายทอดสดตลอดการประชุมของทั้งสองพรรคนี้ในหน้า /GoPConvention และ /DNC2016 Twitch ระบุว่ามองว่าบริษัทมองการถ่ายทอดสดนี้เป็นบริการสาธารณะให้กับชาวอเมริกัน ขณะเดียวกันการเมืองภายในของสหรัฐ ก็ส่งผลต่อประชาคมโลกอย่างหลีกเลี่ยงไม่ได้ และในโอกาสนี้ Twitch ได้ทำ emotes ขึ้นมา 5 ตัวสำหรับใช้ในช่วงการถ่ายทอดสดนี้ด้วย ที่มา - Twitch via The Verge    ", 
  "Date": "15/July/2016", 
  "Image-Link": [
    "https://www.blognone.com/sites/default/files/styles/thumbnail/public/topics-images/twitch.png?itok=UeQB1xLQ", 
    "https://c1.staticflickr.com/8/7304/28285428576_bab275f244_z.jpg", 
    "/sites/all/themes/blognone42/images/linebutton.png"
  ], 
  "Link": "https://www.blognone.com/node/83477", 
  "News": "Twitch ประกาศถ่ายทอดสดการประชุมใหญ่ของทั้งพรรครีพับลิกันและเดโมแครต", 
  "Tags": [
    "Twitch", 
    "Live Streaming", 
    "USA", 
    "Politics"
  ], 
  "Time": "14:44"
}