{
  "By": "mk", 
  "Contents": " กูเกิลอำนวยความสะดวกให้เจ้าของเว็บไซต์ธุรกิจขนาดเล็ก (SME) โดยรวมเอาเครื่องมือทดสอบเว็บไซต์ที่มีอยู่แล้วคือ PageSpeed Insights วัดความเร็วการโหลดหน้าเว็บ และ Mobile-friendly Test ทดสอบว่าเว็บเพจดูบนอุปกรณ์พกพาได้ดีแค่ไหน เครื่องมือตัวใหม่ชื่อว่า Mobile Website Speed Testing Tool มีหน้าตาสวยงามขึ้นกว่าเดิม เมื่อกรอก URL ลงไปเราจะได้คะแนน 3 ค่าคือ ความเป็นมิตรกับอุปกรณ์พกพา (mobile friendliness), ความเร็วการโหลดเว็บบนอุปกรณ์พกพา (mobile speed), ความเร็วการดาวน์โหลดเว็บบนเดสก์ท็อป (desktop speed) พร้อมปุ่มกดส่งคำแนะนำปรับปรุงเว็บไซต์มาทางอีเมล ที่มา - Search Engine Land    ", 
  "Date": "5/June/2016", 
  "Image-Link": [
    "https://www.blognone.com/sites/default/files/styles/thumbnail/public/topics-images/Google_2015_logo.svg_.png?itok=bd4RvVLK", 
    "https://i.imgur.com/t9Flinj.png", 
    "/sites/all/themes/blognone42/images/linebutton.png"
  ], 
  "Link": "https://www.blognone.com/node/81858", 
  "News": "กูเกิลออกเครื่องมือทดสอบความเร็ว-ความเป็นมิตรของเว็บเพจเมื่อดูผ่านมือถือ", 
  "Tags": [
    "Google", 
    "Mobile Web"
  ], 
  "Time": "07:57"
}