{
  "By": "SamKMFB", 
  "Contents": " ค่ายเกมชื่อดัง Rovio ผู้สร้างแฟรนไชส์เกมอย่าง Angry Birds และ Bad Piggies ได้ส่งอีเมลหาผู้ใช้ว่าจะหยุดพัฒนาทุกเกมบน Windows Phone และในพีซี เพื่อที่จะไปพัฒนาเกมบน iOS และ Android ได้อย่างมีประสิทธิภาพมากขึ้น ในอีเมลยังกล่าวว่า ตัวเกมฉบับพีซีนั้นจะไม่สามารถซื้อหรือดาวน์โหลดได้อีกต่อไป รวมไปถึงไม่ได้รับอัพเดตใหม่ๆ อีกด้วย ที่มา - Windows Central   ", 
  "Date": "12/July/2016", 
  "Image-Link": [
    "https://www.blognone.com/sites/default/files/styles/thumbnail/public/topics-images/rovio.png?itok=zFdv43LU", 
    "/sites/all/themes/blognone42/images/linebutton.png"
  ], 
  "Link": "https://www.blognone.com/node/83322", 
  "News": "ไปอีกหนึ่ง Rovio หยุดพัฒนาเกมบน Windows Phone และพีซีแล้ว", 
  "Tags": [
    "Rovio", 
    "Windows 10 Mobile", 
    "Windows"
  ], 
  "Time": "15:31"
}