{
  "By": "nrad6949", 
  "Contents": " เว็บไซต์ Ausdroid ออกมารายงานข่าวชิ้นใหม่ โดยอ้างการเปิดเผยจากเว็บไซต์ SamsungMania เว็บไซต์ข่าวท้องถิ่นเกี่ยวกับ Samsung ของสาธารณรัฐเช็ค ที่เผยภาพอุปกรณ์ควบคุมชิ้นใหม่ที่ใช้งานกับ Gear VR โดยเฉพาะ อุปกรณ์ดังกล่าวมีหน้าตาไม่ต่างจากตัวควบคุมเกมตามปกติที่เราคุ้นเคยกัน แต่จุดเด่นที่เห็นได้ชัดคือขนาดที่สามารถจัดเก็บลงช่องที่เสียบเข้ากับสมาร์ทโฟนได้ (ปกติแว่น Gear VR ใช้สมาร์ทโฟนเป็นจอแสดงผล) ซึ่งจะทำให้กลายเป็นอุปกรณ์เสริมที่ทำให้เก็บและขนไปไหนมาไหนได้สะดวก ยังไม่มีการยืนยันว่าภาพดังกล่าวเป็นของจริงหรือไม่ และจะมีวางจำหน่ายจริงเมื่อใดรวมถึงราคาเท่าไหร่ด้วย ที่มา - Ausdroid    ", 
  "Date": "29/May/2016", 
  "Image-Link": [
    "https://www.blognone.com/sites/default/files/styles/thumbnail/public/topics-images/gearvr.png?itok=LJcyDy_v", 
    "https://i.imgur.com/QuQIA5f.jpg", 
    "/sites/all/themes/blognone42/images/linebutton.png"
  ], 
  "Link": "https://www.blognone.com/node/81567", 
  "News": "หลุดตัวควบคุมของ Samsung Gear VR เวลาไม่ใช้เก็บเข้าช่องที่เสียบสมาร์ทโฟนได้", 
  "Tags": [
    "Leak", 
    "Gear VR", 
    "Samsung", 
    "Oculus"
  ], 
  "Time": "12:37"
}