{
  "By": "nismod", 
  "Contents": " เว็บไซต์ SamMobile ปล่อยข้อมูลพร้อมภาพหลุดของ Galaxy J2 ที่มาพร้อมฟีเจอร์ใหม่อย่าง Smart Glow ซึ่งเป็นระบบแจ้งเตือนผ่านสีและแสงบริเวณรอบๆ กล้องหลัง ความสามารถของ Smart Glow มีอยู่ 3 ฟังก์ชันหลัก ฟังก์ชันแรกคือ Priority Alerts สำหรับแสดงการแจ้งเตือนจากสมาณ์โฟน ไม่ว่าจะเป็นสายเรียกเข้า ข้อความ อีเมล หรืออื่นๆ ตามแต่ที่จะตั้ง โดยผู้ใช้สามารถเลือกได้ว่าจะให้สีใดเป็นการแจ้งเตือนอะไร ฟังก์ชันที่ 2 คือ Usage Alerts สำหรับแจ้งเตือนการใช้งานต่างๆ ของสมาร์ทโฟนอาทิปริมาณแบตเตอรี่ หรือแสดงสีแจ้งว่าเครื่องกำลังชาร์จแบตเตอรี่อยู่ และฟังก์ชันสุดท้ายคือ Selfie Assist สำหรับผู้ใช้ที่ต้องการจะเซลฟี่ด้วยกล้องหลัง Smart Glow จะส่องแสงสีน้ำเงินออกมา เมื่อตรวจจับใบหน้าของผู้ใช้ได้ อย่างไรก็ตาม ฟังก์ชันข้างต้นเป็นเพียงข้อมูลที่หลุดออกมาเบื้องต้นเท่านั้น โดย SamMobile ระบุด้วยว่าฟังก์ชันที่ยังอยู่ระหว่างการพัฒนาอีก 2 ฟังก์ชันคือ Weather Ring สำหรับบอกสภาพอากาศเมื่อเขย่าสมาร์ทโฟนและ Health Ring   ซึ่งจะคอยบอกอัตราการเต้นของหัวใจ ซึ่งยังไม่มีข้อมูลว่าฟังก์ชันนี้ทำงานอย่างไร ทั้งนี้ฟีเจอร์ Smart Glow จะมาพร้อมกับ Galaxy J2 ที่จะวางขายในประเทศอินเดีย ก่อนที่จะตามมาใน Galaxy S8 ต่อไป ที่มา - SamMobile     ", 
  "Date": "30/June/2016", 
  "Image-Link": [
    "https://www.blognone.com/sites/default/files/styles/thumbnail/public/topics-images/j8u2rhG1.jpg?itok=CJuE6qSo", 
    "https://c5.staticflickr.com/8/7397/27894857132_daf2f23e35_z.jpg", 
    "http://i358.photobucket.com/albums/oo27/Udomsin_Srisuchinwong/with-logo-2_zpsxovqefxy.gif", 
    "/sites/all/themes/blognone42/images/linebutton.png"
  ], 
  "Link": "https://www.blognone.com/node/82867", 
  "News": "หลุดภาพฟีเจอร์ Smart Glow ระบบแจ้งเตือนผ่านแสงสีบน Galaxy J2", 
  "Tags": [
    "Samsung", 
    "Galaxy J", 
    "Mobile", 
    "Leak"
  ], 
  "Time": "17:55"
}