ซีรีส์
ขนาด
หน้าจอ
ขนาด
หน้าจอ
เลือก
ละเอียด
จับ
กลุ่ม
นักเรียน
นักศึกษา
ชุด
ใหญ่
รีส์ท็อป
อัพ
เกรด
ซีพียู
ตัว
ดอลลาร์
ดอลลาร์
ดอลลาร์
ที่มา
เน้น
เป็นพิเศษ
นอกจากนี้
นิ้ว
นิ้ว
นิ้ว
นิ้ว
ถือ
โน้ต
บุ๊ก
นิ้ว
เพิ่มเติม
นิ้ว
พับ
จอ
พระเอก
งาน
ขนาด
หน้าจอ
มี
สอง
ขนาด
หน้าจอ
อัพ
เกรด
โน้ต
บุ๊ก
รองรับ
ราคา
ราคา
เริ่มต้น
ราคา
เริ่มต้น
รุ่น
ปกติ
ใช่
รุ่น
ระดับ
รอง
รุ่น
รุ่น
เล็ก
รุ่น
หน้าจอ
เท่า
หมด
เน้น
ขนาด
เล็ก
ตัว
ตัว
โน้ต
บุ๊ก
ตระกูล
และ
พอร์ต
โดยเฉพาะ
โน้ต
บุ๊ก
สาย
ตัว
ใส่
แรม
สูงสุด
ใหม่
ตัว
งาน
ไซส์
ระดับ
ตัว
ตลาด
11
13
13
1366
x
768
15
15
15
16
GB
17
17
17
17
2016
249
2
in
1
2
in
1
2
in
1
2
in
1
2
in
1
2
in
1
2
in
1
2
in
1
3
3000
5000
5000
529
6
th
7000
7000
749
940
M
C
Computex
Core
Dell
Dell
Dell
Dell
Engadget
FHD
FHD
GeForce
Gen
Hello
Inspiron
Inspiron
Inspiron
Inspiron
Inspiron
Inspiron
Inspiron
Type
USB
Windows
