พิกเซล
พิกเซล
กรัม
กล้อง
หน้า
กล้อง
กว้าง
ขนาด
ขนาด
จัดส่ง
วันที่
ละเอียด
ซม.
ซม.
ตัว
เครื่อง
ลำดับ
ถือ
สมาร์ทโฟน
ตัว
ใหม่
ล่าสุด
ทอง
ชมพู
ทำงาน
ถี่
จุ
สูงสุด
ละเอียด
ที่มา
นิ้ว
นิ้ว
รองรับ
สอง
ซิ
ม
แฟลช
สอง
สี
พื้นที่
เก็บ
ข้อมูล
ภาพ
ดู
ท้าย
ข่าว
มม.
พร้อมกับ
หน้าจอ
มิถุนายน
ตัว
อ่าน
ลาย
นิ้วมือ
ตัว
อ่าน
ลาย
นิ้วมือ
สี
ดำ
เข้ม
ยาว
แรง
บันดาลใจ
สมาร์ทโฟน
ชื่อดัง
รองรับ
รองรับ
รองรับ
ระบุ
วางขาย
ประเทศ
จีน
เท่านั้น
ตอนนี้
สำหรับ
รุ่น
สำหรับ
รุ่น
สเปก
เต็ม
อ่าน
ท้าย
ข่าว
ราคา
จอง
หนัก
หนา
หน่วยความจำ
หน่วย
ประมวลผล
หน้าจอ
ห
ยวน
ห
ยวน
หรือ
เทา
ตัว
เม
กะ
เม
กะ
พฤหัส
แกน
แบตเตอรี่
จุ
แรม
แรม
รองรับ
และ
สี
ทอง
โทรศัพท์
มือ
ถือ
รุ่น
ใหม่
ล่าสุด
ตัวเอง
ใช้
ตัว
เครื่อง
โลหะ
ประเทศ
จีน
เป็นทางการ
ใช้
งาน
ใช้
แนวทาง
ออกแบบ
โลหะ
เครื่อง
จีน
ปี
ได้
งาน
ตัว
ระบุ
ผู้ผลิต
1
1.2
1.5
1080
p
1080
p
128
1378
14.59
143
16
17
18802010
2
2.0
2199
2399
2600
2
G
2
G
3
G
4
G
32
32
32
38394041
3
G
4
4
4.2
4
G
5.2
5.2
6.7
617
64
64
64
7.2
8
8
802.11
85090018001900
85090019002100
AMOLED
AMOLED
ANT
+
BC
0
Band
Band
Beidou
Bluetooth
C
5
C
5
C
5
C
5
CDMA
CDMA
CDMA
800
FDD
Full
GB
GB
GB
GB
GB
GB
GB
GHz
GHz
GPS
GSM
Galaxy
Galaxy
Galaxy
Galaxy
Glonass
HD
Hybrid
LTE
NFC
Pay
Pay
Qualcomm
SamMobile
SamMobile
Samsung
Samsung
Samsung
Samsung
Samsung
Samsung
Samsung
Snapdragon
Super
Super
TDD
TDSCDMA
UMTS
USB
WiFi
abgn
f
1.9
f
1.9
mAh
microSD
