=
ประมวลผล
ปี
ที่แล้ว
เร็ว
เร็ว
เร็ว
คือ
ใช้
สถาปัตยกรรม
จุดเด่น
รุ่น
ประสิทธิภาพ
เหนือกว่า
ตัว
รหัส
ภาพ
แหล่งข่าว
ระบุ
ที่มา
ใช้
ชิป
ตัว
ล่าง
ตระกูล
บน
โน้ต
บุ๊ก
ประสิทธิภาพ
ประสิทธิภาพ
พ่วง
การ์ด
จอ
พ่วง
การ์ด
จอ
พ่วง
การ์ด
จอ
ภายใน
ชิ
พ
ชุด
สู้
รุ่น
ล่าง
รุ่น
รุ่น
รุ่น
สูสี
สเปค
ชิป
ชิป
ประหยัด
พลังงาน
ชิป
ตระกูล
ชิป
โน้ต
บุ๊
กระ
ดับ
ล่าง
สอง
ตัว
ได้แก่
เดิม
เท่า
เหนือกว่า
เหนือกว่า
แรม
ประมวลผล
ของ
และ
เทียบ
กิน
ไฟ
รองรับ
อ้าง
ประสิทธิภาพ
ราคา
ใกล้เคียง
15
2
2.0
2.2
2.4
2.8
2.9
2133
3.0
3.5
36
%
4
K
52
%
6
6
7
7
A
A
A
69210
A
8
A
9
A
9
A
99410
AMD
AMD
CPU
CPU
CPU
CPU
CPU
Core
Core
DDR
4
E
29010
Excavator
GHz
GHz
GHz
GHz
GHz
GHz
GPU
GPU
Gen
H
.
265
HEVC
HDMI
Intel
Intel
Jaguar
Liliputing
MHz
PCIe
R
2
R
4
R
5
Radeon
Radeon
Radeon
Ridge
Ridge
SkylakeU
SkylakeU
Stoney
Stony
U
VP
9
W
a
at
competitive
i
3
i
3
price

