{
  "By": "sunnywalker", 
  "Contents": " บริษัทพัฒนาเทคโนโลยีอาวุธและอากาศยานในประเทศอิสราเอล (Israel Aerospace Industries- IAI) สร้างหุ่นยนต์ต่อสู้ชื่อว่า RoBattle  มีรูปร่างเหมือนรถถังแต่ขนาดเล็กกว่า ที่มาพร้อมกับคุณสมบัติและความสามารถหลากหลาย เป็นได้ทั้งการ์ดป้องกัน เหยื่อล่อ และสอดส่องดูแลระวังภัย มีระบบควบคุมยานพาหนะ ระบบนำทาง แผนที่ ระบบเซนเซอร์ RoBattle ยังเป็นหุ่นยนต์ที่มีโมดูลปรับแต่งได้ และยังสามารถสับเปลี่ยนส่วนใดส่วนหนึ่งขึ้นอยู่กับภารกิจ เช่น มันจะใช้ล้อหรือรางเลื่อนในการเดินทางได้ บริษัท IAI จะนำ RoBattle ไปโชว์งานนิทรรศกาล Eurosatory เทศกาลแสดงนวัตกรรมด้านความปลอดภัยและการป้องกันประเทศ ที่จะจัดขึ้นที่ฝรั่งเศสวันที่ 13 มิถุนายนนี้ ที่มา - Engadget   ", 
  "Date": "10/June/2016", 
  "Image-Link": [
    "https://www.blognone.com/sites/default/files/styles/thumbnail/public/news-thumbnails/Untitled_13.png?itok=R4euz06V", 
    "/sites/all/themes/blognone42/images/linebutton.png"
  ], 
  "Link": "https://www.blognone.com/node/82113", 
  "News": "บริษัทผลิตอาวุธในอิสราเอลเปิดตัวหุ่นยนต์รบ RoBattle", 
  "Tags": [
    "Israel", 
    "Robotics"
  ], 
  "Time": "13:12"
}