{
  "By": "Lamicrosz", 
  "Contents": "
Cortana แอพผู้ช่วยส่วนตัวของไมโครซอฟท์ออกอัพเดตบนระบบปฏิบัติการ Android เพิ่มฟีเจอร์ ดังนี้

รองรับวิดเจ็ต สามารถเข้าถึงการค้นหาและบันทึกแจ้งเตือนได้เร็วขึ้น
ลดเวลาการเปิดใช้แอพ
ลดเวลาการดาวน์โหลดข้อมูล สำหรับเน็ตความเร็วต่ำ
ปรับปรุงการตอบสนองเกี่ยวกับเสียง

ผู้ที่สนใจสามารถดาวน์โหลดได้ที่ Play Store
ที่มา - Android Police

", 
  "Date": "02/02/16", 
  "Image-Link": "https://www.blognone.com/sites/default/files/imagecache/news-thumbnail/category_pictures/cortana.png", 
  "Link": "https://www.blognone.com/node/77376", 
  "News": "Cortana บน Android ออกอัพเดต เพิ่มการแสดงผลผ่านวิดเจ็ต", 
  "Tags": "Android
Cortana
Microsoft
", 
  "Time": "10:26"
}