{
  "By": "mk", 
  "Contents": "
วันนี้ ASUS ประเทศไทยจัดงานแถลงข่าว เผยแผนธุรกิจรอบต้นปี 2016 โดยเปิดตัวมือถือ ZenFone ใหม่ในไทย 2 รุ่น
ตัวแรกคือ ZenFone Zoom มือถือกล้องซูม 3 เท่า ที่ Blognone รีวิวไปแล้ว คงไม่ต้องพูดซ้ำกันเยอะ ข้อมูลใหม่คือ ZenFone Zoom จะเข้ามาขายในไทย 2 รุ่น คือ รุ่น 2.3GHz/64GB ราคา 16,990 บาท และรุ่น 2.5GHz/128GB ราคา 18,990 บาท แถมอุปกรณ์เสริม ZenFlash มาให้ในกล่องด้วย

ข้อมูลเพิ่มเติมอีกเล็กน้อยของ ZenFone Zoom คือตัวกระจกเลนส์จะวางตัวในแนวนอนตามภาพ นั่นคือแสงจะตกกระทบเลนส์ตัวแรก จากนั้นจะสะท้อนมุม 90 องศาเพื่อเข้าสู่เลนส์ซูม (ที่ขยับตัวในแนวนอนเพื่อซูม) จากนั้นสะท้อนกระจกอีกตัวเพื่อส่งแสงเข้าเซ็นเซอร์ครับ

มือถือตัวที่สองคือ ZenFone Max มือถือแบตอึด 5000 mAh ที่เปิดตัวครั้งแรกเมื่อเดือนสิงหาคม 2015 แต่เพิ่งได้ฤกษ์เริ่มขาย
ราคาขายในไทย 6,490 บาท สเปกดูตามภาพ

อายุการใช้งานแบตเตอรี่ที่ ASUS นำมาโชว์ ถ้าสแตนด์บายอย่างเดียวอยู่ได้นาน 38 วัน

ตัวมันเองยังทำตัวเป็น powerbank ไปชาร์จมือถืออื่นได้ด้วย มีสาย OTG มาให้ในกล่อง

หน้าตา ZenFone Max ของจริงก็เรียบๆ ไม่มีอะไรพิเศษครับ


", 
  "Date": "02/02/16", 
  "Image-Link": "https://www.blognone.com/sites/default/files/imagecache/news-thumbnail/category_pictures/zenf.PNG", 
  "Link": "https://www.blognone.com/node/77400", 
  "News": "ASUS เปิดราคา ZenFone Zoom 16,900/18,900 บาท และ ZenFone Max 6,490 บาท", 
  "Tags": "ASUS
Mobile
Zenfone
", 
  "Time": "15:11"
}