{
  "By": "mk", 
  "Contents": "
Oppo ผู้ผลิตสมาร์ทโฟนจีน สร้างผลงานยอดขายปี 2015 ที่ 50 ล้านเครื่อง เติบโต 67% จากปี 2014
ผลจากยอดขายนี้ทำให้ Oppo เข้ามาติด Top 10 ผู้ผลิตสมาร์ทโฟนโลกแล้ว (ที่อันดับ 8 ด้วยส่วนแบ่งตลาด 3.8%)
ปี 2015 ที่ผ่านมา บริษัทฝั่งจีนทำผลงานดีกันหลายราย เช่น Huawei แตะหลัก 100 ล้านเครื่อง และ Xiaomi ที่พลาดเป้า 80 ล้านเครื่องแต่ก็ยังทำได้มากกว่า 70 ล้านเครื่อง
ที่มา - TechCrunch

", 
  "Date": "02/02/16", 
  "Image-Link": "https://www.blognone.com/sites/default/files/imagecache/news-thumbnail/category_pictures/oppo.png", 
  "Link": "https://www.blognone.com/node/77410", 
  "News": "Oppo เผยยอดขายมือถือปี 2015 ที่ 50 ล้านเครื่อง ขึ้นอันดับ 8 ของโลกแล้ว", 
  "Tags": "Oppo
", 
  "Time": "16:41"
}