{
  "By": "tg-thaigamer", 
  "Contents": "
หลังจาก  iOS 9 ถูกปล่อยมานานพอสมควร มีโปรแกรมที่เจลเบรคได้คือ Pangu (ข่าวเก่า) ซึ่งใช้ได้เฉพาะ iOS 9.0 - iOS 9.0.2 เท่านั้น
ล่าสุดนาย Luca Todesco โพสต์วีดีโอแสดงให้เห็นถึงความประสบความสำเร็จในการติดตั้ง  Cydia บน iPhone ของเขา เวอร์ชั่นที่สามารถเจลเบรคได้คือ iOS 9.2, 9.2.1 และ 9.3 beta เป็นแบบ  untethered

เดือนก่อน นาย Todesco เปิดเผยการเจลเบรคของเขา โดยโพสต์สกรีนช็อตที่มีแอพ Cydia รันอยู่บน iOS 9.2.1 บนเครื่อง iPhone 6 และเขาก็มีแผนปล่อยเครื่องมือเจลเบรคนี้หลังจาก iOS 9.3 ถูกปล่อยให้ผู้ใช้ทั่วไปอัพเกรด

ที่มา - iClarified
", 
  "Date": "02/02/16", 
  "Image-Link": "https://www.blognone.com/sites/default/files/imagecache/news-thumbnail/category_pictures/iOS9.png", 
  "Link": "https://www.blognone.com/node/77423", 
  "News": "iOS 9.2.x, 9.3 Beta ถูกเจลเบรคได้เรียบร้อยแล้ว", 
  "Tags": "Apple
iOS
iOS 9
Jailbreak
", 
  "Time": "23:33"
}