{
  "By": "mk", 
  "Contents": "
เดือนที่แล้ว WhatsApp ประกาศยอดผู้ใช้งาน 990 ล้านคน วันนี้บริษัทเดินทางมาถึงตัวเลขสำคัญ 1,000 ล้านคนเรียบร้อยแล้ว
WhatsApp ยืนยันว่าจะเดินหน้าพัฒนาใน 4 มิติที่สำคัญคือ speed, reliability, security, simplicity เพื่อขยายตลาดไปยังประชากรโลกที่เหลืออีก 6,000 ล้านคนให้ได้
ที่มา - WhatsApp Blog

", 
  "Date": "02/02/16", 
  "Image-Link": "https://www.blognone.com/sites/default/files/imagecache/news-thumbnail/category_pictures/whatsapp-big.png", 
  "Link": "https://www.blognone.com/node/77363", 
  "News": "WhatsApp มีผู้ใช้งานเกิน 1,000 ล้านคนแล้ว", 
  "Tags": "Instant Messenger
WhatsApp
", 
  "Time": "7:35"
}