{
  "By": "mk", 
  "Contents": " ประเด็นของ Pokemon Go ที่ขัดใจแฟนๆ คงเป็นพื้นที่การให้บริการที่เพิ่งเปิดแค่ในบางประเทศเท่านั้น และล่าสุด Niantic Labs ประกาศหยุดขยายประเทศที่ให้บริการชั่วคราว เพื่อแก้ปัญหาระบบเซิร์ฟเวอร์ก่อน John Hanke ซีอีโอของ Niantic Labs ให้สัมภาษณ์กับ Business Insider ว่ากำลังเร่งแก้ปัญหาเรื่องเซิร์ฟเวอร์ไม่เพียงพอกับความต้องการ ส่งผลให้แผนการเปิดบริการ Pokemon Go ในสหราชอาณาจักรและเนเธอร์แลนด์ ต้องชะลอออกไปก่อน Hanke บอกว่า Niantic คาดว่าเกมนี้จะดัง แต่ก็ไม่คิดว่าจะได้รับความสนใจมากขนาดนี้ ที่มา - Business Insider   ", 
  "Date": "9/July/2016", 
  "Image-Link": [
    "https://www.blognone.com/sites/default/files/styles/thumbnail/public/topics-images/pokemon.png?itok=7HuOXT6S", 
    "/sites/all/themes/blognone42/images/linebutton.png"
  ], 
  "Link": "https://www.blognone.com/node/83201", 
  "News": "คนเล่นเยอะเกิน เซิร์ฟเวอร์ไม่พอ Pokemon Go หยุดขยายประเทศที่เปิดบริการชั่วคราว", 
  "Tags": [
    "Pokemon", 
    "Games", 
    "Niantic Labs"
  ], 
  "Time": "07:41"
}