{
  "By": "sunnywalker", 
  "Contents": " ข้อมูลจาก S&P Global Market Intelligence ทำการสำรวจในสหรัฐฯว่าผู้คนนิยมฝากเงินไว้ที่ไหนบ้าง โดยสำรวจหมดตั้งแต่ธนาคาร องค์กรการเงินอื่นเช่น PayPal และองค์กร Nonbanks ปรากฏว่า ในช่วง quarter แรกของปีนี้บริษัท Starbucks Corp มีเงินสดหมุนเวียนในบัตร และในแอพพลิเคชั่น Pay ของStarbucks ถึง 1.2 พันล้านเหรียญฯ มากกว่าจำนวนเงินฝากในธนาคารและองค์กรการเงินบางแห่งอย่าง California Republic Bancorp และ Discover Financial Services เสียอีก แต่อันดับสูงสุดของการสำรวจยังคงเป็นธนาคาร คือ Bank of America Corp มีเงินฝาก 427.19 พันล้านเหรียญฯ ความน่าสนใจคือ Stabucks มีเงินเติมในบัตรมากขึ้นโดยปีนี้อันดับขึ้นมา 1.6% จากปีที่แล้ว  ภาพจาก Starbucks ที่มา - Market Watch   ", 
  "Date": "14/June/2016", 
  "Image-Link": [
    "https://www.blognone.com/sites/default/files/styles/thumbnail/public/topics-images/starbucks.png?itok=zcnFASiB", 
    "http://i.imgur.com/JlSHFTe.jpg", 
    "/sites/all/themes/blognone42/images/linebutton.png"
  ], 
  "Link": "https://www.blognone.com/node/82244", 
  "News": "ผลสำรวจชี้ มีเงินฝากของคนสหรัฐใน Starbucks Card มากกว่าในธนาคารบางแห่งด้วยซ้ำ", 
  "Tags": [
    "Starbucks", 
    "Finance", 
    "Banking"
  ], 
  "Time": "15:22"
}