{
  "By": "ตะโร่งโต้ง", 
  "Contents": " เวลาที่เจอแอพถูกใจอยากโหลดมาติดตั้งไว้ใช้งานแต่เจอปัญหาว่าพื้นที่เก็บข้อมูลบนสมาร์ทโฟนเหลือไม่เพียงพอที่จะทำดังว่า ครั้นต้องการจะลบแอพที่ไม่ค่อยได้ใช้งานออกก็ต้องมาไล่ดูเอาว่าแอพตัวไหนกินพื้นที่เท่าไหร่ และแอพตัวไหนไม่ค่อยใช้งานมากนัก ซึ่งก็เป็นเรื่องที่ทำกันได้แต่ก็ไม่ใคร่จะสะดวกนัก แต่ตอนนี้เพื่อช่วยหาทางออกให้ผู้ใช้สมาร์ทโฟน Android ที่ต้องการติดตั้งแอพจาก Google Play ทาง Google ได้เริ่มปล่อยระบบแนะนำการถอดแอพให้แก่ผู้ใช้บางราย กรณีที่พื้นที่ในสมาร์ทโฟนของผู้ใช้เหลือน้อยเกินกว่าจะติดตั้งแอพจาก Google Play ได้ จากแต่เดิมจะมีข้อความเตือนปรากฏเพียงอย่างเดียวตอนนี้จะมีตัวเลือกแอพพร้อมระบุขนาดของมันแสดงให้ผู้ใช้เห็นด้วย จากเมนูที่ปรากฏขึ้นมา ผู้ใช้สามารถเลือกถอนการติดตั้งแอพเหล่านั้นได้ทันที ถือเป็นความสะดวกเล็กๆ น้อยๆ ซึ่ง Google น่าจะทยอยปล่อยระบบนี้ให้ได้ใช้งานกันทุกคนในไม่ช้า ที่มา - Android Police    ", 
  "Date": "2/June/2016", 
  "Image-Link": [
    "https://www.blognone.com/sites/default/files/styles/thumbnail/public/topics-images/google-play-new.png?itok=rDa4mjxu", 
    "//upic.me/i/o0/googleplay-appuninstallmanagersuggestignoredapp.jpg", 
    "/sites/all/themes/blognone42/images/linebutton.png"
  ], 
  "Link": "https://www.blognone.com/node/81722", 
  "News": "อยากลงแอพใหม่บน Android แต่เครื่องเต็มไม่รู้จะลบอะไร? Google Play แนะนำได้", 
  "Tags": [
    "Google Play"
  ], 
  "Time": "00:27"
}