{
  "By": "nutmos", 
  "Contents": " Google เตรียมเปิดตัวระบบแบ่งปันหนัง, เพลง และแอพที่ซื้อมาจาก Play Store ให้กับคนในครอบครัวได้อีก 6 คน โดยสิ่งที่ซื้อเหล่านี้สามารถแบ่งปันใช้ได้ทั้งอุปกรณ์ Android, เว็บไซต์ Google และแอพ Google Play บน iOS โดยบริการนี้จะใช้ชื่อว่า Google Play Family Library บริการ Google Play Family Library ลักษณะก็จะคล้ายกับ Family Sharing ของ Apple คือจะมีผู้จัดการบัญชีของครอบครัวคนหนึ่ง ที่สามารถจัดการได้ว่าคอนเทนต์อะไรบ้างที่จะให้แชร์ไปแต่ละอุปกรณ์ บริการนี้ไม่เสียเงินแต่ต้องเพิ่มบัตรเครดิตเข้าไปใน Play Store ด้วย เพื่อให้คนในครอบครัวทุกคนที่ผูกบัญชีเข้าด้วยกันใช้บัตรเครดิตใบเดียวกันได้ ทาง CNET กล่าวว่าบริการนี้ Google จะเริ่มเปิดให้ใช้ในปลายเดือนนี้กับประเทศกลุ่มหนึ่ง ที่มา - The Verge, CNET   ", 
  "Date": "13/July/2016", 
  "Image-Link": [
    "https://www.blognone.com/sites/default/files/styles/thumbnail/public/topics-images/google-play-new.png?itok=rDa4mjxu", 
    "/sites/all/themes/blognone42/images/linebutton.png"
  ], 
  "Link": "https://www.blognone.com/node/83361", 
  "News": "Google เตรียมเปิดตัว Family Library แบ่งปันสิ่งที่ซื้อจาก Google Play กับสมาชิกในครอบครัว", 
  "Tags": [
    "Google Play", 
    "Google"
  ], 
  "Time": "08:27"
}