{
  "By": "nutmos", 
  "Contents": " ตามหลังจากที่ Apple ได้ปรับสัดส่วนเงินที่ให้ผู้สร้างคอนเทนต์ในการบอกรับสมาชิก โดยให้ผู้สร้างคอนเทนต์ได้รับเงินเพิ่มหลังจากที่ผู้ใช้สมัครสมาชิกไปแล้ว 1 ปี ล่าสุดตอนนี้ Google ก็เตรียมจะทำแบบนั้นเช่นกัน Recode รายงานว่า ตอนนี้ Google มีแผนที่จะปรับปรุงระบบบอกรับสมาชิกของ Google Play ที่ปัจจุบันแบ่งรายได้ให้ผู้สร้างคอนเทนต์ที่ 70:30 เป็น 85:15 ทันที ซึ่งแตกต่างจาก Apple ที่ปีแรกยังเก็บ 70:30 และถ้าผู้ใช้เลือกที่จะสมัครปีถัดไปจะเก็บที่ 85:15 ส่วนแหล่งข่าวของ The Next Web ก็ได้ยืนยันข่าวนี้แล้วเช่นกัน แต่ทั้งสองแห่งยังไม่มีรายงานว่า Google จะเปิดใช้ระบบแบ่งรายได้แบบใหม่ให้ใช้งานจริงเมื่อไร ที่มา - The Next Web, Recode   ", 
  "Date": "9/June/2016", 
  "Image-Link": [
    "https://www.blognone.com/sites/default/files/styles/thumbnail/public/topics-images/Google_2015_logo.svg_.png?itok=bd4RvVLK", 
    "/sites/all/themes/blognone42/images/linebutton.png"
  ], 
  "Link": "https://www.blognone.com/node/82036", 
  "News": "Google เตรียมแผนแบ่งรายได้จากการบอกรับสมาชิกให้ผู้สร้างคอนเทนต์มากขึ้น", 
  "Tags": [
    "Google", 
    "Google Play"
  ], 
  "Time": "08:37"
}