{
  "By": "nrad6949", 
  "Contents": " ที่ผ่านมากระบวนการลงชื่อเพื่อเป็นผู้ทดสอบแอพรุ่นที่อยู่ระหว่างการพัฒนา (beta tester signup) ของ Google Play Store นั้นทำได้ค่อนข้างยุ่งยาก (ต้องไปหน้าเฉพาะพิเศษแล้วกดลงชื่อ) แต่อัพเดตล่าสุดของ Play Store เวอร์ชั่น 6.7 ที่ Google เริ่มปล่อยออกมานั้น ทำให้ขั้นตอนการเข้าทดสอบนั้นง่ายขึ้นว่าเดิม เมื่ออัพเดต Play Store แล้ว ผู้ใช้สามารถกดเข้าไปที่ตัวแอพ และสามารถลงชื่อร่วมเป็นผู้ทดสอบแอพได้ทันที และถ้าไม่ต้องการทดสอบก็สามารถกดออกได้ทันทีเช่นกัน โดยจะมีการแจ้งว่าเรากำลังอยู่ระหว่างการเข้าร่วมแอพที่อยู่ระหว่างการทดสอบหรือไม่ รวมถึงแจ้งเราได้ว่าแอพนี้ทดสอบในวงแคบๆ ในกรณีเป็นการทดสอบวงปิดได้ด้วยเช่นกัน และผู้ใช้สามารถแจ้งไปยังผู้พัฒนาได้ทันที โดยข้อความที่ผู้ใช้ส่งไปจะไม่ถูกแสดงผลในการรีวิวที่เปิดเผยต่อสาธารณะ Google เริ่มปล่อยอัพเดตนี้แล้ว อาจจะต้องรออีกสักพักหนึ่งกว่าอัพเดตนี้จะไปถึงโทรศัพท์ของท่านครับ ที่มา - Android Police   ", 
  "Date": "16/May/2016", 
  "Image-Link": [
    "https://www.blognone.com/sites/default/files/styles/thumbnail/public/topics-images/google-play-new.png?itok=rDa4mjxu", 
    "/sites/all/themes/blognone42/images/linebutton.png"
  ], 
  "Link": "https://www.blognone.com/node/81004", 
  "News": "อัพเดต Play Store ล่าสุด ทำให้การเข้าร่วมการทดสอบแอพทำได้ง่ายขึ้นกว่าเดิม", 
  "Tags": [
    "Google Play", 
    "Google", 
    "Android"
  ], 
  "Time": "09:16"
}