{
  "By": "nismod", 
  "Contents": " ถึงแม้ Pokemon Go จะรองรับบนระบบปฏิบัติการแอนดรอยด์ แต่เครื่องที่ใช้ชิปเซ็ต Atom ของ Intel แล้วกลับไม่สามารถรันเกมนี้ได้ ทำให้แฟนเกมชาวอิตาลีรายหนึ่ง ได้จัดแคมเปญรณรงค์บน Change.org เรียกร้องให้ Niantic Labs ทำให้เกมรองรับชิป Atom โดยผู้ที่ร่วมลงชื่อเป็นผู้ใช้ ZenFone เสียส่วนใหญ่ ณ เวลาที่เขียนนี้มีผู้ร่วมลงชื่อไปแล้วกว่า 37,722 คนและแคมเปญต้องการ 50,000 รายชื่อเพื่อยื่นเรื่องไปให้ Niantic Labs อย่างไรก็ตามยังคงไม่มีสัญญาณจาก Niantic ถึงความเปลี่ยนแปลงนี้แต่อย่างใดครับ ที่มา - Change.org    ", 
  "Date": "13/July/2016", 
  "Image-Link": [
    "https://www.blognone.com/sites/default/files/styles/thumbnail/public/topics-images/pokemon.png?itok=7HuOXT6S", 
    "https://c6.staticflickr.com/9/8781/28198343221_c4557d574c_z.jpg", 
    "/sites/all/themes/blognone42/images/linebutton.png"
  ], 
  "Link": "https://www.blognone.com/node/83369", 
  "News": "แฟนแกมจัดแคมเปญรณรงค์ให้ Pokemon Go รองรับชิป Atom ของ Intel", 
  "Tags": [
    "Pokemon", 
    "Intel", 
    "Niantic Labs", 
    "Games"
  ], 
  "Time": "10:55"
}