{
  "By": "mk", 
  "Contents": " ไมโครซอฟท์ได้ลูกค้ารายใหญ่รายล่าสุดที่หันมาใช้ Office 365 นั่นคือ Facebook ที่มีพนักงานกว่า 13,000 คนทั่วโลก Facebook ระบุว่าพนักงานของตัวเองทำงานผ่านระบบออนไลน์ทั้งหมดอยู่แล้ว และเลือกใช้ Office 365 เพราะข้อมูลทั้งหมดอยู่บนคลาวด์ อีกทั้งรองรับแพลตฟอร์มอุปกรณ์พกพาทุกตัวที่บริษัทใช้งาน และนอกจากแอพหลักอย่าง Word/Excel/PowerPoint ก็ยังมีแอพ Delve ที่มีแนวคิดใหม่ๆ อย่าง Microsoft Graph ด้วย Wall Street Journal รายงานว่า Facebook ใช้ระบบอีเมลและปฏิทินของ Office 365 แต่ไม่ใช้ Yammer และ Skype for Business ซึ่งถือเป็นคู่แข่งโดยตรงระหว่างกัน นอกจากนี้ ภายในองค์กร Facebook เองยังใช้ระบบ Facebook at Work สื่อสารกันภายในบริษัท นอกเหนือจากระบบอีเมลด้วย จุดที่น่าสนใจคือคู่แข่งสำคัญของ Office 365 คือ Google Apps ซึ่งกูเกิลก็เป็นคู่แข่งของ Facebook โดยตรงในแทบทุกด้าน ดังนั้นการที่ Facebook เลือก Office 365 ก็สมเหตุสมผลกว่าเลือกใช้ Google Apps อยู่แล้ว ที่มา - Microsoft, Wall Street Journal    ", 
  "Date": "12/July/2016", 
  "Image-Link": [
    "https://www.blognone.com/sites/default/files/styles/thumbnail/public/topics-images/office-365.png?itok=WQ2tpSw0", 
    "https://i.imgur.com/lXD0HSx.jpg", 
    "/sites/all/themes/blognone42/images/linebutton.png"
  ], 
  "Link": "https://www.blognone.com/node/83354", 
  "News": "Facebook เลือกใช้ Office 365 เป็นระบบอีเมล-เอกสารภายในบริษัท", 
  "Tags": [
    "Office 365", 
    "Microsoft", 
    "Facebook", 
    "Enterprise"
  ], 
  "Time": "23:00"
}