{
  "By": "nrad6949", 
  "Contents": " หนังสือพิมพ์ Wall Street Journal รายงานข่าวลือว่า Lab126 หน่วยงานผลิตและวิจัยด้านฮาร์ดแวร์ของ Amazon กำลังอยู่ระหว่างการพัฒนาอุปกรณ์ชิ้นใหม่ที่มีลักษณะคล้ายกับแท็บเล็ต ซึ่งผู้ใช้สามารถมีปฏิสัมพันธ์ผ่าน  Amazon Alexa ผู้ช่วยส่วนตัวของ Amazon ที่เปิดตัวมาพร้อมกับ Amazon Echo เมื่อปลายปี 2014 รายงานข่าวระบุว่าอุปกรณ์ชิ้นนี้จะเป็นหน้าจอที่ให้ผู้ใช้สามารถสั่งงานด้วยเสียงได้ในยามที่มือไม่ว่าง และสามารถแสดงข้อมูลที่ต้องการขึ้นมาได้จากหน้าจอโดยตรง ทั้งนี้ยังไม่มีการระบุว่าอุปกรณ์ชิ้นนี้จะปล่อยสู่ตลาดเมื่อใดครับ ที่มา - Wall Street Journal ผ่าน Engadget    ", 
  "Date": "18/May/2016", 
  "Image-Link": [
    "https://www.blognone.com/sites/default/files/styles/thumbnail/public/topics-images/amazon300.png?itok=pDQ3CyTi", 
    "https://upic.me/i/yf/deviceheroimg.png", 
    "/sites/all/themes/blognone42/images/linebutton.png"
  ], 
  "Link": "https://www.blognone.com/node/81124", 
  "News": "[ลือ] WSJ รายงาน Amazon กำลังสร้างอุปกรณ์ชิ้นใหม่คล้ายแท็บเล็ต พร้อม Alexa ในตัว", 
  "Tags": [
    "Amazon", 
    "Wall Street Journal", 
    "Tablet", 
    "Alexa", 
    "Rumor"
  ], 
  "Time": "09:57"
}