{
  "By": "sunnywalker", 
  "Contents": " วันนี้ Amazon ฟ้องร้องผู้ขายที่ใช้บัญชีปลอมมารีวิวสินค้าของตนเองถึงสามราย หลังจากที่มีการควบคุมเรื่องรีวิวปลอมมาก่อนหน้านี้ และนี่เป็นครั้งแรกที่เกิดการฟ้องร้องโดยตรงถึงคนขาย Amazon ระบุว่า รีวิวปลอมแพร่ขยายไปมากกว่า 30% ของรีวิวสินค้าหนึ่งๆ สำหรับกรณีนี้ Amazon จะแบนบัญชีของผู้ถูกฟ้อง รวมถึงเรียกร้องค่าเสียหายเป็นกำไรและค่าธรรมเนียมจากการขายของ Amazon เป็นจำนวนเงินกว่า 25,000 เหรียญฯ (ประมาณเกือบ 9 แสนบาท)  ที่มา - Techcrunch   ", 
  "Date": "2/June/2016", 
  "Image-Link": [
    "https://www.blognone.com/sites/default/files/styles/thumbnail/public/topics-images/amazon300.png?itok=pDQ3CyTi", 
    "http://i.imgur.com/me0VfqI.png", 
    "/sites/all/themes/blognone42/images/linebutton.png"
  ], 
  "Link": "https://www.blognone.com/node/81747", 
  "News": "Amazon ฟ้องร้องผู้ขายที่ใช้บัญชีปลอมมารีวิวสินค้า ", 
  "Tags": [
    "Amazon", 
    "E-commerce", 
    "Lawsuit"
  ], 
  "Time": "12:42"
}