{
  "By": "nismod", 
  "Contents": " Amazon จัดโปรโมชันให้กับสมาชิก Amazon Prime ซื้อสมาร์ทโฟน Blue R1 HD และ Moto G แบบไม่ติดสัญญาในราคาเพียง 50% แต่สมาร์ทโฟนทั้ง 2 รุ่นจะมาพร้อมกับโฆษณาบนหน้าล็อกสกรีน Blue R1 HD รุ่นความจุ 8GB ราคาตามโปรโมชันจะเหลือที่ $49.99 ขณะที่ Moto G รุ่นล่าสุด ความจุ 16GB ราคาตามโปรโมชันอยู่ที่ $149.99 เท่านั้น ทาง Amazon ระบุว่าได้จัดโปรโมชันในลักษณะกับ Fire Tablet และ Kindle มาก่อนแล้วและพบว่าค่อนข้างได้รับความนิยมสูง จึงหันมาจัดโปรโมชันนี้กับสมาร์ทโฟน รุ่นที่ไม่ติดสัญญา ซึ่งได้รับความนิยมบน Amazon เช่นกัน ที่มา - eWeek   ", 
  "Date": "30/June/2016", 
  "Image-Link": [
    "https://www.blognone.com/sites/default/files/styles/thumbnail/public/topics-images/amazon300.png?itok=pDQ3CyTi", 
    "/sites/all/themes/blognone42/images/linebutton.png"
  ], 
  "Link": "https://www.blognone.com/node/82863", 
  "News": "Amazon จัดโปรให้สมาชิก Amazon Prime ซื้อสมาร์ทโฟนแอนดรอยด์ที่มาพร้อมโฆษณา ในราคา 50%", 
  "Tags": [
    "Amazon", 
    "Amazon Prime", 
    "Mobile", 
    "Android"
  ], 
  "Time": "16:57"
}