{
  "By": "twometre", 
  "Contents": " หลังจากมีข่าวการเปิดตัว NVIDIA GeForce GTX 1070 และ 1080 ก็มีข่าวของจีพียูตัวเรือธงรุ่นใหม่จาก AMD (ที่แรงกว่า Polaris) ในชื่อ Vega (แยกเป็นรุ่นย่อย Vega 10 และ Vega 11) ที่จะเลื่อนการเปิดตัวช่วงต้นปี 2017 เป็นเดือนตุลาคมปีนี้ครับ ข้อมูลที่ทราบของชิปรุ่นนี้คือออกแบบให้เป็นโมดูล มีหลายชิปอยู่ภายใน ใช้แรมแบบ HBM2 ผลิตด้วยเทคโนโลยี 14nm ที่ให้ประสิทธิภาพต่อวัตต์ดีขึ้นแบบเดียวกับ Polaris โดย Vega11 เป็นตัวท็อปจะเก็บไว้เปิดตัวปีหน้า แต่จะเข็น Vega10 ออกมาก่อน มี stream processor 4096 ชุด ทำงานกับแรม HBM2 ที่ความกว้างแบนด์วิดท์ 2048 บิตครับ คาดว่าชนกับ GTX 1070 และ 1080 ได้ มีอีกประเด็นเพิ่มเติมว่าตอนนี้ AIB (Add-In Board) ภาคีร่วมผลิตการ์ดให้ AMD นั้นกังวลเกี่ยวกับประสิทธิภาพของการ์ด Polaris 10 ที่จะเปิดตัวในวันที่ 26 พฤษภาคม ที่อาจจะสู้ GTX 1070 และ 1080 ไม่ได้ครับ (ที่มา) ที่มา - 3DCenter.org ผ่าน TechPowerUp!    ", 
  "Date": "12/May/2016", 
  "Image-Link": [
    "https://www.blognone.com/sites/default/files/styles/thumbnail/public/topics-images/amd.png?itok=6OE1UWFO", 
    "//upic.me/i/1m/capture1528.jpg", 
    "/sites/all/themes/blognone42/images/linebutton.png"
  ], 
  "Link": "https://www.blognone.com/node/80865", 
  "News": "[ลือ] AMD งัด Redeon Vega สู้ ขยับจากเปิดตัวต้นปี 2017 เป็นตุลาคมปีนี้", 
  "Tags": [
    "Radeon", 
    "AMD", 
    "Hardware", 
    "Graphic"
  ], 
  "Time": "07:58"
}