{
  "By": "nutmos", 
  "Contents": " Apple ได้ประกาศเลิกผลิต Thunderbolt Display แล้ว หลังจากก่อนหน้านี้ที่มีรายงานของขาดจาก Apple Store หลายแห่ง ทาง TechCrunch ได้สอบถามไปยัง Apple ซึ่งโฆษกก็ได้ตอบยืนยันกลับมาว่า \"เราได้เลิกผลิต Apple Thunderbolt Display แล้ว โดยสินค้าที่วางขายผ่าน Apple.com, Apple Retail Store และร้านค้าตัวแทนจำหน่ายของ Apple จะขายจนกว่าจะหมดสต็อก โดยปัจจุบันมีทางเลือกจากผู้ผลิตรายอื่นสำหรับผู้ใช้ Mac อีกมากมาย\" ฉะนั้นก็หมายความว่า Thunderbolt Display ก็จะยังคงวางขายอยู่แต่จะเป็นของที่อยู่ในสต็อกเท่านั้น และถ้าหมดก็จะไม่มีของผลิตใหม่มาเติมอีกแล้ว ส่วนข่าวลือของ Thunderbolt Display รุ่นใหม่นี้ คาดกันว่าจะมีหน้าจอ 4K หรือ 5K เหมือน iMac รุ่นปัจจุบัน และจะมี GPU ในตัวด้วย เพื่อให้คอมพิวเตอร์พกพาในตระกูลของ Mac ที่มี GPU ไม่แรงนักสามารถใช้หน้าจอความละเอียดสูงได้ ที่มา - TechCrunch    ", 
  "Date": "24/June/2016", 
  "Image-Link": [
    "https://www.blognone.com/sites/default/files/styles/thumbnail/public/topics-images/apple.png?itok=dltl_31c", 
    "http://i.cubeupload.com/IpKAe6.jpg", 
    "/sites/all/themes/blognone42/images/linebutton.png"
  ], 
  "Link": "https://www.blognone.com/node/82609", 
  "News": "Apple ประกาศเลิกผลิต Thunderbolt Display แล้ว", 
  "Tags": [
    "Apple"
  ], 
  "Time": "07:32"
}