{
  "By": "mk", 
  "Contents": " Android Pay ขยายบริการมายังเอเชียแล้ว โดยเริ่มจากสิงคโปร์ก่อนเป็นประเทศแรก ใช้ได้กับบัตรเครดิต MasterCard/Visa ที่ออกโดยธนาคาร DBS, OCBC Bank, POSB, Standard Chartered Bank, UOB และรองรับ Android 4.4 ขึ้นไปที่มีชิป NFC ตัวอย่างร้านค้าที่รองรับได้แก่ 7-11, BreadTalk, Cold Storage, McDonald’s, NTUC FairPrice, StarHub, Toast Box, Uniqlo, Watsons และรองรับบัตรของขวัญ บัตรสะสมแต้ม บัตรส่วนลดของร้านค้าเหล่านี้ด้วย นอกจากนี้ตัวแอพ Android Pay ยังสามารถใช้จ่ายเงินกับแอพอย่าง Uber, Grab, Shopee, Zalora, Singapore Airlines ได้ด้วย ที่มา - Google Asia Pacific Blog    ", 
  "Date": "28/June/2016", 
  "Image-Link": [
    "https://www.blognone.com/sites/default/files/styles/thumbnail/public/topics-images/android-pay.png?itok=WRw6Zknu", 
    "https://i.imgur.com/rdDFOOj.png", 
    "/sites/all/themes/blognone42/images/linebutton.png"
  ], 
  "Link": "https://www.blognone.com/node/82732", 
  "News": "Android Pay เริ่มให้บริการในเอเชีย เริ่มจากสิงคโปร์เป็นประเทศแรก", 
  "Tags": [
    "Android Pay", 
    "Google", 
    "Singapore"
  ], 
  "Time": "08:25"
}