{
  "By": "nutmos", 
  "Contents": " Facebook ได้เปิดให้ใช้ฟีเจอร์ใหม่ในหมวดของ Facebook Events คือฟีเจอร์แนะนำอีเว้นท์ซึ่งคัดเลือกโดยมนุษย์ (human-curated events) แต่เดิมนั้น การแนะนำอีเว้นท์ของ Facebook จะดูตามความสนใจของผู้ใช้และเพื่อน ซึ่งบางครั้งมันก็ไม่ได้ช่วยได้มากนักหากเราต้องการเข้าร่วมอีเว้นท์แบบใหม่ ๆ ที่ไม่ได้อยู่ในความสนใจแบบเดิม ฟีเจอร์แนะนำอีเว้นท์ใหม่ของ Facebook นี้จะแนะนำผู้ใช้ทั้งรายการโชว์ศิลปะ, เทศกาล, อาหาร, ดนตรี, กีฬา, การศึกษา และอื่น ๆ ที่อยู่รอบตัวคุณ แต่จะไม่แนะนำอีเว้นท์ที่เกี่ยวกับการเมือง หรือศาสนา ทั้งนี้ Facebook จะหลีกเลี่ยงการแนะนำอีเว้นท์ที่จัดเฉพาะกลุ่ม หรืออีเว้นท์ที่เป็นส่วนตัว ซึ่งจะเน้นการชวนเพื่อนหรือคนรู้จักและไม่สามารถรองรับคนนับพันได้ และถึงแม้อีเว้นท์จะมีการโฆษณา ก็ไม่ได้มีผลต่อการจัดอันดับหรือคัดเลือกในรายการนี้ ในช่วงเปิดตัวของฟีเจอร์นี้ จะสามารถใช้งานเฉพาะแอพ Facebook บน iOS สำหรับผู้ใช้ใน 10 เมืองของสหรัฐอเมริกา ได้แก่ Boston, Chicago, Dallas, Houston, Los Angeles, Miami, New York City, San Francisco, Seattle และ Washington, D.C. ที่มา - TechCrunch, The Next Web    ", 
  "Date": "28/June/2016", 
  "Image-Link": [
    "https://www.blognone.com/sites/default/files/styles/thumbnail/public/topics-images/fb-500.png?itok=7KEmyKx1", 
    "http://i.cubeupload.com/9NeNO8.png", 
    "/sites/all/themes/blognone42/images/linebutton.png"
  ], 
  "Link": "https://www.blognone.com/node/82733", 
  "News": "Facebook เปิดให้ใช้ฟีเจอร์แนะนำอีเว้นท์ซึ่งคัดเลือกโดยมนุษย์", 
  "Tags": [
    "Facebook"
  ], 
  "Time": "08:36"
}