{
  "By": "nutmos", 
  "Contents": " ฟีเจอร์การดูหนังออฟไลน์ของ Netflix เป็นสิ่งที่ผู้ใช้เรียกร้องกันมานานมาก ล่าสุดก็มีรายงานว่า Netflix กำลังจะทำฟีเจอร์ดูวิดีโอออฟไลน์จริง ๆ (เสียที) Dan Taitz ซีโอโอของ Penthera ซึ่งเป็นบริษัทที่ทำเทคโนโลยีดาวน์โหลดวิดีโอ (มีลูกค้าเป็น Comcast และ Starz) ได้เผยกับ LightReading โดยบอกว่าเขาได้รับข้อมูลจากแหล่งข่าวในอุตสาหกรรมว่า Netflix กำลังจะเปิดตัวฟีเจอร์นี้ภายในช่วงสิ้นปี ส่วนโฆษกของ Netflix นั้นตอบเพียงว่า \"เรากำลังโฟกัสถึงการมอบประสบการณ์สตรีมมิ่งที่ดีที่สุด เรากำลังค้นพบหนทางใหม่ ๆ ที่จะทำให้บริการดีขึ้น เรายังไม่มีอะไรที่ต้องเพิ่มในตอนนี้\" ทั้งนี้เมื่อประมาณปลายปี 2014 Dliff Edwards ผู้บริหาร Netflix ก็ได้กล่าวว่าการดูแบบออฟไลน์ \"ไม่มีวันเกิดขึ้น\" ซึ่งภายหลัง Neil Hunt ผู้บริหาร Netflix อีกคนออกมาบอกว่าเพราะมันจะซับซ้อนเกินไป ที่มา - LightReading, AppleInsider   ", 
  "Date": "25/June/2016", 
  "Image-Link": [
    "https://www.blognone.com/sites/default/files/styles/thumbnail/public/topics-images/netflix300.png?itok=u9NKdk4d", 
    "/sites/all/themes/blognone42/images/linebutton.png"
  ], 
  "Link": "https://www.blognone.com/node/82658", 
  "News": "[ไม่ยืนยัน] Netflix จะให้ผู้ใช้ดูหนังออฟไลน์ได้ปลายปีนี้", 
  "Tags": [
    "Netflix", 
    "Online streaming"
  ], 
  "Time": "11:14"
}