{
  "By": "nismod", 
  "Contents": " มาตรฐาน Unicode 9.0 ออกอย่างเป็นทางการแล้ว โดยทาง Unicode Consortium ได้เพิ่มตัวอักษรเข้ามาใหม่อีก 7,500 ตัวอักษร อีโมจิอีก 72 ตัวที่ประกาศรับรองไปก่อนหน้านี้ และสัญลักษณ์ใหม่อีก 19 ตัวสำหรับมาตรฐานทีวี 4K การเปลี่ยนแปลงใน Unicode 9.0 เกี่ยวข้องกับภาษาที่คนใช้น้อยเป็นหลักอย่างการรองรับภาษา Osage ของชนพื้นเมืองอเมริกัน (อินเดียนแดง), ภาษาเนปาล, ภาษาเฉพาะกลุ่มสวาฮิลีในโซมาเลียและภาษาอื่นๆ ในทวีปแอฟริกา, ภาษาอาหรับที่ใช้ในแอฟริกาเหนือและตะวันตก และภาษา Tangut ซึ่งเป็นภาษาโบราณของชนพื้นเมืองในจีน ซึ่งยังคงพบเห็นได้ตามพงศาวดารหรือบันทึกทางประวัติศาสตร์ของจีน ที่มา - Unicode Blog   ", 
  "Date": "22/June/2016", 
  "Image-Link": [
    "https://www.blognone.com/sites/default/files/styles/thumbnail/public/topics-images/unicode.png?itok=DVIfiyBR", 
    "/sites/all/themes/blognone42/images/linebutton.png"
  ], 
  "Link": "https://www.blognone.com/node/82539", 
  "News": "Unicode Consortium ออกมาตรฐาน Unicode 9.0 แล้ว", 
  "Tags": [
    "Unicode", 
    "Open Standard"
  ], 
  "Time": "11:27"
}