{
  "By": "nuntawat", 
  "Contents": " ในช่วงสองสัปดาห์ที่ผ่านมา มีสเปค Galaxy Note 7 หลุดตามเว็บไซต์ต่างๆ ซึ่งสรุปได้ ดังนี้  หน้าจอ Super AMOLED ขนาด 5.7 นิ้วที่ความละเอียด Quad HD ชิป Snapdragon 821 พร้อมซีพียูควอดคอร์ที่ 2.3 กิกะเฮิรตซ์ / Exynos 8893 พร้อมซีพียูแปดคอร์ที่ 2.6-2.7 กิกะเฮิรตซ์ แรม 6 กิกะไบต์แบบ LPDDR4 หน่วยความจำภายใน 64/128/256 กิกะไบต์ รองรับ microSD กล้องหลัก 12 ล้านพิกเซล พร้อม Dual Pixel ส่วนกล้องหน้า 5 ล้านพิกเซล มีตัวสแกนม่านตา โดย Patron ผู้ผลิตสัญชาติเกาหลีประมูลได้งานผลิตเซ็นเซอร์ดังกล่าวไป แบตเตอรี่ 4,000 มิลลิแอมป์-ชั่วโมง รองรับการชาร์จเร็ว USB Type-C (เป็นมือถือรุ่นแรกของซัมซุงที่มากับพอร์ตประเภทนี้) Android 6.0.1 Marshmallow พร้อม Grace UX กันน้ำกันฝุ่นระดับ IP68 รองรับ Samsung Pay มีตัวเลือกสีดำ เงิน และน้ำเงินให้เลือก  เว็บไซต์ SamMobile เสริมว่า Galaxy Note 7 จะมากับ S Pen รุ่นใหม่ด้วย โดยจะสามารถเขียนตรงขอบโค้งของหน้าจอได้ ที่มา: Weibo, @evleaks, SamMobile (1, 2)   ", 
  "Date": "28/June/2016", 
  "Image-Link": [
    "https://www.blognone.com/sites/default/files/styles/thumbnail/public/topics-images/j8u2rhG1.jpg?itok=CJuE6qSo", 
    "/sites/all/themes/blognone42/images/linebutton.png"
  ], 
  "Link": "https://www.blognone.com/node/82749", 
  "News": "หลุดสเปค Galaxy Note 7", 
  "Tags": [
    "Galaxy Note", 
    "Samsung", 
    "Samsung Galaxy", 
    "Leak"
  ], 
  "Time": "12:49"
}