{
  "By": "Job_The_Gamer", 
  "Contents": " ไมโครซอฟท์ออกเฟิร์มแวร์สำหรับ Surface Book และ Surface Pro 4 ซึ่งได้ปรับปรุงเสถียรภาพของระบบเมื่อตื่นจากการ sleep หรือ hibernation, ปรับปรุงการใช้งานแบตเตอรี่เมื่ออยู่ในโหมด connected standby, ลดการเกิดปัญหาปิดเครื่องเองระหว่าง sleep ที่พบได้ใน Surface Book และเฟิร์มแวร์สำหรับ Surface 3 LTE ที่ได้ปรับปรุงเสถียรภาพการเชื่อมต่อเครือข่ายมือถือ รายการอัพเดตทั้งหมดมีรายละเอียดดังนี้ Surface Book System Update – 6/20/2015  Surface UEFI v89.1203.768.0 ปรับปรุงเสถียรภาพของระบบเมื่อตื่นจากการ sleep หรือ hibernation ปรับปรุงการใช้งานแบตเตอรี่เมื่ออยู่ในโหมด connected standby Surface Base Firmware Update v1.2.104.0 ลดจำนวนการเกิดปัญหาเครื่อง shutdown เองระหว่างอุปกรณ์อยู่ระหว่างการ sleep Surface Integration Driver v1.1.291.0 แก้ไขปัญหาที่ทัชสกรีนยังคงทำงานอยู่แม้ว่าจะพับตัว clipboard เข้ากับคีย์บอร์ดแล้ว  Surface Pro 4 System Update – 6/20/2015  Surface UEFI v105.1203.768.0 ปรับปรุงเสถียรภาพของระบบเมื่อตื่นจากการ sleep หรือ hibernation ปรับปรุงการใช้งานแบตเตอรี่เมื่ออยู่ในโหมด connected standby Surface Integration Driver v1.0.81.0 แก้ไขปัญหาที่ทัชสกรีนยังคงทำงานอยู่แม้ว่าจะพับ cover เข้ากับหน้าจอแล้ว  Surface 3 (Verizon 4G LTE) System Update – 6/22/2015 (Windows 10)  Surface IA7260 Firmware Update v1544.2.0.28 (Driver Date 4/25/2016) เพิ่มเสถียรภาพการเชื่อมต่อเครือข่ายมือถือ  ที่มา - Microsoft (Surface Book, Surface Pro 4, Surface 3) via Windows Central   ", 
  "Date": "25/June/2016", 
  "Image-Link": [
    "https://www.blognone.com/sites/default/files/styles/thumbnail/public/topics-images/surface-book.png?itok=eHBLS5d-", 
    "/sites/all/themes/blognone42/images/linebutton.png"
  ], 
  "Link": "https://www.blognone.com/node/82662", 
  "News": "ไมโครซอฟท์ออกเฟิร์มแวร์ปรับปรุงเสถียรภาพ Surface Book/Pro 4 /3 LTE เดือนมิถุนายน", 
  "Tags": [
    "Surface Book", 
    "Surface Pro  4", 
    "Surface 3", 
    "Microsoft"
  ], 
  "Time": "14:36"
}