{
  "By": "nismod", 
  "Contents": " หากยังพอจำกันได้ ในช่วงต้นปีที่ผ่านมา Ringing Bell ผู้ผลิตสมาร์ทโฟนสัญชาติภารตะได้เปิดตัว Freedom 251 สมาร์ทโฟนราคาประหยัดเพียง 130 บาท จนมียอดสั่งจองอย่างล้นหลามและทำให้ผลิตไม่ทัน ล่าสุดผู้ที่สั่งจองดังกล่าวเตรียมจะได้รับเครื่อง หลังวันที่ 30 มิถุนายนนี้เป็นต้นไป Mohit Goel ซีอีโอของบริษัทระบุด้วยว่าแท้จริงแล้ว บริษัทขาดทุนอยู่ที่เครื่องละประมาณ 80 บาท แต่ที่ทำไปก็เพื่อต้องการให้ให้ชาวอินเดียที่มีฐานะยากจนได้มีโอกาสติดต่อสื่อสารถึงกัน ตามแนวคิดดิจิทัลอินเดีย (Digital India) โดยคนอินเดีย (Make in India) ที่มา - The Next Web   ", 
  "Date": "27/June/2016", 
  "Image-Link": [
    "https://www.blognone.com/sites/default/files/styles/thumbnail/public/topics-images/800px-Flag_of_India.svg_.png?itok=nE0Iaxck", 
    "/sites/all/themes/blognone42/images/linebutton.png"
  ], 
  "Link": "https://www.blognone.com/node/82713", 
  "News": "Freedom 251 สมาร์ทโฟนราคา 130 บาทของอินเดียเตรียมส่งมอบปลายสัปดาห์นี้", 
  "Tags": [
    "India", 
    "Mobile"
  ], 
  "Time": "15:55"
}