{
  "By": "nutmos", 
  "Contents": " BitTorrent ได้ประกาศเปลี่ยนแปลงครั้งใหญ่กับ BitTorrent Bundle ซึ่งเป็นบริการให้เหล่าศิลปินหรือผู้สร้างสรรค์นำเนื้อหามาลงแพลตฟอร์มเพื่อเข้าถึงผู้ใช้ได้โดยตรง โดยใช้เทคโนโลยีแบบ peer-to-peer ของ BitTorrent ในการเผยแพร่เนื้อหา ซึ่งตอนหลังก็ได้เพิ่มระบบจ่ายเงินขึ้นมา ซึ่ง BitTorrent Now ก็ถือว่าประสบความสำเร็จอย่างมาก ตอนนี้ BitTorrent ก็ได้ประกาศเปลี่ยนชื่อ BitTorrent Bundle ใหม่เป็น BitTorrent Now และยังมีการเปลี่ยนแปลงเพิ่มอย่างอื่นอีกหลายอย่าง ได้แก่  เพิ่มระบบโฆษณาสำหรับการสตรีมมิ่ง โดยเงินที่ได้จากโฆษณาจะมอบให้ผู้สร้างคอนเทนต์ 70% ทำแอพให้รองรับแพลตฟอร์มมากขึ้น ทั้งเดสก์ท็อป, ทีวี และมือถือ โดยที่เปิดให้ใช้ตอนนี้ยังคงมีเฉพาะบนเว็บกับ Android เท่านั้น ส่วนแอพบน iOS และ tvOS จะตามมาภายหลัง ตัวแอพของ BitTorrent Now จะรองรับการสตรีมมิ่งแบบมีโฆษณาทั้งวิดีโอและเพลง เว็บของ BitTorrent Now จะเพิ่มระบบบอกรับสมาชิกผ่านอีเมล, สามารถสตรีมมิ่งหรือดาวน์โหลดคอนเทนต์ก็ได้  ที่มา - VentureBeat      ", 
  "Date": "24/June/2016", 
  "Image-Link": [
    "https://www.blognone.com/sites/default/files/styles/thumbnail/public/topics-images/bittorrent_0.png?itok=h1aU7EKT", 
    "http://i.cubeupload.com/K2osKd.jpg", 
    "http://i.cubeupload.com/LO1ahn.png", 
    "http://i.cubeupload.com/KUcErH.png", 
    "/sites/all/themes/blognone42/images/linebutton.png"
  ], 
  "Link": "https://www.blognone.com/node/82640", 
  "News": "BitTorrent ประกาศเปลี่ยนชื่อบริการ Bundle เป็น Now พร้อมเพิ่มการรองรับอุปกรณ์พกพา", 
  "Tags": [
    "BitTorrent", 
    "Digital Content"
  ], 
  "Time": "16:36"
}