{
  "By": "trinakub", 
  "Contents": " เกม Kill Strain เป็นผลงานของสตูดิโอ SIE San Diego ซึ่งเกม Kill Strain ได้เปิดตัวครั้งแรกที่งาน E3 ปี 2014 เป็นเกมประเภท Competitive Team-Based MOBA Shooter ที่ใช้ระบบการควบคุมแบบ Twin-Stick (ระบบที่ใช้ Analog ข้างหนึ่งในการเคลื่อนไหว และอีกข้างหนึ่งในการควบคุมเป้า) ล่าสุดได้ประกาศวันเปิดตัวบน PS4 เป็นวันที่ 19 กรกฎาคม 2559 นี้ ใครที่มี PlayStation Plus จะสามารถเข้าเล่นได้ล่วงหน้าหนึ่งสัปดาห์ คือวันที่ 12 กรกฎาคม 2559 ปัจจุบันตัวเกมยังอยู่ในช่วง Closed Beta Kill Strain จะนำเสนอรูปแบบการเล่นที่เน้นการใช้ทีมเวิร์คเป็นหลัก ภายในเกมจะแบ่งออกเป็น 3 ฝ่าย ได้แก่ฝ่าย Human 2 ทีม ประกอบด้วยผู้เล่นทีมละ 4 คน และทีม Mutant อีก 1 ทีม ประกอบด้วยผู้เล่น 1 ถึง 2 คน ฝ่าย Mutant จะสามารถเปลี่ยนให้ฝ่าย Human กลายเป็น Mutant ด้วยกันเองได้ เกมจะจบลงเมื่อหนึ่งในเงื่อนไขต่อไปนี้สำเร็จ  ฝ่าย Human ทำลายฐานของ Human หรือ Mutant สำเร็จ ฝ่าย Mutant ทำให้ฝ่าย Human กลายเป็น Mutant ทั้งหมด หรือทำลายฐานของฝ่าย Human สำเร็จฐานหนึ่ง  ที่มา - blog.us.playstation.com    ", 
  "Date": "23/June/2016", 
  "Image-Link": [
    "https://www.blognone.com/sites/default/files/styles/thumbnail/public/news-thumbnails/killstrain.jpg?itok=lA4yVrhn", 
    "https://s31.postimg.org/nrvzqqcsr/Kill_Strain_IMG_1.jpg", 
    "https://s31.postimg.org/k9jzucbwr/Kill_Strain_IMG_2.jpg", 
    "/sites/all/themes/blognone42/images/linebutton.png"
  ], 
  "Link": "https://www.blognone.com/node/82595", 
  "News": "Kill Strain เกม Moba Shooter จาก Sony ประกาศวันเปิดตัวบน PS4", 
  "Tags": [
    "Kill Strain", 
    "Games", 
    "Sony", 
    "PlayStation 4"
  ], 
  "Time": "18:03"
}