{
  "By": "Lamicrosz", 
  "Contents": " Futuremark เจ้าของซอฟต์แวร์ทดสอบกราฟิกชื่อดังอย่าง 3DMark ปล่อยคลิปและภาพตัวอย่าง ชุดทดสอบตัวใหม่อย่าง Time Spy ที่มาพร้อมการรองรับเทคโนโลยี DirectX 12 รองรับฟีเจอร์อย่าง asynchronous compute, explicit multi-adapter และการประมวลผลแบบ multi-threading ซึ่งได้ทำงานร่วมกับ Nvidia, AMD, อินเทลและไมโครซอฟท์ ที่มา - Futuremark       ", 
  "Date": "25/June/2016", 
  "Image-Link": [
    "https://www.blognone.com/sites/default/files/styles/thumbnail/public/topics-images/futuremark.png?itok=YRWDzDK0", 
    "http://i.imgur.com/reyL8cz.jpg", 
    "http://i.imgur.com/YC55Vld.jpg", 
    "http://i.imgur.com/CnQSTro.jpg", 
    "http://i.imgur.com/YJdLz2r.jpg", 
    "/sites/all/themes/blognone42/images/linebutton.png"
  ], 
  "Link": "https://www.blognone.com/node/82671", 
  "News": "Futuremark ปล่อยคลิปตัวอย่างชุดทดสอบ 3DMark Time Spy รองรับ DirectX 12 แล้ว", 
  "Tags": [
    "Futuremark", 
    "Benchmark", 
    "DirectX"
  ], 
  "Time": "23:23"
}