{
  "By": "mk", 
  "Contents": " Twitter เป็นโซเชียลรายล่าสุดที่เพิ่มระบบสติ๊กเกอร์เข้ามา รูปแบบการใช้งานคือใช้ตกแต่งภาพถ่ายก่อนโพสต์ เพื่อเล่าเรื่องราวให้มีสีสันมากยิ่งขึ้น สติ๊กเกอร์ของ Twitter ยังสามารถคลิกได้ (เป็นเลเยอร์ทับบนภาพไปอีกชั้น ไม่ได้เป็นภาพ bitmap) เมื่อคลิกแล้วจะมีลักษณะเป็นเหมือน hashtag คือค้นหาภาพถ่ายของคนอื่นๆ ที่แปะสติ๊กเกอร์อันเดียวกันได้ด้วย ฟีเจอร์สติ๊กเกอร์จะเริ่มเปิดให้ใช้งานบนแอพมือถือทั้งบน Android และ iOS ในช่วงอีก 2-3 สัปดาห์ข้างหน้า ส่วนคนที่ใช้ Twitter.com บนเว็บ แม้ยังไม่สามารถแปะสติ๊กเกอร์ได้ แต่ก็สามารถค้นหาภาพที่ใช้สติ๊กเกอร์นั้นๆ ได้ ที่มา - Twitter Blog Connect your photos to the world with a visual spin on hashtags: tap #Stickers to peel back a fun new way to search. pic.twitter.com/YVy7r53Nja — Twitter (@twitter) June 27, 2016   ", 
  "Date": "27/June/2016", 
  "Image-Link": [
    "https://www.blognone.com/sites/default/files/styles/thumbnail/public/topics-images/twitter300.png?itok=DkxsrWCR", 
    "/sites/all/themes/blognone42/images/linebutton.png"
  ], 
  "Link": "https://www.blognone.com/node/82726", 
  "News": "Twitter เพิ่มระบบสติ๊กเกอร์แล้ว ใช้ตกแต่งภาพถ่ายก่อนโพสต์", 
  "Tags": [
    "Twitter", 
    "Social Network"
  ], 
  "Time": "23:31"
}