{
  "By": "nismod", 
  "Contents": " สืบเนื่องจากกฎหมายไซเบอร์ฉบับใหม่ของรัสเซียที่นอกจากจะบังคับให้ผู้ให้บริการข้อมูล มอบกุญแจถอดรหัสให้กับรัฐบาลแล้ว ยังต้องเก็บล็อกอินเทอร์เน็ตไว้อย่างน้อย 6 เดือนถึง 1 ปีเอาไว้ด้วย เป็นเหตุให้เซิร์ฟเวอร์ของ Private Internet Access ผู้ให้บริการ VPN รายหนึ่งถูกรัฐบาลยึด เนื่องจากไม่ปฏิบัติตามกฎหมาย ทาง Private Internet Access ส่งจดหมายหาสมาชิกยืนยันว่าความปลอดภัยและความเป็นส่วนตัวของลูกค้า คือเป้าหมายอันดับแรก ทำให้บริษัทไม่ได้เก็บล็อกทราฟฟิคหรือดาต้าใดๆ ทั้งสิ้น ซึ่งคาดว่าเป็นต้นเหตุของการยึดเซิร์ฟเวอร์ โดยบริษัทระบุด้วยว่าได้ตัดสินใจระงับเกตเวย์ไปยังรัสเซีย และไม่ทำธุรกิจในประเทศนี้ต่อไป ที่มา - The Register   ", 
  "Date": "13/July/2016", 
  "Image-Link": [
    "https://www.blognone.com/sites/default/files/styles/thumbnail/public/topics-images/russia.png?itok=uHDRbaVs", 
    "/sites/all/themes/blognone42/images/linebutton.png"
  ], 
  "Link": "https://www.blognone.com/node/83383", 
  "News": "ผู้ให้บริการ VPN เผยถูกรัฐบาลรัสเซียยึดเซิร์ฟเวอร์ เหตุไม่เก็บล็อกทราฟฟิคและดาต้า", 
  "Tags": [
    "Russia", 
    "VPN"
  ], 
  "Time": "15:21"
}