{
  "By": "mk", 
  "Contents": " IDC ออกรายงานประเมินยอดขายอุปกรณ์กลุ่มสตอเรจสำหรับองค์กร (enterprise storage) ประจำไตรมาสแรกของปี 2016 พบว่า Hewlett Packard Enterprise (HPE) มาแรง ขึ้นมาเทียบชั้นกับ EMC เจ้าตลาดเดิมได้แล้ว IDC ประเมินว่า HPE ขายอุปกรณ์สตอเรจได้ 1.42 พันล้านดอลลาร์ ครองส่วนแบ่งตลาด 17.3% มากกว่า EMC ที่ขายได้ 1.39 พันล้านดอลลาร์ (ส่วนแบ่ง 16.4%) อยู่เล็กน้อย แต่ทางสถิติแล้วถือว่าต่างกันไม่มาก จึงถือว่าเป็นอันดับ 1 ร่วมกัน อันดับสามคือ Dell ครองส่วนแบ่งตลาด 10.3%, อันดับสี่ NetApp ครองส่วนแบ่งตลาด 7.9% และอันดับห้าร่วมคือ Hitachi (6.3%) กับ IBM (5.8%) ถ้านับเฉพาะในกลุ่มท็อป บริษัทที่มีส่วนแบ่งตลาดเพิ่มขึ้นคือ HPE, Dell, NetApp ประเด็นที่น่าสนใจคือยอดขายอุปกรณ์สตอเรจในไตรมาสนี้ (นับเป็นความจุรวมหน่วย exabtye) กลับลดลง 4% เมื่อเทียบกับปี 2015 เหตุผลสำคัญเป็นเพราะยอดขายสตอเรจแบบไม่แปะแบรนด์ (ODM ขายให้ศูนย์ข้อมูลขนาดใหญ่โดยตรง) ลดลงถึง 39.9% ที่มา - IDC, ภาพประกอบจาก HP    ", 
  "Date": "5/June/2016", 
  "Image-Link": [
    "https://www.blognone.com/sites/default/files/styles/thumbnail/public/topics-images/logo-idc.png?itok=Xd-1G05W", 
    "https://i.imgur.com/V8F5dO3.jpg", 
    "/sites/all/themes/blognone42/images/linebutton.png"
  ], 
  "Link": "https://www.blognone.com/node/81865", 
  "News": "IDC ประเมินส่วนแบ่งตลาดฮาร์ดแวร์สตอเรจองค์กร HPE ขึ้นมาตีคู่กับ EMC แล้ว", 
  "Tags": [
    "IDC", 
    "Hewlett Packard Enterprise", 
    "EMC", 
    "Storage", 
    "Enterprise", 
    "Market Share"
  ], 
  "Time": "16:31"
}