{
  "By": "Blltz", 
  "Contents": "
เพิ่งประกาศรองรับปลั๊กอินสำหรับบล็อคโฆษณาบนเบราว์เซอร์ของสมาร์ทโฟน Galaxy ที่รัน Marshmallow ขึ้นไปได้เพียงไม่กี่วัน ตอนนี้หนึ่งในปลั๊กอินที่รองรับเบราว์เซอร์ของซัมซุงก็มีอันเป็นไปเสียแล้ว
โดยเจ้าทุกข์ในครั้งนี้ก็คือ Rocketship ผู้พัฒนา Adblock Fast ซึ่งปัจจุบันตัวแอพได้อันตรธานหายไปจาก Play Store เป็นที่เรียบร้อย ทางฝั่งนักพัฒนาเองก็ได้รับข้อความจากกูเกิลระบุว่า Adblock Fast ละเมิดกฎการใช้งานข้อ 4.4 ซึ่งเป็นข้อเดียวกับที่กูเกิลใช้ลบแอพบล็อคโฆษณามาตั้งแต่ปี 2013
ตามแนวทางของกูเกิลที่ออกมา คาดว่าอีกไม่นานปลั๊กอินตัวอื่นๆ ที่รองรับเบราว์เซอร์ซัมซุงน่าจะโดนหางเลขในเร็ววัน ซึ่งหนึ่งในนั้นมี Adblock Plus ขาใหญ่ของวงการบล็อคโฆษณาที่เคยถูกกูเกิลแบนไปก่อนหน้า มาทำปลั๊กอินให้ซัมซุงในครั้งนี้ด้วย
ที่มา - Android Authority

", 
  "Date": "04/02/16", 
  "Image-Link": "https://www.blognone.com/sites/default/files/imagecache/news-thumbnail/category_pictures/samsung-big.png", 
  "Link": "https://www.blognone.com/node/77479", 
  "News": "บล็อคเซปชั่น! กูเกิลเริ่มแบนปลั๊กอินบล็อคโฆษณาบนเบราว์เซอร์ซัมซุงออกจาก Play Store", 
  "Tags": "Advertising
Google
Mobile
Samsung
", 
  "Time": "5:53"
}