{
  "By": "Blltz", 
  "Contents": "
ถ้าจำกันได้ เมื่อช่วงต้นปี LG เคยออกมาประกาศท้าชนกับซัมซุงด้วยการนำ LG G5 ว่าที่สมาร์ทโฟนรุ่นเรือธงไปเปิดตัวในงาน MWC 2016 งานเดียวกับที่ซัมซุงจะเปิดตัวรุ่นเรือธงอย่าง Galaxy S7 และดูเหมือนว่าการท้าชนครั้งนี้จะดุเดือดไปอีกขั้นหลังจาก LG เพิ่งเผยทีเซอร์ใหม่พร้อมวันเปิดตัวจริงของ LG G5 ออกมาอย่างเป็นทางการ
อ้างอิงจากทวีตของ @LG USA Mobile เผยวันเปิดตัวของ LG G5 มาเป็นวันที่ 21 กุมภาพันธ์นี้ซึ่งเป็นวันเดียวกับที่ซัมซุงจะเปิดตัว Galaxy S7 ในเวทีแถลงข่าว Unpacked 2016 นั่นเอง ถ้าดูจากภาพที่ออกมาเป็นไปได้ว่า LG G5 จะเน้นไปที่กล้องเช่นเคย โดยมีรายงานว่าจะดึงฟีเจอร์เด่นๆ มาจากรุ่น V10 สมาร์ทโฟนสองจอที่เพิ่งเปิดตัวไปไม่นาน รวมถึงของเล่นใหม่อย่างที่สแกนลายนิ้วมือ กล้องเลนส์คู่ เป็นต้น
อย่างไรก็ตาม สิ่งที่น่าจับตามองที่สุดดูเหมือนจะเป็น Magic Slot สำหรับเพิ่มฟีเจอร์ให้กับสมาร์ทโฟนผ่านอุปกรณ์แบบโมดูลซึ่งถ้าออกมาตามข่าวลือ เรียกได้ว่าพลิกโฉมวงการไม่ใช่น้อย
ที่มา - Engadget

", 
  "Date": "04/02/16", 
  "Image-Link": "https://www.blognone.com/sites/default/files/imagecache/news-thumbnail/category_pictures/lg_logo.gif", 
  "Link": "https://www.blognone.com/node/77480", 
  "News": "ถึงพริกถึงขิง! LG G5 จะเปิดตัวชนกับ Galaxy S7 วันที่ 21 กุมภาพันธ์นี้ ", 
  "Tags": "LG
LG G5
Mobile
MWC
", 
  "Time": "6:55"
}