{
  "By": "Lamicrosz", 
  "Contents": "
ไมโครซอฟท์ประกาศผ่าน Windows Experience Blog ว่าทางบริษัทได้ปล่อย Windows 10 รุ่น 14257 ให้กลุ่มผู้ใช้ Fast ring ทดสอบแล้ว โดยมีการแก้บั๊ก ดังนี้

แก้ไขปัญหาการจัดการหน่วยความจำ ที่ส่งผลให้แอพค้างเป็นระยะ
ปุ่ม Connect ใน Action Center กลับมาแล้ว
เครื่องมือสำหรับนักพัฒนาใน Microsoft Edge แสดงผลได้อย่างปกติแล้ว
แก้ปัญหาแถบแนะนำแอพ ที่ยังมีอยู่แม้จะปิดการแสดงผลในส่วนนั้นไปแล้ว
แก้ปัญหาเวลาเปลี่ยนรูปในหน้าล็อกสกรีน แล้วเมนู "Get fun facts, tips, tricks and more on your lock screen" จะกลับไปในค่าเริ่มต้น
แก้ปัญหาตำแหน่งไอคอนของโปรแกรม เวลาสลับ DPI จาก 100% ไปเป็น 150% หรือ 175%
แก้ปัญหาการย้ายข้อมูลเข้าไปในไฟล์นามสกุล .zip

ทั้งนี้ในรุ่น 14257 ก็พบปัญหา ดังนี้

เมื่อเลือก Reset This PC ในหน้า Settings > Update & Security > Recovery คอมพิวเตอร์ของเราจะเข้าสู่สถานะใช้งานไม่ได้ และจำเป็นต้องลง Windows ใหม่เท่านั้น
จะมีการแจ้งเตือนการทำงานผิดพลาดเกี่ยวกับ WSClient.dll สามารถแก้ไขได้ผ่าน command prompt ด้วยการป้อนคำสั่ง schtasks /delete /TN “\Microsoft\Windows\WS\WSRefreshBannedAppsListTask” /F.
ไม่สามารถใช้งานกล้องหน้าได้
โหมดเครื่องบิน แสดงผลผิดพลาดหลังจากล็อกอิน

ที่มา - Windows Experience Blog
", 
  "Date": "04/02/16", 
  "Image-Link": "https://www.blognone.com/sites/default/files/imagecache/news-thumbnail/category_pictures/w10.png", 
  "Link": "https://www.blognone.com/node/77486", 
  "News": "ไมโครซอฟท์ปล่อย Windows 10 รุ่น 14257 ให้ทดสอบแล้ว", 
  "Tags": "Microsoft
Operating System
Windows 10
", 
  "Time": "8:21"
}