{
  "By": "arjin", 
  "Contents": "
GoPro รายงานผลประกอบการประจำไตรมาสที่ 4 ของปี 2015 จากที่เคยออกมาให้ตัวเลขเบื้องต้นเมื่อเดือนที่แล้วซึ่งไม่ค่อยดีนัก มียอดขาย 437 ล้านดอลลาร์ ลดลง 31% เมื่อเทียบกับช่วงเดียวกันในปีก่อน โดยขายกล้องไปได้ประมาณ 2 ล้านเครื่อง
ซีอีโอ Nicholas Woodman ยอมรับว่ายอดขายในครึ่งปีหลังแผ่วลง แต่ยืนยันว่าบริษัทยังมีอนาคตที่สดใส โดยกล้องรุ่นใหม่ Hero 5 ที่จะออกมานั้น จะเป็น GoPro รุ่นที่ใช้งานได้สะดวกง่ายที่สุดเท่าที่เคยมีมา และจะแก้ปัญหาความยุ่งยากที่ผู้ใช้งานหลายคนประสบได้ นอกจากนี้ GoPro จะยกเลิกการขายกล้องรุ่น Hero, Hero+ และ Hero+ LCD ในเดือนเมษายนนี้ด้วย
ราคาหุ้น GoPro ยังสะท้อนออกมาจากผลการดำเนินงาน โดยลดลงมาถึง 83% ในช่วง 6 เดือนที่ผ่านมา
ที่มา: The Verge และ TechCrunch

", 
  "Date": "04/02/16", 
  "Image-Link": "https://www.blognone.com/sites/default/files/imagecache/news-thumbnail/category_pictures/gopro.png", 
  "Link": "https://www.blognone.com/node/77494", 
  "News": "GoPro ขายกล้องไตรมาสที่ผ่านได้ลดลงเหลือ 2 ล้านเครื่อง - ซีอีโอบอก Hero 5 จะใช้งานง่าย", 
  "Tags": "Financial Report
GoPro
", 
  "Time": "9:39"
}