{
    "By": "arjin", 
    "Contents": "\nPeter Kafka แห่ง Re/code รายงานโดยอ้างแหล่งข่าวภายในว่า Twitter ได้กำหนดค่าเป็นพิเศษให้ไม่มีการแสดงโฆษณาแทรกใน Timeline ของผู้ใช้งานที่จัดเป็นระดับวีไอพี หรืออาจแสดงโฆษณาน้อยกว่าปกติ เพื่อจูงใจให้คนเหล่านั้นยังคงใช้ Twitter ต่อไป โดยความคิดนี้มาจากซีอีโอ Jack Dorsey เมื่อตอนเขาเข้ามารักษาการตำแหน่งซีอีโอ และเริ่มมีผลตั้งแต่ปลายปีที่แล้ว\nแหล่งข่าวยังบอกว่าเกณฑ์การเลือกผู้ใช้ระดับวีไอพีนั้นมีหลายปัจจัยผสมกัน ไม่ใช่จำนวนทวีตหรือจำนวนผู้ติดตาม โดย Peter Kafka เองบอกว่าปัจจุบันเขาก็ไม่เห็นโฆษณาใน Twitter แล้ว โดยตัวเขามีผู้ติดตามประมาณ 7 หมื่นคน เช่นเดียวกับ Kara Swisher ผู้ก่อตั้ง Re/code ที่มีผู้ติดตามมากกว่า 1 ล้านคน ก็ไม่เห็นโฆษณา\nสำหรับในไทยนั้นไม่แน่ใจว่าผู้ใช้ระดับวีไอพีจะเห็นหรือไม่เห็นโฆษณา ก็คงต้องสอบถามดูจากเน็ตไอดอลชื่อดังที่มีผู้ติดตามเกือบ 4 แสนราย และออกแบบเสื้อ Read Write Blognone ประจำปี 2016 ดูครับ\nที่มา: Re/code\n", 
    "Date": "26/01/16", 
    "Image-Link": "https://www.blognone.com/sites/default/files/imagecache/news-thumbnail/category_pictures/twitter-bird-light-bgs.png", 
    "Link": "https://www.blognone.com/node/77128", 
    "News": "[ไม่ยืนยัน] Twitter จะไม่แสดงโฆษณากับผู้ใช้งานที่อยู่ในระดับวีไอพี", 
    "Tags": "Advertising\nRumor\nTwitter\n", 
    "Time": "15:10"
}