{
    "By": "Lamicrosz", 
    "Contents": "\nหลังจากไมโครซอฟท์ซื้อ MinecraftEDU (คนละส่วนกับตัวเกมหลัก) แล้วเตรียมออก Minecraft: Education Edition เพื่อบุกภาคตลาดการศึกษา\nล่าสุด Jack Schofield จาก ZDNet รายงานว่าตัวเกมจะเขียนขึ้นด้วยภาษา C++ ต่างจากตัวเกมหลักที่เขียนขึ้นด้วยภาษา Java ซึ่งทำให้ม็อดเก่าๆ ใช้งานไม่ได้ และอาจกระทบกับสังคมผู้เล่นเกม ที่เป็นหนึ่งในตัวแปรสำคัญของการประสบความสำเร็จของ Minecraft\nการเปลี่ยนมาใช้ภาษา C++ จะช่วยแก้ปัญหาอาการกินสเปคหนักที่เกิดขึ้นในเกมเวอร์ชัน Java และจะรองรับการรันบนหลายแพลตฟอร์ม ตัวเกมจะมีฟีเจอร์อย่างการรองรับโหมดผู้เล่นหลายคนแบบ peer-to-peer ในห้องเรียน และผู้สอนสามารถใส่คำสั่งต่างๆ ได้มากกว่าเดิม\nที่มา - ZDNet\n\n", 
    "Date": "26/01/16", 
    "Image-Link": "https://www.blognone.com/sites/default/files/imagecache/news-thumbnail/category_pictures/minecraft.png", 
    "Link": "https://www.blognone.com/node/77096", 
    "News": "Minecraft: Education Edition เขียนขึ้นบนภาษา C++ ต่างจากตัวเกมหลัก", 
    "Tags": "C++\nEducation\nMicrosoft\nMinecraft\n", 
    "Time": "7:15"
}