{
    "By": "mk", 
    "Contents": "\nโซนี่ประกาศรวมบริษัทลูก Sony Computer Entertainment (SCE) ผู้รับผิดชอบงานด้านฮาร์ดแวร์และซอฟต์แวร์เกม และ Sony Network Entertainment (SNEI) ที่ดูแลงานด้านบันเทิงดิจิทัลอื่นๆ (เช่น PlayStation Store, PlayStation Vue, PlayStation Network, PlayStation Now, PlayStation Plus) เข้าด้วยกันเป็น Sony Interactive Entertainment LLC (SIE)\nบริษัทใหม่จะรับผิดชอบงานทุกอย่างที่เกี่ยวข้องกับ PlayStation และตั้งสำนักงานใหญ่อยู่ที่เมือง San Mateo ในแคลิฟอร์เนีย แต่ยังมีสำนักงานอยู่ในโตเกียวและลอนดอนด้วย\nการเปลี่ยนแปลงจะเริ่มมีผล 1 เมษายนนี้ ผู้ที่รับบทซีอีโอของ SIE คือ Andrew House ซึ่งเป็นซีอีโอของ SCE อยู่แล้ว\nSCE ก่อตั้งในปี 1993 ก่อน PS รุ่นแรกวางจำหน่าย 1 ปี ส่วน SNEI ก่อตั้งในปี 2010 เพื่อให้บริการ PlayStation Network บน PS3\nที่มา - Sony, PlayStation Blog\n\n", 
    "Date": "26/01/16", 
    "Image-Link": "https://www.blognone.com/sites/default/files/imagecache/news-thumbnail/category_pictures/playstation.png", 
    "Link": "https://www.blognone.com/node/77138", 
    "News": "โซนี่รวมบริษัทด้านเกมเป็นบริษัทเดียว ใช้ชื่อ Sony Interactive Entertainment (SIE)", 
    "Tags": "Games\nSony\nPlayStation\n", 
    "Time": "19:22"
}