{
    "By": "mk", 
    "Contents": "\nหลังกูเกิลประกาศนโยบายออกแพตช์ความปลอดภัย Android ให้ทุกเดือน ก็มีบริษัทมือถือประกาศเข้าร่วมโครงการนี้บางราย หนึ่งในนั้นคือซัมซุง โดยซัมซุงจะออกแพตช์ความปลอดภัยให้ทุกปลายเดือน คล้อยหลังจากกูเกิลที่ออกช่วงต้นเดือน\nสำหรับแพตช์รอบเดือนมกราคม 2016 ของซัมซุงก็ออกมาแล้ว ในชื่อว่า SMR-JAN-2016 (SMR ย่อมาจาก Security Maintenance Release) อุดช่องโหว่ความปลอดภัยตามกูเกิล 6 จุด และช่องโหว่ที่ซัมซุงค้นพบเองอีก 7 จุด\nอย่างไรก็ตาม ซัมซุงไม่ได้ระบุว่ามีมือถือรุ่นใดบ้างที่ได้อัพเดตครับ\nที่มา - Samsung Mobile, 9to5google\n", 
    "Date": "26/01/16", 
    "Image-Link": "https://www.blognone.com/sites/default/files/imagecache/news-thumbnail/category_pictures/samsung-big.png", 
    "Link": "https://www.blognone.com/node/77129", 
    "News": "ซัมซุงออกแพตช์ความปลอดภัย Android รอบเดือนมกราคม 2016", 
    "Tags": "Android\nSamsung\nSecurity\n", 
    "Time": "16:00"
}