{
    "By": "mk", 
    "Contents": "\nไมโครซอฟท์พยายามสุดตัวในการดัน Universal Windows Platform (UWP) เพื่อสร้างแอพที่รันได้บน Windows 10 ทุกรุ่น และเราเริ่มเห็นแอพดังๆ อย่าง Twitter และ Netflix มาลงแพลตฟอร์มนี้กันบ้างแล้ว\nอย่างไรก็ตาม มีข่าวไม่ยืนยันจากเมืองจีนว่า Tencent บริษัทไอทียักษ์ใหญ่ของจีน และพาร์ทเนอร์ร่วมเปิดตัว Windows 10 ในจีน หยุดการพัฒนาแอพบน UWP ทั้งหมด และถึงขั้นโยกนักพัฒนาในทีม UWP ไปอยู่ทีมอื่นด้วย\nนี่อาจเป็นคำอธิบายว่าทำไมเรายังไม่เห็น WeChat บน Windows 10 สักที และถ้าข่าวเป็นจริง การขยายฐานลูกค้าในจีนของไมโครซอฟท์ก็น่าจะยากขึ้นไปอีก\nที่มา - WMpoweruser\n", 
    "Date": "26/01/16", 
    "Image-Link": "https://www.blognone.com/sites/default/files/imagecache/news-thumbnail/category_pictures/tencent.png", 
    "Link": "https://www.blognone.com/node/77142", 
    "News": "[ไม่ยืนยัน] Tencent บริษัทแม่ WeChat หยุดพัฒนาแอพบน Windows 10", 
    "Tags": "Rumor\nTencent\nWeChat\nWindows 10\n", 
    "Time": "20:08"
}