{
  "By": "vvkungx", 
  "Contents": " หลังจาก Adobe ปล่อยอัพเดตแรกให้ Adobe XD ไปแล้วเมื่อเดือนเมษายน ทีมงานยังคงเดินหน้าอัพเดตฟีเจอร์ตามเสียงเรียกร้องของผู้ใช้กันต่อเนื่อง ล่าสุดคืออัพเดตประจำเดือนพฤษภาคมในเวอร์ชัน Public Preview 3 มีอัพเดตฟีเจอร์ดังต่อไปนี้  มีเครื่องมือตัวดูดสี (Color Picker) ให้ใช้งานและมาพร้อมกับถาดสี (Swatches) เลือกแก้ไขรูปแบบตัวอักษรที่จุดไหนก็ได้(ยกเว้นเปลี่ยนสี) เลือก artboard พร้อมกันหลายๆ อันและแก้ไข grid พร้อมกันได้ จัดตำแหน่งวัตถุใน artboard ได้ด้วยเมนู align รองรับการแสดงผล prototype แบบเลื่อนจอได้แล้ว โดยฟีเจอร์นี้เป็นฟีเจอร์ที่มีผู้ใช้เรียกร้องอยากให้มีมากที่สุด สามารถเปิดดู prototype บนเบราว์เซอร์ได้แบบเต็มจอ  ส่วนอัพเดตครั้งต่อไปจะมีฟีเจอร์เช่นใส่โค้ด HTML ลงไปใน prototype ได้, เพิ่มความเบลอให้วัตถุและเครื่องมือระยะของวัตถุใน artboard และมีผู้ใช้แจ้งแก่ทีมงาน Adobe ว่าพบปัญหาไม่รองรับไฟล์จาก Illustrator ขณะนี้ทีมงานได้แก้ไขเรียบร้อยแล้ว สามารถอัพเดต Adobe XD Public Preview 3 ได้แล้ววันนี้ที่ http://www.adobe.com/products/experience-design.html และหากใครต้องการฝากแจ้งปัญหาการใช้งานหรือต้องการเสนอฟีเจอร์ใหม่ๆ ลงไปในอัพเดตต่อๆ ไป สามารถแจ้งได้ที่ Adobe XD UserVoice  ครับ  ที่มา : Adobe Blog   ", 
  "Date": "10/June/2016", 
  "Image-Link": [
    "https://www.blognone.com/sites/default/files/styles/thumbnail/public/topics-images/adobe-xd.png?itok=LLcYqrfS", 
    "//upic.me/i/hm/ss2559-06-1011.42.13.jpg", 
    "/sites/all/themes/blognone42/images/linebutton.png"
  ], 
  "Link": "https://www.blognone.com/node/82106", 
  "News": "Adobe XD ปล่อยอัพเดตฟีเจอร์ประจำเดือนพฤษภาคมในเวอร์ชัน Public Preview 3 ", 
  "Tags": [
    "Adobe XD", 
    "Adobe", 
    "User Experience", 
    "Prototype"
  ], 
  "Time": "11:47"
}