{
  "By": "nrad6949", 
  "Contents": " เว็บไซต์ข่าว The Verge รายงานว่า Pizza Hut Asia, MasterCard และ SoftBank ประกาศร่วมกันว่าจะนำหุ่นยนต์ Pepper ที่ SoftBank ร่วมกับ Nestle และพันธมิตรอื่นๆ เช่น IBM พัฒนาขึ้น นำไปใช้งานจริงในเชิงพาณิชย์ครั้งแรกตามร้าน Pizza Hut ในเอเชีย (ไม่ระบุว่าที่ใดบ้าง) สำหรับการใช้งาน เพียงแค่ผู้ใช้บริการเชื่อมบริการ MasterPass ที่เป็นระบบรับชำระเงินของทาง MasterCard เข้ากับระบบซึ่งแสดงผลอยู่ที่หน้าอกของหุ่นยนต์ ก็จะสามารถสั่งงานได้ทันที โดยเฉพาะอย่างยิ่งจะแนะนำลูกค้าได้ว่าตอนนี้มีโปรโมชั่นแนะนำอะไรบ้าง รวมถึงแจ้งเตือนสิทธิพิเศษต่างๆ ที่เกี่ยวข้อง ส่วนการชำระเงินก็ใช้ MasterPass ที่ผูกเอาไว้ตอนแรก จ่ายเงินได้ทันที ตัวแอพที่ใช้กับ Pepper ถูกพัฒนาขึ้นโดยทีมงานของ MasterCard ที่สิงคโปร์ ซึ่งตอนแรกถูกปล่อยออกมาเป็นแนวคิดที่มีชื่อว่า MasterCard Pepper Cafe ครับ ที่มา - MasterCard, The Verge    ", 
  "Date": "25/May/2016", 
  "Image-Link": [
    "https://www.blognone.com/sites/default/files/styles/thumbnail/public/topics-images/softbank.png?itok=XjOOxfhR", 
    "https://c3.staticflickr.com/2/1532/26047919194_381be09545_z.jpg", 
    "/sites/all/themes/blognone42/images/linebutton.png"
  ], 
  "Link": "https://www.blognone.com/node/81363", 
  "News": "Pizza Hut Asia, MasterCard และ SoftBank ประกาศนำ Pepper ใช้งานจริงภายในสิ้นปีนี้", 
  "Tags": [
    "SoftBank", 
    "Robotics", 
    "MasterCard", 
    "Pizza Hut", 
    "Food"
  ], 
  "Time": "09:09"
}