{
  "By": "nismod", 
  "Contents": " อินเดียนับเป็นตลาดใหญ่ตลาดหนึ่ง โดยเฉพาะสมาร์ทโฟนระดับล่าง ทำให้ผู้ผลิตสมาร์ทโฟนหลายเจ้าทั้งระดับโลกและท้องถิ่น พยายามทำตลาดสมาร์ทโฟนราคาต่ำกว่า 5,000 บาทในประเทศที่มีประชากรเป็นอันดับ 2 ของโลกแห่งนี้ ซึ่งแน่นอนตลาดอันเย้ายวนเช่น นี้ แอปเปิลมีส่วนแบ่งเค้กเพียง 2% เท่านั้น เหตุนี้แอปเปิลยื่นเรื่องต่อรัฐบาลอินเดีย ในการนำ iPhone ที่ผ่านการซ่อม (refurbish) ที่มีอยู่จำนวนมากเข้าไปขาย ซึ่งทางกระทรวงโทรคมนาคมของอินเดียปฏิเสธคำขอนี้ โดยให้เหตุผลเพียงว่าเป็นนโยบายของรัฐ โดยเมื่อปีที่แล้วแอปเปิลเคยยื่นเรื่องในลักษณะนี้และโดนกระทรวงสิ่งแวดล้อมปฏิเสธมาแล้วครั้งหนึ่ง นอกจากสมาร์ทโฟนแล้ว ต้นปีที่ผ่านมาแอปเปิลยังได้ยื่นเรื่องขอเปิด Apple Store แห่งแรกในประเทศอินเดีย ซึ่งยังอยู่ระหว่างกระบวนการตัดสินใจของภาครัฐอีกด้วย ที่มา - Bloomberg   ", 
  "Date": "3/May/2016", 
  "Image-Link": [
    "https://www.blognone.com/sites/default/files/styles/thumbnail/public/topics-images/800px-Flag_of_India.svg_.png?itok=nE0Iaxck", 
    "/sites/all/themes/blognone42/images/linebutton.png"
  ], 
  "Link": "https://www.blognone.com/node/80577", 
  "News": "อินเดียปฏิเสธคำขอแอปเปิล ไม่อนุญาตให้นำ iPhone ที่ผ่านการซ่อมเข้าไปขายในประเทศ", 
  "Tags": [
    "India", 
    "Apple", 
    "iPhone"
  ], 
  "Time": "21:26"
}