{
  "By": "nutmos", 
  "Contents": " ปัจจุบัน แอพ Facebook แม้ว่าจะบังคับให้ไปใช้แอพ Messenger แต่ก็ยังมีวิธีหลบเลี่ยงได้ และตอนนี้มีรายงานจาก The Next Web ว่า Facebook จะถอดความสามารถส่งข้อความออกจากแอพ Facebook และจะบังคับให้ไปใช้ Messenger แทนภายในช่วงฤดูร้อนปีนี้ (มิถุนายน-สิงหาคม) นอกจากนี้ Facebook ก็เริ่มบังคับกลายๆ ให้ใช้ Messenger โดยไม่เพิ่มฟีเจอร์ใหม่ๆ เช่นสติ๊กเกอร์, วิดีโอ, แชทบอท และฟีเจอร์อื่นๆ ลงในแอพหลักของ Facebook ที่มา - The Next Web   ", 
  "Date": "6/June/2016", 
  "Image-Link": [
    "https://www.blognone.com/sites/default/files/styles/thumbnail/public/topics-images/messenger-500.png?itok=We0tzOrE", 
    "/sites/all/themes/blognone42/images/linebutton.png"
  ], 
  "Link": "https://www.blognone.com/node/81922", 
  "News": "Facebook จะถอดความสามารถในการแชทออกจากแอพหลัก บังคับใช้ Messenger", 
  "Tags": [
    "Facebook Messenger", 
    "Facebook"
  ], 
  "Time": "20:44"
}