{
    "By": "mk", 
    "Contents": "\nก่อนหน้านี้เราเห็นข่าวลือว่า Google Play เตรียมเปิดบริการในจีน ล่าสุดข่าวไม่ลือแล้ว หลัง Chen Xudong หัวหน้าฝ่ายมือถือของ Lenovo ออกมาให้สัมภาษณ์เองว่าแผนการของกูเกิลในการพา Google Play บุกเมืองจีนนั้นเดินหน้าไปตามแผน ซึ่งน่าจะเกิดขึ้นได้จริงภายในปี 2016 นี้\nเขายังพูดถึงแผนการควบรวม Motorola เข้ากับ Lenovo ว่าคงต้องใช้เวลาอีก 2-3 ปีกว่าทั้งสองบริษัทจะทำงานร่วมกันได้อย่างเต็มที่ ประสบการณ์ของ Lenovo ตอนควบรวม ThinkPad ต้องใช้เวลาทั้งหมด 4 ปี\nนอกจากนี้เขายังบอกว่าเราจะได้เห็นสมาร์ทโฟน Motorola ที่มีตัวอ่านลายนิ้วมือออกสู่ตลาดในปีนี้ และ Motorola จะออกสมาร์ทโฟนที่ขนาดหน้าจอ 5\" ขึ้นไปเท่านั้น\nที่มา - Sina.com (translated), 9to5google\n", 
    "Date": "11/01/16", 
    "Image-Link": "https://www.blognone.com/sites/default/files/imagecache/news-thumbnail/category_pictures/google-play-300.png", 
    "Link": "https://www.blognone.com/node/76595", 
    "News": "Lenovo บอก Google Play เปิดบริการในจีนปี 2016, มือถือ Motorola เพิ่มตัวอ่านลายนิ้วมือ", 
    "Tags": "Android\nChina\nGoogle\nGoogle Play\nLenovo\nMotorola\n", 
    "Time": "18:54"
}