{
    "By": "toandthen", 
    "Contents": "\nก่อนหน้านี้ แอปเปิลได้ปล่อยแอพ Move to iOS บน Google Play Store เพื่อที่จะช่วยให้ผู้ใช้ Android ที่ต้องการเปลี่ยนมาใช้ iOS สามารถย้ายข้อมูลต่าง ๆ ไปสู่ไอโฟนได้ง่ายยิ่งขึ้น วันนี้ The Telegraph ได้รายงานว่าแอปเปิลกำลังพัฒนาแอพพลิเคชั่นคล้าย ๆ กันนี้แต่เพื่อช่วยให้ผู้ใช้ iOS สามารถย้ายไป Android ได้ง่ายยิ่งขึ้น\nสาเหตุที่แอปเปิลต้องพัฒนาแอพพลิเคชั่นตัวนี้ เกิดจากการที่ผู้ให้บริการเครือข่ายในสหภาพยุโรป ได้ออกมาร้องเรียนว่าแอปเปิลใช้วิธีล็อคลูกค้าให้อยู่ใน Ecosystem ของตัวเอง ทำให้เครือข่ายเสียเปรียบในการเจรจาสัญญาต่าง ๆ กับทางแอปเปิล โดยในรายงานได้ระบุว่าแอปเปิล \"ยินยอม\" ที่จะเปิดบริการย้ายข้อมูลจาก iOS ไปสู่ Android\nหากแอปเปิลไม่ยินยอมที่จะเปิดบริการดังกล่าวนี้ ผลที่อาจจะตามมาก็คือผู้ให้บริการเครือข่าย อาจจะยื่นเรื่องสู่คณะกรรมการสหภาพยุโรป (European Commission) ซึ่งอาจจะทำให้แอปเปิลโดนคดีต่อต้านหรือขัดขวางการแข่งขันเสรีได้\nที่มา - 9to5Mac\n", 
    "Date": "11/01/16", 
    "Image-Link": "https://www.blognone.com/sites/default/files/imagecache/news-thumbnail/category_pictures/Apple_logo_black.svg_.png", 
    "Link": "https://www.blognone.com/node/76594", 
    "News": "[ข่าวลือ] แอปเปิลเตรียมทำแอพ Move to Android หลังโดนแรงกดดันจากผู้ให้บริการเครือข่ายในสหภาพยุโรป", 
    "Tags": "Android\nApple\nRumor\n", 
    "Time": "18:32"
}