{
  "By": "ตะโร่งโต้ง", 
  "Contents": " ข่าวเดี๋ยวนี้คงทำให้ผู้ที่ติดตามอ่านรู้กันดีอยู่แล้วว่าเทคโนโลยีปัญญาประดิษฐ์นั้นก้าวหน้าจนสามารถคิดวิเคราะห์และสร้างสรรค์สิ่งต่างๆ ได้มากมาย ด้วยพลังการคิดที่น่าทึ่ง มันสามารถหาคำตอบที่หลายคนคงไม่อาจคาดเดาได้ แน่นอนว่าการวิเคราะห์ประเมินและทำนายอันเป็นหลักใหญ่ใจความของการพนันก็ไม่เกินความสามารถของปัญญาประดิษฐ์เช่นกัน ล่าสุดก็สามารถทำนายผลแข่งม้าชนะเงินรางวัลที่มีอัตราสูงถึง 540:1 ได้สำเร็จ ปัญญาประดิษฐ์ที่ว่านี้มีชื่อว่า UNU ผลงานของบริษัท Unanimous AI มันเป็นปัญญาประดิษฐ์แบบกลุ่ม (swarm intelligence) ที่อธิบายง่ายๆ ก็คือมันมีหลาย \"สมอง\" ช่วยกันคิด อย่างที่รู้ว่าสองหัวดีกว่าหัวเดียว การคิดวิเคราะห์ด้วย \"สมอง\" หลายชุดที่ทำงานร่วมกันแบบเป็นกลุ่ม ซึ่งต่างก็ส่งผลต่อการตัดสินใจของกันและกัน ย่อมทำให้ผลการวิเคราะห์ถูกต้องแม่นยำยิ่งขึ้น UNU สามารถทำนายผลการแข่งขันม้ารายการ Kentucky Derby โดยทายชื่อม้า 4 ตัวแรกที่จะเข้าเส้นชัยได้ถูกต้องตามลำดับทั้งหมด (เรียกว่าเป็นการทายแบบ superfecta) ซึ่งว่ากันตามจริงแล้ว ใครที่ทายแบบนี้ได้ถูกจะได้รับเงินรางวัล 540 เท่าของเงินที่ลงเดิมพันไป (และนักข่าวที่ท้า UNU ให้ทำนายผลก็วางเดิมพัน 1 ดอลลาร์แล้วก็ชนะรางวัลจริงๆ) UNU ใช้ข้อมูลจากแฟนม้าแข่งที่รู้ข้อมูลเกี่ยวกับการแข่งขันนี้เป็นอย่างดีจำนวน 20 คน ซึ่งต่างก็ทายผลด้วยความคิดของตนเอง โดย UNU ใช้ข้อมูลทั้งหมดนั้นมาคิดวิเคราะห์และทำนายผลของมันเองอีกทีหนึ่ง ซึ่งอย่างที่บอกไปแล้วว่ามันทายชื่อม้าที่เข้าเส้นชัย 4 ตัวแรก ถูกต้องตามลำดับทั้งหมด ในขณะที่เหล่าแฟนม้าแข่งที่ร่วมกับงานทดสอบนี้ไม่มีใครทายถูกเลย ดอกเตอร์ Louis Rosenberg ซีอีโอของ Unanimous AI  อธิบายว่าการทำงานของ UNU นั้นไม่ใช่แค่การนับคะแนนเสียงแล้วเลือกคำตอบที่มีคนเลือกมากที่สุด หากแต่เป็นการวิเคราะห์เอาคำตอบที่ถูกต้องออกมา เขาบอกว่า การลงคะแนนนั้นจะให้ผลลัพธ์เป็นแค่ตัวเลือกที่ได้รับความนิยมที่สุดเท่านั้น แต่มันไม่อาจให้คำตอบที่เหมาะสมกับลักษณะเฉพาะของกลุ่มผู้ร่วมตัดสินใจอย่างแท้จริง ตัว Rosenborg เองก็บอกว่าเขาอึ้งไปเหมือนกันเมื่อทราบผลการแข่ง Kentucky Derby แล้วพบว่า UNU ทายถูกทั้งหมด ทิ้งท้ายกันอีกนิด เผื่อใครอยากย้อนดูว่าตกลงทุกวันนี้บรรดาปัญญาประดิษฐ์ทำอะไรกันได้บ้าง ปัจจุบันนี้ไม่ใช่แค่เพียงเป็นส่วนหนึ่งในการควบคุมอุปกรณ์อัตโนมัติหรือเป็นมันสมองเบื้องหลังแอพและซอฟต์แวร์ต่างๆ เท่านั้น ปัญญาประดิษฐ์ทุกวันนี้สามารถทำงานแทนมันสมองคนได้หลายอย่าง ตัวอย่างเช่น การช่วยวิเคราะห์อาการเจ็บป่วย, การเล่นเกมแข่งขันกับมนุษย์, การแต่งนิยาย, การแก้ไขภาพถ่าย, การช่วยออกแบบเครื่องแต่งกาย, การบริการทำหน้าที่ผู้ช่วยอาจารย์, การให้คำปรึกษาด้านกฎหมาย ที่มา - Digital Trends, Tech Insider, TechRepublic    ", 
  "Date": "14/May/2016", 
  "Image-Link": [
    "https://www.blognone.com/sites/default/files/styles/thumbnail/public/topics-images/Artificial-intelligence-elon-musk-hawking.jpg?itok=enWxyF0M", 
    "//upic.me/i/yo/unu-swarmaiwinhorseracebet1.jpg", 
    "/sites/all/themes/blognone42/images/linebutton.png"
  ], 
  "Link": "https://www.blognone.com/node/80963", 
  "News": "สะเทือนวงการรับพนัน เมื่อ AI แทงพนันม้าแข่ง Kentucky Derby ชนะเดิมพันต่อรอง 540:1", 
  "Tags": [
    "Artificial Intelligence"
  ], 
  "Time": "05:33"
}