{
  "By": "sunnywalker", 
  "Contents": " Honda ตั้งศุนย์วิจัย AI แห่งใหม่ในโตเกียว โดยใช้ชื่อว่า Honda R&D Innovation Lab Tokyo หลังจากที่ก่อนหน้านี Honda ตั้งศูนย์วิจัยในไซตามะ และวาโกะเพื่อทำการวิจัยพัฒนาหุ่นยนต์ Asimo Honda เชื่อว่าการตั้งศูนย์วิจัยในเมืองใหญ่อย่างโตเกียวจะช่วยให้ง่ายขึ้นในการร่วมงานกับบรรดามหาวิทยาลัย องค์กรต่างๆ รวมถึงบริษัทด้านเทคโนโลยีด้วย Honda ตั้งเป้าว่าจะเร่งพัฒนาหุ่นยนต์และรถไร้คนขับที่ซึ่งหวังให้ใช้งานตามทางด่วนได้ภายในปี 2020  รูปจากเว็บไซต์ฮอนด้า ที่มา - Japan Times   ", 
  "Date": "3/June/2016", 
  "Image-Link": [
    "https://www.blognone.com/sites/default/files/styles/thumbnail/public/topics-images/Honda.png?itok=OZRuisiy", 
    "http://i.imgur.com/JOOUL0Q.png", 
    "/sites/all/themes/blognone42/images/linebutton.png"
  ], 
  "Link": "https://www.blognone.com/node/81796", 
  "News": "Honda ตั้งศูนย์วิจัย AI ในโตเกียว", 
  "Tags": [
    "Honda", 
    "Artificial Intelligence", 
    "R&D", 
    "Automobile"
  ], 
  "Time": "10:35"
}