{
  "By": "sunnywalker", 
  "Contents": " การใช้หุ่นยนต์ในการผ่าตัดไม่ใช่เรื่องใหม่ โรงพยาบาลหลายแห่งในอังกฤษและสหรัฐฯใช้หุ่นยนต์ผู้ช่วยเพื่อให้การผ่าตัดมีประสิทธิภาพมากขึ้นมาแล้ว แต่คราวนี้คณะแพทย์จากศูนย์การแพทย์เด็กแห่งชาติ ในกรุงวอชิงตัน ของสหรัฐฯ ทดลองให้หุ่นยนต์ Star ปฏิบัติการเย็บแผลผ่าตัดตรงลำไส้หมูด้วยตนเองโดยไม่มีมนุษย์ช่วย เป้าหมายคือ ลบความผิดพลาดที่เกิดจากมือมนุษย์ที่เกิดขึ้นในการผ่าตัดและลดอัตราการเสียชีวิตลงได้ ผลการทดสอบครั้งนี้ตีพิมพ์ในวารสาร Science Translational Medicine โดย Star ใช้เทคนิคการเย็บแผลผ่านการอ่านภาพเรืองแสงบนเนื้อเยื่ออ่อนเพื่อจะได้รู้ว่าต้องลงเข็มในบริเวณไหน ซึ่งพบว่าเจ้า Star ทำงานได้ดีกว่าหมอเชี่ยวชาญเสียอีก Dr. Peter Kim หนึ่งในคณะวิจัยกล่าวว่า \"อนาคต เทคโนโลยีนี้จะนำมาใช้กับคนไข้มากขึ้นและวันหนึ่ง หุ่นยนต์จะสามารถผ่าตัดเคสที่เจอบ่อยๆได้เช่น ผ่าตัดถุงน้ำดี หรือผ่าไส้ติ่ง ตั้งแต่ต้นจนจบโดยมีเจ้าภาพเพียงหุ่นยนต์เท่านั้น\"  ภาพจากเว็บไซต์วารสาร sciencemag ที่มา - BBC   ", 
  "Date": "9/May/2016", 
  "Image-Link": [
    "https://www.blognone.com/sites/default/files/styles/thumbnail/public/topics-images/Artificial-intelligence-elon-musk-hawking.jpg?itok=enWxyF0M", 
    "http://i.imgur.com/3HPPcFh.jpg", 
    "/sites/all/themes/blognone42/images/linebutton.png"
  ], 
  "Link": "https://www.blognone.com/node/80751", 
  "News": "แพทย์สหรัฐฯทดลองให้หุ่นยนต์เย็บแผลผ่าตัดได้ด้วยตนเอง ไม่ต้องมีมนุษย์ช่วย", 
  "Tags": [
    "Artificial Intelligence", 
    "surgery", 
    "Robotics", 
    "Medical"
  ], 
  "Time": "14:40"
}