{
  "By": "sunnywalker", 
  "Contents": " Nokia เปิดตัวชิปเซ็ทรุ่นใหม่ Photonic Service Engine V.2 (PSE-2) เป็นผลจากการวิจัย Nokia Bell Labs โดยขยายเพิ่มเติมกลุ่มผลิตภัณฑ์ออปติคอลไฟเบอร์ 1830 PSS (Photonic Service Switch) อุปกรณ์ด้านเครือข่ายที่จะสามารถให้ความเร็วมากกว่า 70 เทราบิตต่อวินาที ส่งข้อมูลได้ 400 Gbps และส่งข้อมูลแบบ ultra long haul ได้ 100 Gbps ระยะทาง 5,000 กิโลเมตร (Nokia ระบุว่า เป็นเครื่องแรกของโลกที่ทำได้ 100 Gbps)  ชิปเซ็ทมีชื่อว่า PSE-2 ทำออกมา 2 รุ่น  PSE-2 Super Coherent (PSE-2s) รองรับคลื่นตั้งแต่ความเร็ว 100-500  Gbps ตั้งระยะการใช้งานในระยะไกลมากๆ ได้ โดย Nokia บอกว่าเป็นการรับส่งข้อมูลแบบ Single carrier 400 Gbps รายแรกของโลก  PSE-2 Compact (PSE-2c) เหมาะกับแอพพลิเคชั่นที่ใช้งานแบบ 100 Gbps และรองรับรูปแบบการจ่ายเท่าที่ใช้งาน   เซบาสเตียน โลฮอง ผู้อำนวยการ Nokia ประจำประเทศไทยระบุว่า ประเทศไทยมีความต้องการใช้ทราฟฟิกอินเทอร์เน็ตมากขึ้นอย่างก้าวกระโดด โดยโตขึ้น 73% ในช่วงปี 2012-2015 และถึงแม้ประเทศไทยประสบปัญหาเศรษฐกิจ แต่ความต้องการใช้ทราฟิกยังคงไม่ลดลงเลย แสดงถึงศักยภาพที่ประเทศไทยจะสามารถเข้าสู่ Digital Economy ได้เป็นอย่างดี  กลุ่มผลิตภัณฑ์ออปติคอลไฟเบอร์ 1830 PSS   ", 
  "Date": "25/May/2016", 
  "Image-Link": [
    "https://www.blognone.com/sites/default/files/styles/thumbnail/public/topics-images/nokia.png?itok=b6obgyXg", 
    "//i.imgur.com/Bqlki62.jpg?1”", 
    "//i.imgur.com/D0Xrnz5.jpg?1”", 
    "/sites/all/themes/blognone42/images/linebutton.png"
  ], 
  "Link": "https://www.blognone.com/node/81402", 
  "News": "Nokia เปิดตัวชิปเซ็ทไฟเบอร์ออปติกส์รุ่นใหม่ รองรับความต้องการยุค 100 Gbps", 
  "Tags": [
    "Nokia", 
    "Fiber Optics"
  ], 
  "Time": "18:35"
}