{
  "By": "nismod", 
  "Contents": " หลังเปิดตัว Automotive Grade Linux ไปตั้งแต่ปี 2014 ปีนี้ Linux Foundation ได้ออก AGL เวอร์ชัน 2.0 แล้ว ตัวอย่างฟีเจอร์ใหม่ที่เพิ่มเข้ามาได้แก่การรองรับหน้าจอและระบบควบคุมหน้าจอสัมผัสที่เบาะหลัง, ระบบ Audio Routing รองรับทั้งของ Tizen และ GENIVI รวมถึงมี build environment และ test infrastructure ใหม่ นอกจากฟีเจอร์แล้ว AGL 2.0 ยังรองรับฮาร์ดแวร์ใหม่ๆ ด้วยอย่างของ NXP, DragonBoard ของ Qualcomm, Vayu EVM และ Raspberry Pi ที่มา - Linux Foundation via The Register   ", 
  "Date": "13/July/2016", 
  "Image-Link": [
    "https://www.blognone.com/sites/default/files/styles/thumbnail/public/topics-images/linux_0.png?itok=1FxOQ83F", 
    "/sites/all/themes/blognone42/images/linebutton.png"
  ], 
  "Link": "https://www.blognone.com/node/83373", 
  "News": "Automotive Grade Linux ออกเวอร์ชัน 2.0 เพิ่มฟีเจอร์และฮาร์ดแวร์ที่รองรับ", 
  "Tags": [
    "Linux", 
    "Linux Foundation", 
    "Automobile", 
    "Open Source"
  ], 
  "Time": "12:24"
}