{
  "By": "lew", 
  "Contents": " ไอบีเอ็มเข้าเป็นสมาชิกระดับแพลทินัมของ R Consortium แล้วในวันนี้ โดยสมาชิกระดับนี้มีสามรายคือ ไอบีเอ็ม, ไมโครซอฟท์, และ RStudio การเข้าเป็นสมาชิกระดับนี้ทำให้ไอบีเอ็มสามารถส่งตัวแทนเข้ามาเป็นกรรมการของ R Consortium เพื่อแนะแนวทางด้านเทคนิคของชุมชน R ต่อไป ภาษา R ได้รับความนิยมสูงขึ้นเรื่อยๆ จากความต้องการประมวลผลข้อมูลขนาดใหญ่และข้อมูลทางสถิติ ไมโครซอฟท์เองก็เพิ่มฟีเจอร์ภาษา R เข้ามาใน Visual Studio แล้ว การที่ไอบีเอ็มเข้ามามีส่วนร่วมในชุมชน R เช่นนี้ก็เป็นเรื่องที่สมเหตุสมผลเพราะลูกค้าที่เป็นองค์กรขนาดใหญ่ก็อาจจะต้องใช้งานเทคโนโลยีที่เกี่ยวข้องกับ R มากขึ้นเรื่อยๆ ที่มา - R Consortium   ", 
  "Date": "7/June/2016", 
  "Image-Link": [
    "https://www.blognone.com/sites/default/files/styles/thumbnail/public/topics-images/ibm300.png?itok=QToF6k8H", 
    "/sites/all/themes/blognone42/images/linebutton.png"
  ], 
  "Link": "https://www.blognone.com/node/81950", 
  "News": "สู่โลกแห่งสถิติ IBM เข้าเป็นสมาชิกระดับแพลทินัมของ R Consortium", 
  "Tags": [
    "IBM", 
    "R", 
    "Programming", 
    "Open Source"
  ], 
  "Time": "13:03"
}