{
  "By": "mk", 
  "Contents": " นักพัฒนา Ubuntu เริ่มหารือเรื่องการเลิกรองรับสถาปัตยกรรม 32 บิตอย่างถาวร โดยมีแผนจะหยุดรองรับสถาปัตยกรรม i386 อย่างสมบูรณ์ในรุ่น Ubuntu 18.10 (ตุลาคม 2018) ระหว่างนั้น Ubuntu 16.10, 17.04, 17.10 จะค่อยๆ ลดการซัพพอร์ตรุ่น 32 บิตลงเรื่อยๆ โดยเริ่มจากการเลิกทำอิมเมจ 32 บิตสำหรับรุ่นเดสก์ท็อปและเซิร์ฟเวอร์ก่อน (ส่วนอิมเมจสำหรับงานประเภทอื่นจะยังคงมี 32 บิตอยู่ในช่วงนี้) และรุ่นสุดท้ายที่รองรับ 32 บิตคือ 18.04 LTS ซึ่งใช้งานได้อีกนาน Dimitri John Ledkov นักพัฒนาของ Canonical บอกว่าการรองรับสถาปัตยกรรม 32 บิต มีภาระที่ต้องรับผิดชอบมากมาย เช่น การออกแพ็กเกจทั้งหมดตามสถาปัตยกรรมนั้น, การตรวจสอบว่าทุกอย่างใช้งานได้ดี รวมถึงค่าแบนด์วิธและค่าพื้นที่สำหรับเก็บไฟล์ ตอนนี้แผนการนี้ยังอยู่ระหว่างการถกเถียงภายในชุมชนนักพัฒนา และยังไม่ได้ข้อยุติครับ ที่มา - OMG Ubuntu    ", 
  "Date": "29/June/2016", 
  "Image-Link": [
    "https://www.blognone.com/sites/default/files/styles/thumbnail/public/topics-images/ubuntu.png?itok=gAATZaZR", 
    "https://i.imgur.com/1sZREzT.png", 
    "/sites/all/themes/blognone42/images/linebutton.png"
  ], 
  "Link": "https://www.blognone.com/node/82823", 
  "News": "Ubuntu วางแผนยกเลิกสถาปัตยกรรมแบบ 32 บิต ตั้งเป้าเลิกหมดในปี 2018", 
  "Tags": [
    "Ubuntu", 
    "Linux", 
    "Open Source"
  ], 
  "Time": "18:19"
}