{
  "By": "lew", 
  "Contents": " โครงการ TLWG ย้ายระบบซอร์สโค้ดจาก linux.thai.net ไปยัง GitHub แล้ว เนื่องจากระบบโฮสต์มีเงื่อนไขให้ VPN ก่อนการเชื่อมต่อ โค้ดของ TLWG ที่เราใช้งานกันบ่อยๆ เช่น libthai ที่ช่วยตัดคำในลินุกซ์ การย้ายครั้งนี้จะย้ายเฉพาะซอร์สโค้ดเท่านั้น โดยประกาศโครงการต่างๆ ยังคงอยู่ที่เว็บเดิม ที่มา - TLWG   ", 
  "Date": "13/May/2016", 
  "Image-Link": [
    "https://www.blognone.com/sites/default/files/styles/thumbnail/public/topics-images/Octocat.png?itok=T5TOyUMS", 
    "/sites/all/themes/blognone42/images/linebutton.png"
  ], 
  "Link": "https://www.blognone.com/node/80952", 
  "News": "โครงการ TLWG ย้ายซอร์สโค้ดไป GitHub", 
  "Tags": [
    "GitHub", 
    "Open Source", 
    "Thailand"
  ], 
  "Time": "18:26"
}