{
  "By": "lew", 
  "Contents": " SiFive ผู้พัฒนาซีพียูออกซีพียูโอเพนซอร์สสองรุ่นบนสถาปัตยกรรมชุดคำสั่ง RISC-V ทั้งสองรุ่นได้แก่ Freedom U500 ซีพียู 64 บิตรองรับการทำงานแบบมัลติคอร์ เชื่อมต่อความเร็วสูง PCIe 3.0, USB 3.0, แลนกิกะบิต, DDR3/4 ผลิตด้วยเทคโนโลยี 28 นาโนเมตร ตัว U500 จะสามารถพัฒนาบนบอร์ด FPGA อย่าง Xilinx Vertex-7 หรือ Microsemi SF2+ ได้ ราคาบอร์ดเริ่มที่ 125 ดอลลาร์ รองรับลินุกซ์ Freedom E300 ซีพียู 32 บิตขนาดเล็กสำหรับอุปกรณ์ IoT ผลิตด้วยเทคโลยี 180 นาโนเมตร มีหน่วยความจำแฟลชและแรมในตัว การพัฒนาใช้บอร์ด Digilent Arty ราคาบอร์ด 99 ดอลลาร์ รองรับ FreeRTOS ผู้พัฒนาซีพียูที่เปิดให้ผู้ผลิตภายนอกสามารถซื้อพิมพ์เขียวไปผลิตได้เช่น ARM นั้นคิดค่าเข้าใช้งานเริ่มต้น 40,000 ดอลลาร์สำหรับชิป Cortex-M0 แต่ Freedom ไม่มีค่าใช้จ่ายแต่อย่างใด ความเป็นไปได้ที่ SiFive จะทำรายได้คือการผลิตชิปของตนเองหรือรับจ้างดัดแปลงซีพียู ที่สามารถเพิ่มได้ทั้ง I/O, ชุดคำสั่ง, หรือวงจรเร่งความเร็วเพิ่มเติม ที่มา - EE Times    ", 
  "Date": "13/July/2016", 
  "Image-Link": [
    "https://www.blognone.com/sites/default/files/styles/thumbnail/public/news-thumbnails/H7B1_yFo.jpg?itok=4X-wcCKT", 
    "//upic.me/i/4f/screenshot_2016-07-13_19-07-15.jpg", 
    "/sites/all/themes/blognone42/images/linebutton.png"
  ], 
  "Link": "https://www.blognone.com/node/83398", 
  "News": "SiFive เปิดตัวซีพียูโอเพนซอร์สสองรุ่น", 
  "Tags": [
    "CPU", 
    "Open Source"
  ], 
  "Time": "19:31"
}