{
  "By": "mk", 
  "Contents": " ความร้อนแรงของ Pokemon Go (แม้เพิ่งเปิดให้บริการไม่กี่ประเทศ) ส่งผลสะเทือนในวงกว้าง ผลดีในทางบวกคือราคาหุ้นของนินเทนโดในตลาดหลักทรัพย์โตเกียว (Tokyo Stock Exchange) เพิ่มขึ้นทันที 10% หลัง Pokemon Go เปิดตัว ถึงแม้ Pokemon Go ไม่ใช่ผลงานของนินเทนโดโดยตรง แต่เป็นความร่วมมือของ The Pokémon Company International ที่นินเทนโดถือหุ้นเพียง 1 ใน 3 (ที่เหลือถือโดย Game Freak และ Creatures บริษัทที่พัฒนาเกมในซีรีส์ Pokemon) และ Niantic Labs ผู้พัฒนาเกม Ingress ที่แยกตัวมาจากกูเกิล แต่คนส่วนใหญ่ก็จดจำได้ว่าแบรนด์ Pokemon เป็นของนินเทนโดนั่นเอง ช่วงหลังนินเทนโดกำลังย่ำแย่จาก Wii U ที่ไม่เป็นไปตามเป้า และบริษัทเองก็ประกาศตัวแล้วว่าจะทำเกมลงมือถือด้วย ตัวอย่างของ Pokemon Go น่าจะสะท้อนไปยังนินเทนโดได้ว่าการสร้างเกมบนมือถือแล้วประสบความสำเร็จควรเป็นอย่างไร ที่มา - Reuters, VentureBeat    ", 
  "Date": "10/July/2016", 
  "Image-Link": [
    "https://www.blognone.com/sites/default/files/styles/thumbnail/public/topics-images/pokemon.png?itok=7HuOXT6S", 
    "http://i.imgur.com/eOZVbb7.png", 
    "/sites/all/themes/blognone42/images/linebutton.png"
  ], 
  "Link": "https://www.blognone.com/node/83236", 
  "News": "พลังแห่ง Pokemon Go ช่วยดัน หุ้นนินเทนโดราคาขึ้นถึง 10%", 
  "Tags": [
    "Pokemon", 
    "Nintendo", 
    "Games", 
    "Stock", 
    "Niantic Labs"
  ], 
  "Time": "13:49"
}