{
  "By": "mk", 
  "Contents": " นินเทนโด เผยข้อมูลในการประชุมผู้ถือหุ้นว่า The Legend of Zelda: Breath of the Wild เกมภาคใหม่ล่าสุด จะต้องขายให้ได้ 2 ล้านชุดถึงจะมีกำไรคุ้มค่าทีมงานทั้งหมด 300 คนและใช้เวลาการพัฒนากว่า 5 ปี ปัจจุบันเกมมีทีมงานกำลังร่วมพัฒนาประมาณ 100 คน The Legend of Zelda: Breath of the Wild จะลงทั้ง Wii U และ NX โดยมีกำหนดออกปี 2017 แต่ยังไม่ได้ระบุเวลาชัดเจน เกมภาคก่อนๆ อย่าง Skyward Sword บน Wii เคยมีข้อมูลว่าขายได้ 3.4 ล้านชุดภายใน 2 เดือนแรกที่วางขาย ที่มา - Gamespot    ", 
  "Date": "29/June/2016", 
  "Image-Link": [
    "https://www.blognone.com/sites/default/files/styles/thumbnail/public/topics-images/zelda.png?itok=7tCgiTRa", 
    "https://i.imgur.com/UucvCyT.jpg", 
    "/sites/all/themes/blognone42/images/linebutton.png"
  ], 
  "Link": "https://www.blognone.com/node/82828", 
  "News": "นินเทนโดเผย Zelda: Breath of the Wild ต้องขายได้ 2 ล้านชุดถึงมีกำไร", 
  "Tags": [
    "Zelda", 
    "Games", 
    "Nintendo"
  ], 
  "Time": "20:22"
}