{
  "By": "nismod", 
  "Contents": " เราเห็น Nintendo พยายามหาทางออกให้กับธุรกิจของตัวเองมาตลอด หลังยอดขายทั้งเครื่องเกมและตัวเกมลดลงเรื่อยๆ ล่าสุด Tatsumi Kimishima ประธานของ Nintendo ให้สัมภาษณ์สำนักข่าวของญี่ปุ่น เปิดเผยว่าบริษัทจะกระโดดเข้าไปเล่นในธุรกิจภาพยนตร์อย่างจริงจัง เช่นเดียวกับ Rovio ค่ายเกมเจ้าของ Angry Birds ที่หันมาทำภาพยนตร์อนิเมชันจากเกมของตัวเองและกำลังเข้าฉายอยู่ในขณะนี้ Kimishima ไม่ได้กำหนดกรอบระยะเวลาอย่างจริงจัง สำหรับภาพยนตร์เรื่องแรกของบริษัท กล่าวแต่เพียงว่าไม่น่าเกิน 5 ปี ซึ่งแนวภาพยนตร์ที่ Nintendo จะทำคือการ์ตูนอนิเมะมากกว่าที่จะเป็นแบบคนแสดง ขณะที่กระบวนการผลิต Nintendo จะดูแลเองทั้งหมดเท่าที่จะทำได้ โดยก่อนหน้านี้ Nintendo เคยมีส่วนร่วมกับการสร้างภาพยนตร์มาแล้วคือ ซีรีส์โปเกมอนและโปเกมอน เดอะ มูฟวี่ รวมถึงเรื่อง Super Mario Bros ฉบับคนแสดงในปี 1993 ที่เจ๊งไม่เป็นท่า ซึ่งล้วนแล้วแต่ร่วมมือกับบริษัทภายนอกทั้งสิ้น ต้องติดตามกันต่อไปว่า แนวทางธุรกิจใหม่ของ Nintendo จะช่วยให้บริษัทฟื้นตัวจากความตกต่ำช่วงนี้หรือไม่ครับ ที่มา - Quartz   ", 
  "Date": "16/May/2016", 
  "Image-Link": [
    "https://www.blognone.com/sites/default/files/styles/thumbnail/public/topics-images/Nintendo.png?itok=5NxPyW7Z", 
    "/sites/all/themes/blognone42/images/linebutton.png"
  ], 
  "Link": "https://www.blognone.com/node/81042", 
  "News": "ประธาน Nintendo เผยบริษัทจะหันไปทำธุรกิจภาพยนตร์ เน้นที่การ์ตูนอนิเมะเป็นหลัก ", 
  "Tags": [
    "Nintendo", 
    "Movie"
  ], 
  "Time": "21:43"
}