{
  "By": "trinakub", 
  "Contents": " เกม RPG สะสมมอนสเตอร์สุดคลาสสิคอย่าง Pokemon ที่เป็นที่ชื่นชอบในวัยเด็กของใครหลาย ๆ คน กำลังจะมีภาคใหม่ออก นั่นคือภาค Sun & Moon ซึ่งจะวางจำหน่ายวันที่  18 พฤศจิกายน 2559 ในเขตอเมริกาเหนือกับญี่ปุ่น 23 พฤศจิกายน 2559 ในเขตยุโรป  ตัวเกมสามารถรองรับภาษาได้ทั้งหมด 9 ภาษา ด้วยกัน หนึ่งในนั้นมีภาษาของประเทศ จีนแผ่นดินใหญ่ ฮ่องกง และ ไต้หวัน รวมอยู่ด้วย ซึ่งเป็นภาษาที่เกิดปัญหาดังกล่าวขึ้น  ", 
  "Date": "31/May/2016", 
  "Image-Link": [
    "https://www.blognone.com/sites/default/files/styles/thumbnail/public/topics-images/pokemon.png?itok=7HuOXT6S"
  ], 
  "Link": "https://www.blognone.com/node/81670", 
  "News": "แฟน ๆ เกม Pokemon ในฮ่องกงรวมตัวกันประท้วง เหตุไม่ชอบใจชื่อใหม่ของโปเกม่อน", 
  "Tags": [
    "Games", 
    "Pokemon", 
    "Nintendo", 
    "Hong Kong"
  ], 
  "Time": "23:20"
}