{
  "By": "nrad6949", 
  "Contents": " เว็บไซต์ TechCrunch รายงานว่า Facebook ได้เพิ่มความสามารถให้กับ Facebook Live สามารถถ่ายทอดสดได้ 24 ชั่วโมง จากเดิมที่จำกัดไว้เพียง 90 นาที โดยผ่าน API ที่มีชื่อว่า Continuous Live Video API เหล่านี้จะอนุญาตให้ผู้ผลิตเนื้อหาและออกอากาศมืออาชีพ สามารถถ่ายทอดสดรายงานหรือรายการต่างๆ ผ่านอุปกรณ์มืออาชีพได้ทันที โดยมีบางเว็บเช่น explorer.org เริ่มเอาไปใช้งานถ่ายทอดสดชีวิตของเหยี่ยว Bald Eagle แล้ว อย่างไรก็ตาม Continuous Live Video API ตัวนี้มีข้อจำกัดคือไม่สามารถกลับมาเล่นซ้ำได้หลังจากจบการถ่ายทอดสด (non-replayable) ดังนั้นจึงอาจไม่เหมาะกับบางสถานการณ์ที่ต้องการการถ่ายทอดสดนานๆ และสามารถนำกลับมาเล่นซ้ำได้ใหม่อยู่ดี (เช่น งานเสวนา เป็นต้น) นอกจากนั้นแล้ว Facebook ยังเพิ่มคุณสมบัติที่เรียกว่า geogating หรือควบคุมผู้ชมจากตัวเลือกที่กำหนด เช่นประเทศที่รับชมได้ อายุผู้ชม เวลาที่วิดีโอหมดอายุ เป็นต้น ที่มา - TechCrunch    ", 
  "Date": "24/May/2016", 
  "Image-Link": [
    "https://www.blognone.com/sites/default/files/styles/thumbnail/public/topics-images/fb-500.png?itok=7KEmyKx1", 
    "https://i.imgur.com/Y2xhUPs.jpg", 
    "/sites/all/themes/blognone42/images/linebutton.png"
  ], 
  "Link": "https://www.blognone.com/node/81311", 
  "News": "Facebook เพิ่มความสามารถให้ Facebook Live ผ่าน API ถ่ายทอดสดได้ 24 ชั่วโมง", 
  "Tags": [
    "Facebook Live", 
    "Facebook", 
    "Broadcast", 
    "API"
  ], 
  "Time": "08:17"
}