{
  "By": "mk", 
  "Contents": " อินเทลเปิดตัว Xeon E3-1500 v5 ซึ่งเป็นหน่วยประมวลผล Xeon ที่ใช้สถาปัตยกรรม Skylake ตัวที่สอง ถัดจาก Xeon E3-1200 ที่เคยเปิดตัวมาก่อนแล้ว Xeon E3-1500 v5 ชูจุดเด่นเรื่องการประมวลผลกราฟิกและวิดีโอ มาพร้อมกับจีพียู Intel Iris Pro P580 ให้ประสิทธิภาพด้านกราฟิกดีขึ้นกว่าเดิม นอกจากนี้ยังมีตัวเร่งประมวลผลวิดีโอ AVC และ HEVC มาให้ในตัว Xeon E3-1500 v5 มีทั้งหมด 5 รุ่นย่อยคือ E3-1585 รุ่นท็อปสุด ความถี่ 3.5GHz, E3-1585L, E3-1565L, E3-1578L, E3-1558L รายละเอียดแต่ละรุ่นดูตามตารางครับ ที่มา - Intel (PDF)    ", 
  "Date": "1/June/2016", 
  "Image-Link": [
    "https://www.blognone.com/sites/default/files/styles/thumbnail/public/topics-images/xeon.png?itok=PfvgquaT", 
    "https://i.imgur.com/Dh3Pj3t.png", 
    "/sites/all/themes/blognone42/images/linebutton.png"
  ], 
  "Link": "https://www.blognone.com/node/81682", 
  "News": "อินเทลเปิดตัว Xeon E3-1500 v5 สถาปัตยกรรม Skylake เน้นงานกราฟิกและวิดีโอ", 
  "Tags": [
    "Xeon", 
    "Intel", 
    "Skylake", 
    "Processor", 
    "CPU"
  ], 
  "Time": "09:23"
}