{
    "By": "mk", 
    "Contents": "\nMicrosoft Philanthropies หน่วยงานการกุศลของไมโครซอฟท์ที่เพิ่งก่อตั้งเมื่อปลายปี เปิดตัวมาไม่นานก็จู่โจมด้วยการบริจาคเครดิต \"บริการคลาวด์\" ของไมโครซอฟท์เอง (เช่น Azure, Power BI, CRM Online) ให้องค์กรไม่หวังผลกำไรใช้งานฟรี คิดเป็นมูลค่ารวม 1 พันล้านดอลลาร์ในอีก 3 ปีข้างหน้า เป้าหมายคือเข้าถึง 70,000 องค์กร\nนอกจากนี้ไมโครซอฟท์ยังขยายโครงการ Microsoft Azure for Research หรือการให้เครดิต Azure ฟรีกับหน่วยงานด้านวิจัยอีก 50% จากของเดิม (ปัจจุบันโครงการนี้มีโครงการวิจัยเข้าร่วม 600 โครงการ จะเพิ่มเป็น 900 โครงการ) และสุดท้ายคือไมโครซอฟท์จะช่วยลงทุนด้านการเข้าถึงอินเทอร์เน็ตในพื้นที่ห่างไกลอีก 20 โครงการใน 15 ประเทศทั่วโลกด้วย\nที่มา - Microsoft, Microsoft Blog\n\n", 
    "Date": "20/01/16", 
    "Image-Link": "https://www.blognone.com/sites/default/files/imagecache/news-thumbnail/category_pictures/microsoft-new.png", 
    "Link": "https://www.blognone.com/node/76925", 
    "News": "ใจบุญ ไมโครซอฟท์แจกเครดิตบริการคลาวด์ 1 พันล้านดอลลาร์ให้หน่วยงาน NGO ใช้ฟรี", 
    "Tags": "Cloud Computing\nMicrosoft\nMicrosoft Azure\nPhilanthropy\n", 
    "Time": "15:49"
}