{
    "By": "mk", 
    "Contents": "\nFacebook สนับสนุน Tor และเปิดโดเมน facebookcorewwwi.onion มาตั้งแต่ปี 2014 แล้ว วันนี้ Facebook ก้าวไปอีกขั้นโดยเพิ่มฟีเจอร์ให้ Facebook for Android รองรับการสื่อสารผ่าน Tor ด้วย\nผลคือผู้ใช้อุปกรณ์พกพา Android สามารถใช้งาน Facebook อย่างปลอดภัยบนเครือข่าย Tor โดยตรง (ไม่ต้องเข้าจากเว็บเบราว์เซอร์บนมือถืออีกต่อไป) การใช้งานจำเป็นต้องติดตั้งแอพ Orbot ที่เป็นพร็อกซี่ Tor ก่อน จากนั้นก็เปิดใช้งานในแอพ Facebook for Android อีกทีหนึ่ง\nหลายคนอาจสงสัยว่าทำไมเราต้องเชื่อมต่อผ่าน Tor คำตอบคือในกรณีที่ผู้ใช้ต้องการปิดบังตัวตน (ไม่ว่าจะด้วยเหตุใดก็ตาม) ไม่ให้รู้ว่าก่อนทราฟฟิกไปถึง Facebook นั้นต้นทางมาจากที่ไหนกันแน่\nที่มา - Facebook\n\n", 
    "Date": "20/01/16", 
    "Image-Link": "https://www.blognone.com/sites/default/files/imagecache/news-thumbnail/category_pictures/Tor_logo0.png", 
    "Link": "https://www.blognone.com/node/76917", 
    "News": "Facebook for Android รองรับการเชื่อมต่อผ่านเครือข่าย Tor", 
    "Tags": "Facebook\nPrivacy\nTor\n", 
    "Time": "12:29"
}