{
  "By": "osmiumwo1f", 
  "Contents": " แม้ปีนี้ Ubisoft ประกาศแล้วว่าปีนี้จะไม่มีเกม Assasin's Creed แต่ในส่วนของหนัง Assasin's Creed ที่จะเข้าฉายในช่วงเดือนธันวาคมนี้ทาง Kernel ได้เปิดให้จองตั๋วล่วงหน้าแล้ว โดยมีให้เลือกตั้งแต่ราคา $15 ที่จะได้รหัสสำหรับจองตั๋วหนังในเว็บ MovieTickets.com บทแสดงแบบดิจิทัล และเบื้องหลังการถ่ายทำ จนถึงราคา $1,200 ที่จะได้หน้าไม้จำลองที่ปรากฎในหนัง รหัสสำหรับจองตั๋วหนังฯ บทแสดงแบบดิจิทัล และเบื้องหลังการถ่ายทำ สำหรับแฟน Assasin's Creed ที่สนใจสามารถเข้าชมไปเว็บไซต์พร้อมโปรโมชันจองตั๋วล่วงหน้าได้ที่ที่มาของข่าวครับ ที่มา - Kernel  คลิปเปิดตัวหนัง   ", 
  "Date": "18/May/2016", 
  "Image-Link": [
    "https://www.blognone.com/sites/default/files/styles/thumbnail/public/topics-images/Assassin%27s_Creed_Logo.svg_.png?itok=sU87gpLt", 
    "http://i.imgur.com/3SFib5P.jpg", 
    "/sites/all/themes/blognone42/images/linebutton.png"
  ], 
  "Link": "https://www.blognone.com/node/81154", 
  "News": "หนัง Assasin's Creed เปิดให้จองตั๋วล่วงหน้าแล้ว", 
  "Tags": [
    "Movie", 
    "Assassin’s Creed"
  ], 
  "Time": "18:02"
}