{
  "By": "arjin", 
  "Contents": " Jeff Bezos ซีอีโอ Amazon ให้สัมภาษณ์โดยตอบคำถามประเด็นที่ Amazon หยุดขาย Apple TV กับ Google Chromecast บนเว็บไซต์ ซึ่งคาดเดาก่อนหน้านี้ว่าเพื่อให้สินค้า Fire TV และ Fire TV Stick ของตนโดดเด่นขึ้น แต่ถึงอย่างนั้นการกระทำดังกล่าวก็ขัดกับภาพลักษณ์ร้านค้าที่มีสินค้าทุกชนิดจำหน่าย Bezos บอกว่า Amazon ไม่เคยมีปัญหาใดๆ ที่จะจำหน่ายสินค้าคู่แข่งบนเว็บไซต์ เพราะเป็นเรื่องที่ทำเป็นปกติอยู่แล้ว แต่เมื่อ Amazon ขายสินค้าคู่แข่งไป Amazon ก็ต้องการให้ตัวเล่นวิดีโอของ Amazon มีอยู่บนนั้นได้ด้วย บนข้อตกลงทางธุรกิจที่ยอมรับกันได้ แต่เมื่อไม่เป็นเช่นนั้น สินค้าเหล่านั้นจึงไม่มีจำหน่าย เมื่อถามว่าข้อตกลงทางธุรกิจที่ว่าเป็นอย่างไร Besoz ปฏิเสธที่จะให้ข้อมูลเนื่องจากเป็นความลับทางธุรกิจ ที่มา: Business Insider ภาพ Dan Farber    ", 
  "Date": "1/June/2016", 
  "Image-Link": [
    "https://www.blognone.com/sites/default/files/styles/thumbnail/public/topics-images/jeff.jpg?itok=j-xPtDb7", 
    "http://i.imgur.com/TBZxnOV.jpg", 
    "/sites/all/themes/blognone42/images/linebutton.png"
  ], 
  "Link": "https://www.blognone.com/node/81707", 
  "News": "Jeff Bezos อธิบายสาเหตุที่ Amazon ไม่ขาย Apple TV กับ Chromecast เพราะข้อตกลงทางธุรกิจ", 
  "Tags": [
    "Jeff Bezos", 
    "Amazon", 
    "Apple TV", 
    "Chromecast"
  ], 
  "Time": "16:15"
}