{
  "By": "mk", 
  "Contents": " eBay เป็นเว็บใหญ่รายล่าสุดที่ประกาศรองรับฟอร์แมต AMP ของกูเกิล เพื่อให้การเข้าชม mobile web จากอุปกรณ์พกพารวดเร็วกว่าเดิม (ตัวอย่างหน้าเว็บเวอร์ชัน AMP, หน้าเว็บเวอร์ชันปกติ) eBay ระบุว่าสเปกของ AMP ออกแบบมาสำหรับเว็บข่าวเป็นหลัก แต่ก็ครอบคลุมความต้องการของ eBay สำหรับสร้างเว็บคอมเมิร์ซเกือบหมดเช่นกัน อย่างไรก็ตาม มีบางฟีเจอร์ที่ eBay ต้องการแต่สเปกของ AMP ในปัจจุบันยังไม่รองรับ เช่น ยังไม่รองรับปุ่มคำสั่งที่ตอบสนองทันทีอย่างปุ่ม Add to Cart หรือการวิเคราะห์ข้อมูลระดับสูงบางอย่าง ซึ่ง eBay จะร่วมมือกับกูเกิลเพื่อพัฒนา AMP ให้มีความสามารถมากขึ้นต่อไป ตอนนี้บางหน้าของ eBay เป็น AMP เรียบร้อยแล้ว แม้จะยังไม่สมบูรณ์ครบทุกหน้าก็ตาม ที่มา - eBay    ", 
  "Date": "2/July/2016", 
  "Image-Link": [
    "https://www.blognone.com/sites/default/files/styles/thumbnail/public/topics-images/ebay.png?itok=J_By0Pt8", 
    "https://i.imgur.com/mr5B4Py.png", 
    "/sites/all/themes/blognone42/images/linebutton.png"
  ], 
  "Link": "https://www.blognone.com/node/82923", 
  "News": "eBay เริ่มรองรับ AMP สำหรับการแสดงเว็บบนอุปกรณ์พกพาแล้ว", 
  "Tags": [
    "eBay", 
    "AMP"
  ], 
  "Time": "06:59"
}