{
  "By": "nrad6949", 
  "Contents": " eBay ประกาศความร่วมมือกับ Myer ห้างสรรพสินค้ารายใหญ่ของออสเตรเลีย ประกาศเปิดตัวห้างสรรพสินค้าแบบ virtual reality (VR) เป็นครั้งแรก พร้อมเทคโนโลยี \"Sight Search\" ที่ใช้การมองสินค้าก็สามารถสั่งซื้อได้ ห้างสรรพสินค้าดังกล่าวนี้ใช้เทคโนโลยี VR ที่มีอยู่แล้วในท้องตลาด (ตามข่าวระบุว่าใช้ได้กับ Samsung Gear VR และ Google Cardboard) โดย eBay พัฒนาเทคโนโลยีที่เรียกว่า \"Sight Search\" ซึ่งเพียงผู้ใช้เลือกมุมมองที่ต้องการ (จะมี cursor กำหนดให้ ลองดูจากวิดีโอด้านล่างได้) ก็สามารถที่จะเลือกชมสินค้าตามที่ต้องการได้ และสามารถสั่งซื้อได้ด้วย (กระบวนการสั่งซื้อดำเนินการโดย eBay ซึ่งผู้ใช้ต้องยืนยันว่าจะซื้อและชำระเงินอีกครั้งหนึ่งด้วยตัวเอง แบบเดียวกับการสั่งของจาก Amazon Dash ที่ต้องมารีวิวในแอพอีกทีก่อนกดยืนยัน) เพื่อเป็นการโปรโมทโครงการนี้ ทั้งสองบริษัทจัดโปรแกรมแจกแว่น VR ที่เป็น Google Cardboard เรียกว่า \"shopticals\" ให้ผู้สนใจฟรี 20,000 ราย (ปล่อยออกมาวันละ 1,000 ชิ้น) ใครอยู่ออสเตรเลียและอยากได้แว่นก็สามารถเข้าไปที่เว็บไซต์ eBay ของออสเตรเลียเพื่อขอแว่นได้ครับ ที่มา - Engadget   ", 
  "Date": "19/May/2016", 
  "Image-Link": [
    "https://www.blognone.com/sites/default/files/styles/thumbnail/public/topics-images/ebay.png?itok=J_By0Pt8", 
    "/sites/all/themes/blognone42/images/linebutton.png"
  ], 
  "Link": "https://www.blognone.com/node/81211", 
  "News": "eBay ร่วมมือกับ Myer ห้างสรรพสินค้าในออสเตรเลีย ทดลองเปิดห้างสรรพสินค้า VR", 
  "Tags": [
    "eBay", 
    "Virtual Reality", 
    "E-commerce", 
    "Australia"
  ], 
  "Time": "20:58"
}