{
  "By": "trinakub", 
  "Contents": " ได้มีการประกาศมาเกือบๆปีกว่าแล้วสำหรับเกม Iron Sight เกม FPS แนวยุคอนาคตจากค่าย Wiple Games ให้บริการโดย Neowiz ซึ่งล่าสุดมีการประกาศว่าจะเปิดให้ทดสอบช่วง Closed Beta อีกครั้งในวันที่ 14-19 มิถุนายนนี้ครับ โดยเกม Iron Sight นั้นเป็นเกมแนว FPS ยุคอนาคตซึ่งจะเปิดให้เล่นแบบ Free-to-Play ซึ่งตัวเกมนั้นจะเกิดสงครามโลกในปี2025 จะเป็นสงครามโลกระหว่างกลุ่มคน2กลุ่มโดยรายละเอียดนั้นยังไม่ เผยออกมามากนักครับ  ที่มา -mmoculture   ", 
  "Date": "4/June/2016", 
  "Image-Link": [
    "https://www.blognone.com/sites/default/files/styles/thumbnail/public/news-thumbnails/Iron-Sight.jpg?itok=UTDFsOP6", 
    "http://i.imgur.com/zpOnglP.jpg", 
    "/sites/all/themes/blognone42/images/linebutton.png"
  ], 
  "Link": "https://www.blognone.com/node/81839", 
  "News": "Iron Sight เตรียมเปิดทดสอบอีกครั้งช่วง Closed Beta 14 มิถุนายนนี้", 
  "Tags": [
    "Iron Sight", 
    "Games", 
    "FPS"
  ], 
  "Time": "01:29"
}