{
  "By": "trinakub", 
  "Contents": " เกม Sudden Attack 2 เคยเป็นเกม FPS ที่นิยมที่สุดในเกาหลีใต้ (ก่อนที่เกม Overwatch จะเปิดตัว) ล่าสุดต้นสังกัด Nexon Korea ประกาศว่าว่ามีผู้เล่นมากกว่า 640,000 คน ลงทะเบียนล่วงหน้าเพื่อรอเกมเปิดอย่างเป็นทางการ นอกจากนี้ Nexon ยังออกคลิปใหม่เกม Sudden Attack 2 เปิดเผยตัวอย่างเกม และให้เห็นตัวละครผู้หญิงคนใหม่อีกด้วย ตัวอย่างข้างล่างนี่ถูกปล่อยมาเมื่ออาทิตย์ก่อน เป็นตัวอย่างการเล่นของแผนที่ Central Station เหมือนจะเป็นเอกลักษณ์ของเกม FPS เกาหลีไปแล้วที่ต้องมีโหมด PvE (Player Versus Environment) หรือโหมดยิงซอมบี้มาด้วย Sudden Attack จะเปิดตัวที่เซิฟญี่ปุ่นปลายปีนี้ และยังไม่คอนเฟิร์มว่าจะมีเซิฟเวอร์ภาษาอังกฤษหรือไม่ครับ ที่มา - mmoculture   ", 
  "Date": "10/July/2016", 
  "Image-Link": [
    "https://www.blognone.com/sites/default/files/styles/thumbnail/public/news-thumbnails/sd-000.jpg?itok=5UN37vO9", 
    "/sites/all/themes/blognone42/images/linebutton.png"
  ], 
  "Link": "https://www.blognone.com/node/83235", 
  "News": "Sudden Attack 2 เกม FPS ยอดนิยมในเกาหลี ผู้เล่นกว่า 640,000 รายสมัครล่วงหน้า", 
  "Tags": [
    "Sudden Attack", 
    "FPS", 
    "Nexon", 
    "Games", 
    "South Korea"
  ], 
  "Time": "16:47"
}