{
  "By": "mk", 
  "Contents": " OnePlus 3 เปิดตัวอย่างยิ่งใหญ่ด้วยสเปกแรงและแรม 6GB อย่างไรก็ตาม ผู้ใช้ที่ได้เครื่องไปแล้วพบว่า OnePlus 3 กลับรันแอพพร้อมกันในแรมได้เพียง 3-4 แอพเท่านั้น ไม่สมกับสเปกที่อัดแรมมาให้เยอะถึงขนาดนี้ เรื่องนี้ Carl Pei ผู้ก่อตั้ง OnePlus ตอบคำถามผ่านทวิตเตอร์ว่า OnePlus 3 มีนโยบายการบริหารจัดการแรม โดยคำนึงถึงแบตเตอรี่ด้วย ตอนนี้มีคนในชุมชน xda หาวิธีแก้ข้อจำกัดนี้ได้แล้ว ผ่านการแก้ค่าในไฟล์ build.prop เปลี่ยนตัวเลขกำหนดจำนวนแอพที่รันเบื้องหลังจาก 20 ตัวให้เป็นตัวเลขที่มากขึ้น ที่มา - xda, 9to5google .@LucaDuci we have a different strategy for RAM management that benefits battery. We think this is the best user experience. — Carl Pei (@getpeid) June 17, 2016   ", 
  "Date": "18/June/2016", 
  "Image-Link": [
    "https://www.blognone.com/sites/default/files/styles/thumbnail/public/topics-images/4.png?itok=BJJdEz7Q", 
    "/sites/all/themes/blognone42/images/linebutton.png"
  ], 
  "Link": "https://www.blognone.com/node/82404", 
  "News": "แม้ OnePlus 3 มีแรม 6GB แต่จำกัดจำนวนแอพที่รันได้พร้อมกัน ด้วยเหตุผลเรื่องแบตเตอรี่", 
  "Tags": [
    "OnePlus 3", 
    "OnePlus", 
    "Mobile"
  ], 
  "Time": "12:06"
}