{
  "By": "nutmos", 
  "Contents": " Snapchat ได้เข้าไปมีส่วนร่วมกับนิตยสารออนไลน์ที่ก่อตั้งใหม่ชื่อว่า Real Life โดยนิตยสารนี้จะออกสัปดาห์ละ 1 เล่ม เริ่มตั้งแต่ 27 มิถุนายนนี้ Real Life ได้เขียนข้อความลงบล็อกครั้งแรกของการเปิดตัว โดยมี Nathan Jurgenson พนักงาน Snapchat บอกไว้ว่า \"Snapchat ได้ลงทุนใน Real Life\" ซึ่งเมื่อทาง VentureBeat ได้ส่งอีเมลไปถามรายละเอียดเกี่ยวกับเรื่องนี้ เขาไม่ได้ตอบรายละเอียดกลับมา เพียงแต่ยืนยันว่า Real Life เป็นของ Snapchat และทางโฆษกของ Snapchat ก็บอกเช่นกันว่า Real Life นั้นเป็นเงินทุนของ Snapchat Jurgenson บอกว่า Real Life จะตีพิมพ์ข้อความในแนวบทความ, ข้อเท็จจริง และเรื่องเล่าของการอยู่กับเทคโนโลยี ซึ่ง Real Life ไม่ใช่เว็บไซต์ข่าวที่มีรีวิวแก็ดเจ็ตหรือมีเรื่องซุบซิบในอุตสาหกรรม แต่จะเป็นเรื่องราวของเทคโนโลยีว่า ทุกวันนี้เราอยู่อย่างไร และชีวิตเราใช้อุปกรณ์เหล่านี้เป็นสื่อกลางอย่างไร ที่มา - VentureBeat, Real Life   ", 
  "Date": "19/June/2016", 
  "Image-Link": [
    "https://www.blognone.com/sites/default/files/styles/thumbnail/public/topics-images/snapchat.png?itok=JyM_TIkc", 
    "/sites/all/themes/blognone42/images/linebutton.png"
  ], 
  "Link": "https://www.blognone.com/node/82424", 
  "News": "Snapchat เริ่มทำนิตยสารออนไลน์เกี่ยวกับเทคโนโลยีชื่อ Real Life", 
  "Tags": [
    "Snapchat"
  ], 
  "Time": "07:47"
}