{
  "By": "mk", 
  "Contents": " Snapchat แอพแชทยอดนิยมของวัยรุ่นในสหรัฐอเมริกา ระดมทุนรอบใหม่ที่นับเป็น \"Series F\" แล้ว ได้เงินจากนักลงทุนมากกว่า 1.8 พันล้านดอลลาร์ (6.4 หมื่นล้านบาท) เว็บไซต์ TechCrunch ประเมินว่ามูลค่าบริษัท (valuation) ของ Snapchat น่าจะอยู่ที่ 2.4 หมื่นล้านดอลลาร์ หรือประมาณ 8.5 แสนล้านบาท ในส่วนของธุรกิจจริงๆ TechCrunch ได้เอกสารภายในของ Snapchat ที่ระบุว่ารายได้ในปี 2015 อยู่ที่ 59 ล้านดอลลาร์เท่านั้น อย่างไรก็ตาม Snapchat ยังไม่ได้สนใจเรื่องการหารายได้มากนัก และถ้าแยกรายได้เป็นรายไตรมาส ตัวเลขก็เติบต่ออย่างต่อเนื่อง จากการคาดการณ์ของ Snapchat เองคาดว่าปี 2016 จะทำรายได้ 250-350 ล้านดอลลาร์ จากเอกสารของ Snapchat ระบุว่ามีผู้ใช้งาน 110 ล้านคนต่อเดือน (ธันวาคม 2015) โดยผู้ใช้ 50% มาจากในสหรัฐ, 35% จากยุโรป และที่เหลือมาจากทวีปอื่นๆ รวมกัน ที่มา - TechCrunch    ", 
  "Date": "27/May/2016", 
  "Image-Link": [
    "https://www.blognone.com/sites/default/files/styles/thumbnail/public/topics-images/snapchat.png?itok=JyM_TIkc", 
    "http://i.imgur.com/kVKNwXM.png", 
    "/sites/all/themes/blognone42/images/linebutton.png"
  ], 
  "Link": "https://www.blognone.com/node/81486", 
  "News": "Snapchat ระดมทุนรอบใหม่ Series F มูลค่า 6.4 หมื่นล้านบาท", 
  "Tags": [
    "Snapchat"
  ], 
  "Time": "07:44"
}