{
  "By": "nutmos", 
  "Contents": " VentureBeat ได้รายงานข่าวจากแหล่งข่าวที่ใกล้ชิดกับแผนของ Snapchat ว่า ตอนนี้ทางบริษัทมีแผนที่จะออกแบบ Discover ใหม่ทั้งหมด และคาดว่าจะเปิดตัวใน 7 มิถุนายนนี้ ซึ่งตอนนี้ทาง Snapchat ได้คุยกับบริษัทที่เป็นพาร์ทเนอร์ที่แสดงคอนเทนต์ใน Discover แล้ว แท็บ Discover ของ Snapchat แบบใหม่ แหล่งข่าวบอกว่าจะเลิกใช้ไอคอนแบบวงกลมให้ผู้ใช้กดเข้าไปดูคอนเทนต์เอง เปลี่ยนมาเป็น feed แบบ tile เหมือน Instagram แทน ซึ่งการออกแบบ Discover ใหม่นี้ น่าจะอยู่ในแผนการเพิ่มยอดดูวิดีโอของ Snapchat นอกจากนี้ feed แบบใหม่ใน Discover น่าจะช่วยให้แบรนด์ที่เป็นพาร์ทเนอร์กับ Snapchat ได้มีจุดที่สามารถดึงดูดผู้ชมได้มากขึ้น และน่าจะช่วยสร้างรายได้จากการโฆษณาให้ Snapchat มากขึ้นด้วย ที่มา - VentureBeat   ", 
  "Date": "23/May/2016", 
  "Image-Link": [
    "https://www.blognone.com/sites/default/files/styles/thumbnail/public/topics-images/snapchat.png?itok=JyM_TIkc", 
    "/sites/all/themes/blognone42/images/linebutton.png"
  ], 
  "Link": "https://www.blognone.com/node/81302", 
  "News": "[ไม่ยืนยัน] Snapchat จะปรับปรุง Discover ใหม่ เปลี่ยนเป็น feed แทน", 
  "Tags": [
    "Snapchat"
  ], 
  "Time": "22:28"
}