{
  "By": "mk", 
  "Contents": "
Alibaba เปิดเผยว่ากำลังถูกสอบสวนจากสำนักงานกำกับหลักทรัพย์ของสหรัฐอเมริกา (SEC) เกี่ยวกับการลงข้อมูลทางบัญชี โดยเกี่ยวข้องกับบริษัทลูกในเครือ Alibaba แต่ยังไม่มีรายละเอียดอื่นๆ เพิ่มเติม
Alibaba ระบุว่ายินดีให้ความร่วมมือกับทางการสหรัฐ โดยมอบข้อมูลเกี่ยวกับบริษัทลูกด้านลอจิสติกส์ชื่อ Cainiao ซึ่งเป็นบริษัทร่วมทุนของ Alibaba กับบริษัทลอจิสติกส์หลายราย ให้กับ SEC
หนังสือพิมพ์ The New York Times อ้างข้อมูลจากบริษัทวิจัยตลาด Pacific Square Research ว่า Alibaba อาจใช้การถือหุ้นไขว้ที่ซับซ้อน เพื่อไม่ให้ตัวเลขขาดทุนของบริษัทลูกบางราย ไปโผล่เป็นตัวเลขขาดทุนของบริษัทแม่ ซึ่งอาจมีผลต่อราคาหุ้นในตลาดหลักทรัพย์
ที่มา - The New York Times

 ", 
  "Date": "26/May/2016", 
  "Image-Link": "https://www.blognone.com/sites/default/files/badges/badge-founder.png", 
  "Link": "https://www.blognone.com/node/81474", 
  "News": "Alibaba โดนทางการสหรัฐสอบสวนเรื่องการลงบัญชีขาดทุนของบริษัทลูก", 
  "Tags": [
    "Alibaba"
  ], 
  "Time": "22:57"
}