{
  "By": "mk", 
  "Contents": " TP Vision เปิดตัวทีวีแบรนด์ Philips (ปัจจุบัน Philips ไม่ได้ทำทีวีเองแล้ว ใช้วิธีไลเซนส์แบรนด์) โดยเป็นทีวีธรรมดา ไม่ใช่สมาร์ททีวีที่รัน Android แต่ก็รองรับโพรโทคอล Google Cast สามารถส่งคลิปจากมือถือ-แท็บเล็ตขึ้นบนจอได้ เหมือนกับการใช้ Chromecast ทีวีรุ่นนี้เรียกว่า 6000 series Google Cast มีความละเอียด UHD 4K 3840x2160p มีทั้งหมด 4 ขนาดคือ 43/49/55/65 นิ้ว ทุกตัวมี Wi-Fi 802.11ac และมีตัวถอดรหัสวิดีโอ HEVC/VP9 ให้มาในตัว สินค้าจะเริ่มขายในสหรัฐอเมริกาช่วงเดือนมิถุนายน-กรกฎาคมนี้ ตัวถูกสุด 43 นิ้ว ราคา 649.99 ดอลลาร์ ถือว่าจับต้องได้สำหรับคนที่อยากได้ทีวี UHD แต่ไม่ต้องการฟังก์ชันของสมาร์ททีวี ที่มา - Philips, SlashGear    ", 
  "Date": "28/May/2016", 
  "Image-Link": [
    "https://www.blognone.com/sites/default/files/styles/thumbnail/public/topics-images/philips.png?itok=i4ZpWIGJ", 
    "https://i.imgur.com/jGuMuj8.jpg", 
    "/sites/all/themes/blognone42/images/linebutton.png"
  ], 
  "Link": "https://www.blognone.com/node/81533", 
  "News": "Philips ออกทีวี UHD 4K ที่รองรับ Google Cast ในตัว", 
  "Tags": [
    "Philips", 
    "TV", 
    "UHDTV", 
    "Google Cast"
  ], 
  "Time": "10:20"
}