#
ซีรีส์
 
ซอย
แค่
Motorola
ตัว
รุ่น
เล็ก
Motorola
 
Moto
 
G
4
 
Play
 
#
แอนดรอยด์
ซีรีส์
พิกเซล
พิกเซล
ตัว
ป
ราก
ฎ
ซอย
รุ่น
น้อง
เล็ก
รุ่น
รุ่น
พร้อมหน้า
จอ
ขนาด
นิ้ว
ละเอียด
รัน
แรม
จุก
ล้อ
ง
ล้าน
แฟล
ชก
ล้อ
ง
หน้า
ล้าน
แบตเตอรี่
ราคา
ครับ
ที่มา
Moto
 
G
4
 
G
4
 
Plus
 
Moto
 
G
 
Moto
 
G
4
 
Play
 
Moto
 
G
4
 
Play
 
HD
 
Snapdragon
 
LED
 
mAh
 
PhoneArena
 
