#
 
สหรัฐ
ประกาศ
อัพเดต
โทรศัพท์
มือ
ถือตัว
รุ่น
HTC
 
Android
 
N
 
#
แม้
ตัว
เต็ม
เสร็จ
ปล่อย
ผู้ผลิต
ผู้ใช้
ทั่วไป
ประกาศ
อัพเดต
โทรศัพท์
มือ
ถือ
ตัวเอง
รุ่น
มือ
ถือ
อื่น
ตระกูล
รายการ
ประกาศ
ครั้งนี้
ระบุ
ประกาศ
เวลา
อุปกรณ์
เพิ่มเติม
ภายใน
ปี
ตัว
เต็ม
ผู้ผลิต
ประกาศ
ดังกล่าว
บัญชี
ทวิตเตอร์
ประจำ
สหรัฐอเมริกา
ดังนั้น
ประกาศ
ดังกล่าว
เปลี่ยนแปลง
สำหรับ
ประเทศ
อื่น
รุ่น
อัพเดต
เช่นกัน
ครับ
ที่มา

Android
 
N
 
HTC
 
Android
 
N
 
HTC
 
HTC
 
One
 
A
9
 
HTC
 
One
 
M
9
 
HTC
 
One
 
M
8
 
Desire
 
HTC
 
Google
 
Android
 
N
 
HTC
 
HTCUSA
 
HTCUSA
 
Ausdroid
 
Life
 
is
 
about
 
to
 
get
 
a
 
little
 
sweeter
.
 
Android
 
N
 
will
 
be
 
coming
 
to
 
the
 
HTC
 
HTC
 
One
 
A
9
 
and
 
the
 
HTC
 
One
 
M
9.
 
pic
.
twitter
.
comdj
9
fcZHNnH
 
HTC
 
USA
 
HTCUSA
 
May
 

