#
 
ข่าวลือ
รุ่น
ถัด
ใช้
เลข
ห้อย
ชื่อ
รุ่น
Galaxy
 
Note
 
#
ซัมซุง
ซัมซุง
แม้ว่า
เพิ่ง
ข่าวลือ
หมาด
ข้อมูล
ล่าสุด
ดูเหมือนว่า
ตั้งใจ
ใช้
เลข
เลข
รุ่น
ตัว
ถัด
แล้วแต่
ข้าม
เลข
รายงาน
ข่าว
ผู้บริหาร
ฝ่าย
การตลาด
ระดับ
สูง
ปี
ชื่อ
รุ่น
ใหม่
แทน
ใช้
เลข
เลข
รุ่น
ป้องกัน
ข้อ
ครหา
ผู้ใช้
รุ่น
เทคโนโลยี
ที่ต่ำ
เลข
รุ่น
สูง
ดังนั้น
ลด
ข้อ
ครหา
เปลี่ยน
เลข
ใช้
เลข
เท่า
เรื่อง
ดี
ชื่อ
เลข
จริง
รอ
ดู
งาน
ตัว
เดือน
สิงหาคม
ครับ
ที่มา
Galaxy
 
Note
 
Galaxy
 
Note
 
ETNews
 
Galaxy
 
Note
 
Galaxy
 
Note
 
Galaxy
 
Note
 
Galaxy
 
S
 
Galaxy
 
Note
 
Phandroid
 
