#
 
ใบอนุญาต
คลื่น
อายุ
ปี
AIS
 
MHz
 
#
เอไอเอส
เอไอเอส
ซิม
จ่าย
เงิน
ค่า
ประมูล
คลื่น
กสทช
.
วันนี้
กสทช
.
ใบอนุญาต
ใช้
งาน
คลื่น
ถี่
ย่าน
ใบอนุญาต
อายุ
ใช้
งาน
ปี
ลูกค้า
ค้าง
ระบบ
คลื่น
เดิม
จำนวน
แสน
หมื่น
เลขหมาย
ลูกค้า
ย้าย
ค่าย
ภายใน
เที่ยงคืน
วันนี้
มิ
.
ย
.
ดับ
ลูกค้า
คลื่น
สิ้นสุด
สัญญา
สัมปทาน
บริษัท
ที
โอ
ที
ทำ
เปลี่ยน
ระบบ
บริการ
คลื่น
แทน
ทำ
ลูกค้า
สามารถ
ใช้
งาน
ต่อเนื่อง
ย้าย
ค่าย
ที่มา
ไทย
รัฐ
ภาพ
AIS
 
MHz
 
MHz
 
MHz
 
MHz
 
MHz
 
pakapong
_
report
 
