#
อินเทล
 
ตัว
สถาปัตยกรรม
ประสิทธิภาพ
ดี
เท่า
รุ่น
Xeon
 
E
7
 
v
4
 
Broadwell
 
#
อินเทล
อินเทล
อินเทล
คอนโทรลเลอร์
ซีรีส์
คอนโทรลเลอร์
คอนฟิก
ตัว
พี่ใหญ่
รุ่น
สี่
ตัว
ปี
ที่แล้ว
ตัว
สถาปัตยกรรม
รหัส
นะ
ครับ
แยก
สอง
ย่อย
จุดเด่น
ใส่
หน่วยความจำ
สูง
รองรับ
สูงสุด
ซ็อคเก็ต
ใช้
พิเศษ
ช่วย
นอกจากนี้
ฟีเจอร์
สำหรับ
ตลาด
บน
ช่วย
เพิ่ม
เสถียรภาพ
ระบบ
ตัว
ช่วย
ถอดรหัส
ฮาร์ดแวร์
ประสิทธิภาพ
ดี
ระบุ
ประสิทธิภาพ
เฉลี่ย
ดี
เท่า
คู่แข่ง
ตรง
โฆษณา
ประสิทธิภาพ
ตัวเอง
ดี
เท่า
ใช้
พลังงาน
น้อย
ครึ่ง
นึง
ชิป
ผู้ผลิต
ฮาร์ดแวร์
เซิร์ฟเวอร์
วันนี้
เซิร์ฟเวอร์
รุ่น
ทยอย
ตัว
เช่นกัน
ที่มา
Xeon
 
E
7
 
v
4
 
Xeon
 
E
7
 
v
3
 
Broadwell
 
v
4
 
v
5
 
Skylake
 
Xeon
 
E
7
 
v
4
 
E
78800
 
E
74800
 
Intel
 
Run
 
Sure
 
Technology
 
Xeon
 
E
7
 
v
3
 
Xeon
 
E
7
 
v
3
 
Xeon
 
E
7
 
IBM
 
Power
 
Intel
 
Intel
 
PDF
 
The
 
Register
 
