#
พีซี
 
ตัว
ขนาด
จิ๋ว
รุ่น
ใช้
แรม
Zotac
 
Atom
 
Windows
 
#
พีซี
ผู้ผลิต
ฮาร์ดแวร์
คอมพิวเตอร์
ตัว
ขนาด
จิ๋ว
ตัวเอง
ที่มา
รุ่น
ย่อย
รุ่น
พัดลม
ระบาย
ร้อน
รุ่น
ทำ
เกิด
เสียง
รบกวน
น้อย
สเปค
เหลือ
เหมือน
ดังนี้
ระบบปฏิบัติการ
บิต
หน่วย
ประมวลผล
ถี่
แรม
พื้นที่
จุ
รองรับ
พอร์ต
รองรับ
ราคา
วาง
จำหน่าย
ที่มา
Zotac
 
PI
220
 
PI
221
 
Windows
 
Home
 
Intel
 
Atom
 
x
5
Z
8300
 
GHz
 
DDR
3
L
 
GB
 
eMMC
 
Micro
 
SD
 
HDMI
 
Ethernet
 
USB
 
WiFi
 
Bluetooth
 
Zotac
 
via
 
MSPoweruser
 
