#
 
เตรียม
แยก
หน่วย
ธุรกิจ
บริษัท
ลูก
ถือ
หุ้น
HTC
 
VR
 
#
ประธาน
บอร์ด
สัมภาษณ์
บริษัท
แยก
หน่วย
ธุรกิจ
แว่น
บริษัท
ลูก
ถือ
หุ้น
ทั้งหมด
ตอนนี้
รายละเอียด
บริษัท
ลูก
ชื่อ
บริษัท
บอก
แค่
แผน
นำ
บริษัท
เข้าขา
ย
หุ้น
ตลาดหลักทรัพย์
ที่มา
Cher
 
Wang
 
HTC
 
Nikkei
 
Asian
 
Review
 
VR
 
Vive
 
HTC
 
Cher
 
Wang
 
Nikkei
 
Asian
 
Review
 

