{
  "By": "BlackMiracle", 
  "Contents": " รถยนต์ไฟฟ้า Tesla ได้รับอัพเดตเพิ่มฟีเจอร์ขับอัตโนมัติ หรือ Autopilot มาตั้งแต่เดือนตุลาคมปีที่แล้ว มีคนใช้มากมาย ล่าสุดเกิดอุบัติเหตุร้ายแรงจากการใช้ฟีเจอร์นี้เป็นครั้งแรก ส่งผลให้คนขับเสียชีวิตทันที อุบัติเหตุนี้เกิดขึ้นบริเวณทางแยกบนทางหลวงในเมือง Williston รัฐฟลอริดา ผู้ขับรถ Tesla Model S คือนาย Joshua D. Brown อายุ 40 ปี ก่อนเขามาถึงทางแยก มีรถบรรทุกขนาดใหญ่กำลังเลี้ยวขวางถนนอยู่ รถยนต์ Tesla ของ Brown แยกแยะระหว่างด้านข้างของรถบรรทุกซึ่งเป็นสีขาว กับท้องฟ้าที่ค่อนข้างสว่างไม่ออก ทำให้ไม่ได้เบรก พุ่งชนและลอดใต้รถบรรทุกไป ชายล่างของตัวเทรลเลอร์ฉีกหลังคารถ Tesla ออกทั้งแผ่น รถของ Brown ไปจอดนิ่งห่างจากจุดเกิดอุบัติเหตุไปหลายร้อยฟุต เขาเสียชีวิตทันที คนขับรถบรรทุก Frank Baressi อายุ 62 ปี กล่าวว่าหลังจากชน เขาไปดูรถ Tesla พบว่าบนหน้าจอกำลังเล่นภาพยนตร์ Harry Potter อยู่ แต่ไม่เป็นที่แน่ชัดว่ารถ Tesla อนุญาตให้ชมภาพยนต์ขณะรถกำลังวิ่งอยู่ได้หรือไม่ และในรายงานของตำรวจก็ไม่มีการกล่าวถึงภาพยนตร์นี้ด้วย  ภายหลังจากอุบัติเหตุ Tesla Motors ออกแถลงการณ์บนบล็อกของบริษัท แสดงความเสียใจต่อเหตุการณ์ที่เกิดขึ้น พร้อมทั้งชี้แจงว่าระบบ Autopilot ยังต้องการความสนใจจากคนขับตลอดเวลา และต้องเตรียมพร้อมที่จะเข้าควบคุมรถได้ทุกเมื่อ โดยรถจะตรวจสอบเรื่อยๆ ว่ามือของผู้ขับยังจับพวงมาลัยอยู่หรือไม่ หากไม่จับจะส่งสัญญาณเสียงเตือน พร้อมกับขึ้นข้อความบนหน้าจอ และหากยังไม่จับ รถจะชะลอความเร็วลงเรื่อยๆ จนกว่าจะมีปฏิกิริยาจากผู้ขับขี่ นาย Brown เป็นผู้ที่ชื่นชอบรถ Tesla มาก เขาอัพโหลดวิดีโอการใช้งานรถขึ้น ช่อง YouTube ส่วนตัวอยู่บ่อยครั้ง และชมว่าเป็นรถที่ดีที่สุดเท่าที่เขาเคยเป็นเจ้าของมา โดยวิดีโอล่าสุดของเขามีผู้ชมเกือบ 2 ล้านวิว เป็นเหตุการณ์ที่มีรถเครนขนาดเล็กปาดเข้ามาในเลน ซึ่งรถของเขาได้หักหลบและชะลอความเร็วลงเพื่อป้องกันอุบัติเหตุได้อย่างน่าประทับใจ วิดีโอนี้ดังมากจน Elon Musk ซีอีโอของบริษัทเคยเอาไปทวีตบนบัญชีทวิตเตอร์ส่วนตัวด้วย Owner video of Autopilot steering to avoid collision with a truckhttps://t.co/FZUAXSjlR7 — Elon Musk (@elonmusk) April 17, 2016 นาย Brown เคยเป็นสมาชิกของหน่วย SEAL นานถึง 11 ปีก่อนจะออกมาในปี 2008 และไปก่อตั้งบริษัท Nexu Innovations ทำกิจการเกี่ยวกับเครือข่ายและกล้องไร้สาย Tesla Motors บอกว่านี่เป็นอุบัติเหตุถึงชีวิตจากการใช้งานระบบ Autopilot ครั้งแรกหลังมีการใช้งานรวมแล้วกว่า 130 ล้านไมล์ โดยอุบัติเหตุร้ายแรงถึงชีวิตบนถนนในสหรัฐอเมริกาเกิดขึ้น 1 ครั้งทุกๆ 94 ล้านไมล์ และทุกๆ 60 ล้านไมล์สำหรับสถิติทั่วโลก ทางฝั่งหน่วยงานกำกับดูแลความปลอดภัยบนทางหลวงของสหรัฐฯ (National Highway Traffic Safety Administration - NHTSA) ก็เริ่มกระบวนการสอบสวนเหตุการณ์ที่เกิดขึ้นแล้ว ที่มา - Fox News, Forbes Our condolences for the tragic loss https://t.co/zI2100zEGL — Elon Musk (@elonmusk) June 30, 2016   ", 
  "Date": "1/July/2016", 
  "Image-Link": [
    "https://www.blognone.com/sites/default/files/styles/thumbnail/public/topics-images/tesla.png?itok=J6-e8z4s", 
    "https://i.imgur.com/9eY5gkZ.jpg?1", 
    "/sites/all/themes/blognone42/images/linebutton.png"
  ], 
  "Link": "https://www.blognone.com/node/82888", 
  "News": "Tesla Model S เปิดโหมด Autopilot เกิดอุบัติเหตุร้ายแรงเป็นครั้งแรก คนขับเสียชีวิตทันที", 
  "Tags": [
    "Tesla Motors", 
    "Automobile", 
    "Electric Car", 
    "Self-Driving Car"
  ], 
  "Time": "09:12"
}