{
  "By": "nismod", 
  "Contents": " อย่างที่ทราบกันว่าแอปเปิลมีข่าวลือมาตลอด เรื่องการพัฒนารถยนต์ไร้คนขับ ซึ่งข่าวลือจากหลายฝ่ายก็ให้ข้อมูลไปในทางเดียวกันว่า แอปเปิลน่าจะพัฒนาเป็นรถยนต์ไฟฟ้ามากกว่ารถยนต์ที่ใช้น้ำมัน ล่าสุดสำนักข่าว Reuters รายงานอ้างอิงจากแหล่งข่าวไม่เปิดเผยว่า นอกจากรถแล้ว แอปเปิลยังมีแผนจะสร้างโครงสร้างพื้นฐานเกี่ยวกับรถยนต์ไฟฟ้า อย่างจุดชาร์จไฟอยู่ด้วยเช่นกัน แหล่งข่าวระบุว่า แอปเปิลกำลังพูดคุยและปรึกษาอยู่กับบริษัทติดตั้งสถานีชาร์จไฟ โดยมีประเด็นหลักคือรถยนต์ไฟฟ้า รวมถึงจ้างวิศวกรและผู้เชี่ยวชาญในด้านนี้เพิ่มเติมด้วย ถึงแม้จะไม่สามารถยืนยันได้ว่าสรุปแล้ว แอปเปิลมีความสนใจจะสร้างจุดชาร์จไฟมากน้อยแค่ไหน แต่อย่างน้อยๆ ก็ช่วยเพิ่มน้ำหนักของข่าวลือที่ว่าแอปเปิลจะทำรถยนต์ไฟฟ้าได้ไม่มากก็น้อย ที่มา - Reuters   ", 
  "Date": "26/May/2016", 
  "Image-Link": [
    "https://www.blognone.com/sites/default/files/styles/thumbnail/public/topics-images/apple.png?itok=dltl_31c", 
    "/sites/all/themes/blognone42/images/linebutton.png"
  ], 
  "Link": "https://www.blognone.com/node/81442", 
  "News": "[ลือ] แอปเปิลกำลังวางแผนสร้างจุดชาร์จไฟสำหรับรถยนต์ไฟฟ้า", 
  "Tags": [
    "Apple", 
    "Electric Car", 
    "Rumor"
  ], 
  "Time": "12:18"
}