{
  "By": "nismod", 
  "Contents": " ตลาดรถยนต์ไฟฟ้าในต่างประเทศเริ่มเติบโตมากขึ้นเรื่อยๆ ไม่ว่าจะทั้งการสร้างโครงสร้างพื้นฐาน หรือยอดขายรถยนต์ไฟฟ้าเองก็ตาม โดย BMW ได้ออกมาเปิดเผยยอดขายรถยนต์ของตัวเองประจำเดือนเมษายน ปรากฎว่ารถยนต์ไฟฟ้าและรถไฮบริดมีส่วนแบ่งยอดขายอยู่ที่ 2.5% จากยอดขายรถทั้งหมด BMW ระบุว่าเมื่อเดือนเมษายนที่ผ่านมา สามารถขายรถยนต์ไฟฟ้าและรถยนต์ไฮบริดไปได้ 4,504 คันทั่วทั้งโลกจากทั้งหมด 179,285 คัน โดยรถยนต์ไฟฟ้าซีรีส์ i ของ BMW มียอดขายเพิ่มขึ้น 29.4% เมื่อเทียบกับเดือนเมษายนปีที่แล้ว และหากนับเฉพาะรุ่น BMW i3 มียอดขายเพิ่มขึ้นจากเดือนเมษายนปีที่แล้วถึง 50.7% ซึ่งแตกต่างจากรุ่นไฮบริดอย่าง BMW X5 xDrive ที่มียอดขายลดลงถึง 10% ที่มา - Clean Technica  BMW i3 จากเว็บไซต์ BMW   ", 
  "Date": "17/May/2016", 
  "Image-Link": [
    "https://www.blognone.com/sites/default/files/styles/thumbnail/public/topics-images/bmw.png?itok=3hQR6RXa", 
    "https://farm8.staticflickr.com/7371/26793228600_db9942e186_z.jpg", 
    "/sites/all/themes/blognone42/images/linebutton.png"
  ], 
  "Link": "https://www.blognone.com/node/81083", 
  "News": "BMW เผยยอดขายรถยนต์ไฟฟ้าทั่วโลกเพิ่มขึ้น รถยนต์ไฮบริดลดลง", 
  "Tags": [
    "BMW", 
    "Electric Car"
  ], 
  "Time": "15:04"
}