{
  "By": "trinakub", 
  "Contents": " Minecraft เป็นเกม Openworld Sandbox ที่เปิดกว้างให้ผู้เล่นสามารถสร้าง หรือทำอะไรก็ได้บนโลกอันกว้างใหญ่นี้ ตัวเกมไม่มีจุดประสงค์ตายตัว ให้ความเป็นอิสระแก่ผู้เล่นสามารถใช้ความคิดสร้างสรรค์ได้เต็มที่ รวมถึงสามารถเล่นออนไลน์ร่วมกับคนอื่น ๆ บน server ได้ Microsoft เพิ่งออกมาประกาศว่า “จำนวนผู้เล่นเกม Minecraft ได้เติบใหญ่ขึ้นมากในช่วงปีที่ผ่านมา ใหญ่มากพอที่จะเป็นช่องทางให้บริษัทต่าง ๆ มาโฆษณาสินค้าที่ไม่เกี่ยวข้องกับตัวเกม พวกเราอยากให้ผู้เล่นสร้างรายได้จากความคิดสร้างสรรค์ของผู้เล่นเองมากกว่า พวกเราไม่ต้องการให้ mod หรือ server เป็นช่องทางในการโฆษณาสินค้า มันทำให้เกมไม่สนุกเลย และทำให้รู้สึกว่ามันมีอะไรบางอย่างไม่ถูกต้องด้วย ดังนั้นทางเราจึงได้ออกกฏใหม่เพื่อหยุดเหตุการณ์พวกนี้”  ข้อตกลงในการใช้งานบทใหม่จาก Microsoft Mojang สามารถสรุปได้คร่าว ๆ ดังนี้ บริษัท องค์กร เอเย่นต์โฆษณา องค์กรที่ไม่แสวงหากำไร รัฐบาล หรือนิติบุคคลอื่น ๆ ห้ามใช้ Minecraft ในการโปรโมตหรือโฆษณาสินค้า แบรนด์ แคมเปญ และบริการต่าง ๆ โดยเฉพาะอย่างยิ่งถ้าคุณคือหนึ่งนั้นหรือเป็นผู้ที่ถูกว่าจ้างมา ห้ามใช้ Minecraft หรือ สินทรัพย์ใน Minecraft กระทำการต่อไปนี้  สร้าง หรือ ให้ผู้อื่นสร้าง mod map หรือ server ของ Minecraft เพื่อการโปรโมตหรือทำการตลาดให้แก่สินค้าและบริการที่ไม่เกี่ยวข้องกับตัวเกม ให้อยู่ในรูปแบบ gameplay เช่น ห้ามโปรโมตยานพาหนะด้วยการสร้าง mod ที่มีรูปร่างเหมือนยานพาหนะของแบรนด์ต่าง ๆ เพื่อใช้งานภายในเกม สร้าง หรือ ให้ผู้อื่นสร้าง mod map หรือ server ของ Minecraft เพื่อการโปรโมตหรือโฆษณาหนังหรือรายการโทรทัศน์ต่าง ๆ เช่น ห้ามใช้ Minecraft ในการสร้าง map หรือทำวิดีโอที่สร้างมาจากโลกในหนังหรือรายการต่าง ๆ รวมถึงตัวละครจากรายการนั้น ๆ เพื่อการโปรโมตหรือโฆษณาองค์กรของตนเอง ของนายจ้างหรือของรายการโทรทัศน์ต่าง ๆ แสดง gameplay ของ Minecraft ในสถานที่สาธารณะต่าง ๆ เช่น ห้ามโปรโมตหรือโฆษณา gameplay ของ Minecraft ภายในร้านอาหารหรือสถานที่ทางการค้า และห้ามเก็บเงินจากการฉาย gameplay การแข่งขันต่าง ๆ ใน Minecraft ที่ฉายบนจอภาพยนตร์ภายในโรงหนัง สร้าง หรือ ให้ผู้อื่นสร้าง ทำการตลาดหรือสร้างตัวอย่างหนังหรือวิดีโอผ่านเกม Minecraft เช่น ห้ามสร้างหนังหรือตัวอย่างหนังผ่านเกม Minecraft เพื่อใช้ในการโปรโมตหรือโฆษณาตัวหนัง โปรโมตแบรนด์ ให้แก่สินค้าและบริการของตนเองหรือผู้ว่าจ้าง แต่สามารถใช้เกม Minecraft เพื่อกระทำการต่อไปนี้ได้ จ่ายค่าโฆษณาเพื่อโฆษณาธุรกิจของตนเองผ่านวิดีโอของ Minecraft เช่น การพาดหัวโฆษณา หรือ ใส่โฆษณาลงบนวิดีโอ Minecraft ภายใน Youtube เป็นต้น จ่ายค่าโฆษณาสำหรับโฆษณาบนเว็บไซท์หรือ server ที่เกี่ยวข้องกับ Minecraft ตราบใดที่คุณไม่ได้ไปจ้างให้ผู้ดูแล server ไปออกแบบหรือสร้าง Minecraft mod map หรือ server ที่เป็นตัวแทนของแบรนด์ สินค้า หรือบริการของคุณ สามารถสร้างสินค้าหรือสภาพแวดล้อมในภาพยนต์ที่ตนเองชื่นชอบลงใน map mod หรือ server ของ Minecraft ตราบเท่าที่ไม่ได้ถูกกลุ่มคนที่เป็นเจ้าของแบรนด์หรือสินค้านั้นว่าจ้างมา หรือถูกบุคคลที่ถูกบริษัทเหล่านั้นว่าจ้างมา ว่าจ้างต่ออีกที และสามารถแสดงความสนับสนุนทางการเมืองผ่าน map mod หรือ server ได้ตราบเท่าที่ไม่ได้ถูกบุคคลเหล่านั้นว่าจ้างมา  ที่มา – venturebeat   ", 
  "Date": "1/June/2016", 
  "Image-Link": [
    "https://www.blognone.com/sites/default/files/styles/thumbnail/public/topics-images/minecraft-logo.png?itok=wUsaULhq", 
    "http://i.imgur.com/wAAE3m2.jpg", 
    "/sites/all/themes/blognone42/images/linebutton.png"
  ], 
  "Link": "https://www.blognone.com/node/81690", 
  "News": "Microsoft สั่งแบน ห้ามใช้ Minecraft เป็นเครื่องมือโฆษณา", 
  "Tags": [
    "Minecraft", 
    "Games", 
    "Advertising", 
    "Microsoft"
  ], 
  "Time": "11:09"
}