{
  "By": "nismod", 
  "Contents": " ผู้ช่วยเลขาธิการองค์การสนธิสัญญาแอตแลนติกเหนือ ฝ่ายความมั่นคง เปิดเผยในงานนิทรรศการด้านความมั่นคงและการต่อต้านการก่อการร้ายที่จัดขึ้นในกรุงลอนดอนว่า ฝ่าย R&D ของกลุ่มรัฐอิสลาม กำลังใช้โรงงานผลิตระเบิดในเขตประเทศซิเรีย เป็นฐานวิจัยและพัฒนาเทคโนโลยีรถไร้คนขับอยู่ในขณะนี้ และระบุว่าหากทำได้สำเร็จ อาจช่วยลดการสูญเสียกำลังคนในการก่อเหตุของกลุ่มก่อการร้ายได้ค่อนข้างมาก ซึ่งทางนาโต้จะคอยจับตาและสืบหาข่าวกรองมากยิ่งขึ้น การเปิดเผยขององค์การนาโต้ครั้งนี้ สอดรับกับความกังวลที่เกิดขึ้นในช่วงไม่กี่ปีที่ผ่านมาว่า รถไร้คนขับจะกลายเป็นเครื่องมือของการก่อการร้าย และจะสร้างความยากลำบากให้แก่ทางการในการป้องกันและติดตามหาตัวผู้ก่อเหตุมากยิ่งขึ้น ที่มา - International Business Times   ", 
  "Date": "6/May/2016", 
  "Image-Link": [
    "https://www.blognone.com/sites/default/files/styles/thumbnail/public/news-thumbnails/1274336922.png?itok=T3wFU43g", 
    "/sites/all/themes/blognone42/images/linebutton.png"
  ], 
  "Link": "https://www.blognone.com/node/80676", 
  "News": "NATO เผยกลุ่มรัฐอิสลามกำลังพัฒนารถไร้คนขับ เพื่อก่อการร้าย", 
  "Tags": [
    "NATO", 
    "ISIS", 
    "Self-Driving Car", 
    "Terrorism"
  ], 
  "Time": "11:03"
}