{
  "By": "mk", 
  "Contents": " ผลการแข่งขันโปรแกรมมิ่งชิงแชมป์โลก ACM-ICPC 2016 ที่ จ.ภูเก็ต วันนี้ ผู้ชนะคือทีมจาก St. Petersburg State University จากประเทศรัสเซีย โดยสามารถทำโจทย์ได้ 11 ข้อจากทั้งหมด 13 ข้อ อันดับสองคือ Shanghai Jiao Tong University ของจีน ทำได้ 11 ข้อเท่ากัน แต่ได้อันดับสองเพราะใช้เวลารวมในการแก้โจทย์นานกว่า ส่วนทีมของประเทศไทย มีทีมของจุฬาลงกรณ์มหาวิทยาลัย สามารถคว้ารางวัลแรกของการแข่งขันคือแก้โจทย์ข้อแรกสำเร็จ ในเวลาเพียง 11 นาทีหลังจากเริ่มแข่งขัน เลยได้รางวัล First to Solution เป็นชื่อเสียงของประเทศไทยด้วย ตารางอันดับผลการแข่งขันทั้งหมด ทีมจากจุฬาลงกรณ์มหาวิทยาลัย (เดี๋ยวมาอัพเดตชื่อภาษาไทยให้นะครับ)  Athasit Surarerks, Coach Nat Pavasant, Contestant Kittiphon Phalakarn, Contestant Kittiphop Phalakarn, Contestant   ทีมแชมป์โลก St. Petersburg State University จากรัสเซีย  การแข่งขัน ACM ICPC มีผู้ร่วมแข่งขันทั้งหมด 40,266 คน จาก 2,736 มหาวิทยาลัยใน 102 ประเทศ แข่งคัดเลือกกันเข้ามาเรื่อยๆ จนเหลือ 128 ทีมที่เข้ารอบสุดท้าย และมาแข่งกันที่ จ.ภูเก็ตในปีนี้ (ปีหน้าจัดที่ South Dakota ในสหรัฐอเมริกา)   ", 
  "Date": "19/May/2016", 
  "Image-Link": [
    "https://www.blognone.com/sites/default/files/styles/thumbnail/public/news-thumbnails/hostlogo2016_1_0.png?itok=PaxEEJsn", 
    "https://farm8.staticflickr.com/7345/26505375163_31ba87505e_z.jpg", 
    "https://farm8.staticflickr.com/7171/27076216336_474f222aa6_z.jpg", 
    "/sites/all/themes/blognone42/images/linebutton.png"
  ], 
  "Link": "https://www.blognone.com/node/81201", 
  "News": "ผลการแข่งเขียนโปรแกรมชิงแชมป์โลก ACM-ICPC 2016 ทีมจากจุฬาคว้ารางวัลแก้โจทย์ได้ทีมแรก", 
  "Tags": [
    "Competition", 
    "Thailand", 
    "Chulalongkorn"
  ], 
  "Time": "18:09"
}