{
  "By": "nismod", 
  "Contents": " หลังจากเมื่อวาน กรมการขนส่งสั่งระงับการให้บริการ UberMoto และ Grab Bike ล่าสุดทาง Uber แถลงว่าจะระงับการให้บริการ UberMoto และจะหารือกับเจ้าหน้าที่รัฐ เพื่อหาข้อสรุปด้านกฎหมายเกี่ยวกับการให้บริการแอพพลิเคชันมอเตอร์ไซค์ในลักษณะนี้ ส่วนทางด้าน Grab Bike ยังคงไม่มีการแถลงใดๆ ทั้งสิ้นหลังจากที่ผมติดต่อสอบถามถึงความคืบหน้า ขณะที่บนแอพ Grab ยังคงสามารถใช้บริการ Grab Bike ได้อยู่ตามปกติครับ ที่มา - Uber    ", 
  "Date": "18/May/2016", 
  "Image-Link": [
    "https://www.blognone.com/sites/default/files/styles/thumbnail/public/topics-images/uber_0.png?itok=6XhODw2-", 
    "https://farm2.staticflickr.com/1601/25109788012_834beb55ce_z.jpg", 
    "/sites/all/themes/blognone42/images/linebutton.png"
  ], 
  "Link": "https://www.blognone.com/node/81133", 
  "News": "Uber แถลงระงับการให้บริการ UberMoto, Grab Bike ยังคงให้บริการอยู่", 
  "Tags": [
    "Uber", 
    "UberMoto", 
    "Grab", 
    "Transportation", 
    "Thailand"
  ], 
  "Time": "12:20"
}