{
  "By": "nismod", 
  "Contents": " ถึงแม้กรมการขนส่งจะเคยมีคำสั่งไม่ให้ Grab Bike ให้บริการ รวมถึงพูดคุยกับทาง Uber Moto เรืองการให้บริการที่ขัดกับกฎหมายไปหลายครั้งแล้วก็ตาม แต่ทั้ง 2 บริษัทก็ยังคงมีการให้บริการอย่างมาต่อเนื่อง ล่าสุดกรมการขนส่งเรียกผู้ให้บริการทั้ง 2 เจ้าเข้ามาชี้แจงกฎระเบียบและประเด็นที่ขัดต่อกฎหมายอีกครั้ง และขอให้ทั้ง 2 บริษัทหยุดให้บริการทันที รองอธิบดีกรมการขนส่งทางบกให้เหตุผลว่า การเข้ามาของ Uber Moto และ Grab Bike สร้างความไม่เสมอภาคให้กับวินมอเตอร์ไซค์ที่อยู่ในระบบและถูกจัดระเบียบโดย คสช. ไปเรียบร้อยแล้ว ซึ่งก่อให้เกิดความแตกแยกและไม่สงบเรียบร้อย และอาจจะเข้าข่ายเป็นผู้มีอิทธิพลเก็บผลประโยชน์จากการให้บริการของวิน และหากยังฝ่าฝืนให้บริการต่อ จะดำเนินตามระเบียบของ คสช. ต่อไป ทั้งนี้ทาง TCIJ ได้ลงพื้นที่เก็บข้อมูลพบว่า ซุ้มวินมอเตอร์ไซค์รับจ้างและเสื้อวิน มีการซื้อขายกันในราคาค่อนข้างสูง โดยเฉพาะในย่านเศรษฐกิจของกรุงเทพ เป็นเหตุให้วินมอเตอร์ไซค์มีราคาที่สูงกว่าการให้บริการของทั้ง Uber Moto และ Grab Bike (อ่านรายงานเต็มได้ที่นี่) ที่มา - ประชาไท   ", 
  "Date": "17/May/2016", 
  "Image-Link": [
    "https://www.blognone.com/sites/default/files/styles/thumbnail/public/topics-images/grab_0.png?itok=cZumEDP8", 
    "/sites/all/themes/blognone42/images/linebutton.png"
  ], 
  "Link": "https://www.blognone.com/node/81108", 
  "News": "กรมการขนส่งสั่ง Uber Moto, Grab Bike ยกเลิกให้บริการ เหตุสร้างความไม่เท่าเทียมแก่วินมอเตอร์ไซค์", 
  "Tags": [
    "Grab", 
    "Uber", 
    "Thailand", 
    "UberMoto"
  ], 
  "Time": "21:59"
}