{
  "By": "lew", 
  "Contents": " ซัมซุงอิเล็กทรอนิกส์ประกาศความร่วมมือกับ SK Telecom เตรียมวางเครือข่าย  LoRaWAN ทั่วเกาหลีใต้ เริ่มจาก Daegu กลางปีนี้ ทางเมือง Daegu เองก็เตรียมจะติดตั้งไฟส่องถนนที่มีเซ็นเซอร์ในตัว ทำให้ไฟส่องถนนช่วยรายงานสภาพอากาศและสภาพจราจรได้ ทำให้ปรับความสว่างแสงและออกประกาศแจ้งเตือนเช่นเตือนหมอกลง ที่มา - eWeek   ", 
  "Date": "26/May/2016", 
  "Image-Link": [
    "https://www.blognone.com/sites/default/files/styles/thumbnail/public/topics-images/Flag_of_South_Korea.svg_.png?itok=sCG7lOBb", 
    "/sites/all/themes/blognone42/images/linebutton.png"
  ], 
  "Link": "https://www.blognone.com/node/81419", 
  "News": "ซัมซุงร่วมมือ SK Telecom เตรียมวางเครือข่าย IoT  ทั่วเกาหลีใต้", 
  "Tags": [
    "Internet of Things", 
    "South Korea", 
    "Samsung"
  ], 
  "Time": "07:45"
}