{
  "By": "nutmos", 
  "Contents": " Samsung ประกาศว่า ตอนนี้ทางบริษัทได้ผลิต SSD รุ่นใหม่ ซึ่งเป็นแบบ NVMe PCIe เป็นแพคเกจเดียวแบบ ball grid array (BGA) ซึ่งมีขนาดเล็กมาก ใช้ชื่อว่า PM971-NVMe SSD นี้จะมีเพียงแพคเกจเดียวที่ภายในมีอุปกรณ์ครบถ้วน ไม่ว่าจะเป็นชิพ V-NAND flash แบบ 48 ชั้น 256Gb ไว้ทั้งหมด 16 ตัว, ชิพ DRAM สำหรับอุปกรณ์พกพาแบบ 4Gb LPDDR4 ขนาด 20 นาโนเมตร 1 ตัว, และตัวควบคุมของ Samsung SSD นี้จะมาในขนาด 20mm x 16mm x 1.5mm และมีน้ำหนักเพียง 1 กรัม (เบากว่าเหรียญ 10 เซนต์ที่หนัก 2.3 กรัม) ส่วนความเร็วในการอ่านและเขียนในแบบ sequential อยู่ที่ 1,500MB/s และ 900MB/s เมื่อใช้เทคโนโลยี TurboWrite ส่วน IOPS สำหรับการอ่านและเขียนแบบสุ่มอยู่ที่ 190,000 และ 150,000 ซึ่งเมื่อเทียบกับฮาร์ดดิสก์ทั่วไปมี IOPS สำหรับการอ่านแบบสุ่มที่ 120 IOPS แล้ว SSD ใหม่นี้เร็วกว่าถึง 1,500 เท่า SSD ใหม่ของ Samsung นี้จะมีรุ่น 128GB, 256GB และ 512GB โดย Samsung เตรียมจะวางจำหน่ายภายในเดือนนี้ทั่วโลก ที่มา - Samsung   ", 
  "Date": "1/June/2016", 
  "Image-Link": [
    "https://www.blognone.com/sites/default/files/styles/thumbnail/public/topics-images/j8u2rhG1.jpg?itok=CJuE6qSo", 
    "/sites/all/themes/blognone42/images/linebutton.png"
  ], 
  "Link": "https://www.blognone.com/node/81676", 
  "News": "Samsung ออก SSD รุ่นใหม่ เป็น ball grid array แบบแพคเกจเดียว ความจุสูงสุด 512GB", 
  "Tags": [
    "Samsung", 
    "SSD"
  ], 
  "Time": "08:03"
}