{
  "By": "mk", 
  "Contents": " ข้อดีอย่างหนึ่งของ Chromebook คือการอัพเดต Chrome OS อย่างสม่ำเสมอจากกูเกิล แต่เอาเข้าจริงแล้ว การอัพเดตก็มีระยะเวลาตามที่กูเกิลกำหนดไว้ 5 ปีหลังเครื่องเริ่มวางขาย ซึ่ง Chromebook รุ่นแรกๆ ก็จะหมดระยะซัพพอร์ต (End of Life หรือ EOL) ในเดือนนี้แล้ว อุปกรณ์ชุดแรกที่จะหมดระยะซัพพอร์ตคือ Chromebook สองตัวแรกที่เปิดตัวในงาน Google I/O 2011 ได้แก่ Samsung Chromebook Series 5 และ Acer Chromebook AC700 โดยเครื่องของ Samsung จะหมดระยะซัพพอร์ตก่อนในเดือนมิถุนายนนี้ และเครื่อง Acer จะหมดระยะในเดือนสิงหาคม (เปิดตัวพร้อมกันแต่วางขายไม่พร้อมกัน) เอาเข้าจริงแล้ว กูเกิลยังมี Chromebook รุ่นต้นแบบ Cr-48 อีกหนึ่งตัว ซึ่งหมดระยะซัพพอร์ตไปตั้งแต่เดือนธันวาคม 2015 แต่กูเกิลกลับยังอัพเดตให้ต่อโดยไม่อธิบายเหตุผล Chromebook ที่หมดระยะซัพพอร์ตจะยังใช้งานได้ตามปกติ แค่ไม่ได้อัพเดตใหม่อีกแล้วเท่านั้น รายชื่ออุปกรณ์ทั้งหมดพร้อมวันหมดระยะซัพพอร์ต อ่านได้จาก End of Life policy ที่มา - OMG Chrome    ", 
  "Date": "11/June/2016", 
  "Image-Link": [
    "https://www.blognone.com/sites/default/files/styles/thumbnail/public/topics-images/C720-zoom-big.png?itok=LlppYcGm", 
    "https://i.imgur.com/8fq0LRA.jpg", 
    "/sites/all/themes/blognone42/images/linebutton.png"
  ], 
  "Link": "https://www.blognone.com/node/82143", 
  "News": "Chromebook สองรุ่นแรก หมดระยะซัพพอร์ต 5 ปี ยังทำงานได้แต่ไม่มีอัพเดตใหม่", 
  "Tags": [
    "Chromebook", 
    "Google", 
    "Samsung", 
    "Acer", 
    "Chrome OS"
  ], 
  "Time": "11:02"
}