{
  "By": "mk", 
  "Contents": " ซัมซุงประเทศไทยเปิดราคา Gear Fit 2 สายรัดข้อมือสุขภาพรุ่นล่าสุด จุดเด่นของรุ่นนี้คือมี GPS ในตัว ปรับขนาดให้เล็กและบางลงจากเดิม แถมเปลี่ยนเป็นจอสีแล้ว Gear Fit 2 ตั้งราคา 6,500 บาท มีเฉพาะสีดำสีเดียว ของเริ่มวางขายแล้ววันนี้ แต่จะเริ่มขายอย่างเป็นทางการวันที่ 1 กรกฎาคม ส่วนตัว Gear IconX หูฟังแบบ in-ear ไร้สายที่เปิดตัวพร้อมกัน ไม่เข้ามาขายในเมืองไทยครับ ที่มา - ข้อมูลจากซัมซุงประเทศไทย     ", 
  "Date": "20/June/2016", 
  "Image-Link": [
    "https://www.blognone.com/sites/default/files/styles/thumbnail/public/topics-images/j8u2rhG1.jpg?itok=CJuE6qSo", 
    "https://c3.staticflickr.com/8/7666/27331441162_a9debeef82_z.jpg", 
    "https://i.imgur.com/SYF8ESz.jpg", 
    "/sites/all/themes/blognone42/images/linebutton.png"
  ], 
  "Link": "https://www.blognone.com/node/82456", 
  "News": "ซัมซุงเปิดราคา Gear Fit 2 ในไทยที่ 6,500 บาท", 
  "Tags": [
    "Gear Fit", 
    "Samsung", 
    "Wearable Computing"
  ], 
  "Time": "14:33"
}