{
  "By": "mk", 
  "Contents": " ผู้ผลิตมือถืออย่างซัมซุง อาจถูกวิจารณ์เรื่องการอัพเดตซอฟต์แวร์ที่ไม่รวดเร็วทันใจใครหลายคน แต่ในอีกมุมหนึ่งของโลก ซัมซุงกลับพบปัญหาที่แตกต่างกันอย่างสิ้นเชิง นั่นคือผู้ใช้ไม่ยอมอัพเดตซอฟต์แวร์ ด้วยเหตุผลว่ามือถือราคาถูกอาจมีพื้นที่เก็บข้อมูลจำกัด ถ้าจะอัพเดตซอฟต์แวร์ระบบก็ต้องลบแอพออกก่อน ตามข่าวบอกว่าซัมซุงประเทศอินเดีย ถึงขนาดแจกคูปองให้กินพิซซ่าจาก Dominos ลดราคา 20% ถ้าหากผู้ใช้ยอมอัพเดตซอฟต์แวร์เป็นเวอร์ชันใหม่ล่าสุด (ถ้าไม่มี Wi-Fi สามารถไปที่ร้านของซัมซุงแทนได้) โดยโปรโมชั่นนี้จะผูกกับเบอร์มือถือของผู้ใช้ และต้องกดรับสิทธิผ่านแอพ My Galaxy ด้วย ที่มา - 9to5google, @Rakeshkhabiya    ", 
  "Date": "30/May/2016", 
  "Image-Link": [
    "https://www.blognone.com/sites/default/files/styles/thumbnail/public/topics-images/j8u2rhG1.jpg?itok=CJuE6qSo", 
    "https://i.imgur.com/oPmetTb.png", 
    "/sites/all/themes/blognone42/images/linebutton.png"
  ], 
  "Link": "https://www.blognone.com/node/81620", 
  "News": "ซัมซุงอินเดียออกโปรโมชั่น อัพเดตซอฟต์แวร์มือถือ ได้กินพิซซ่าลดราคา", 
  "Tags": [
    "Samsung", 
    "India"
  ], 
  "Time": "22:10"
}