{
  "By": "nismod", 
  "Contents": " Google เคยเปิดคอร์สสอนเขียนแอพแอนดรอยด์บน Udacity สำหรับคนที่มีประสบการณ์มาแล้ว (ข่าวเก่า) ล่าสุด Google ได้เพิ่มหลักสูตร Android Basics Nanodegree สอนเขียนแอพแอนดรอยด์สำหรับคนที่ไม่มีประสบการณ์ในการเขียนโปรแกรม คอร์สนี้จะสอนคอนเซปต์ของภาษา Java เบื้องต้นรวมถึงสอนการออกแบบและเขียนแอพโดยใช้ Android Studio เป็นเครื่องมือ โดยไม่เสียค่าใช้จ่าย เสียค่าใช้จ่ายเดือนละ $199 โดยระยะเวลาเรียนมีทั้งหมด 4 สัปดาห์ สัปดาห์ละ 6 ชั่วโมงผ่านวิดีโอ ซึ่งผู้เรียนจะมีที่ปรึกษาหรือคนตรวจผลงานส่วนตัว รวมถึงได้ใบประกาศนียบัตรหลังเรียนจบ และหากเรียนจบภายใน 1 ปีจะได้รับส่วนลดค่าเรียน 50% ด้วย นอกจากคอร์สนี้แล้ว Google ยังเปิดสอนคอร์สอื่นๆ อีกหลายคอร์ส ดูรายละเอียดทั้งหมดได้ที่นี่ อัพเดต: แก้ไขเนื้อหา ที่มา - Google Developer Blog   ", 
  "Date": "23/June/2016", 
  "Image-Link": [
    "https://www.blognone.com/sites/default/files/styles/thumbnail/public/topics-images/Google_2015_logo.svg_.png?itok=bd4RvVLK", 
    "/sites/all/themes/blognone42/images/linebutton.png"
  ], 
  "Link": "https://www.blognone.com/node/82579", 
  "News": "Google เปิดคอร์สสอนเขียนแอพแอนดรอยด์ ไม่ต้องเขียนโปรแกรมเป็นก็เรียนได้", 
  "Tags": [
    "Google", 
    "Udacity", 
    "Android", 
    "Programming", 
    "Mobile App"
  ], 
  "Time": "12:12"
}