{
  "By": "nismod", 
  "Contents": " Nintendo เปิดตัว Pokemon Sun และ Pokemon Moon ไปเมื่อช่วงต้นปีที่ผ่านมา โดยไม่มีรายละเอียดใดๆ เกี่ยวกับตัวเกม ระบุแต่เพียงว่าจะวางจำหน่ายในช่วงปลายปีนี้เท่านั้น ล่าสุดเว็บไซต์โปเกมอนของญี่ปุ่นระบุว่า จะมีการเปิดเผยรายละเอียดเกมโปเกมอนภาคล่าสุด ในวันอังคารที่ 10 พฤษภาคมนี้ เวลา 3 ทุ่มตามเวลาในญี่ปุ่น (เวลาไทยประมาณ 1 ทุ่ม) ที่มา - Pokemon Global News    ", 
  "Date": "6/May/2016", 
  "Image-Link": [
    "https://www.blognone.com/sites/default/files/styles/thumbnail/public/topics-images/pokemon.png?itok=7HuOXT6S", 
    "https://farm8.staticflickr.com/7582/26240587823_b991301a79_z.jpg", 
    "/sites/all/themes/blognone42/images/linebutton.png"
  ], 
  "Link": "https://www.blognone.com/node/80680", 
  "News": "Nintendo เตรียมเผยรายละเอียด Pokemon Sun & Moon วันที่ 10 พฤษภาคมนี้", 
  "Tags": [
    "Pokemon", 
    "Games", 
    "Nintendo"
  ], 
  "Time": "12:37"
}