{
  "By": "trinakub", 
  "Contents": " ล่าสุดทาง Ubisoft ประกาศรายละเอียดเพิ่มเติม และวันวางจำหน่ายของเกมภาคต่อยอดแฮกเกอร์ Watch Dogs 2 วันที่ 15 พฤศจิกายน 2559 นี้ ในเกม Watch Dogs 2 เราจะได้รับบทเป็นแฮกเกอร์อีกครั้ง แต่ย้ายจากเมืองชิคาโก มาเป็นซานฟรานซิสโก ตัวละครของเราเป็นแฮกเกอร์ลูกครึ่งอเมริกา-แอฟริกัน นาม Marcus Holloway ที่เติบโตมากับความคอร์รัปชันของเมืองแห่งนี้ ซึ่ง Marcus เป็นหนึ่งในสมาชิกกลุ่มแฮกเกอร์ DedSec ที่จะต้องร่วมมือกับเพื่อนร่วมทีมของเขาก่ออาชญกรรมและทำภารกิจต่าง ๆ ให้สำเร็จลุล่วง ภายในเขต Bay Area ของซานฟรานซิสโก Marcus เป็นตัวละครที่แตกต่างจาก Aiden ในภาคแรกตรงที่ Marcus เก่งทางด้านกีฬาและชื่นชอบการต่อสู้ เน้นความเป็นทีมเวิร์คในขณะที่ Aiden จะออกแนวหมาป่าผู้โดดเดี่ยว Marcus ยังชื่นชอบการวิ่งสำรวจรอบเมืองซานฟรานซิสโกและโอ๊คแลนด์ โดยใช้ความสามารถทางด้านกีฬาในการไต่กำแพงและกระโดดข้ามตึก ในการต่อสู้ Marcus จะใช้อาวุธ DIY ของเขาในการสู้กับศัตรูของเขา นอกจากนี้ Marcus ยังมีอุปกรณ์คู่ใจที่ใช้ในการสำรวจพื้นที่ต่าง ๆ คือ Drone รูปแบบ quadcopter และรถยนต์รีโมทบังคับ  Creative Director คุณ Jonathan Morin ให้ความเห็นต่อตัวละครนี้ว่า “Marcus เป็นตัวละครที่แสดงออกความเป็นตัวของตัวเองได้ดี ทั้งในด้านของบุคลิกท่าทางและลักษณะการต่อสู้ ซึ่งจะให้ความรู้สึกที่แตกต่างจาก Aiden ในภาคแรกอย่างสิ้นเชิง” เกม Watch Dogs 2 แตกต่างจากภาคแรก โดยภาคแรกสามารถแฮกอุปกรณ์ได้เพียงไม่กี่อย่าง แต่ในภาคสอง ความหลากหลายของอุปกณณ์ที่แฮกได้จะเพิ่มมากขึ้น คุณจะสามารถแฮกมือถือได้ทุกเครื่อง รถทุกคัน และอุปกรณ์อื่น ๆ อีกมากมาย เพื่อใช้ในการทำภารกิจของ Marcus ให้ลุล่วง ในภาค Watch Dogs 2 ยังมีระบบใหม่เพิ่มเข้ามาอีกนั่นคือระบบ cooperative play เพียงแค่เดินสำรวจรอบเมืองซานฟรานซิสโก คุณก็สามารถพบกับผู้เล่นคนอื่นและสามารถให้ความช่วยเหลือกันในการทำภารกิจได้ ทำให้เราสามารถเล่นแบบ multiplayer ได้ทั้งเกม “พวกเราได้สร้างโลกที่จะกระตุ้นความอยากสำรวจ ความอยากค้นหาของคุณ โลกของพวกเราจะทำให้คุณได้พบกับผู้เล่นคนอื่น ทำให้ผู้เล่นทำงานกันเป็นทีมเพื่อทำภารกิจให้สำเร็จ และโลกของเราจะตอบแทนต่อความพยายามนั้นของผู้เล่น” กล่าวโดย Director Bélanger “Watch Dogs 2 คือโลกของคุณ เกมของคุณ คุณจะทำอะไรก็ได้บนโลกแห่งนี้” ที่มา - GameSpot    ", 
  "Date": "9/June/2016", 
  "Image-Link": [
    "https://www.blognone.com/sites/default/files/styles/thumbnail/public/news-thumbnails/camiseta-watch-dogs-mod3-large2.jpg?itok=XDz-VsOW", 
    "http://i.imgur.com/Vr80yds.jpg", 
    "http://i.imgur.com/KCbqqJq.jpg", 
    "/sites/all/themes/blognone42/images/linebutton.png"
  ], 
  "Link": "https://www.blognone.com/node/82073", 
  "News": "Watch Dogs 2 ประกาศวางจำหน่าย 15 พฤศจิกายน 2559 นี้พร้อมรายละเอียดเพิ่มเติม", 
  "Tags": [
    "Watch Dogs", 
    "Games", 
    "Ubisoft"
  ], 
  "Time": "15:50"
}