{
  "By": "twometre", 
  "Contents": " ต่อเนื่องจากข่าว NVIDIA ขอเน้นประสิทธิภาพ SLI แบบ \"การ์ดสองใบ\" ในชิป Pascal มีความคืบหน้าจากการต่อใช้งานการ์ด GeForce GTX 1080 แบบ SLI ด้วยการ์ดสามและสี่ใบครับ ว่ามีการปิดใช้งานมาในไดรเวอร์จริง ต่อการ์ดมากกว่าสองใบก็ใช้งาน SLI ได้แค่หนึ่งคู่เท่านั้น วิธีการแก้ปัญหาคือต้องรอการมาของ Enthusiast Key เพื่อเปิดการทำงาน SLI กับการ์ดทั้งหมดที่มีบนแอพที่รองรับเท่านั้น และมีอัพเดตท้ายข่าวนี้อีกว่า SLI กับการ์ด 3 และ 4 ใบจะใช้งานได้เฉพาะแอพเบนช์มาร์กเพื่อการโอเวอร์โดยเฉพาะ เท่านั้น ซึ่งผู้เขียนข่าวนี้ยังแนะนำเลยว่า ถ้าคุณมีการ์ดตระกูลนี้เกินสองใบแล้วจะใช้เล่นเกม ก็ขอคืนเงินหรือขายทิ้งดีกว่า ที่มา - PC Perspective    ", 
  "Date": "12/June/2016", 
  "Image-Link": [
    "https://www.blognone.com/sites/default/files/styles/thumbnail/public/topics-images/geforce.png?itok=VWfKZaQt", 
    "//upic.me/i/5m/sli-ultra-bridge.jpg", 
    "/sites/all/themes/blognone42/images/linebutton.png"
  ], 
  "Link": "https://www.blognone.com/node/82157", 
  "News": "ดับฝันเกมเมอร์? GeForce GTX 1070-1080 ต่อ SLI 3-4 ใบ จะใช้ได้เฉพาะบางแอพเท่านั้น", 
  "Tags": [
    "GeForce", 
    "NVIDIA", 
    "NVIDIA Pascal", 
    "Hardware", 
    "Games"
  ], 
  "Time": "09:08"
}