{
  "By": "twometre", 
  "Contents": " ช่วงนี้ข่าวฮาร์ดแวร์ไหลดีเหลือเกิน หลังจากอินเทลเปิดตัวชิป Core i7 Broadwell-E ตัวท็อป 10 คอร์ อย่างเป็นทางการ บรรดาแบรนด์ต่างๆ ก็เปิดตัวสินค้าตัวเองออกมา Digital Storm แบรนด์พีซีสั่งประกอบจากฝั่งตะวันตกก็เปิดตัว Aura พีซีแนวออลอินวัน (ใส้ในรวบไว้หลังจอ) สเปคแรงตามออกมาทันที  ตัวเครื่องเป็นจอภาพขนาด 34\" ในสัดส่วน 21:9 ความละเอียด 3440x1440  ซีพียูเลือกสเปคได้ตั้งแต่ Core i5-6500 ถึง i7-6950X ตัวล่าสุด จากภาพประกอบคือขึ้นกับเมนบอร์ดขนาด Mini-ITX ที่ใช้ แรม DDR4 เลือกได้ถึงความจุ 32GB กราฟฟิกการ์ดเลือกได้ตั้งแต่ NVIDIA GeForce GTX 950 ถึง 1080 จากภาพคือวางตัวแนวตั้งเป่าลมลงล่าง มีพาวเวอร์ซัพพลายและลำโพงในตัวด้วย ราคาเริ่มต้นที่ 1,999 เหรียญสหรัฐฯ (ประมาณ 71,400 บาท)  ที่มา - Anandtech       ", 
  "Date": "31/May/2016", 
  "Image-Link": [
    "https://www.blognone.com/sites/default/files/styles/thumbnail/public/news-thumbnails/digital-storm-squarelogo-1432043911823.png?itok=pGOsxiYF", 
    "//upic.me/i/3u/2016-05-3117_27_05-bestcustomall-in-onegamingdesktop_aura_digitalstorm.jpg", 
    "//upic.me/i/jt/gallery-3.jpg", 
    "//upic.me/i/92/gallery-4.jpg", 
    "//upic.me/i/r6/gallery-5.jpg", 
    "/sites/all/themes/blognone42/images/linebutton.png"
  ], 
  "Link": "https://www.blognone.com/node/81663", 
  "News": "Digital Storm โชว์ Aura พีซีออลอินวัน: ใส่ i7-6950X และ GTX 1080 ไว้หลังจอ 34 นิ้ว", 
  "Tags": [
    "Digital Storm", 
    "Hardware", 
    "Intel", 
    "eSport", 
    "GeForce", 
    "NVIDIA Pascal"
  ], 
  "Time": "17:40"
}