{
  "By": "trinakub", 
  "Contents": " Bandai Namco กำหนดวันวางจำหน่ายเกม Fighting RPG \"Dragon Ball Xenoverse 2\" เป็นวันที่ 25 ตุลาคม 2559 สำหรับเครื่อง PlayStation 4 และ Xbox One ส่วนบน PC จะเป็นวันที่ 28 ตุลาคม 2559 เกม Dragon Ball Xenoverse 2 เป็นเรื่องราว 2 ปี ต่อมาจากภาคแรก มีตัวละครหลักตัวใหม่เป็นผู้ดำเนินเนื้อเรื่อง เกมภาคนี้จะดำเนินเนื้อเรื่องรูปแบบเดียวกับภาคแรก คือเสนอเรื่องราวของโลกคู่ขนานที่เหตุการณ์เปลี่ยนแปลงไปจากเนื้อเรื่องหลัก ควบคู่ไปกับการเดินทางข้ามการเวลา คราวนี้มีสิ่งที่ผิดแปลกเกิดขึ้นคือการปรากฏตัวของ Cooler และ Turles บนดาวนาเม็ก พร้อมกับร่างใหม่ของ Broly และ Janemba ที่ทรงพลังมากกว่าเดิม ภาคนี้ได้คุณ DJ Steve Aoki ผู้ได้รับรางวัล Grammy ปี 2013 สาขา Best Dance/Electronica Album มาทำการ Remix เพลงหลักประจำซีรี่ส์ Dragon Ball อย่าง Cha-la Head Cha-la และ We Gotta Power ด้วย และตัวเขาเองก็จะปรากฏเป็นตัวละคร NPC ภายในเกมเช่นกัน ที่มา - GameSpot   ", 
  "Date": "3/July/2016", 
  "Image-Link": [
    "https://www.blognone.com/sites/default/files/styles/thumbnail/public/news-thumbnails/Dragon%20Ball%20Xenoverse%202%20Logo.png?itok=DCbGxEPT", 
    "/sites/all/themes/blognone42/images/linebutton.png"
  ], 
  "Link": "https://www.blognone.com/node/82943", 
  "News": "เกม Dragon Ball Xenoverse 2 ประกาศวันวางจำหน่าย", 
  "Tags": [
    "Dragon Ball", 
    "Games", 
    "Bandai Namco"
  ], 
  "Time": "00:35"
}