{
  "By": "trinakub", 
  "Contents": " วันวางจำหน่ายเกม Final Fantasy XV (30 กันยายน 2559) ก็ใกล้เข้ามาเรื่อย ๆ แล้ว หลาย ๆ คนอาจกังวลว่าซื้อมาแล้วจะได้เล่นไม่คุ้มเงินหรือเปล่า ปัญหานี้หมดห่วงไปได้ เพราะว่าหนึ่งในผู้บริหารคุณฮาจิเมะ ทาบาตะ ออกมายืนยันด้วยตัวเองเลยว่า ภายในเกมจะมีเนื้อหาให้เล่นไม่ต่ำกว่า 100 ชั่วโมงแน่นอน คุณทาบาตะกล่าวถึงเนื้อเรื่องหลักว่า ใช้เวลาในการเคลียร์ประมาณ 40-50 ชั่วโมง ดังนั้นผู้เล่นจะได้สนุกกับเกมเป็นเวลาอย่างน้อย 40 ชั่วโมงแน่นอน เวลาดังกล่าวยังไม่ได้รวมเควสรองและเนื้อหาพิเศษอื่น ๆ ซึ่งถ้าจะเคลียร์เนื้อหาเสริมให้หมดก็ต้องใช้เวลาประมาณ 100 ชั่วโมง ถ้านับรวมทุกอย่างแล้วก็จะได้ประมาณ 200 ชั่วโมงรวมกัน “มีแฟน ๆ จำนวนมากได้รอคอยเกมนี้มาระยะหนึ่งแล้ว ดังนั้นทางสตูดิโอขอรับประกันเลยว่าภายในเกมจะมีเนื้อหามากพอ ให้สมกับเวลาที่แฟน ๆ ได้รอคอยมาแน่นอน” ที่มา – GameSpot    ", 
  "Date": "21/June/2016", 
  "Image-Link": [
    "https://www.blognone.com/sites/default/files/styles/thumbnail/public/topics-images/final-fantasy.png?itok=J1HjXnRX", 
    "http://i.imgur.com/grLcdmM.jpg", 
    "/sites/all/themes/blognone42/images/linebutton.png"
  ], 
  "Link": "https://www.blognone.com/node/82478", 
  "News": "Final Fantasy XV จะมีเนื้อหาให้เล่นมากกว่า 100 ชั่วโมง!", 
  "Tags": [
    "Final Fantasy", 
    "Games", 
    "Square Enix"
  ], 
  "Time": "00:52"
}