{
  "By": "mk", 
  "Contents": " นอกจาก Xbox One S ไมโครซอฟท์ยังประกาศข้อมูลของ Project Scorpio ฮาร์ดแวร์คอนโซลตัวใหม่ที่จะออกช่วงปลายปี 2017 Project Scorpio จะเข้ากันได้กับ Xbox One และ Xbox One S ทั้งในแง่ซอฟต์แวร์และอุปกรณ์เสริมต่างๆ แต่มีสมรรถนะที่แรงขึ้นมาก ไมโครซอฟท์บอกว่าจีพียูของ Scorpio จะมีสมรรถนะสูงถึง 6 teraflops รองรับการเล่นเกมระดับ 4K และ VR ความละเอียดสูงอีกด้วย แนวคิดของไมโครซอฟท์คือต่อจากนี้ไป เครื่องเกมคอนโซลจะไม่มีแบ่งยุคอีกแล้ว สามารถเล่นเกมข้ามกันได้หมด ไม่จำกัดว่ามีฮาร์ดแวร์ยุคไหน ที่มา - Xbox Wire \"Today marks the beginning of a future [...] where we can all play without boundaries\" — @XboxP3 #XboxE3 pic.twitter.com/EvU1Wvlubt — Xbox (@Xbox) June 13, 2016    ", 
  "Date": "14/June/2016", 
  "Image-Link": [
    "https://www.blognone.com/sites/default/files/styles/thumbnail/public/topics-images/xbox-big_0.png?itok=5eYWc84O", 
    "https://i.imgur.com/ysQZG9e.jpg", 
    "/sites/all/themes/blognone42/images/linebutton.png"
  ], 
  "Link": "https://www.blognone.com/node/82213", 
  "News": "ไมโครซอฟท์ประกาศ Project Scorpio คอนโซลตัวใหม่ รองรับ 4K ออกปลายปี 2017", 
  "Tags": [
    "Xbox One", 
    "Microsoft", 
    "Games"
  ], 
  "Time": "01:19"
}