{
  "By": "trinakub", 
  "Contents": " รัฐบาลรัสเซียได้ประกาศอย่างเป็นทางการที่จะเพิ่ม eSport ลงทะเบียนร่วมเป็นหนึ่งในการกีฬาแห่งชาติ มีผลตั้งแต่วันที่ 17 มิ.ย. 59 นี้ นับเป็นก้าวที่ยิ่งใหญ่สำหรับวงการ eSport ของโลก และนับว่าเป็นการมีตัวตันจริงครั้งแรกของ eSport เลยนับตั้งแต่ปี 2001 แต่กลับถูกยกเลิกไปในปี 2006 เพราะล้มเหลวและตอบสนองความต้องการไม่เพียงพอต่อชนกลุ่มใหญ่นั่นเอง เหตุผลที่แท้จริงที่ถูกยกเลิกไปนั้นก็คือ ในช่วงเวลาดังกล่าว eSport ไม่ได้รับการพัฒนามากเกินกว่าครึ่งของประเทศรัสเซีย แต่ปัจจุบันเห็นได้ชัดเจนแล้วว่ากรณีนี้จะไม่มีอีกต่อไป และอีกด้านหนึ่งของข่าวนี้ เมื่อปีที่แล้วมหาเศรษฐี Alisher Usmanov ได้ทุ่มเงินกว่า 100 ล้านลงในวงการนี้ ทำให้เกิดข่าวใหญ่ขึ้นในประเทศรัสเซียและทำให้เกิดเวทีการแข่งขันของ eSport ขึ้นในวงกว้างนั่นเอง ที่มา - Russia   ", 
  "Date": "9/June/2016", 
  "Image-Link": [
    "https://www.blognone.com/sites/default/files/styles/thumbnail/public/topics-images/russia.png?itok=uHDRbaVs", 
    "/sites/all/themes/blognone42/images/linebutton.png"
  ], 
  "Link": "https://www.blognone.com/node/82029", 
  "News": "รัสเซียประกาศรับ eSport เป็นกีฬาอย่างเป็นทางการตั้งแต่วันที่ 17 มิถุนายน 2559", 
  "Tags": [
    "Russia", 
    "eSport", 
    "Games"
  ], 
  "Time": "01:52"
}