{
  "By": "magnamonkun", 
  "Contents": " อีกหนึ่งไฮไลท์ที่ถูกเปิดตัวในงาน E3 เมื่อปีที่แล้ว และก็หายเงียบไปตามสายลม โผล่มาอีกครั้งในงาน E3 ปีนี้ Square Enix เลยจัดเซอร์ไพร์สด้วยการประกาศวางจำหน่าย World of Final Fantasy อย่างเป็นทางการซะเลย กำหนดการวางจำหน่ายเกมนี้แบ่งออกเป็น 3 วัน คือ 25 ตุลาคม ในอเมริกาเหนือ, 27 ตุลาคมในญี่ปุ่น และ 28 ตุลาคมในยุโรป ทิ้งห่างจากกำหนดวางจำหน่ายเกม Final Fantasy XV ไปเกือบหนึ่งเดือน โดยผู้ที่สั่งซื้อตัวเกมล่วงหน้าจะได้รับ Summon Sephiroth (Final Fantasy VII) เป็นของแถมด้วย World of Final Fantasy จะเป็นเรื่องราวการผจญภัยของ Reynn และ Lann พี่น้องฝาแฝดที่ต้องออกเดินทางใน Grymoire เพื่อตามหาความทรงจำที่หายไป ระหว่างการเดินทาง เราจะได้พบกับ Cloud (Final Fantasy VII), Squall (Final Fantasy VIII) และ Lightning (Final Fantasy XIII) เป็นเพื่อนคอยช่วยเหลือในการเดินทางกับเราในครั้งนี้ ย้ำอีกครั้งว่าเกมนี้เป็น PlayStation Exclusive ออกให้กับ PS4 และ PSVITA เท่านั้นครับ ที่มา - Blog PlayStation    ", 
  "Date": "9/June/2016", 
  "Image-Link": [
    "https://www.blognone.com/sites/default/files/styles/thumbnail/public/topics-images/final-fantasy.png?itok=J1HjXnRX", 
    "//upic.me/i/wr/world-of-final-fantasy-cover.jpg", 
    "/sites/all/themes/blognone42/images/linebutton.png"
  ], 
  "Link": "https://www.blognone.com/node/82030", 
  "News": "Square Enix ประกาศวางจำหน่าย World of Final Fantasy ตุลาคมนี้", 
  "Tags": [
    "Final Fantasy", 
    "Games", 
    "Square Enix"
  ], 
  "Time": "03:10"
}