{
  "By": "trinakub", 
  "Contents": " ดูเหมือนว่า Minecraft จะมีความเป็นไปได้ไม่มีที่สิ้นสุดจริง ๆ เมื่อล่าสุดนี้เอง มีชาว Reddit นาม Requag ใช้ความคิดสร้างสรรค์ของเขาสร้างเกม Pokémon ภาค FireRed ขึ้นมา ด้วยเกม Minecraft ถึงแม้ตัวเกมจะพัฒนาไปมากแล้ว แต่ดูเหมือนว่าจะยังขาดระบบพื้นฐานอยู่อีกมาก เช่น ระบบต่อสู้และระบบสนทนา ผู้พัฒนา Requag กล่าวว่าระบบจะเพิ่มเข้ามาในภายหลัง ตัวเขามีความตั้งใจที่จะทำตัวเกมให้สมบูรณ์แบบให้ได้ สิ่งที่น่าทึ่งอีกอย่างคือตัวเกม Minecraft ที่ใช้ทำไม่ได้ลง Mod ใดๆ ไว้เลย เป็นเพียงแค่ตัวเกมเวอร์ชัน 1.10 เปล่า ๆ เท่านั้น ดูเหมือนว่าเขาจะใช้เพียงแค่ Structure Block คู่กับ Command Block และ Redstone ในการสร้างเกม Pokémon ขึ้นมา ผู้ที่สนใจสามารถทดลองดาวน์โหลดไปเล่นได้ที่เว็บไซต์ Planetminecraft (ต้องมีเกม Minecraft เวอร์ชัน 1.10 ก่อน) และสามารถติดตามรายละเอียดได้ที่ Twitter ของ Reqaug ที่มา – Polygon   ", 
  "Date": "5/July/2016", 
  "Image-Link": [
    "https://www.blognone.com/sites/default/files/styles/thumbnail/public/topics-images/minecraft-logo.png?itok=wUsaULhq", 
    "/sites/all/themes/blognone42/images/linebutton.png"
  ], 
  "Link": "https://www.blognone.com/node/82993", 
  "News": "ล้ำได้อีก! มีคนสร้างเกม Pokémon ภายในเกม Minecraft อีกที", 
  "Tags": [
    "Minecraft", 
    "Pokemon", 
    "Games"
  ], 
  "Time": "09:54"
}