{
  "By": "trinakub", 
  "Contents": " หลังจากที่เกม Prey 2 ภาคต่อของ Prey ถูกยกเลิกเมื่อปี 2014 ล่าสุดตัวแทนจำหน่าย Bethesda Game Studios ประกาศนำ Prey ภาคแรกมาทำใหม่อีกครั้ง โดยคงชื่อเดิมว่า Prey เกมภาคนี้ถูกพัฒนาโดย Arkane Studios จากฝรั่งเศส (ผู้สร้างเกม Dishonored) มีกำหนดลงเครื่อง PS4, Xbox One และ PC ตัวเกมจะทำเสร็จภายในปี 2017 Bethesda อธิบายถึงตัวเกมคร่าว ๆ ว่าผู้เล่นจะได้ควบคุมตัวละครชื่อ Morgan Yu ผู้เป็นหนูทดลองในการพัฒนาเผ่าพันธุ์มนุษย์ คุณจะตื่นขึ้นมาภายในยาน Talos 1 ในปี 2032 และต้องไขความลับที่สถานีอวกาศแห่งนี้ได้เก็บซ่อนเอาไว้ให้ได้ ในขณะเดียวกันก็มีกลุ่มเอเลี่ยนปริศนาที่คอยตามหลอกหลอนคุณอยู่เช่นกัน ผู้เล่นจะต้องใช้อุปกรณ์ทั้งหมดที่หาได้ภายในยาน ร่วมกับสมองของคุณและความสามารถในการบิดเบือนความคิด เพื่อหาทางเอาตัวรอดและต่อสู้กับภัยพิบัติต่าง ๆ ที่คอยคุกคามชีวิตของคุณอยู่” ที่มา – VideoGamer   ", 
  "Date": "13/June/2016", 
  "Image-Link": [
    "https://www.blognone.com/sites/default/files/styles/thumbnail/public/news-thumbnails/Prey%20Logo.png?itok=c172zugy", 
    "/sites/all/themes/blognone42/images/linebutton.png"
  ], 
  "Link": "https://www.blognone.com/node/82184", 
  "News": "Bethesda นำเกมเก่า Prey กลับมาทำใหม่ พัฒนาโดย Arkane Studios", 
  "Tags": [
    "Prey", 
    "Bethesda", 
    "Games", 
    "Arkane Studios"
  ], 
  "Time": "11:10"
}