{
  "By": "nismod", 
  "Contents": " Hideo Kojima ได้เผยโฉมเทรลเลอร์ Death Stranding เกมใหม่เกมแรกหลังออกจาก Konami มาทำสตูดิโอเกมของตัวเอง โดยได้ Norman Reedus ที่โด่งดังมาจากบท Daryl ในซีรีส์ The Walking Dead กลับมาร่วมงานกันอีกครั้ง หลังโครงการ Silent Hill ของ Konami ล่มไป เทรลเลอร์ไม่ได้เผยให้เห็นรายละเอียดของเกมมากนัก มีเพียงคำโปรยทีระบุว่า \"To see a world in a grain of sand and a heaven in a wildflower. Hold infinity in the palm of your hand and eternity in an hour.\" โดยฉากหลังดูเหมือนโลก Dystopia ก็ไม่ผิดมากนัก Death Stranding ยังไม่มีกำหนดวางจำหน่าย แต่น่าจะมีให้เล่นเฉพาะบน PS4 ตามที่ออกมาให้ข่าวว่าจะพัฒนาเกม exclusive บน PS4 ก่อนหน้านี้ ที่มา - Ars Technica, IGN    ", 
  "Date": "14/June/2016", 
  "Image-Link": [
    "https://www.blognone.com/sites/default/files/styles/thumbnail/public/topics-images/Kojima_Hideo.png?itok=U-9W2kDJ", 
    "https://c4.staticflickr.com/8/7344/27587549851_9b3955b90f_z.jpg", 
    "/sites/all/themes/blognone42/images/linebutton.png"
  ], 
  "Link": "https://www.blognone.com/node/82235", 
  "News": "Hideo Kojima เปิดตัวเทรลเลอร์เกม Death Stranding ได้ Norman Reedus กลับมาร่วมงาน", 
  "Tags": [
    "Hideo Kojima", 
    "Games"
  ], 
  "Time": "13:44"
}