{
  "By": "trinakub", 
  "Contents": " ล่าสุด ณ งาน E3 มีการเปิดตัวเกมซุปเปอร์ฮีโร่ Spider-Man จาก Sony เป็นเกมที่ Exclusive เฉพาะเครื่อง PS4 เท่านั้น พัฒนาโดยสตูดิโอ Insomniac Games ผลงานที่ผ่าน ๆ มาของสตูดิโอได้แก่เกม Ratchet & Clank และ Sunset Overdrive “Peter Parker หรือ Spider-Man ที่ปรากฏภายในเกมนี้จะไม่ได้ถูกอ้างอิงมาจากภาพยนตร์ใด ๆ ทั้งสิ้น และไม่ได้เป็น Spider-Man ที่พวกเราคุ้นเคยกันเป็นอย่างดี แต่จะเป็น Spider-Man ที่เต็มเปี่ยมไปด้วยประสบการณ์ในการต่อสู้ ผู้ซึ่งเชี่ยวชาญในการต่อกรกับอาชญากรภายในเมือง New York ที่เขาอาศัยอยู่ และในขณะที่เขาทำภารกิจเป็นผู้ดูแลรักษาความสงบภายในเมือง เขาเองก็ต้องหาทางรักษาสมดุลในการใช้ชีวิตธรรมดาและชีวิตฮีโร่ของเขาด้วย” ที่มา - PlayStation   ", 
  "Date": "14/June/2016", 
  "Image-Link": [
    "https://www.blognone.com/sites/default/files/styles/thumbnail/public/news-thumbnails/Spider%20Man%20Logo.png?itok=drAg-yrf", 
    "/sites/all/themes/blognone42/images/linebutton.png"
  ], 
  "Link": "https://www.blognone.com/node/82239", 
  "News": "Sony เปิดตัวเกม Spider-Man พัฒนาโดย Insomniac ลง PS4", 
  "Tags": [
    "Spider-Man", 
    "Games", 
    "PS4"
  ], 
  "Time": "14:33"
}