{
  "By": "nismod", 
  "Contents": " HP เคยปลุกผี Voodoo PC ด้วยการเปิดตัว HP Omen เกมมิ่งโน๊คบุ๊คในซีรีส์ Omen ของตัวเองไปแล้วในปี 2014 ล่าสุดได้ออกโน๊คบุ๊คในซีรีส์เพิ่มอีก 2 ตัว พร้อมแตกไลน์ผลิตภัณฑ์ไปยังเดสก์ท็อปและหน้าจอแล้ว สำหรับโน๊ตบุ๊คแตกออกมาเป็น 2 รุ่นย่อยคือขนาดหน้าจอ 15.6 นิ้วและ 17.3 นิ้ว โดยสเปคมีดังนี้  ซีพียูรองรับสูงสุด Core i7-6700HQ  จีพียู Nvidia GTX 950M, 960M และ 965M หน้าจอ IPS ความละเอียด FullHD 1080p หรือ UHD (4K) แรมสูงสุด 16GB DDR4 SSD สูงสุด 512GB PCIe รองรับ HDD สูงสุด 2TB ความหนา 24.5 มม. น้ำหนัก 2 กก. (รุ่น 15.6 นิ้ว) และหนา 29.9 มม. หนัก 2.8 กก. (รุ่น 17.3 นิ้ว) USB 3.0 สองพอร์ตและ USB 2.0 หนึ่งพอร์ต พร้อม SD Card reader และพอร์ต HDMI (ถ้าเลือก GTX 965M จะได้ HDMI 2.0) ราคาเริ่มต้น 899.99 เหรียญสำหรับรุ่น 15.6 นิ้วและ 979.99 เหรียญสำหรับรุ่น 17.3 นิ้ว  เริ่มวางขายต้นเดือนกรกฎาคมนี้    ส่วนเดสก์ท็อปมาธีมเดียวกันคือสีดำแดง พร้อมเมนบอร์ด micro-ATX และสเปคอื่นๆ ดังนี้  ซีพียูรองรับสูงสุด Core i7-6700K จีพียู Nvidia GeFroce GTX 1080 หรือ AMD R9 390X แรมสูงสุด 32GB DDR4 SSD สูงสุด 512 GB, HDD สูงสุด 3TB พร้อมพอร์ต USB 3.0 สองพอร์ต, USB 2.0 สี่พอร์ต, USB 3.1 Type-C หนึ่งพอร์ต (เฉพาะบางรุ่น) และ การ์ดรีดเดอร์แบบ 7-in-1 สามารถเลือกติดตั้งระบบระบายความร้อนด้วยน้ำแบบปิด ยังไม่ระบุราคาและวันวางจำหน่าย แค่ว่าน่าจะภายในเดือนสิงหาคมนี้   ปิดท้ายที่หน้าจอในไลน์ Omen ที่มีขนาด 32 นิ้วแบบ WVGA ความละเอียด QHD (2560 x 1440) ความกว้างสี sRGB 100% พร้อมเทคนิค FreeSync ของ AMD และยังไม่มีการระบุราคาและวันวางจำหน่ายเช่นกัน  ที่มา - The Verge, Tom's HARDWARE   ", 
  "Date": "26/May/2016", 
  "Image-Link": [
    "https://www.blognone.com/sites/default/files/styles/thumbnail/public/topics-images/hp.png?itok=wwPRX9uc", 
    "https://c1.staticflickr.com/8/7086/27225610976_a7c25fbc15_z.jpg", 
    "https://c7.staticflickr.com/8/7131/27225611006_5aa263770b_z.jpg", 
    "https://c3.staticflickr.com/8/7031/27225611026_7505b30e87_z.jpg", 
    "https://c2.staticflickr.com/8/7050/27259335185_4512ddfe3f_z.jpg", 
    "/sites/all/themes/blognone42/images/linebutton.png"
  ], 
  "Link": "https://www.blognone.com/node/81459", 
  "News": "HP แตกผลิตภัณฑ์ซีรีส์เกมมิ่ง Omen เพิ่มเดสก์ท็อป หน้าจอและออกโน๊ตบุ๊คใหม่", 
  "Tags": [
    "HP", 
    "Games", 
    "Omen"
  ], 
  "Time": "15:02"
}