{
  "By": "mk", 
  "Contents": " เมื่อวานนี้มีนักกีฬา eSport ของไทยไปสร้างชื่อในการแข่งขันรางวัลใหญ่ที่ประเทศจีน โดยคุณ Nutthakorn Boonritphakdee หรือคุณแอมป์ (ชื่อในวงการคือ แอมป์ เซฟิรอธ AmpZeFFiLoS) ร่วมแข่งขันเกมฟุตบอล FIFA Online 3 กับทีม Ronly ของประเทศจีน (สมาชิกคนอื่นในทีมเป็นคนจีนล้วน) การแข่งขันรายการนี้มีชื่อเต็มๆ ว่า FIFA Online 3 2016 Star League S2 (S2 หมายถึงซีซัน 2 ส่วนการแข่งเรียกย่อๆ ว่า FSL S2) โดยทีม Ronly สามารถชนะคู่แข่งได้ถึงรอบชิงชนะเลิศ เจอกับแชมป์เก่าทีม TNT ซึ่งเป็นทีมชื่อดังของประเทศจีน การแข่งนัดชิงชนะเลิศต้องชนะ 3 ใน 5 เกม ทีม TNT สามารถทำคะแนนนำไปก่อน 2:0 เกม แต่เกมที่สามและสี่ Ronly กลับมาตีตื้นได้ 2:2 (คุณแอมป์แข่งเดี่ยวชนะก่อน แล้วแข่งทีมแบบ 3v3 ชนะอีกเกม) ก่อนที่เกมสุดท้าย ผู้เล่นทีม Ronly โดนยิงประตูในช่วงต่อเวลาพิเศษ แพ้ TNT ไปอย่างน่าเสียดาย ทีมได้รางวัลรองชนะเลิศมาครอง (รองแชมป์ได้เงินรางวัล 200,000 หยวนหรือประมาณ 1 ล้านบาท ส่วนแชมป์ได้ 400,000 หยวนหรือประมาณ 2 ล้านบาท) อย่างไรก็ตาม คุณแอมป์ก็ได้รางวัล MVP ผู้เล่นทรงคุณค่าประจำการแข่งขันครั้งนี้ พร้อมเงินรางวัล 40,000 หยวน (ประมาณสองแสนกว่าบาท) กลับบ้านมาด้วย ถือเป็นนักกีฬา eSport อีกคนที่สร้างชื่อให้กับประเทศไทยในวงการ eSport ต่างแดนครับ ที่มา - Gamersky, TGA  ภาพโปรโมทการแข่งขัน FIFA Online 3 - FSL S2  เพื่อนร่วมทีม Ronly   ผลการแข่งขัน    ", 
  "Date": "12/June/2016", 
  "Image-Link": [
    "https://www.blognone.com/sites/default/files/styles/thumbnail/public/topics-images/fifa-online.jpg?itok=jbTHIRBR", 
    "https://i.imgur.com/RZYDkXR.png", 
    "https://i.imgur.com/8jjleGZ.jpg", 
    "https://i.imgur.com/lOOfsbP.jpg", 
    "https://i.imgur.com/BRuGppq.jpg", 
    "https://i.imgur.com/xjRquOq.jpg", 
    "/sites/all/themes/blognone42/images/linebutton.png"
  ], 
  "Link": "https://www.blognone.com/node/82166", 
  "News": "ผู้เล่น eSport ไทย คว้ารองแชมป์ FIFA Online 3 และรางวัล MVP ที่ประเทศจีน", 
  "Tags": [
    "FIFA Online", 
    "eSport", 
    "Games", 
    "China", 
    "Competition", 
    "EA"
  ], 
  "Time": "16:15"
}