{
  "By": "nrad6949", 
  "Contents": " Bethesda Game Studios ผู้พัฒนาเกม Fallout 4 ออกมาประกาศเมื่อวานนี้ว่าผู้เล่น Fallout 4 บน Xbox One ที่ต้องการทดสอบความสามารถใหม่ของเกม Fallout 4 ซึ่งจะเป็นครั้งแรกที่รองรับส่วนเสริมของเกม (mods) สามารถลงทะเบียนได้แล้ว และจะเริ่มทดสอบได้ในสัปดาห์หน้าเมื่อมีการปล่อยให้ดาวน์โหลดภาคเสริม Far Harbour สู่ผู้เล่นบนแพลตฟอร์ม Xbox One อย่างเป็นทางการ ผู้ที่สนใจสามารถลงทะเบียนได้จากหน้าเว็บไซต์ของ Bethesda โดยจะต้องระบุข้อมูลบางส่วน เมื่อส่งรายละเอียดทั้งหมดแล้วก็รอลุ้นให้ทีมงานคัดเลือก และจะตอบกลับทางอีเมลในขั้นตอนต่อไป โดยถือเป็นการขยายความสามารถในการรองรับส่วนเสริมของเกมที่เดิมมีเฉพาะบน PC มาก่อน ทั้งนี้ผู้เล่นที่อยู่บนแพลตฟอร์ม PlayStation 4 ยังไม่ต้องเสียใจ ทาง Bethesda ระบุว่าเตรียมจะปล่อยความสามารถนี้ลงมาให้ด้วย แต่ต้องรอเป็นเดือนหน้าครับ ที่มา - GameSpot  Our next Beta will be testing #Fallout4 Mods on #Xbox. If you're interested, sign up on https://t.co/XrknGQK7OL https://t.co/3MTrvnmOyp — BethesdaGameStudios (@BethesdaStudios) May 10, 2016   ", 
  "Date": "12/May/2016", 
  "Image-Link": [
    "https://www.blognone.com/sites/default/files/styles/thumbnail/public/topics-images/fallout.png?itok=3XI5yt5E", 
    "https://i.imgur.com/1TFJizO.jpg", 
    "/sites/all/themes/blognone42/images/linebutton.png"
  ], 
  "Link": "https://www.blognone.com/node/80901", 
  "News": "Bethesda เปิดให้ผู้เล่น Fallout 4 บน Xbox One ลงชื่อทดสอบส่วนเสริมของเกมได้แล้ว", 
  "Tags": [
    "Fallout", 
    "Bethesda", 
    "Xbox One", 
    "Games"
  ], 
  "Time": "17:18"
}