{
  "By": "trinakub", 
  "Contents": " Nintendo ประกาศวันวางจำหน่ายเกม Mario Party: Star Rush วันที่ 4 พฤศจิกายน 2559 ลงเครื่อง 3DS พร้อมเผยรายละเอียดเกมเพิ่มเติม เกม Mario Party: Star Rush จะมีโหมดใหม่ที่เรียกว่า Toad Scramble ในตอนต้นผู้เล่นจะใช้ได้แค่ตัวละคร Toad เท่านั้น แต่เล่นไปเรื่อย ๆ จะสามารถชักชวนตัวละครอื่นมาเป็นพวกได้ เช่น Mario, Yoshi และ Rosalina เป็นต้น ความพิเศษอีกอย่างของโหมดนี้คือผู้เล่นทุกคนไม่จำเป็นต้องรอจนกว่าจะถึงรอบของตัวเองอีกต่อไป ผู้เล่นทั้ง 4 คนสามารถทอยลูกเต๋าและเคลื่อนที่ไปพร้อม ๆ กัน ได้แล้ว ในแต่ละกระดานของโหมด Toad Scramble จะมีบอสประจำกระดานอยู่ ซึ่งผู้เล่นจะต้องช่วยเหลือกันหรือแข่งขันกันในการพิชิตบอสแต่ละตัวให้ได้ ที่มา – GameSpot   ", 
  "Date": "16/June/2016", 
  "Image-Link": [
    "https://www.blognone.com/sites/default/files/styles/thumbnail/public/news-thumbnails/Mario%20Party%20Logo.jpg?itok=sTWW-WBj", 
    "/sites/all/themes/blognone42/images/linebutton.png"
  ], 
  "Link": "https://www.blognone.com/node/82341", 
  "News": "Nintendo เปิดเผยเกม Mario Party: Star Rush ลง 3DS ภายในสิ้นปีนี้", 
  "Tags": [
    "Mario", 
    "Nintendo 3DS", 
    "Games", 
    "Nintendo"
  ], 
  "Time": "17:53"
}