{
  "By": "nismod", 
  "Contents": " Tree of Savior เกมจากผู้สร้าง Ragnarok ที่มีผู้เล่นจำนวนมากตั้งตารอคอยมานาน วันนี้เปิดให้เล่นฟรี (Free to play) แล้วบน Steam หลังเปิดทดสอบแบบโอเพนเบต้ามากว่า 1 เดือน ผู้เล่นใหม่สามารถเข้าเล่นได้ทุกเซิร์ฟเวอร์ ยกเว้นเซิร์ฟเวอร์ Telsiai ที่ยังจำกัดเฉพาะผู้เล่นโอเพนเบต้าก่อน เนื่องจากมีผู้เล่นจำนวนมาก และมีการเพิ่มเซิร์ฟเวอร์ Varena ของภูมิภาค South East Asia ขึ้นมาให้ด้วย โดยทาง IMC ทีมพัฒนาระบุว่าหากผู้เล่นในภูมิภาคอื่นมีมากเพียงพอ ก็จะพิจารณาเพิ่มเซิร์ฟเวอร์ในภูมิภาคนั้นๆ ต่อไป ที่มา - Steam    ", 
  "Date": "10/May/2016", 
  "Image-Link": [
    "https://www.blognone.com/sites/default/files/styles/thumbnail/public/news-thumbnails/tos_logo_0.png?itok=MrtCCCJ8", 
    "https://farm8.staticflickr.com/7455/26657773270_a6f6e8b43a_z.jpg", 
    "/sites/all/themes/blognone42/images/linebutton.png"
  ], 
  "Link": "https://www.blognone.com/node/80815", 
  "News": "Tree of Savior เปิดให้เล่นฟรีบน Steam แล้ว, เพิ่มเซิร์ฟเวอร์ใน SEA อีกหนึ่งเซิร์ฟเวอร์", 
  "Tags": [
    "Tree of Savior", 
    "Games"
  ], 
  "Time": "18:20"
}