{
  "By": "trinakub", 
  "Contents": " เด็กไทยเก่งจริง ทำได้เก็บแชมป์เกม Dota2 รายการ AGES 2016 ที่ประเทศมาเลเซีย พร้อมเงินรางวัล 176,300 RM หรือราวๆ 1.5 ล้านบาทนั่นเอง ในที่สุดทีม Signature.Trust จากประเทศไทยก็สร้างชื่อเสียงให้กับประเทศได้สำเร็จ โดยการเอาชนะทีมอันดับ 1 จากมาเลเซีย Orange Taring ไป 2- 0 เกมในรอบชิงชนะเลิศนั่นเองครับ   ที่มา - Signature   ", 
  "Date": "29/May/2016", 
  "Image-Link": [
    "https://www.blognone.com/sites/default/files/styles/thumbnail/public/topics-images/dota.png?itok=H_WXI4BN", 
    "http://i.imgur.com/llTs0OT.jpg", 
    "http://i.imgur.com/CCCgk7K.jpg", 
    "/sites/all/themes/blognone42/images/linebutton.png"
  ], 
  "Link": "https://www.blognone.com/node/81579", 
  "News": "[Dota2] เด็กไทยทำได้! Signature.Trust คว้าแชมป์รายการ AGES2016 กลับบ้านพร้อมเงิน 1.5 ล้านบาท", 
  "Tags": [
    "DotA", 
    "eSport", 
    "Games"
  ], 
  "Time": "18:27"
}