{
  "By": "trinakub", 
  "Contents": " Bandai Namco ปล่อยโฆษณาตัวใหม่ของเกม Sword Art Online: Hollow Realization มีความยาวถึง 60 วินาทีเต็ม นำเสนอตัวละครใหม่กับฉากคัทซีนในเกมเพิ่มเติม Sword Art Online: Hollow Realization เป็นเกม Action JRPG สำหรับเครื่อง PlayStation 4 และ PlayStation Vita ที่อ้างอิงเนื้อหามาจากซีรี่ส์ Light Novel ของญี่ปุ่นเรื่อง Sword Art Online (ลิขสิทธิ์ในไทยโดยสำนักพิมพ์ Zenshu) ภาคนี้เป็นเกมที่ 4 ของซีรี่ส์ Sword Art Online บนแพลตฟอร์ม PlayStation (ภาคก่อนหน้าคือ SAO: Infinity Moment, SAO: Lost Song และ SAO: Hollow Fragment) มีกำหนดวางจำหน่ายวันที่ 27 ตุลาคม 2016 สำหรับเขตญี่ปุ่น ในส่วนของเขตอเมริกาเหนือและยุโรปจะวางจำหน่ายในช่วงไตรมาสที่ 4 ของปี 2016 นี้  ภาค Hollow Realization จะดำเนินเรื่องราวภายในโลกของเกม Sword Art: Origin โลกของ Aincrad ที่ได้รับการปรับปรุงเพื่อการวิจัยและพัฒนา ภายในปี 2026 (3 ปีต่อมา หลังจากเหตุการณ์ Sword Art Online ในเรื่องต้นฉบับ) ในภาคนี้เราจะได้รับบทเป็น Kirito และออกผจญภัยบนโลก Ainground แห่งใหม่นี้ ไปพร้อม ๆ กับพรรคพวกของ Kirito ตัวละครใหม่ในภาคนี้คือ Premiere หญิงสาวปริศนาที่กุมความลับบางอย่าง ผู้เป็น AI และ NPC ของโลก Sword Art: Origin แห่งนี้ ที่มา – DualShockers   ", 
  "Date": "11/July/2016", 
  "Image-Link": [
    "https://www.blognone.com/sites/default/files/styles/thumbnail/public/news-thumbnails/SAO%20Logo%202.jpg?itok=k5LXJKhQ", 
    "http://i.imgur.com/TI0x2pm.jpg", 
    "/sites/all/themes/blognone42/images/linebutton.png"
  ], 
  "Link": "https://www.blognone.com/node/83283", 
  "News": "Sword Art Online: Hollow Realization ปล่อยโฆษณาทีวีตัวใหม่", 
  "Tags": [
    "Sword Art Online", 
    "Games", 
    "PlayStation 4", 
    "PlayStation Vita"
  ], 
  "Time": "18:22"
}