{
  "By": "Blltz", 
  "Contents": " หลุดวันออกมาเร็วกว่าที่หลายคนคาดสำหรับ Steam Summer Sale เทศกาลลดราคาครั้งใหญ่กลางปีของ Steam ที่ Valve เพิ่งหลุดปากปล่อยวันและเวลาของเทศกาลที่จะทำให้เกมเมอร์กระเป๋าเบาหวิงมาในงานนักพัฒนาของ Steamworks แล้ว รายละเอียดของ Summer Sales 2016 เผยแพร่โดย @SteamDB เว็บไซต์ติดตามข้อมูล Steam (ที่น่าจะไปร่วมงานดังกล่าวด้วย) โดยจะเริ่มลดราคาครั้งใหญ่ตั้งแต่วันที่ 23 มิถุนายนเป็นต้นไป และดำเนินต่อเนื่องเป็นเวลา 2 สัปดาห์ ส่วนรูปแบบการปล่อยดีลยังไม่มีรายละเอียดว่าจะมารวดเดียว แซมด้วยดีลรายวัน (แบบช่วงลดราคาวันปีใหม่จีน) หรือแบบปกติที่ปล่อยดีลแบบวันต่อวันกันแน่ รู้เวลาแล้วก็ถึงเวลาเก็บเงินกันได้แล้ว ที่มา - @SteamDB  ปล. ไม่เกี่ยวกับ Summer Sales แต่ The Long Dark เกมแนวเอาตัวรอดในโลกเยือกแข็งกำลังลดราคา 50% ใครชอบเกมแนวนี้แต่ไม่อยากเจอซอมบี้แนะนำให้ลองดูครับ (ไม่ลดราคามานานมากแล้ว)   ", 
  "Date": "17/May/2016", 
  "Image-Link": [
    "https://www.blognone.com/sites/default/files/styles/thumbnail/public/topics-images/steam.png?itok=APMuxEYH", 
    "https://lh3.googleusercontent.com/-Cd-TCJOerjE/VzsUchKWsNI/AAAAAAAAg7M/um_qMt3FBLIbRyO-ONA28t9Di9U8vuw1gCCo/s640/Steam001%255B1%255D.jpg", 
    "/sites/all/themes/blognone42/images/linebutton.png"
  ], 
  "Link": "https://www.blognone.com/node/81099", 
  "News": "เตรียมเงินไว้ให้พร้อม! เทศกาล Steam Summer Sale 2016 เริ่มต้น 23 มิถุนายนนี้", 
  "Tags": [
    "Steam", 
    "Games", 
    "Valve"
  ], 
  "Time": "19:58"
}