{
  "By": "mk", 
  "Contents": " ช่องกีฬา ESPN เริ่มรุกหนักตลาด e-sport โดยจะถ่ายทอดสดการแข่งเกม Street Fighter V World Championship ในทัวร์นาเมนต์เกมต่อสู้ Evolution Championship Series (Evo) ทางช่อง ESPN2 ในวันที่ 17 กรกฎาคมนี้ Evo เป็นรายการแข่งเกมต่อสู้ที่เก่าแก่มาตั้งแต่ปี 1996 (สมัย Street Fighter II โน่นเลย) ปัจจุบัน Evo จัดแข่งขันเกมต่อสู้หลายเกม ไม่ว่าจะเป็นซีรีส์ Street Fighter, Mortal Kombat, Tekken รวมถึง Super Smash Bros. ด้วย การแข่งขันปีนี้จะจัดระหว่าง 15-17 กรกฎาคมนี้ที่ลาสเวกัส ส่วนการถ่ายทอดของ ESPN จะถ่ายทอดเฉพาะการแข่ง Street Fighter V World Championship ซึ่งเป็นรายการหลักของ Evo โดยจะถ่ายทอดสดทั้งผ่านช่องทีวี และผ่านระบบออนไลน์ WatchESPN ด้วย ทางผู้บริหารของ ESPN ระบุว่ามองหาการแข่งขันรูปแบบใหม่ๆ ตลอดเวลา ซึ่งการแข่งเกมก็มีผู้ชมเพิ่มมากขึ้นเรื่อยๆ เช่นกัน ก่อนหน้านี้ ESPN เพิ่งเริ่มถ่ายทอดการแข่ง Heroes of the Storm ไปในปี 2015 ที่มา - ESPN   ", 
  "Date": "2/July/2016", 
  "Image-Link": [
    "https://www.blognone.com/sites/default/files/styles/thumbnail/public/topics-images/espn.png?itok=z8P-jfuA", 
    "/sites/all/themes/blognone42/images/linebutton.png"
  ], 
  "Link": "https://www.blognone.com/node/82939", 
  "News": "ESPN เตรียมถ่ายทอดสด Street Fighter V World Championship ทางทีวี", 
  "Tags": [
    "ESPN", 
    "Street Fighter", 
    "Games", 
    "eSport"
  ], 
  "Time": "20:28"
}