{
  "By": "twometre", 
  "Contents": " มีรายงานของ Quartz เล่าถึงแพลตฟอร์มระดมทุนมวลชนออนไลน์ (crowdfunding) อย่าง Kickstarter ว่าตั้งแต่เปิดตัวเมื่อปี 2009 จนถึงปัจจุบัน เมื่อนำมาแยกประเภทดูแล้ว แทนที่จะเป็นของพวกแก๊ดเจ็ตหรือสิ่งของล้ำสมัย แต่กลับเป็นโครงการในกลุ่ม \"เกม\" ที่มีเงินไหลเข้ามาระดมทุนรวมในนี้ถึง 495 ล้านเหรียญสหรัฐฯ เป็นอันดับหนึ่ง ทว่าหมวดเกมเมื่อมาคลี่ดูจะพบตัวเลขน่าสนใจว่า คนนิยมระดมทุนให้กับ \"บอร์ดเกม\" มากตามกระแสที่กำลังฮิตในปัจจุบัน ซึ่งตลาดบอร์ดเกมในสหรัฐฯ และแคนาดาโตถึงหลักพันล้านเหรียญสหรัฐในปี 2014 และมียอดเงินระดมทุนอยู่เกือบ 200 ล้านเหรียญฯ ตามเป็นเงา เป็นเทรนด์ตลาดที่น่าจับตาครับ ที่มา - Quartz  ภาพประกอบ   ", 
  "Date": "25/May/2016", 
  "Image-Link": [
    "https://www.blognone.com/sites/default/files/styles/thumbnail/public/topics-images/kick-640.png?itok=u0UvZksI", 
    "//upic.me/i/41/board-761586_640.jpg", 
    "/sites/all/themes/blognone42/images/linebutton.png"
  ], 
  "Link": "https://www.blognone.com/node/81404", 
  "News": "ยอดเงินระดมทุนใน Kickstarter ไหลหา \"บอร์ดเกม\" มากกว่าของแนวเทคโนโลยี", 
  "Tags": [
    "Kickstarter", 
    "Games", 
    "Board Game"
  ], 
  "Time": "20:28"
}