{
  "By": "nismod", 
  "Contents": " อย่างที่ทราบกันว่าประเทศในเอเชียที่เล่น Pokemon Go ได้นั้นมีแต่ญี่ปุ่น ขณะที่ประเทศอื่นๆ ถึงแม้จะไซด์โหลดหรือติดตั้งผ่าน APK ได้แต่ก็ถูก Niantic Labs บล็อคการเกิดของโปเกมอนในพื้นที่ที่ยังไม่เปิดให้บริการ แต่ทว่าเมืองซกโช (Sokcho) ทางตะวันออกของเกาหลีใต้ติดกับเกาหลีเหนือ กลับเป็นพื้นที่นอกบริการเดียวที่สามารถเล่น Pokemon Go ได้ ผู้ใช้ทวิตเตอร์นามว่า @mangonaam โพสต์ภาพประเทศเกาหลีใต้ ที่ถูกแบ่งด้วยเส้นสมมติเป็นตารางสี่เหลี่ยมข้าวหลามตัด ซึ่งแสดงถึงพื้นที่ในเกาหลีใต้ที่ถูก Niantic บล็อกการเกิดของโปเกมอน แต่ทว่าเมืองซกโชกลับกลายเป็นจุดบอด (blind spot) ของเส้นแบ่งสมมตินี้ และด้วยเหตุนี้เองทำให้ชาวเกาหลีใต้แห่เดินทางไปยังเมืองนี้ จนถึงขนาดตั๋วรถบัสจากกรุงโซลไปยังเมืองซกโชขายหมดไปจนสุดสัปดาห์นี้ ขณะที่นายกเทศมนตรีของเมืองต้องออกมาเตือนให้ะระวังความปลอดภัย ส่วนเพจเฟซบุ๊กของเมือง ก็โพสต์จุด Wi-Fi ต่างๆ ในเมืองเพื่ออำนวยความสะดวกให้ผู้เล่นยิ่งขึ้นด้วย ที่มา - Kotaku 포켓몬 불가지역. 속초 울릉도는 가능 pic.twitter.com/8CwIdBOAi0 — 버블버블버블벗 (@mangonaam) July 12, 2016   ", 
  "Date": "14/July/2016", 
  "Image-Link": [
    "https://www.blognone.com/sites/default/files/styles/thumbnail/public/topics-images/pokemon.png?itok=7HuOXT6S", 
    "/sites/all/themes/blognone42/images/linebutton.png"
  ], 
  "Link": "https://www.blognone.com/node/83447", 
  "News": "เมื่อ Pokemon Go ในเกาหลีใต้ เล่นได้เฉพาะพรมแดนติดเกาหลีเหนือ", 
  "Tags": [
    "Pokemon", 
    "Games", 
    "South Korea", 
    "North Korea"
  ], 
  "Time": "20:47"
}