{
  "By": "mk", 
  "Contents": " เกม Overwatch เปิดทดสอบแบบ Open Beta ให้เล่นฟรีระหว่างวันที่ 5-9 พฤษภาคมนี้ ทั้งบนพีซี Xbox One และ PS4 ก่อนหน้านี้ Blizzard เปิดให้คนที่ซื้อเกมแบบพรีออเดอร์ลองเล่นทดสอบไปก่อนแล้ว จากนั้นถึงค่อยขยายมายังบุคคลทั่วไป ผู้เล่นบน PS4/Xbox One สามารถดาวน์โหลดเกมได้จาก PlayStation Store หรือ Xbox One Store ส่วนผู้ใช้พีซีจำเป็นต้องติดตั้งผ่านแอพ Battle.net ของ Blizzard เกมเวอร์ชัน Open Beta มีฮีโร่ให้เล่นทั้งหมด 21 ตัว และแผนที่ 12 ฉาก เมื่อพ้นช่วง Open Beta แล้วข้อมูลจะถูกรีเซ็ตทั้งหมด ส่วน เกมตัวจริงจะออกวางขายช่วงปลายเดือนนี้ 24 พฤษภาคม ที่มา - Overwatch    ", 
  "Date": "5/May/2016", 
  "Image-Link": [
    "https://www.blognone.com/sites/default/files/styles/thumbnail/public/topics-images/overwatch.png?itok=TLgOiXnG", 
    "https://i.imgur.com/KZfCzp2.jpg", 
    "/sites/all/themes/blognone42/images/linebutton.png"
  ], 
  "Link": "https://www.blognone.com/node/80664", 
  "News": "Overwatch เปิดทดสอบแบบ Open Beta แล้ว เล่นฟรี 5-9 พ.ค. นี้", 
  "Tags": [
    "Overwatch", 
    "Games", 
    "Blizzard"
  ], 
  "Time": "20:58"
}