{
  "By": "nismod", 
  "Contents": " Overwatch ที่ถูกยกว่าเป็นเกมฮิตแห่งปีอาจจะต้องถอยให้กับ Pokemon Go ก็ได้ เนื่องจากข้อมูลล่าสุดจาก Survey Monkey ชี้ว่า Pokemon Go กลายเป็นเกมบนสมาร์ทโฟนที่มีผู้เล่นสูงที่สุดที่เคยมีมาในสหรัฐไปแล้วเรียบร้อย Survey Monkey เผยว่าผู้เล่นต่อวันของ Pokemon Go ในสหรัฐอยู่ที่ 21 ล้านคน แซงหน้าเจ้าของสถิติเดิมอย่าง Candy Crush ที่เคยทำไว้ที่ 20 ล้านคน  ขณะที่ก่อนหน้านี้ หลังจากยอดผู้เล่น Pokemon Go บนแอนดรอยด์ต่อวันแซงทวิตเตอร์ ไปแล้วนั้น ทาง Survey Monkey ระบุว่าเป้าหมายต่อไปของ Pokemon Go คือทำลายสถิติผู้ใช้รายวันบนแอนดรอยด์ของ Snapchat และ Google Maps ในสหรัฐที่อยู่ที่ราว 13-15 ล้านคน ซึ่งดูจากกระแสแล้ว น่าจะทำได้ในอีกไม่กี่วันข้างหน้า (ผู้เล่น Pokemon Go ต่อวันบนแอนดรอยด์อยู่ที่ประมาณ 11 ล้านคน)  ทั้งนี้เกมที่มีผู้เล่นต่อวันสูงที่สุดในโลกปัจจุบันคือ Candy Crush ที่ 93 ล้านคน และหาก Pokemon Go ถูกปล่อยให้เล่นทั่วทั้งโลกแล้ว สถิตินี้ก็อาจถูกทำลายลงไปไม่ยาก ที่มา - Survey Monkey   ", 
  "Date": "14/July/2016", 
  "Image-Link": [
    "https://www.blognone.com/sites/default/files/styles/thumbnail/public/topics-images/pokemon.png?itok=7HuOXT6S", 
    "https://c8.staticflickr.com/8/7774/28304490415_7743ea6cb9_z.jpg", 
    "https://c6.staticflickr.com/9/8562/27688832093_aa25f1a7b4_z.jpg", 
    "/sites/all/themes/blognone42/images/linebutton.png"
  ], 
  "Link": "https://www.blognone.com/node/83448", 
  "News": "Pokemon Go กลายเป็นเกมบนสมาร์ทโฟนที่มีผู้เล่นเยอะที่สุดในสหรัฐ", 
  "Tags": [
    "Pokemon", 
    "Games", 
    "USA"
  ], 
  "Time": "21:03"
}