{
  "By": "trinakub", 
  "Contents": " Sega ปล่อยเทรลเลอร์เพิ่มเติมของเกม Hatsune Miku: Project Diva X สำหรับเครื่อง PlayStation 4 ภายในเทรลเลอร์จะประกอบด้วยเพลง “Sharing the World” และ “Hand in Hand” ซึ่งจะมาในรูปแบบของฟรี DLC สำหรับเครื่อง PlayStation 4 ในส่วนของเครื่อง PlayStation Vita อยู่ที่ราคา 500 เยน เกม Hatsune Miku: Project Diva X มีกำหนดวางจำหน่ายโซนอเมริกาในวันที่ 30 สิงหาคม 2559 บนแพลตฟอร์ม PlayStation 4 และ PlayStation Vita ในส่วนของเขตญี่ปุ่นนั้นบน PlayStation Vita ได้วางจำหน่ายไปเรียบร้อยแล้ว ส่วนของ PlayStation 4 จะวางจำหน่ายวันที่ 25 สิงหาคม 2559 ที่มา – DualShockers   ", 
  "Date": "7/July/2016", 
  "Image-Link": [
    "https://www.blognone.com/sites/default/files/styles/thumbnail/public/news-thumbnails/Project%20Diva%20X%20Logo.png?itok=ebLlN5B5", 
    "/sites/all/themes/blognone42/images/linebutton.png"
  ], 
  "Link": "https://www.blognone.com/node/83142", 
  "News": "Sega ปล่อยเทรลเลอร์ใหม่เพิ่มเติม เกม Hatsune Miku: Project Diva X", 
  "Tags": [
    "Project Diva", 
    "Games", 
    "Sega", 
    "PlayStation 4", 
    "PlayStation Vita"
  ], 
  "Time": "21:07"
}