{
  "By": "magnamonkun", 
  "Contents": " No Man's Sky เป็นเกมแนวตะลุยอวกาศแบบ Openworld ที่มีขนาดใหญ่ และมีจำนวนดาวให้ค้นหากันมากถึง 18,000,000,000,000,000,000 (สิบแปดล้านล้านล้าน) ดวง ด้วยจำนวนที่มากขนาดนี้ ทำให้เกิดข้อสงสัยว่าแล้วตัวเกมจะมีขนาดใหญ่เท่าไหร่ และต้องใช้แผ่นบลูเรย์ทั้งหมดกี่แผ่นถึงจะเล่นจบ เรื่องนี้มีคำตอบออกมาจากปาก Sean Murray แล้วว่าตัวเกม No Man's Sky เวอร์ชัน PS4 จะมีขนาดเพียง 6GB เท่านั้น และเป็นไฟล์เสียงล้วนๆ Murray ไม่ได้อธิบายเหตุผลว่าแล้วงานประมวลผลอื่นๆ ไปอยู่ที่ไหน และใช้เทคนิคใดในการจัดเก็บข้อมูลขนาดใหญ่นี้ อย่างไรก็ตาม Murray ระบุว่าเพิ่มว่า ตัวเกมผ่านการอนุญาตในสหรัฐอเมริกา, ยุโรป, เอเชียเรียบร้อยแล้ว และกำลังอยู่ในระหว่างการขออนุญาตจากทางญี่ปุ่น ในขณะที่ฝั่งทีมพัฒนาก็ได้เริ่มเดินหน้าแผน Update 1 ของตัวเกมแล้วครับ ที่มา - Gamespot   ", 
  "Date": "12/July/2016", 
  "Image-Link": [
    "https://www.blognone.com/sites/default/files/styles/thumbnail/public/topics-images/nomanssky.jpeg?itok=p-E8-QpB", 
    "/sites/all/themes/blognone42/images/linebutton.png"
  ], 
  "Link": "https://www.blognone.com/node/83306", 
  "News": "No Man's Sky เวอร์ชัน PS4 ใช้เนื้อที่ในแผ่นบลูเรย์เพียง 6GB เป็นไฟล์เสียงล้วนๆ", 
  "Tags": [
    "No Man's Sky", 
    "Games"
  ], 
  "Time": "21:40"
}