{
  "By": "magnamonkun", 
  "Contents": " ไมโครซอฟท์เปิดตัวโครงการ Xbox Play Anywhere มาตั้งแต่งาน E3 ล่าสุดตัวแทนของไมโครซอฟท์ให้รายละเอียดเพิ่มเติม ว่าโครงการจะเปิดตัวอย่างเป็นทางการในวันที่ 13 กันยายน พร้อมกับการวางจำหน่ายเกม ReCore ที่จะเป็นเกมแรกที่ได้ใช้ฟีเจอร์นี้ ตัวแทนของไมโครซอฟท์ระบุว่า Xbox Play Anywhere จะไม่ใช่แค่การรองรับการซื้อเกมพร้อมกันเท่านั้น แต่หมายรวมถึงการซื้อ DLC และคอนเทนต์อื่นๆ ก็จะถูกแชร์ข้ามแพลตฟอร์มพร้อมกันด้วย เช่น add-on, Season Pass, ไอเท็มที่ใช้แล้วหมดไป หรือแม้กระทั่งการปลดล็อกฟีเจอร์บางส่วนของเกมเป็นต้น เงื่อนไขในการใช้งานคือทั้ง Xbox One และ Windows 10 ต้องติดตั้ง Anniversary Update (1608) เพื่ออัพเดท Windows Store ให้เป็นตัวใหม่ที่รองรับการแชร์เกมข้ามระบบก่อน จากนั้นถึงจะสามารถซื้อเกมเพื่อเล่นข้ามกันได้ โดยเกมที่รองรับฟีเจอร์นี้ จะมีตราสัญลักษณ์ Xbox Play Anywhere ติดอยู่ที่หน้ารายละเอียดของเกมใน Store ครับ ที่มา - Polygon   ", 
  "Date": "1/July/2016", 
  "Image-Link": [
    "https://www.blognone.com/sites/default/files/styles/thumbnail/public/topics-images/xbox-big_0.png?itok=5eYWc84O", 
    "/sites/all/themes/blognone42/images/linebutton.png"
  ], 
  "Link": "https://www.blognone.com/node/82918", 
  "News": "ไมโครซอฟท์เตรียมเปิดตัวบริการ Xbox Play Anywhere 13 กันยายนนี้", 
  "Tags": [
    "Xbox One", 
    "Microsoft", 
    "Games", 
    "Windows 10"
  ], 
  "Time": "21:45"
}