{
  "By": "magnamonkun", 
  "Contents": " หลังจากที่มีข่าวลือของ PlayStation 4K รหัส NEO กันมาอย่างต่อเนื่อง ล่าสุด Andrew House ประธาน Sony Interactive Entertainment ก็ออกมายอมรับกับหนังสือพิมพ์ Financial Times แล้วว่า PlayStation 4K ที่ได้ยินกันมาทั้งหมด มีตัวตนอยู่จริง House ระบุว่า PS4K จะทำตลาดโฮมคอนโซลในฐานะ \"รุ่นสูงกว่าของ PS4\" (High-end PS4) และจับกลุ่มผู้เล่นฮาร์ดคอร์ที่มีทีวี 4K เป็นหลัก และเมื่อ PS4K เปิดตัวแล้ว โซนี่ก็จะยังคงทำตลาด PS4 รุ่นปกติควบคู่ไปจนกว่าจะสิ้นอายุขัยของ PS4 โดยที่ราคาของ PS4K จะมีราคาแพงกว่ารุ่นปัจจุบันซึ่งขายอยู่ที่ 350 ดอลลาร์สหรัฐฯ เล็กน้อย แต่ยังไม่ขอระบุว่าจะมีราคาอยู่ที่เท่าใด ทั้งนี้ House ยืนยันว่าในงาน E3 ที่จะถึงนี้ จะยังไม่มี PS4K ไปเปิดตัวจริง เนื่องจากผลิตภัณฑ์ยังไม่พร้อม แต่เชื่อว่าเมื่อเปิดตัวไปแล้ว PS4K น่าจะได้รับเสียงตอบรับที่ดีไม่แพ้ครั้งที่ PS4 เปิดตัวอย่างแน่นอนครับ ที่มา - VG24/7    ", 
  "Date": "10/June/2016", 
  "Image-Link": [
    "https://www.blognone.com/sites/default/files/styles/thumbnail/public/topics-images/ps4-logo.png?itok=b1ktDHre", 
    "//upic.me/i/2m/ps4-for-the-players-3-672x372.jpg", 
    "/sites/all/themes/blognone42/images/linebutton.png"
  ], 
  "Link": "https://www.blognone.com/node/82133", 
  "News": "ประธาน SIE ยืดอกยอมรับ PlayStation 4K มีตัวตนอยู่จริง แต่ยังไม่เปิดตัวในงาน E3", 
  "Tags": [
    "PS4", 
    "PlayStation", 
    "Games", 
    "Sony", 
    "PS4K"
  ], 
  "Time": "22:12"
}