{
  "By": "mk", 
  "Contents": " ใครที่ทันเล่นเกมในตำนานอย่าง Street Fighter II คงคุ้นเคยกับฉากเปิดเรื่องที่มีชาย 2 คนยืนชกกันอยู่ริมถนน ก่อนขึ้นโลโก้ของเกม (นึกไม่ออกดูวิดีโอประกอบ) เวลาผ่านมา 25 ปี ในที่สุด Capcom ก็เปิดเผยชื่อและข้อมูลของชาย 2 คนนี้ว่าชื่อ Max และ Scott ชายผมดำทรงอะโฟรที่ยืนซ้ายมือชื่อ Max เป็นนักมวยรุ่นเฮฟวี่เวทชาวอเมริกัน ส่วน Scott หนุ่มผมทองก็เป็นอดีตนักมวยชาวอเมริกันเช่นกัน การเปิดเผยข้อมูลตัวละครครั้งนี้ผ่านบล็อกของ Capcom และน่าจะเป็นเรื่องขำๆ มากกว่าการเพิ่มตัวละคร 2 ตัวนี้เข้าไปอยู่ใน DLC ของ Street Fighter V ครับ (ในบล็อกชุดเดียวกัน ยังวาดคาแรกเตอร์นักมวย Balrog โดยใช้ชื่อ Mike ตามต้นฉบับภาษาญี่ปุ่นให้ดูด้วย) ที่มา - Capcom (1), Capcom (2), Polygon  Max (ไม่รู้ทรงผมหายไปไหน)  Scott  Mike ซึ่งมีต้นแบบจาก Mike Tyson แต่ถูกเปลี่ยนชื่อในฉบับภาษาอังกฤษเป็น Balrog    ", 
  "Date": "30/May/2016", 
  "Image-Link": [
    "https://www.blognone.com/sites/default/files/styles/thumbnail/public/news-thumbnails/sf2-logo.png?itok=MajTpAM-", 
    "https://i.imgur.com/4ZCEvmv.jpg", 
    "http://i.imgur.com/pgMkf2e.jpg", 
    "http://i.imgur.com/GufkdDV.jpg", 
    "http://i.imgur.com/7it6f2W.jpg", 
    "/sites/all/themes/blognone42/images/linebutton.png"
  ], 
  "Link": "https://www.blognone.com/node/81621", 
  "News": "25 ปีผ่านไป Capcom เผยชื่อ 2 ตัวละครในฉากเปิดเกม Street Fighter II", 
  "Tags": [
    "Street Fighter", 
    "Games", 
    "Capcom"
  ], 
  "Time": "22:24"
}