{
  "By": "trinakub", 
  "Contents": " 505 Games และ Giant Squid เปิดตัวเกม Abzû บนเครื่อง PC และ Playstation 4 โดยจะวางจำหน่ายวันที่ 2 สิงหาคม 2559 Abzû เปิดตัวครั้งแรกเมื่องาน E3 ในปี 2014 เป็นผลงานแรกของค่าย Giant Squid คำว่า Abzû มีที่มาจากภาษาโบราณแห่งหนึ่ง ซึ่งเมื่อนำคำว่า “ab” ซึ่งแปลว่ามหาสมุทร กับคำว่า “zu” ที่แปลว่าหยั่งรู้ มารวมกันจะกลายเป็น “มหาสมุทรแห่งภูมิปัญญา” Abzû เป็นเกม Third Person ผจญภัยที่เกี่ยวการดำน้ำและสำรวจใต้ทะเลลึก ภายใต้มหาสมุทรอันกว้างใหญ่นี้เราจะได้พบกับสภาพแวดล้อมใต้ทะเลงาม ๆ ได้สำรวจถ้ำใต้น้ำและโบราณสถานต่าง ๆ พบกับหุ่นยนต์เพื่อนรัก คิดค้นหาวิธีใช้ประโยชน์จากสิ่งมีชีวิตใต้น้ำและวัตถุต่าง ๆ มาช่วยในการผจญภัยของเรา ที่มา – IGN   ", 
  "Date": "16/June/2016", 
  "Image-Link": [
    "https://www.blognone.com/sites/default/files/styles/thumbnail/public/news-thumbnails/Abzulogo.jpg?itok=6Wk8CeBQ", 
    "/sites/all/themes/blognone42/images/linebutton.png"
  ], 
  "Link": "https://www.blognone.com/node/82348", 
  "News": "Abzû เกมผจญภัยสำรวจใต้ทะเลลึก ประกาศวันวางจำหน่ายแล้ว", 
  "Tags": [
    "Abzû", 
    "Games"
  ], 
  "Time": "22:31"
}