{
  "By": "nismod", 
  "Contents": " หลังจากปล่อยให้แฟนและกลุ่มผู้สนับสนุนรอแล้วรออีกจากโรคเลื่อน ล่าสุด Keiji Inafune ผู้สร้าง Mighty No.9 ออกมาประกาศวันวางจำหน่ายแล้ว เป็นวันที่ 21 มิถุนายนนี้ในโซนอเมริกาเหนือและเอเชียก่อน และจะวางจำหน่ายทั่วโลกในวันที่ 24 มิถุนายน พร้อมทั้งยืนยันว่าจะไม่มีการเลื่อนอีกแล้ว อย่างไรก็ตามทาง Inafune ระบุว่าเกมบนแพลตฟอร์ม PS Vita และ Nintendo 3DS นั้นจะตามมาในภายหลัง ที่มา - Mighty No.9 via Kotaku    ", 
  "Date": "2/May/2016", 
  "Image-Link": [
    "https://www.blognone.com/sites/default/files/styles/thumbnail/public/news-thumbnails/mightyno9.PNG?itok=6Fy0nXhX", 
    "https://farm2.staticflickr.com/1495/26171195173_a0523a83ce_z.jpg", 
    "/sites/all/themes/blognone42/images/linebutton.png"
  ], 
  "Link": "https://www.blognone.com/node/80537", 
  "News": "มาซักที! Mighty No.9 ประกาศวันวางจำหน่าย 21 มิถุนายนนี้", 
  "Tags": [
    "Games", 
    "Kickstarter", 
    "Mighty No. 9"
  ], 
  "Time": "23:18"
}