{
  "By": "nrad6949", 
  "Contents": " ที่งานสัมมนาด้านความปลอดภัยทางคอมพิวเตอร์ ณ เมืองเดนเวอร์ มลรัฐโคโลราโด ประเทศสหรัฐอเมริกา John McAfee ผู้ก่อตั้งและอดีตผู้บริหาร McAfee บริษัทด้านความปลอดภัย (ปัจจุบันเป็น Intel Security) ซึ่งได้รับเชิญให้ไปพูดในงานดังกล่าว ออกมาระบุว่าภัยคุกคามแบบใหม่ที่มาพร้อมกับสมาร์ทโฟนนั้น เป็นสิ่งที่น่ากังวลมากกว่าภัยคุกคามทางคอมพิวเตอร์ เขาระบุว่าภัยคุกคามจากคอมพิวเตอร์นั้นเป็นสิ่งที่ไม่น่ากังวลมากเท่าสมาร์ทโฟน เพราะลักษณะของสมาร์ทโฟนมีความใกล้ชิดกับผู้ใช้งานมากกว่า โดยเฉพาะอย่างยิ่งกับกล้องและไมโครโฟน ซึ่งแฮกเกอร์สามารถเปิดใช้งานได้จากระยะไกล และยังสามารถติดตามดักฟัง รวมถึงเห็นการกระทำของผู้ใช้ทั้งหมดผ่านกล้อง หรือแม้กระทั่งดักอีเมลของผู้ใช้ได้อย่างง่ายดาย ทั้งหมดนี้รอเพียงวันที่แฮกเกอร์จะทำได้สำเร็จเท่านั้น McAfee ระบุว่าแม้ตัวเขาจะระมัดระวังในเรื่องเหล่านี้เป็นอย่างมาก แต่ด้วยลักษณะของการใช้งานสมาร์ทโฟนทำให้ตัวเขาเองยังไม่สามารถทำให้โทรศัพท์ปลอดภัยได้อย่างที่ควรจะเป็น ที่มา - USA Today    ", 
  "Date": "14/May/2016", 
  "Image-Link": [
    "https://www.blognone.com/sites/default/files/styles/thumbnail/public/topics-images/john-mcafee.png?itok=242ClKxJ", 
    "https://i.imgur.com/uoIp7ux.jpg", 
    "/sites/all/themes/blognone42/images/linebutton.png"
  ], 
  "Link": "https://www.blognone.com/node/80967", 
  "News": "John McAfee ชี้ภัยคุกคามแบบใหม่ที่มากับสมาร์ทโฟน เป็นสิ่งที่น่ากังวล", 
  "Tags": [
    "John McAfee", 
    "Security", 
    "Mobile"
  ], 
  "Time": "08:23"
}