{
  "By": "nutmos", 
  "Contents": " Warner Music ได้ประกาศว่าในไตรมาสนี้ รายได้จากบริการสตรีมมิ่งต่างๆ ได้กลายเป็นรายรับส่วนใหญ่ของบริษัทแล้ว คือมีรายรับสูงกว่ายอดขายแบบแผ่นและยอดขายผ่านการดาวน์โหลดในช่องทางดิจิทัล เมื่อจำแนกเป็นตัวเลข จะพบว่ารายรับจาก Warner Music ที่มาจากบริการสตรีมมิ่งนั้นอยู่ที่ 72 ล้านดอลลาร์ ซึ่งเกินครึ่งมาจากนอกสหรัฐฯ ขณะที่ยอดขายผ่านการดาวน์โหลดลดลง 17 ล้านดอลลาร์ และยอดขายแผ่นลดลง 6 ล้านดอลลาร์ และทำให้โดยรวมรายรับของบริษัทเพิ่มขึ้น 10% เมื่อย้อนกลับไปดูปีที่แล้วที่ Warner Music บอกว่ารายรับจากบริการสตรีมมิ่งมากกว่าดาวน์โหลดแล้ว และ สมาคมอุตสาหกรรมสื่อบันทึกแห่งอเมริกาเปิดเผยตัวเลขรายได้ของการจำหน่ายเพลงของสหรัฐฯ ในปี 2015 โดยพบว่ารายได้จากบริการสตรีมมิ่งต่างๆ แซงรายได้จากการดาวน์โหลดไปแล้ว ก็คงไม่ใช่เรื่องแปลกนัก แต่ก็แสดงให้เห็นได้ว่าบริการสตรีมมิ่งนั้นเติบโตได้ดีทีเดียว ที่มา - Re/code   ", 
  "Date": "7/May/2016", 
  "Image-Link": [
    "https://www.blognone.com/sites/default/files/styles/thumbnail/public/news-thumbnails/Screen%20Shot%202559-05-07%20at%2017.00.14.png?itok=cG6h5yae", 
    "/sites/all/themes/blognone42/images/linebutton.png"
  ], 
  "Link": "https://www.blognone.com/node/80713", 
  "News": "Warner Music เผยรายได้จากบริการสตรีมมิ่งกลายเป็นรายรับส่วนใหญ่ของบริษัทแล้ว", 
  "Tags": [
    "Music", 
    "Music Streaming"
  ], 
  "Time": "17:02"
}