{
  "By": "nutmos", 
  "Contents": " Tony Fadell ได้ประกาศลาออกจากการเป็นซีอีโอของบริษัท Nest อย่างเป็นทางการ หลังจากเป็นซีอีโอมา 6 ปี โดยเพื่อเตรียมย้ายไปนั่งในตำแหน่งที่ปรึกษาของ Alphabet โดยผู้ที่จะขึ้นตำแหน่งซีอีโอแทนใน Nest คือ Marwan Fawaz ซึ่งอดีตเคยทำงานเป็นผู้บริหารใน Motorola Mobility การรับตำแหน่งใหม่ใน Alphabet ของ Fadell นี้จะช่วยให้เขาเข้าสู่ผลิตภัณฑ์สาขาอื่นได้ง่ายขึ้น โดย Fadell กล่าวว่าเขาเตรียมคุยกับคนในทีมมาตั้งแต่ปลายปีที่แล้ว และการย้ายไปเป็นที่ปรึกษาจะทำให้เขามีเวลาและความยืดหยุ่นในทำการผลิตภัณฑ์ในสาขาอื่นๆ และเพื่อสนับสนุนคนที่ทำสิ่งเดียวกับเขาบ้างเหมือนที่ Nest ส่วน Larry Page ซีอีโอ Alphabet ได้พูดถึง Fadell ไว้ว่า Nest ภายใต้การนำของเขาทำให้ผลิตภัณฑ์ประเภท IoT ที่ใช้ในบ้านเป็นสิ่งสำคัญขึ้นมาได้ Fadell เป็นคนมีวิสัยทัศน์ และ Page ตั้งตารอคอยการทำงานของเขาภายใต้ตำแหน่งที่ปรึกษาของ Alphabet และเขายินดีที่ Fawaz ได้ขึ้นเป็นซีอีโอคนใหม่ของ Nest ซึ่ง Page เชื่อในความสามารถของเขา และทำให้การเป็นพาร์ทเนอร์ของ Nest ลึกซึ้งยิ่งขึ้น รวมถึงขยายช่องทางขายสินค้าไปยังองค์กร และนำผลิตภัณฑ์ Nest เข้าสู่บ้านบุคคลทั่วไปให้มากขึ้น ที่มา - Ars Technica, Nest   ", 
  "Date": "4/June/2016", 
  "Image-Link": [
    "https://www.blognone.com/sites/default/files/styles/thumbnail/public/topics-images/nest.png?itok=gjZW9T8Z", 
    "/sites/all/themes/blognone42/images/linebutton.png"
  ], 
  "Link": "https://www.blognone.com/node/81841", 
  "News": "Tony Fadell ลาออกจาก Nest เพื่อรับตำแหน่งที่ปรึกษาของ Alphabet", 
  "Tags": [
    "Tony Fadell", 
    "Nest", 
    "Alphabet"
  ], 
  "Time": "07:07"
}