{
  "By": "sunnywalker", 
  "Contents": " Game of Thrones ซีซั่นนี้สร้างปรากฏการณ์การวิเคราะห์อย่างกว้างขวางบนโลกออนไลน์ ไม่เว้นแม้แต่โปรแกรมคอมพิวเตอร์และปัญญาประดิษฐ์ที่ออกมาวิเคราะห์ตัวละครและทำนายตัวละคร ล่าสุด นักวิทยาศาสตร์ด้านคอมพิวเตอร์สถาบันเทคโนโลยีแมสซาชูเซตส์ (MIT) ก็ขอเข้ามาแจมกับเขาด้วย หัวข้อคือ ตัวละครใดใน GOT น่าจดจำมากที่สุด โดยใช้อัลกอริทึมคอมพิวเตอร์ช่วยค้นหา ห้องปฏิบัติการปัญญาประดิษฐ์ของ MIT (CSAIL) ป้อนข้อมูลรูปภาพ 6,000 ใบเข้าไปในระบบซอฟต์แวร์ เป็นรูปภาพมีลักษณะโดดเด่นน่าจดจำตามพื้นฐานความคิดของมนุษย์ คือ มนุษย์เห็นแล้วสามารถจดจำได้ทันทีที่เห็นครั้งแรก ซอฟต์แวร์จะประมวลผลและหยิบลักษณะร่วมกันของเทรนด์ที่ได้รับความนิยมจากรูปภาพทั้ง 6,000 ใบ เมื่อนักวิจัยป้อนข้อมูลรูปภาพตัวละคร GOT เข้าไป ผลปรากฏว่า ตัวละครที่มีลักษณะจดจำได้ทันทีที่เห็นครั้งแรกคือ Daenerys Targaryen ได้คะแนน 9.42  รองลงมาคือ Margaery Tyrell ได้คะแนน 9.07  อันดับอื่นๆ เช่น Tywinn Lannister (8.81), Jaime Lannister (8.78), Cersei Lannister (8.78), Bronn (8.78), Sansa Stark (8.7), Jon Snow (8.61), Ned Stark (8.61), Gregor Clegane (8.22), Tyrion Lannister (8.15), Joffrey Baratheon (7.25) นักวิจัยของ CSAIL ใช้เทคนิค deep-learning หรือการสอนให้ระบบคอมพิวเตอร์สามารถจดจำเรียนรู้ได้ด้วยตนเอง เทคนิคนี้ทั้ง Facebook และ Google กำลังให้ความสนใจ ก่อนหน้านี้ระบบอัลกอริทึมเคยทำนายตัวละครที่อาจตายในซีซั่นหกมาแล้ว ย้อนอ่านได้ที่นี่ ที่มา - CSAIL   ", 
  "Date": "6/May/2016", 
  "Image-Link": [
    "https://www.blognone.com/sites/default/files/styles/thumbnail/public/topics-images/got.jp_.jpg?itok=aYOdwFVU", 
    "http://i.imgur.com/DwgCSxB.jpg?1", 
    "http://i.imgur.com/pR88N8n.jpg?1", 
    "/sites/all/themes/blognone42/images/linebutton.png"
  ], 
  "Link": "https://www.blognone.com/node/80687", 
  "News": "Deep Learning Algorithm จัดอันดับตัวละครน่าจดจำใน Game of Thrones ผู้หญิงนำโด่ง", 
  "Tags": [
    "Game of Thrones", 
    "Deep Learning", 
    "Algorithm", 
    "Artificial Intelligence"
  ], 
  "Time": "15:26"
}