{
  "By": "nismod", 
  "Contents": " Amazon เปิดตัว Amazon Fresh บริการขนส่งอาหารสดในสหราชอาณาจักรอย่างเป็นทางการ ซึ่งนับเป็นที่แรกที่ให้บริการในลักษณะนี้นอกสหรัฐ โดยเริ่มให้บริการเฉพาะในกรุงลอนดอนก่อนและยังให้บริการเฉพาะลูกค้า Amazon Prime เท่านั้น ส่วนค่าบริการจะคิดเพิ่มจากค่าสมาชิกปกติขึ้นไปอีก £7 ต่อเดือนหรือประมาณ 350 บาท มีให้ทดลองใช้ฟรี 1 เดือน ทาง Amazon ระบุว่าสินค้าที่ให้บริการครอบคลุมหมดทั้งผักผลไม้ เนื้อสัตว์ ซีฟู้ด นมหรือแม้แต่เครื่องใช้ในครัวเรือน โดยคิดค่าขนส่งอยู่ที่ £4 แต่หากซื้อสินค้าเกิน £40 จะไม่คิดค่าบริการส่ง ที่มา - Engadget   ", 
  "Date": "9/June/2016", 
  "Image-Link": [
    "https://www.blognone.com/sites/default/files/styles/thumbnail/public/topics-images/amazon300.png?itok=pDQ3CyTi", 
    "/sites/all/themes/blognone42/images/linebutton.png"
  ], 
  "Link": "https://www.blognone.com/node/82068", 
  "News": "Amazon เปิดตัว Amazon Fresh บริการขนส่งอาหารสดในอังกฤษ", 
  "Tags": [
    "Amazon", 
    "Delivery", 
    "Logistics"
  ], 
  "Time": "15:18"
}