{
  "By": "mk", 
  "Contents": " เมื่อเดือนมกราคมที่ผ่านมา ธนาคารไทยพาณิชย์ (SCB) ตั้งบริษัทลูกชื่อ Digital Ventures ทำ FinTech วันนี้ Digital Ventures ประกาศลงทุนครั้งแรก โดยเข้าไปลงทุนในกองทุน Golden Gate Ventures (GGV) ของสิงคโปร์ ซึ่งเป็นกองทุนที่ลงทุนในสตาร์ตอัพภูมิภาคเอเชียตะวันออกเฉียงใต้ ที่ผ่านมา GGV ลงทุนในสตาร์ตอัพไทยหลายราย เช่น Claim Di, Omise, Orami, Stamp, Noonswoon, ServisHero เป็นต้น โมเดลของกองทุน GGV คือบริหารเงินจากกองทุนหรือบริษัทยักษ์ใหญ่อีกทอดหนึ่ง ที่ผ่านมา GGV ได้เงินลงทุนจาก Temasek, Naver รวมถึง Eduardo Saverin หนึ่งในผู้ก่อตั้ง Facebook ด้วย (ขนาดของกองทุนตอนนี้มากกว่า 60 ล้านเหรียญสหรัฐ แต่ก็ไม่เปิดเผยว่า SCB ลงทุนเท่าไรใน GGV) นายธนา เธียรอัจฉริยะ ซีอีโอของ Digital Ventures บอกว่าเลือกลงทุนใน GGV เพราะเป็นกองทุนที่ลงทุนในสตาร์ตอัพและ FinTech ซึ่งเป็นสาขาที่สอดคล้องกับเป้าหมายของ SCB อยู่แล้ว เพื่อที่ SCB จะได้เข้าไปเรียนรู้และทำความเข้าใจกับวงการ FinTech ได้อย่างลึกซึ้งมากขึ้น ที่มา - อีเมลประชาสัมพันธ์ SCB Digital Ventures    ", 
  "Date": "15/June/2016", 
  "Image-Link": [
    "https://www.blognone.com/sites/default/files/styles/thumbnail/public/topics-images/scb.png?itok=wNsPWX6W", 
    "https://i.imgur.com/ubsHbju.jpg", 
    "/sites/all/themes/blognone42/images/linebutton.png"
  ], 
  "Link": "https://www.blognone.com/node/82298", 
  "News": "SCB Digital Ventures ลงทุนครั้งแรกในกองทุน Golden Gate Ventures หวังเรียนรู้ FinTech", 
  "Tags": [
    "SCB", 
    "Startup", 
    "Venture Capital", 
    "FinTech"
  ], 
  "Time": "16:58"
}