{
  "By": "mk", 
  "Contents": "
Acer ออกสมาร์ทโฟนรุ่นใหม่รับงาน Computex ใช้ชื่อว่า Liquid Zest Plus จุดเด่นคือแบตเตอรี่ใหญ่ถึง 5,000 mAh อยู่ได้นานสูงสุด 3 วัน
สเปกคร่าวๆ ของ Acer Liquid Zest Plus คือหน้าจอ 5.5" 720p, ซีพียู MediaTek MT6735, แรม 2GB, ความจุ 16GB ใส่ microSD เพิ่มได้, กล้อง 13MP/5MP, ระบบเสียง DTS-HD Premium Sound, รองรับสองซิม, มีระบบชาร์จเร็ว และรองรับ USB OTG ในตัว ระบบปฏิบัติการเป็น Android 6.0 มาตั้งแต่ต้น
สินค้าจะเริ่มขายเดือนกรกฎาคม ราคา 199 ดอลลาร์
ที่มา - Acer, Android Central, Fonearena

 ", 
  "Date": "28/May/2016", 
  "Image-Link": "https://www.blognone.com/sites/default/files/badges/badge-founder.png", 
  "Link": "https://www.blognone.com/node/81550", 
  "News": "Acer Liquid Zest Plus สมาร์ทโฟนแบตใหญ่ 5,000 mAh อยู่ได้นาน 3 วัน", 
  "Tags": [
    "Acer", 
    "Liquid", 
    "Mobile"
  ], 
  "Time": "18:43"
}