{
  "By": "mk", 
  "Contents": " เนื่องในโอกาสที่เกมในตำนาน Mighty No. 9 วางจำหน่าย (สักที) ทางบริษัท Extend Interactive สตูดิโอเกมจากประเทศไทย ที่มีเกมแนว Rockman เหมือนกันคือ A.R.E.S. EX ก็ประกาศลดราคาเกมชั่วคราวเป็นเวลา 1 วัน (เรียกว่า Mighty Day) ด้วย ปกติเกมขาย 219 บาทบน Steam แต่วันนี้ลดราคาเหลือ 50 บาท (ลด 77%) ใครอยากเล่นเกมแนว 2D platform แบบ Rockman ก็ไปซื้อหากันได้ครับ (Steam) บริษัท Extend Interactive เป็นบริษัทพัฒนาเกมในเมืองไทย เคยมีผลงานเกม So Many Me ที่ Blognone เคยรีวิวไปแล้ว และเคยมีบทสัมภาษณ์เกมดีไซเนอร์ด้วย ที่มา - Steam Update, Extend Interactive    ", 
  "Date": "22/June/2016", 
  "Image-Link": [
    "https://www.blognone.com/sites/default/files/styles/thumbnail/public/news-thumbnails/ares.jpg?itok=aqMO2ZJe", 
    "https://i.imgur.com/zgm9Qj4.jpg", 
    "/sites/all/themes/blognone42/images/linebutton.png"
  ], 
  "Link": "https://www.blognone.com/node/82541", 
  "News": "เกมคนไทย A.R.E.S. EX ลดราคาเหลือ 50 บาท ต้อนรับคู่แข่ง Mighty No. 9", 
  "Tags": [
    "Games", 
    "Mighty No. 9"
  ], 
  "Time": "12:15"
}