{
  "By": "trinakub", 
  "Contents": " Mighty No.9 เกมที่แฟน ๆ Rockman หลายคนรอคอย ออก Trailer ใหม่ชื่อว่า Mighty No.9 Trailer: Masterclass จัดทำโดย Deep Silver เมื่อวันที่ 25 พฤษภาคม 2559 ที่ผ่านมานี้ หลังจาก Trailer ออกมาได้ไม่นาน ก็มียอด Dislike ที่พุ่งสูงขึ้นเรื่อย ๆ จนเกือบ 90% เลยทีเดียว เรียกได้ว่า Trailer นี้คงเป็นสิ่งที่น่าผิดหวังพอควรสำหรับแฟน ๆ ที่รอคอยเกมนี้อยู่ ในตัว Trailer แสดงตัวอย่างภายในเกมประกอบกับคำพูดโฆษณา แต่สิ่งที่ทำให้ขัดใจต่อผู้ชมคงเป็นลักษณะการโฆษณาที่เหมือนเป็นการชักชวนเด็ก ๆ ให้มาเล่น ในขณะที่กลุ่มลูกค้าเป้าหมายของ Mighty No.9 น่าจะเป็นกลุ่มแฟน ๆ ของเกม Rockman ที่อยู่ในช่วงวัยรุ่นหรือผู้ใหญ่เสียมากกว่า อนึ่งเกม Mighty No.9 นั้นรวบรวมทุนพัฒนาเกมผ่าน Kickstarter ไปทั้งหมดกว่า 4 ล้านเหรียญสหรัฐ ด้วยกัน จึงทำให้แฟน ๆ หลายคนคาดหวังว่าตัว Trailer ควรจะทำได้ดีกว่าที่เป็นอยู่ ณ ตอนนี้ ที่มา - Gamespot   ", 
  "Date": "28/May/2016", 
  "Image-Link": [
    "https://www.blognone.com/sites/default/files/styles/thumbnail/public/topics-images/mighty.jpg?itok=1HWVoXwC", 
    "/sites/all/themes/blognone42/images/linebutton.png"
  ], 
  "Link": "https://www.blognone.com/node/81541", 
  "News": "Trailer ใหม่ เกม Mighty No.9 ทำพิษ กระแสตอบรับติดลบหนัก!", 
  "Tags": [
    "Games", 
    "Mighty No. 9"
  ], 
  "Time": "14:55"
}