{
  "By": "nrad6949", 
  "Contents": " William Turton คอลัมนิสต์ของเว็บไซต์ Gizmodo ออกมาเผยแพร่ข้อเขียนของเขาบนเว็บไซต์ โดยเขาแนะนำว่าผู้ใช้ที่ใส่ใจเรื่องความปลอดภัย ควรหยุดการใช้ Telegram โดยทันที เพราะตัวแอพไม่ได้มีความปลอดภัยแบบที่ผู้สร้างได้กล่าวอ้างไว้ Turton ระบุว่า Telegram ไม่ได้เข้ารหัสไว้เป็นค่าเริ่มต้น ซึ่งผิดกับแอพอย่าง Signal หรือ WhatsApp และต่อให้สนทนากันในโหมดเข้ารหัสที่เป็นความลับ (secure chat) ระบบการเข้ารหัสของ Telegram ที่ใช้ MTproto ซึ่งพัฒนาเองนั้นยังไม่ได้รับการพิสูจน์ว่าแข็งแกร่งพอแค่ไหน รวมถึงยังเผยแพร่ metadata ออกมามากกว่าที่ควรจะเป็นด้วย (เขายกตัวอย่างงานวิจัยชิ้นหนึ่งที่ทำให้พบได้ว่า ผู้ใช้กำลังออนไลน์หรือออฟไลน์อยู่) Turton แนะนำว่าให้ใช้แอพอย่าง Signal, iMessage หรือ WhatsApp แทน ที่มา - Gizmodo   ", 
  "Date": "26/June/2016", 
  "Image-Link": [
    "https://www.blognone.com/sites/default/files/styles/thumbnail/public/topics-images/m6BFtJQW.png?itok=UA233Sfu", 
    "/sites/all/themes/blognone42/images/linebutton.png"
  ], 
  "Link": "https://www.blognone.com/node/82676", 
  "News": "คอลัมนิสต์ Gizmodo แนะนำให้ทุกคนหยุดใช้ Telegram ชี้ไม่ปลอดภัยเพียงพอ", 
  "Tags": [
    "Telegram", 
    "Gizmodo", 
    "Security", 
    "Encryption", 
    "Privacy"
  ], 
  "Time": "13:43"
}