{
  "By": "PsychoReach", 
  "Contents": " สิ่งที่สายลุยรอคอยกันมาแล้ว! S7 active มาพร้อมกับการนำสิ่งที่ขาดไปใน S6 active กลับมา อาทิเช่น ที่สแกนลายนิ้วมือ และช่องใส่ Micro SD Card ส่วนจุดเด่นอีกด้านที่รับมาจาก S7 เต็มๆ ก็คือสเปคที่เหมือนกันทุกอย่าง (หน้าจอ, กล้อง, CPU และอื่นๆ) ที่เพิ่มเติมคือแบตเตอรี่ที่เพิ่มขึ้นเป็น 4,000 mAh, หน้าจอกันกระแทกจากการตกห่างจากพื้นระยะ 1.5 เมตร, ผ่านการทดสอบ MIL STD-810G (มาตรฐานการทนทานในด้านทหาร), IP68 (กันน้ำกันฝุ่น สามารถอยู่ในน้ำลึก 1.5 เมตรเป็นเวลาครึ่งชั่วโมงได้โดยไม่เสียหาย) และหนาขึ้นอย่างเห็นได้ชัด โดยเปิดให้จองผ่านเครือข่าย AT&T เท่านั้น (ณ ตอนนี้) ในสหรัฐฯ  มาพร้อมกับสี Camo Green, Sandy Gold และ Titanium Gray  สเปคมีดังนี้  ชิป Snapdragon 820  ขนาดหน้าจอ 5.1 นิ้ว, ชนิดหน้าจอ 1440 x 2560 pixel (QHD) Super AMOLED กระจกหน้าจอ Gorilla Glass 4  ผ่านการทดสอบ MIL STD-810G (มาตรฐานการทนทานในด้านทหาร) และ IP68 (กันน้ำกันฝุ่น สามารถอยู่ในน้ำลึก 1.5 เมตรเป็นเวลาครึ่งชั่วโมงได้โดยไม่เสียหาย)  ช่องอ่าน Micro SD Card ที่อ่านลายนิ้วมือที่ปุ่ม home กล้องหลัง 12MP Dual Pixel แบตมหึมา 4,000 mAh ปุ่มพิเศษที่มีมากับรุ่น active นั่นคือ ปุ่ม \"active\" อยู่ที่มุมด้านซ้ายของเครื่องเหนือปุ่มปรับเสียง ทำหน้าที่เป็นปุ่มลัดสามารถเปิดไฟฉาย หรือเปิดแอพพลิเคชั่นต่างๆได้อย่างรวดเร็ว  ความสามารถอื่นๆ สามารถอ่านได้จาก Samsung Galaxy S7 และ S7 edge เปิดตัว, กล้อง Dual Pixel, microSD กลับมาแล้ว ที่มา: AT&T, Liliputing   ", 
  "Date": "7/June/2016", 
  "Image-Link": [
    "https://www.blognone.com/sites/default/files/styles/thumbnail/public/topics-images/j8u2rhG1.jpg?itok=CJuE6qSo", 
    "//s33.postimg.org/53jy21njj/galaxy_s7_active.jpg", 
    "//s33.postimg.org/rgkc2v5gv/273700_mrq_Samsung_Galaxy_S7_Active.jpg", 
    "/sites/all/themes/blognone42/images/linebutton.png"
  ], 
  "Link": "https://www.blognone.com/node/81939", 
  "News": "AT&T เปิดตัว Samsung Galaxy S7 active กันกระแทกและน้ำ แบตมหึมา ที่สแกนลายนิ้วมือ", 
  "Tags": [
    "AT&T", 
    "Smartphone", 
    "Samsung Galaxy", 
    "Mobile", 
    "Galaxy S7", 
    "Samsung"
  ], 
  "Time": "17:00"
}