0	00-01_17-May-2016	cluster4
1	00-07_16-June-2016	cluster4
2	00-14_5-May-2016	cluster4
3	00-27_28-May-2016	cluster4
4	00-32_29-June-2016	cluster4
5	00-38_10-June-2016	cluster4
6	00-42_22-June-2016	cluster4
7	00-56_24-June-2016	cluster4
8	01-03_10-May-2016	cluster4
9	01-15_15-June-2016	cluster4
10	01-21_16-June-2016	cluster4
11	01-24_25-May-2016	cluster4
12	01-27_18-May-2016	cluster4
13	01-29_16-July-2016	cluster0
14	01-39_27-May-2016	cluster4
15	01-45_15-June-2016	cluster4
16	01-46_19-May-2016	cluster4
17	01-49_14-July-2016	cluster4
18	01-53_4-June-2016	cluster4
19	01-58_3-June-2016	cluster4
20	02-13_5-July-2016	cluster4
21	02-16_17-May-2016	cluster4
22	02-21_10-June-2016	cluster4
23	02-25_11-June-2016	cluster4
24	03-03_5-May-2016	cluster4
25	03-15_10-June-2016	cluster4
26	04-29_27-May-2016	cluster4
27	05-52_18-May-2016	cluster4
28	06-31_21-June-2016	cluster4
29	06-45_20-June-2016	cluster4
30	06-55_26-May-2016	cluster4
31	07-04_22-June-2016	cluster4
32	07-07_2-July-2016	cluster9
33	07-07_9-June-2016	cluster4
34	07-15_8-July-2016	cluster5
35	07-16_26-May-2016	cluster4
36	07-17_8-May-2016	cluster4
37	07-20_11-June-2016	cluster4
38	07-22_19-May-2016	cluster4
39	07-23_15-May-2016	cluster4
40	07-24_27-June-2016	cluster4
41	07-26_15-May-2016	cluster2
42	07-27_1-July-2016	cluster8
43	07-27_14-May-2016	cluster4
44	07-29_10-May-2016	cluster4
45	07-53_14-July-2016	cluster1
46	07-56_15-June-2016	cluster4
47	08-03_19-May-2016	cluster4
48	08-05_17-June-2016	cluster4
49	08-06_18-May-2016	cluster4
50	08-14_10-May-2016	cluster4
51	08-15_7-June-2016	cluster4
52	08-17_6-July-2016	cluster4
53	08-29_4-May-2016	cluster4
54	08-30_14-June-2016	cluster4
55	08-34_6-July-2016	cluster4
56	08-55_1-July-2016	cluster4
57	08-55_26-May-2016	cluster4
58	08-55_26-May-2016_1	cluster4
59	08-56_18-May-2016	cluster4
60	09-03_12-June-2016	cluster4
61	09-05_16-May-2016	cluster4
62	09-08_6-May-2016	cluster4
63	09-11_6-July-2016	cluster4
64	09-12_24-May-2016	cluster4
65	09-22_13-June-2016	cluster4
66	09-23_1-June-2016	cluster4
67	09-25_28-May-2016	cluster4
68	09-26_1-June-2016	cluster6
69	09-36_2-July-2016	cluster3
70	09-36_29-June-2016	cluster4
71	09-40_25-May-2016	cluster4
72	09-40_3-June-2016	cluster4
73	10-05_19-May-2016	cluster4
74	10-06_13-May-2016	cluster4
75	10-07_14-July-2016	cluster4
76	10-07_16-June-2016	cluster4
77	10-15_8-July-2016	cluster4
78	10-19_8-July-2016	cluster4
79	10-24_7-July-2016	cluster4
80	10-31_5-June-2016	cluster4
81	10-32_15-July-2016	cluster4
82	10-39_4-July-2016	cluster4
83	10-55_7-July-2016	cluster4
84	11-07_6-July-2016	cluster4
85	11-17_14-July-2016	cluster4
86	22-14_5-July-2016	cluster4
87	22-15_24-June-2016	cluster4
88	22-23_6-July-2016	cluster4
89	22-24_13-July-2016	cluster7
90	22-28_12-July-2016	cluster4
91	22-41_7-July-2016	cluster4
92	22-42_13-July-2016	cluster4
93	23-25_7-June-2016	cluster4
94	23-26_16-May-2016	cluster4
95	23-33_24-June-2016	cluster4
96	23-35_31-May-2016	cluster4
97	23-39_18-June-2016	cluster4
98	23-49_22-May-2016	cluster4
99	23-54_13-June-2016	cluster4
