{
  "By": "nismod", 
  "Contents": " HTC ประกาศเปิดตัว Desire 728 รุ่น Dual Sim จับตลาดกลาง-ล่างในประเทศไทย สเปคคร่าวๆ ของสมาร์ทโฟนรุ่นนี้คือใช้ชิปเซ็ต MediaTek MT6753 แปดแกนความถี่ 1.3GHz หน้าจอขนาด 5.5 นิ้ว ความละเอียด 720p แรม 2GB กล้องหลัง 13 ล้านพิกเซล กล้องหน้า 5 ล้านพิกเซล ความจุ 16GB รองรับ micro SD ได้สูงสุด 2TB ลำโพงสเตอริโอคู่ด้านหน้า พร้อม BoomSound รองรับ LTE Cat.4 HTC Desire 728 รันบนแอนดรอยด์ 5.1.1 ครอบทับด้วย HTC Sense แบตเตอรี่ความจุ 2,800 mAh มีสองสีคือสีม่วง (ตัวเครื่องจริงสีแทบจะเหมือนสีดำ) และสีขาว วางจำหน่ายเฉพาะทาง ShopAt7.com และ ShopAt24.com ในราคา 7,590 บาท         ", 
  "Date": "14/June/2016", 
  "Image-Link": [
    "https://www.blognone.com/sites/default/files/styles/thumbnail/public/topics-images/htc.png?itok=5TBfl4iq", 
    "https://c6.staticflickr.com/8/7341/27588997141_8fcd4bf310_z.jpg", 
    "https://c3.staticflickr.com/8/7049/27628354666_46d880005b_z.jpg", 
    "https://c1.staticflickr.com/8/7547/27628354296_5cddabb75d_z.jpg", 
    "https://c8.staticflickr.com/8/7415/27052911583_9d624162db_z.jpg", 
    "https://c4.staticflickr.com/8/7733/27052910843_9ee0f7b8a0_z.jpg", 
    "https://c5.staticflickr.com/8/7302/27628357916_c68c9d57cb_z.jpg", 
    "/sites/all/themes/blognone42/images/linebutton.png"
  ], 
  "Link": "https://www.blognone.com/node/82245", 
  "News": "HTC เปิดตัว Desire 728 Dual Sim ในประเทศไทย", 
  "Tags": [
    "HTC", 
    "Mobile", 
    "HTC Desire"
  ], 
  "Time": "15:43"
}