{
  "By": "mk", 
  "Contents": " กูเกิลยังเดินหน้าผลักดันบริการของตัวเองให้รองรับ AMP ต่อไป บริการตัวล่าสุดคือ Google Play Newsstand แอพอ่านข่าวในซีรีส์ Google Play รองรับการแสดงผลข่าวสารจากฟอร์แมต AMP แทน RSS Feed แบบเดิมแล้ว ข้อดีของการแสดงเนื้อหาแบบ AMP คือควบคุมฟอร์แมตการแสดงผลได้ดีขึ้น เหมาะสำหรับหน้าจอมือถือมากขึ้นกว่า RSS Feed ที่มีแต่ text และทำอะไรไม่ได้มากนัก สำหรับเว็บเพจที่อยากแสดงผลเนื้อหาในระบบ Newsstand เป็น AMP แทน Feed ก็สามารถปรับแต่งในหน้า Google Play Newsstand Producer ได้เลย สำหรับคนที่อยากติดตาม Blognone ใน Google Play Newsstand ก็ตามลิงก์ ที่มา - AMP Project    ", 
  "Date": "3/July/2016", 
  "Image-Link": [
    "https://www.blognone.com/sites/default/files/styles/thumbnail/public/news-thumbnails/play-news.png?itok=YqZmlhHm", 
    "https://i.imgur.com/JX43Q2I.png", 
    "/sites/all/themes/blognone42/images/linebutton.png"
  ], 
  "Link": "https://www.blognone.com/node/82950", 
  "News": "Google Play Newsstand รองรับการแสดงเนื้อหาข่าวด้วยฟอร์แมต AMP แล้ว", 
  "Tags": [
    "Google Play", 
    "AMP", 
    "News"
  ], 
  "Time": "18:47"
}