{
  "By": "Lamicrosz", 
  "Contents": " ไมโครซอฟท์ได้ปล่อยแอพ Outlook Mail and Calendar เวอร์ชันสำหรับ HoloLens แล้ว ที่แน่นอนว่าต้องเป็นแอพแบบ Universal Windows Platform (UWP) ผู้ที่มี HoloLens และสนใจสามารถไปดาวน์โหลดกันได้ที่ Windows Store หากใครมีข้อเสนอแนะรวมไปถึงความคิดเห็นสามารถไปพูดคุยกันได้ที่ Developer Forum ที่มา - Office Blogs     ", 
  "Date": "3/June/2016", 
  "Image-Link": [
    "https://www.blognone.com/sites/default/files/styles/thumbnail/public/topics-images/outlook.png?itok=cVj7_zAp", 
    "http://i.imgur.com/UznDpDT.png", 
    "http://i.imgur.com/yQVLB41.jpg", 
    "/sites/all/themes/blognone42/images/linebutton.png"
  ], 
  "Link": "https://www.blognone.com/node/81835", 
  "News": "แอพ Outlook Mail and Calendar มาบน HoloLens แล้ว", 
  "Tags": [
    "Outlook", 
    "HoloLens", 
    "Microsoft", 
    "Augmented Reality", 
    "Virtual Reality"
  ], 
  "Time": "20:54"
}