{
    "By": "Blltz", 
    "Contents": "\nใครที่ต้องใช้บริการ PlayStation Network (PSN) เพื่อเล่นเกมออนไลน์บน PS4 ในช่วงที่ผ่านมาคงคุ้นเคยกับอาการล่มเป็นระยะๆ ของ PSN มาอย่างต่อเนื่อง ล่าสุด Sony ออกมาชดเชยให้ผู้ใช้แล้วด้วยการต่อระยะเวลาของ PlayStation Plus ที่ประสบปัญหาเป็นเวลาทั้งสิ้น 1 วัน\nสำหรับผู้ใช้ที่จะได้สิทธิ์ PlayStation Plus เพิ่มขึ้นอีก 1 วันนั้น จะต้องมีบัญชีที่เปิดบริการดังกล่าวในวันที่เกิดเหตุ PSN ล่มครั้งใหญ่ (4 มกราคม) โดย Sony จะส่งโค้ดให้ทางอีเมล ซึ่งสามารถใช้ได้ก่อนวันที่ 31 มีนาคมนี้\nจะคุ้มหรือไม่คุ้ม ก็อย่าลืมไปรับโค้ดกันไว้ก่อนนะ\nที่มา - IGN\n\n", 
    "Date": "19/01/16", 
    "Image-Link": "https://www.blognone.com/sites/default/files/imagecache/news-thumbnail/category_pictures/psn.png", 
    "Link": "https://www.blognone.com/node/76890", 
    "News": "ขอบคุณที่อดทนเสมอมา! Sony ชดเชย PS Plus 1 วัน ให้ผู้ประสบปัญหา PSN ล่ม", 
    "Tags": "Games\nPlayStation Network\nSony\nPlayStation\n", 
    "Time": "18:12"
}