{
    "By": "Lamicrosz", 
    "Contents": "\nDell ออกรุ่นปรับปรุงใหม่ของแท็บเล็ตรุ่น Venue 8 Pro 5000 โดยมีสเปค ดังนี้\n\nระบบปฏิบัติการ: Windows 10 Home หรือ Pro แบบ 64 บิท\nหน่วยประมวลผล: Intel Atom x5-Z8500 ควอดคอร์ 2.24 GHz\nหน้าจอ: 8 นิ้ว ความละเอียด 1920x1200 พิกเซล\nแรม: 4 GB DDR3L\nกล้องหลัง: 5 ล้านพิกเซล\nกล้องหน้า: 2 ล้านพิกเซล\nพอร์ทเชื่อมต่อ: USB Type C\nความจุ: 64 eMMC รองรับ MicroSD\nรองรับไมโครซิมและ NFC\nรองรับ Bluetooth 4.0 และ Wi-Fi 802.11ac\n\nราคาเปิดมาที่ 641 ดอลลาร์สหรัฐฯ (ประมาณ 23,200 บาท) แต่ตอนนี้ลดราคาเหลืออยู่ 449 ดอลลาร์สหรัฐฯ (ประมาณ 16,300 บาท) และลดได้อีก 50 เหรียญสำหรับเวอร์ชันระบบปฏิบัติการ Windows 10 Home\nที่มา - Dell via Windows Central\n\n\n\n", 
    "Date": "19/01/16", 
    "Image-Link": "https://www.blognone.com/sites/default/files/imagecache/news-thumbnail/category_pictures/dell-200.png", 
    "Link": "https://www.blognone.com/node/76858", 
    "News": "Dell Venue 8 Pro ออกเวอร์ชัน Windows 10 พร้อมปรับปรุงสเปค", 
    "Tags": "Dell\nTablet\nVenue\nWindows 10\n", 
    "Time": "4:49"
}