{
    "By": "lew", 
    "Contents": "\nปากีสถานปลดบล็อค YouTube แล้วหลังจากกูเกิลเปิดเว็บเวอร์ชั่นปากีสถานให้เฉพาะ ตามที่ตกลงกันไว้เมื่อปีที่แล้ว และกรรมาธิการด้านเทคโนโลยีของปากีสถานก็แนะนำให้รัฐบาลปลดบล็อค\nกูเกิลเพิ่งเปิดบริการ YouTube เวอร์ชั่นปากีสถานเมื่อวันที่ 12 มกราคมที่ผ่านมาพร้อมกับเนปาลและศรีลังกา สำหรับเว็บเวอร์ชั่นปากีสถานนี้จะบล็อควิดีโอที่มีปัญหา เช่น Innocence of Muslims ที่เป็นชนวนของความไม่พอใจในหลายชาติ\nPTCL ผู้ให้บริการอินเทอร์เน็ตปากีสถานประกาศผ่านเฟซบุ๊กแสดงความยินดีว่าผู้ใช้จะสามารถเข้าถึงเว็บได้แล้ว\nที่มา - Rappler, Google Asia Pacific\n\n", 
    "Date": "19/01/16", 
    "Image-Link": "https://www.blognone.com/sites/default/files/imagecache/news-thumbnail/category_pictures/YouTube_logo.svg_.png", 
    "Link": "https://www.blognone.com/node/76902", 
    "News": "ปากีสถานยกเลิกการบล็อค YouTube แล้ว", 
    "Tags": "Internet Censorship\nPakistan\nYouTube\n", 
    "Time": "23:48"
}