{
    "By": "mk", 
    "Contents": "\nหลังจาก Sidecar บริการเรียกรถคู่แข่งของ Uber/Lyft ประกาศปิดตัว ล่าสุดค่ายรถยักษ์ใหญ่ General Motors (GM) เข้าไปซื้อทรัพย์สินที่เหลืออยู่และเทคโนโลยีของ Sidecar รวมถึงจ้างพนักงานอีก 20 คนทำงานต่อด้วย\nGM เพิ่งลงทุนใน Lyft ไปถึง 500 ล้านดอลลาร์ ท่าทีของ GM แสดงให้เห็นชัดเจนว่าต้องการลงมาลุยตลาดการเรียกรถยนต์ด้วย (บริษัทรถยนต์ในสหรัฐมีประวัติการเป็นเจ้าของบริษัทรถเช่ามายาวนาน) แหล่งข่าวของ Bloomberg อ้างข้อมูลวงในว่าโครงการนี้ของ GM ใช้ชื่อว่า \"Maven\" และเพิ่งจดเครื่องหมายการค้าไปเมื่อปลายปีที่แล้ว\nท่าทีของ GM ไม่ใช่เรื่องใหม่ เพราะ Ford เคยประกาศไว้ว่ากำลังทำบริการเรียกรถยนต์อยู่เช่นกัน และ Daimler AG ก็เคยซื้อบริษัทเรียกรถยนต์ของเยอรมนีด้วย\nที่มา - Bloomberg\n\n", 
    "Date": "19/01/16", 
    "Image-Link": "https://www.blognone.com/sites/default/files/imagecache/news-thumbnail/category_pictures/gm.jpg", 
    "Link": "https://www.blognone.com/node/76875", 
    "News": "GM ซื้อทรัพย์สินและเทคโนโลยีของ Sidecar เตรียมบุกตลาดบริการเรียกรถยนต์", 
    "Tags": "Acquisition\nAutomobile\nGM\nSharing Economy\nTransportation\n", 
    "Time": "13:31"
}