{
    "By": "mk", 
    "Contents": "\nช่วงหลังมานี้ Xiaomi เริ่มใช้นโยบายล็อค bootloader กับสมาร์ทโฟนรุ่นใหม่ๆ อย่าง Mi Note Pro, Mi 4c โดยให้เหตุผลว่าป้องกันไม่ให้พ่อค้าคนกลางที่นำเครื่องไปขายต่อ สามารถฝังมัลแวร์ลงไปในรอมได้\nXiaomi ยังเปิดให้ลูกค้าสามารถปลดล็อค bootloader ได้เอง แต่กระบวนการจะยุ่งยากพอสมควร โดยต้องดาวน์โหลดโปรแกรม Unlocking Tool บนพีซีมาใช้งาน ล็อกอินด้วยบัญชี MIUI อันเดียวกับบนมือถือ จากนั้นกรอกคำขอปลดล็อค (ที่ฟอร์มเป็นภาษาจีนล้วน ยังไม่มีภาษาอังกฤษ) และรอการตรวจสอบจากทางบริษัท จากนั้นโค้ดปลดล็อคจะส่งมาให้ทาง SMS ในภายหลัง (มีคนทำคู่มือเป็นภาษาอังกฤษให้ด้วย)\nผู้ใช้ Xiaomi หลายรายบ่นว่ากระบวนการอนุมัติอาจต้องรอนาน 3-21 วัน หรือถ้าต้องการให้เร็วก็มีทางลัดคือต้องเก็บคะแนนสะสมในบอร์ด MIUI ให้ได้ระดับ Diamond ก็จะได้สิทธิพิเศษ ปัญหานี้ยังไม่ได้รับการแก้ไข และต้องรอดูว่าจะส่งผลกระทบต่อฐานแฟนๆ ของ Xiaomi หรือไม่\nที่มา - xda via Android Police\n\n", 
    "Date": "19/01/16", 
    "Image-Link": "https://www.blognone.com/sites/default/files/imagecache/news-thumbnail/category_pictures/mi.png", 
    "Link": "https://www.blognone.com/node/76889", 
    "News": "Xiaomi เริ่มล็อค Bootloader เพื่อป้องกันมัลแวร์, ผู้ใช้บ่นกระบวนการปลดล็อคยุ่งยากยาวนาน", 
    "Tags": "Bootloader\nXiaomi\n", 
    "Time": "17:13"
}