{
  "By": "arjin", 
  "Contents": " ตัวเลขยอดขายของ Xiaomi ในปี 2015 ที่ผ่านมานั้นไม่ค่อยเติบโตมากนัก โดย Xiaomi มียอดขายรวม 78,000 ล้านหยวน หรือประมาณ 12,500 ล้านดอลลาร์ เพิ่มขึ้นจากเมื่อปี 2014 ราว 5% อย่างไรก็ตามตัวเลขนี้ไม่ได้เป็นการแถลงทางการจาก Xiaomi และโฆษกบริษัทก็บอกเพียงยอดขายสมาร์ทโฟนอยู่ที่มากกว่า 70 ล้านเครื่อง ปีที่แล้ว Xiaomi มียอดขายเติบโตถึง 135% การที่ปีนี้ตัวเลขเติบโตในระดับเลขหลักเดียวจึงสะท้อนว่าบริษัทเริ่มไม่ร้อนแรงแบบอดีต รวมถึงไตรมาสที่ผ่านมายอดขายจากการประเมินล่าสุดของ IDC ก็หลุดจาก 1 ใน 5 อันดับไปแล้ว ถึงแม้ Xiaomi พยายามเข้าสู่ตลาดใหม่อย่างเครื่องใช้ไฟฟ้า แต่ก็เป็นส่วนน้อยเมื่อเทียบกับรายได้จากสมาร์ทโฟน ปัจจุบัน Xiaomi เป็นสตาร์ทอัพที่ยังไม่เข้าตลาดหุ้นและมีมูลค่ากิจการ 45,000 ล้านดอลลาร์ เป็นรองแค่เพียง Uber เท่านั้น ที่มา: Fortune    ", 
  "Date": "25/May/2016", 
  "Image-Link": [
    "https://www.blognone.com/sites/default/files/styles/thumbnail/public/topics-images/xiaomi.png?itok=W_8-Phci", 
    "http://i.imgur.com/7Dk77di.png", 
    "/sites/all/themes/blognone42/images/linebutton.png"
  ], 
  "Link": "https://www.blognone.com/node/81361", 
  "News": "เผย Xiaomi ในปีที่ผ่านมา ยอดขายรวมมีการเติบโตน้อยลง", 
  "Tags": [
    "Xiaomi", 
    "Financial Report"
  ], 
  "Time": "06:38"
}