{
  "By": "nismod", 
  "Contents": " Richard Yu ผู้บริหารระดับสูงของ Huawei ที่ดูแลฝั่งสมาร์ทโฟนของบริษัทออกมาให้สัมภาษณ์กับสื่อของญี่ปุ่น ระบุว่า Huawei ตั้งเป้าจะกลายเป็นบริษัทสมาร์ทโฟนเบอร์ 1 ของโลกเหนือแอปเปิลและซัมซุงภายในอีก 5 ปีข้างหน้า โดยปัจจุบัน Huawei ถือเป็นบริษัทที่มียอดขายสมาร์ทโฟนอันดับ 3 ของโลก นอกจากนี้ Yu แสดงความคิดเห็นด้วยว่า บริษัทเพื่อนร่วมชาติอย่าง Xiaomi ไม่ได้มีความสามารถในการแข่งขันในตลาดสมาร์ทโฟนอีกแล้ว โดยเมื่อก่อน Xiaomi อาจจะได้รับความนิยมเพราะเก่งด้านการตลาด แต่ปัจจุบันด้วยเทคโนโลยีและดีไซน์ของผลิตภัณฑ์ที่ล้าหลัง ทำให้ Xiaomi น่าจะหลุดออกจากวงโคจรของบริษัทสมาร์ทโฟนท็อปๆ ของโลกในอีกไม่นาน ทั้งนี้เมื่อปีที่แล้ว Xiaomi มียอดส่งมอบสมาร์ทโฟนทั่วโลกอยู่ที่ราว 70 ล้านเครื่อง ซึ่งต่ำกว่าที่ตั้งเป้าไว้ที่ 80-100 ล้านเครื่อง โดยไตรมาสแรกที่ผ่านมา Xiaomi มีส่วนแบ่งตลาดในจีนเป็นอันดับ 5 ตามหลัง Huawei, Oppo, vivo และแอปเปิล ที่มา - Nikkei Asian Review   ", 
  "Date": "6/June/2016", 
  "Image-Link": [
    "https://www.blognone.com/sites/default/files/styles/thumbnail/public/topics-images/huawei.png?itok=6S9mP3fu", 
    "/sites/all/themes/blognone42/images/linebutton.png"
  ], 
  "Link": "https://www.blognone.com/node/81890", 
  "News": "ผู้บริหาร Huawei ตั้งเป้าเป็นเบอร์ 1 ของโลกใน 5 ปี, Xiaomi จะไปไม่รอด", 
  "Tags": [
    "Huawei", 
    "Xiaomi"
  ], 
  "Time": "11:44"
}