{
  "By": "nismod", 
  "Contents": " Lei Jun ซีอีโอของ Xiaomi เคยออกมาบอกแล้วว่าเปิดโอกาสในการขาย IPO ของบริษัท ล่าสุดดุเหมือนเจ้าตัวจะตัดสินใจและมีเป้าหมายชัดเจนแล้วว่าจะเริ่มขาย IPO ในช่วงปี 2025 หรืออีก 9 ปีข้างหน้า ซีอีโอ Xiaomi ระบุว่าการขายหุ้นของบริษัทต้องใช้เวลา เพราะโมเดลธุรกิจของ Xiaomi ค่อนข้างซับซ้อน ขณะเดียวกันก็ต้องใช้เวลาในการสร้างความเชื่อมั่นของผลิตภัณฑ์ให้กับลูกค้า Lei Jun ระบุด้วยว่าต้องการให้ Xiaomi เป็นเหมือนร้าน Muji ที่ขายข้าวของเครื่องใช้ภายในบ้าน โดยปัจจุบันเราเห็นความพยายามของ Xiaomi ในการสร้างผลิตภัณฑ์สมาร์ทโฮมที่หลากหลาย รวมถึง ecosystem เพื่อมารองรับด้วย ที่มา - Tech in Asia   ", 
  "Date": "28/June/2016", 
  "Image-Link": [
    "https://www.blognone.com/sites/default/files/styles/thumbnail/public/topics-images/xiaomi.png?itok=W_8-Phci", 
    "/sites/all/themes/blognone42/images/linebutton.png"
  ], 
  "Link": "https://www.blognone.com/node/82748", 
  "News": "ซีอีโอ Xiaomi ระบุเตรียมขาย IPO ปี 2025", 
  "Tags": [
    "Xiaomi", 
    "IPO"
  ], 
  "Time": "12:48"
}