{
  "By": "nrad6949", 
  "Contents": " Larry Ellison ประธานและหัวหน้าคณะเจ้าหน้าที่บริหารฝ่ายเทคโนโลยีของ Oracle ออกมาเล่าถึงความสัมพันธ์ระหว่างตัวเขากับ Steve Jobs ในช่วงที่ Jobs มาขอคำปรึกษาถึงเรื่องการฟื้นฟูกิจการ Apple โดยเป็นการพูดต่อหน้าบัณฑิตที่จบใหม่ของมหาวิทยาลัย University of Southern California โดยระบุว่าเขาคุยเรื่องนี้กับ Jobs ระหว่างการปีนเขาที่อุทยาน Castle Rock มลรัฐแคลิฟอร์เนียในปี 1995 Ellison ระบุว่าตอนแรกเขาเสนอกับ Jobs ว่าจะเข้าซื้อกิจการของ Apple แล้วให้ Jobs ดำรงตำแหน่งซีอีโอทันที แต่ Jobs ไม่เห็นด้วย และจะให้ใช้วิธี Apple เข้าซื้อ Next (บริษัทของ Jobs ในตอนนั้น) แล้วค่อยๆ แสดงให้เห็นว่า Jobs เหมาะสมที่จะเป็นคนนำพาบริษัท ซึ่ง Ellison บอกว่าวิธีนี้มีความเสี่ยงสูงมากที่จะไม่ทำเงิน ซึ่ง Jobs บอกกับ Ellison ว่าเขาไม่ต้องการเงิน แต่เขาต้องการทำด้วยเหตุผลทางจริยธรรม (moral high ground) มากกว่า Ellison ระบุว่าหลังจากนั้นเขาก็เข้าไปเป็นบอร์ดของ Apple แล้วเฝ้าดู Jobs ทำงานเพื่อพลิกฟื้นบริษัทให้โตขึ้นเรื่อยๆ เขาระบุว่าบทเรียนที่ได้ครั้งนี้คือ เมื่อถึงจุดหนึ่งเงินก็ไม่มีความสำคัญอีกต่อไป ต่อให้ทุ่มเงินไปมากแค่ไหนก็จะไม่มีผลใดๆ ขึ้นมา ที่มา - Recode   ", 
  "Date": "16/May/2016", 
  "Image-Link": [
    "https://www.blognone.com/sites/default/files/styles/thumbnail/public/topics-images/oracle.png?itok=mlKIT6Op", 
    "/sites/all/themes/blognone42/images/linebutton.png"
  ], 
  "Link": "https://www.blognone.com/node/81013", 
  "News": "Larry Ellison เล่าความสัมพันธ์ระหว่างเขากับ Steve Jobs ช่วงฟื้นกิจการ Apple", 
  "Tags": [
    "Larry Ellison", 
    "Steve Jobs", 
    "Oracle", 
    "Apple"
  ], 
  "Time": "11:26"
}