{
  "By": "vvkungx", 
  "Contents": " Twitter ได้เปิดตัวแอพ Twitter Engage ซึ่งเป็นเครื่องมือที่สามารถตรวจสอบสถิติต่างๆ ของผู้ใช้ได้แบบเรียลไทม์ เหมาะสำหรับเซเลบคนดังที่ต้องการติดตามว่าบัญชี Twitter ของเราเป็นที่น่าสนใจขนาดไหน Twitter Engage จะช่วยให้เราเห็นภาพรวมบัญชีของผู้ใช้เองว่าเป็นอย่างไร มีผู้ใช้คนไหนเมนชั่นมาหาเราบ่อยที่สุดหรือดูว่าใครติดตามเราล่าสุด ทำให้สามารถสื่อสารกับคนที่ติดตามเราได้อย่างสะดวกมากขึ้น รวมถึงแสดงสถิติต่างๆ ว่ามีผู้ดูทวีตของเราเท่าไหร่, ทวีตไหนที่โดนรีทวีตมากที่สุดบ้างหรือคลิปที่ทวีตลงไปมีผู้เข้าชมกี่ครั้ง และยังสามารถเลือกดูข้อมูลต่างๆ โดยเลือกเป็นวันได้ ในอนาคตก็จะนำผลิตภัณฑ์อย่าง Niche และ Vine เข้ามาอยู่ในเครื่องมือวิเคราะห์ตัวนี้อีกด้วย Twitter Engage เปิดให้ใช้งานแล้ววันนี้บนมือถือระบบ iOS เท่านั้นและที่สำคัญยังใช้งานได้เฉพาะผู้ใช้ในสหรัฐอเมริกาเท่านั้นครับ ที่มา : Twitter Blog    ", 
  "Date": "22/June/2016", 
  "Image-Link": [
    "https://www.blognone.com/sites/default/files/styles/thumbnail/public/topics-images/twitter300.png?itok=DkxsrWCR", 
    "//upic.me/i/0q/engageinphone-side.png", 
    "/sites/all/themes/blognone42/images/linebutton.png"
  ], 
  "Link": "https://www.blognone.com/node/82527", 
  "News": "Twitter เปิดตัวแอพเช็คสถิติของผู้ใช้ในชื่อ Twitter Engage", 
  "Tags": [
    "Twitter"
  ], 
  "Time": "00:42"
}