{
    "By": "mk", 
    "Contents": "\nใครที่ทันเล่นเกม  Wolfenstein 3D หรือ Doom ภาคแรก อาจพอทราบว่าบริษัท id Software ผู้บุกเบิกวงการเกม FPS มีผู้ก่อตั้งหลายคน คนที่โด่งดังเป็นที่รู้จักทั่วไปคือ John Carmack แต่ผู้ร่วมก่อตั้งอีกคนที่เคยโด่งดังไม่แพ้กัน (แถมเป็นเจ้าของไอเดียตั้งค่ายเกมคนแรก) คือ John Romero\nหลังประสบความสำเร็จทะลุฟ้ากับ Doom และเข้าสู่ยุคของ Quake สองผู้ก่อตั้งเกิดทะเลาะกันจนสุดท้าย John Romero ลาออกไปตั้งบริษัทใหม่ แต่เกมของเขาหลังจากนั้นก็ไม่ค่อยประสบความสำเร็จมากนัก ปัจจุบันเขายังสร้างเกมอยู่กับบริษัทหลายแห่ง มีเกมหลากหลายแนว ตั้งแต่ FPS ไปจนถึงเกมโซเชียล\nสำหรับข่าวนี้ หลังจาก Romero ห่างหายจากวงการ Doom ไปนาน 21 ปี เขาก็เกิดนึกสนุกขึ้นมา สร้างฉากใหม่ของเกม Doom ภาคแรกแจกให้แฟนๆ ดาวน์โหลดไปลองเล่นกัน ปัจจุบันแฟนเกม Doom ยังเล่นเกมนี้กันอยู่ โดยสร้างฉากใหม่ๆ มาแลกเปลี่ยนกัน\nที่มา - Polygon\n\nIt's been 21 years since I made a DOOM level. Here's my version of E1M8 using DOOM1.WAD. https://t.co/ueKM7gBbXd pic.twitter.com/NlmA9aIALN\n— John Romero (@romero) January 15, 2016\n", 
    "Date": "18/01/16", 
    "Image-Link": "https://www.blognone.com/sites/default/files/imagecache/news-thumbnail/category_pictures/Doom_logo.png", 
    "Link": "https://www.blognone.com/node/76833", 
    "News": "21 ปีแห่งความหลัง John Romero ผู้สร้างเกม Doom ภาคแรก กลับมาสร้างฉากใหม่อีกครั้ง", 
    "Tags": "Doom\nGames\nid Software\n", 
    "Time": "13:47"
}