{
    "By": "mk", 
    "Contents": "\nที่ผ่านมา แอพแชทยอดนิยม WhatsApp อาจคิดราคาผู้ใช้งานปีละ 1 ดอลลาร์ (บางกรณีอาจยกเว้นค่าใช้จ่ายตรงนี้ให้) แต่ล่าสุดบริษัทออกมาประกาศแล้วว่าต่อจากนี้ไป WhatsApp จะฟรีในทุกกรณีแล้ว\nWhatsApp อธิบายว่าหลังจากยอดผู้ใช้งานเติบโตขึ้นมาก บริษัทพบว่าการเก็บเงิน 1 ดอลลาร์เริ่มไม่เวิร์ค ด้วยเหตุผลว่าผู้ใช้จำนวนมากไม่มีบัตรเครดิต-เดบิต อีกทั้งสร้างความกังวลว่าใช้งานฟรีแล้ว ถ้าอนาคตไม่ยอมจ่ายก็จะติดต่อกับคนอื่นไม่ได้\nบริษัทบอกว่าปีนี้จะเริ่มหารายได้ด้วยวิธีอื่น เช่น การเปิดให้เราพูดคุยกับบริษัทหรือองค์กรได้ง่ายขึ้น (เช่น คุยกับธนาคารหรือสายการบิน) แต่ยืนยันว่าจะไม่ใช้การโฆษณาอย่างแน่นอน\nที่มา - WhatsApp\n\n", 
    "Date": "18/01/16", 
    "Image-Link": "https://www.blognone.com/sites/default/files/imagecache/news-thumbnail/category_pictures/whatsapp-big.png", 
    "Link": "https://www.blognone.com/node/76849", 
    "News": "WhatsApp เลิกคิดเงิน 1 ดอลลาร์ต่อปี ให้ใช้ฟรีตลอดไป, เตรียมหารายได้วิธีอื่น", 
    "Tags": "Instant Messenger\nWhatsApp\n", 
    "Time": "18:50"
}