{
    "By": "mk", 
    "Contents": "\nโครงการ Fedora เตรียมอำนวยความสะดวกให้ผู้ใช้สามารถอัพเกรดเวอร์ชันของดิสโทรแบบข้ามรุ่นได้ (เช่น จาก Fedora 21 เป็น 23, ข้าม 22 ไปเลย) จากในปัจจุบันที่บังคับให้ผู้ใช้ต้องอัพเกรดไปทีละรุ่นเท่านั้น\nทางทีมงาน Fedora ระบุว่าโครงสร้างของการอัพเกรดในปัจจุบันค่อนข้างเสถียร และที่ผ่านมาทางทีมก็ลองอัพเกรดแบบข้ามรุ่นดู พบว่าส่วนใหญ่สามารถใช้งานได้ดี พอถึงคิวของ Fedora 24 ซึ่งเป็นรุ่นถัดไป ความสามารถนี้จะถูกรับรองอย่างเป็นทางการแล้ว\nFedora 24 มีกำหนดออกตัวจริงวันที่ 31 พฤษภาคม 2016\nที่มา - Fedora, The Register\n", 
    "Date": "18/01/16", 
    "Image-Link": "https://www.blognone.com/sites/default/files/imagecache/news-thumbnail/category_pictures/Logo_fedoralogo.png", 
    "Link": "https://www.blognone.com/node/76852", 
    "News": "Fedora 24 จะรองรับการอัพเกรดแบบข้ามเวอร์ชัน ไม่ต้องอัพเกรดต่อเนื่องแล้ว", 
    "Tags": "Fedora\nLinux\nOpen Source\n", 
    "Time": "21:06"
}