{
    "By": "mk", 
    "Contents": "\nAllie Kline ประธานเจ้าหน้าที่ฝ่ายการตลาดของ AOL (ปัจจุบันเป็นบริษัทในเครือ Verizon) ให้สัมภาษณ์กับ Business Insider บอกว่า \"เป็นไปได้\" ที่เราจะเห็น AOL เลิกใช้แบรนด์ AOL ในอนาคต\nเหตุผลคือแบรนด์ AOL หรือ America Online เป็นแบรนด์ที่ชาวอเมริกันรู้จักเยอะจริง แต่คนกลับจดจำชื่อ AOL ในฐานะอินเทอร์เน็ตผ่านสายโทรศัพท์ (dial-up), บริการอีเมล และโปรแกรมแชท AOL Instant Messenger ซึ่งเป็นผลิตภัณฑ์ในยุคเก่า ในขณะที่บริษัทมีบริการใหม่ๆ อีกมากที่ไม่ได้ใช้ชื่อ AOL เช่น เว็บไซต์อย่าง Engadget, TechCrunch, Huffington Post รวมถึงแผนที่ออนไลน์ MapQuest\nKline บอกว่าปีนี้ AOL ต้องคิดให้หนักว่าตกลงแล้วจะเลือกใช้แบรนด์ใดทำตลาด โดยส่วนตัวแล้วเธอคิดว่าชื่อ AOL ยังมีพลัง แต่ถ้าสุดท้ายบริษัทตัดสินใจว่าจะเลิกใช้ชื่อนี้ ก็มีความเป็นไปได้เช่นกัน\nที่มา - Business Insider\n\n", 
    "Date": "18/01/16", 
    "Image-Link": "https://www.blognone.com/sites/default/files/imagecache/news-thumbnail/category_pictures/aol-logo.png", 
    "Link": "https://www.blognone.com/node/76817", 
    "News": "แบรนด์ไม่แรงพอ - บริษัท AOL อาจเลิกใช้ชื่อแบรนด์ AOL", 
    "Tags": "AOL\nBranding\n", 
    "Time": "8:35"
}