{
    "By": "nuntawat", 
    "Contents": "\nSkype เปิดตัวฟีเจอร์ผนวกการสนทนาด้วยเสียง-วิดีโอแบบกลุ่มบน Slack แล้ว โดยเมื่อกำหนดค่าแล้วผู้ใช้สามารถเริ่มต้นการสนทนาด้วยการพิมพ์ \"/skype\" จากนั้นผู้ใช้คนอื่นในกลุ่มบน Slack จะได้รับการแจ้งเตือนว่ามีการโทรผ่าน Skype\nใครสนใจทดลองใช้รุ่นพรีวิวสามารถเข้าไปศึกษาเพิ่มเติมได้จากหน้าเว็บของ Skype ครับ\nที่มา: Skype Blogs\n", 
    "Date": "18/01/16", 
    "Image-Link": "https://www.blognone.com/sites/default/files/imagecache/news-thumbnail/category_pictures/skype-flat.png", 
    "Link": "https://www.blognone.com/node/76828", 
    "News": "Slack รองรับการสนทนาด้วยเสียง-วิดีโอแบบกลุ่มผ่าน Skype ในตัวแล้ว", 
    "Tags": "Skype\nSlack\nVoIP\n", 
    "Time": "12:26"
}