{
  "By": "mk", 
  "Contents": " Wall Street Journal ออกมาเตือนว่าฟองสบู่สตาร์ตอัพในสหรัฐ กำลังจะแตกในเร็วๆ นี้ แถมตอนนี้ยังมีบริษัทระดับ Unicorn (มูลค่าเกิน 1 พันล้านดอลลาร์) หลายแห่งเริ่มทยอยปลดคนออกแล้ว WSJ พูดถึงกรณี ไตรมาสแรกปี 2016 ไม่มีบริษัทขายหุ้น IPO เลย แต่ในช่วงไตรมาสเดียวกัน การระดมทุนจาก venture capital กลับเพิ่มสูงเป็นประวัติการณ์ โดยอ้างมุมมองของ Keith Rabois นักลงทุนจาก Khosla Ventures ที่เคยผ่านฟองสบู่ดอทคอมปี 2000 มาก่อน (สมัยนั้นเขาเป็นผู้บริหารของ PayPal) ว่าสภาพการณ์คล้ายกัน คือนักลงทุนจะมีช่วง \"ปฏิเสธความจริง\" อยู่ประมาณ 3-4 เดือน เมื่อหมดช่วงนี้แล้ว ภาวะตลาดแตกจะเริ่มต้นขึ้น Rabois ยังบอกว่าภาวะการระดมทุนนอกตลาดครั้งใหญ่ในช่วงนี้ เป็นสัญญาณเตือนภัยว่าบริษัทสตาร์ตอัพกำลังเร่งระดมทุนครั้งสุดท้ายก่อนฟองสบู่แตก (เขาใช้คำว่า Winter is coming) เพื่อถือครองเงินสดเอาไว้ก่อน ก่อนที่ฟองสบู่จะแตกและหาเงินลำบาก ตัวอย่างคือบริษัท Mixpanel เจ้าของระบบเก็บสถิติแอพ ระดมทุนมาได้ 77 ล้านดอลลาร์ แต่ใช้ไปเพียง 10% เท่านั้น เงินที่เหลือยังกองอยู่ในธนาคารด้วยซ้ำ ที่มา - Wall Street Journal    ", 
  "Date": "4/May/2016", 
  "Image-Link": [
    "https://www.blognone.com/sites/default/files/styles/thumbnail/public/topics-images/startup.png?itok=e3SJiAiF", 
    "https://i.imgur.com/qTvtpff.jpg", 
    "/sites/all/themes/blognone42/images/linebutton.png"
  ], 
  "Link": "https://www.blognone.com/node/80602", 
  "News": "Wall Street Journal ชี้ ฟองสบู่สตาร์ตอัพอเมริกาจะแตกในเร็วๆ นี้", 
  "Tags": [
    "Startup", 
    "Wall Street Journal", 
    "Venture Capital"
  ], 
  "Time": "11:31"
}