{
  "By": "mk", 
  "Contents": " เก็บตกข่าวเกมใหม่ในงาน E3 2016 ครับ เกมที่ได้รับความนิยมสูงสุดคงหนีไม่พ้น The Legend of Zelda ภาคใหม่ ที่ได้ชื่อภาคว่า Breath of the Wild มีกำหนดลงเครื่อง Wii U และ NX ในปี 2017 Zelda ภาคนี้เป็นเกมแนว open world ที่มาพร้อมแผนที่โลกขนาดใหญ่มาก ผู้เล่นสามารถควบคุมตัวเอก Link ได้อย่างอิสระ สามารถปีนป่ายต้นไม้ ภูเขา หอคอย อีกทั้งการใช้วัสดุอุปกรณ์ต่างๆ ในการต่อสู้ (ในเทรลเลอร์มีการดันหินกลิ้งทับศัตรู และเผาหญ้า) แถมเกมภาคนี้ยังมีระบบล่าสัตว์และทำอาหารอีกด้วย เนื้อเรื่องของเกมภาค Breath of the Wild ยังไม่เปิดเผยรายละเอียดมากนัก ฉากเริ่มเกมเป็น Link ตื่นขึ้นจากการหลับใหลอันยาวนาน มาพบกับซากอาณาจักร Hyrule ที่ถูกทิ้งร้าง จากพลังของปีศาจร้าย Calamity Ganon เกมภาคนี้ยังรองรับ Amiibo โดยคนที่ซื้อ Amiibo Wolf Link จากภาค Twilight Princess สามารถนำมาใช้กับเกมภาคนี้ โดย Link จะมีหมาป่าเข้ามาเป็นผู้ช่วยด้วย  เทรลเลอร์เปิดตัวเกม วิดีโอสาธิตการใช้งาน Wolf Link วิดีโอสาธิตการล่าสัตว์ หาของป่า ทำอาหาร สำหรับคนที่สนใจเล่นเกมภาคนี้ นินเทนโดมีวิดีโอสาธิตเกมเพลย์ (พร้อมคอมเมนต์ของทีมงาน) ทยอยปล่อยออกมาเรื่อยๆ ใครมีเวลาก็ดูได้จาก YouTube Playlist   ", 
  "Date": "19/June/2016", 
  "Image-Link": [
    "https://www.blognone.com/sites/default/files/styles/thumbnail/public/topics-images/zelda.png?itok=7tCgiTRa", 
    "https://i.imgur.com/UucvCyT.jpg", 
    "/sites/all/themes/blognone42/images/linebutton.png"
  ], 
  "Link": "https://www.blognone.com/node/82430", 
  "News": "[E3] เปิดตัว The Legend of Zelda: Breath of the Wild ออกปี 2017 ทั้งบน Wii U และ NX", 
  "Tags": [
    "Zelda", 
    "Games", 
    "Nintendo", 
    "Nintendo NX", 
    "Wii U"
  ], 
  "Time": "15:45"
}