{
  "By": "nismod", 
  "Contents": " Asus เปิดตัว Zenfone Go TV สมาร์ทโฟนระดับกลางที่รองรับทีวีดิจิทัลมาตรฐาน DVB-T2 ซึ่งเป็นมาตรฐานที่ถูกใช้ในทวีปยุโรป เอเชียรวมทั้งไทย และ ISDB-T ที่ถูกใช้กันเป็นส่วนใหญ่ในทวีปอเมริกาใต้และญี่ปุ่น โดยสเปคมีดังนี้  หน้าจอ TFT LCD ขนาด 5.5 นิ้ว ความละเอียด 720p พร้อมกระจก Gorilla Glass 3 ชิปเซ็ต Snapdragon 400 (Cortex A7/Adreno 305) แรม 2GB ความจุ 16GB/32GB รองรับ micro SD การ์ดสูงสุด 64GB กล้องหลังมี 2 ความละเอียดคือ 8 ล้านและ 13 ล้านพิกเซล พร้อมแฟลชคู่ กล้องหน้า 5 ล้านพิกเซล มาพร้อม Digital TV tuner มาตรฐาน DVB-T, DVB-T2, DVB-T2 Lite, ISDB-T และ ISDB-Tmm รองรับ Wi-Fi, Bluetooth 4.0, 2G, 3G และ LTE รองรับ 2 ซิมพร้อมโหมด dual standby แบตเตอรี่ 3,010 mAH รันแอนดรอยด์ 5.1 ครอบทับด้วย ZenUI   Zenfone Go TV มีให้เลือกทั้งหมด 8 สี และจะวางจำหน่ายในประเทศไทยในราคา 5,990 บาทครับ ที่มา - Liliputing, Asus     ", 
  "Date": "12/May/2016", 
  "Image-Link": [
    "https://www.blognone.com/sites/default/files/styles/thumbnail/public/topics-images/asus.png?itok=Jjx1LVLM", 
    "https://farm8.staticflickr.com/7798/26871980802_cea7046a05_z.jpg", 
    "https://farm8.staticflickr.com/7672/26692703440_5a3b816e11_z.jpg", 
    "/sites/all/themes/blognone42/images/linebutton.png"
  ], 
  "Link": "https://www.blognone.com/node/80888", 
  "News": "Asus เปิดตัว Zenfone Go TV สมาร์ทโฟนรองรับทีวีดิจิทัลในตัว", 
  "Tags": [
    "Zenfone", 
    "ASUS"
  ], 
  "Time": "14:53"
}