{
  "By": "nismod", 
  "Contents": " วิทยาลัยวิศวกรรมศาสตร์ แห่งมหาวิทยาลัยคาร์ดิฟฟ์ (Cardiff university's School of Engineering) ได้คิดค้นเครื่องตรวจวัดระดับน้ำตาลในเลือด ผ่านทางคลื่นไมโครเวฟ โดยไม่จำเป็นต้องใช้เลือดแม้แต่หยดเดียว ซึ่งค่อนข้างเป็นประโยชน์มากสำหรับผู้ป่วยเบาหวานที่ต้องตรวจระดับน้ำตาลในเลือดตลอดทั้งวัน ผู้ป่วยเพียงแค่ติดเครื่องตรวจวัดไว้กับผิวหนังเท่านั้น ก่อนที่ตัวเครื่องจะส่งข้อมูลดิบทั้งหมดไปประมวลและแสดงผลผ่านแอพพลิเคชันบนสมาร์ทโฟน โดยศาสตราจารย์ Adrian Porch หนึ่งในผู้คิดค้นยืนยันถึงความปลอดภัยของของคลื่นไมโครเวฟ เนื่องจากมีระดับต่ำกว่าที่โทรศัพท์มือถือปล่อยออกมาถึงกว่า 1 พันเท่า อย่างไรก็ตามผลงานชิ้นนี้เป็นเพียงต้นแบบเท่านั้น ต้องใช้ระยะเวลาในการทดลองและพัฒนาอีกอย่างน้อย 5 ปี ก่อนที่จะสามารถผลิตออกมาวางจำหน่ายได้ ที่มา - Wales Online via Engadget  ภาพจาก Wales Online   ", 
  "Date": "6/May/2016", 
  "Image-Link": [
    "https://www.blognone.com/sites/default/files/styles/thumbnail/public/news-thumbnails/CardiffUniversityCrest.png?itok=7NXvB29-", 
    "https://farm8.staticflickr.com/7229/26753058032_095b3496b9_z.jpg", 
    "/sites/all/themes/blognone42/images/linebutton.png"
  ], 
  "Link": "https://www.blognone.com/node/80686", 
  "News": "No more blood! ม.คาร์ดิฟโชว์งานวิจัย เครื่องตรวจวัดน้ำตาลในเลือด ผ่านคลื่นไมโครเวฟ", 
  "Tags": [
    "Research", 
    "Medical"
  ], 
  "Time": "15:19"
}