{
  "By": "lew", 
  "Contents": " หลังจากธนาคารแห่งประเทศไทยเปิดตัวพร้อมเพย์ไปเมื่อเช้านี้ ตอนนี้ก็ประกาศค่าธรรมเนียมออกมาแล้ว โดยมีจุดสำคัญคือการโอนเงินไม่เกิน 5,000 บาทจะฟรีทุกรายการ เมื่อจ่ายผ่านอินเทอร์เน็ตและโทรศัพท์มือถือ ส่วนวงเงินเกินนั้นได้แก่  5,000 - 30,000 บาทต่อรายการ ไม่เกินรายการละ 2 บาท 30,000 - 100,000 บาทต่อรายการ ไม่เกินรายการละ 5 บาท 100,000 - วงเงินสูงสุด ไม่เกินรายการละ 10 บาท  ส่วนวงเงินสูงสุดจะขึ้นกับธนาคารเองว่าจะกำหนดเพดานเท่าไหร่ ที่มา - งานแถลงข่าวธนาคารแห่งประเทศไทย    ", 
  "Date": "15/June/2016", 
  "Image-Link": [
    "https://www.blognone.com/sites/default/files/styles/thumbnail/public/topics-images/bot.png?itok=GTizUwNb", 
    "//upic.me/i/yt/132993.jpg", 
    "/sites/all/themes/blognone42/images/linebutton.png"
  ], 
  "Link": "https://www.blognone.com/node/82289", 
  "News": "เปิดค่าธรรมเนียมพร้อมเพย์ ไม่เกิน 5,000 บาทโอนฟรี", 
  "Tags": [
    "Bank of Thailand", 
    "Thailand", 
    "Mobile Payment"
  ], 
  "Time": "14:29"
}