{
  "By": "mk", 
  "Contents": " เมื่อคืนนี้ บัญชี Twitter และ Pinterest ของคนดังอย่าง Mark Zuckerberg โดนแฮ็ก แต่หลังจากเป็นข่าว ทั้งสองบริการก็แก้ปัญหาและนำข้อมูลกลับคืนมาปกติแล้ว กลุ่มแฮ็กเกอร์ OurMine โพสต์ข้อความลงบัญชีของ Zuckerberg ระบุว่าได้รหัสผ่านของเขามาจากบัญชี LinkedIn ที่ถูกเจาะในปี 2012 และเพิ่งถูกเผยแพร่ต่อสาธารณะ เหตุการณ์นี้แสดงให้เห็นปัญหาของการใช้รหัสผ่านซ้ำกันระหว่างบริการหลายตัว (ซึ่งหลายคนก็ทราบเรื่องนี้ดี แต่ความสะดวกในการจดจำก็เป็นปัจจัยหนึ่ง) Zuckerberg เคยโพสต์ข้อความลง Twitter เพียง 19 ทวีต (ครั้งสุดท้ายเมื่อปี 2012) และปักหมุดใน Pinterest เพียง 4 ครั้งเท่านั้น ที่มา - VentureBeat Ouch. Mark Zuckerberg's social media accounts have been hacked pic.twitter.com/KvVmXOIg5s — Ben Hall (@Ben_Hall) June 5, 2016    ", 
  "Date": "6/June/2016", 
  "Image-Link": [
    "https://www.blognone.com/sites/default/files/styles/thumbnail/public/topics-images/zuck.png?itok=kocAZM9K", 
    "https://i.imgur.com/rEjZjUx.png", 
    "/sites/all/themes/blognone42/images/linebutton.png"
  ], 
  "Link": "https://www.blognone.com/node/81881", 
  "News": "Mark Zuckerberg ถูกแฮ็กบัญชี Twitter/Pinterest คาดมาจากรหัสผ่าน LinkedIn", 
  "Tags": [
    "Mark Zuckerberg", 
    "Twitter", 
    "Pinterest", 
    "LinkedIn", 
    "Hacking"
  ], 
  "Time": "08:29"
}