{
  "By": "nismod", 
  "Contents": " หลังเปิดให้ทุกคนร่วมเสนอชื่อ Android N ไปในช่วงงาน Google I/O และปิดการร่วมสนุกไปเมื่อวานนี้ ล่าสุดแอคเคาท์ Android บนทวิตเตอร์และ Google+ โพสต์ประกาศว่าจะเปิดเผยชื่อโค้ดเนมของ Android N ในอีกไม่กี่สัปดาห์ข้างหน้านี้ (a few weeks) ทั้งนี้ก่อนหน้านี้เคยมีรายงานว่า Android N มีโค้ดเนมที่ถูกเรียกเป็นการภายในว่า New York Cheesecake ซึ่งก็อย่างที่ทราบกันว่าชื่อโค้ดเนมที่ใช้จริงนั้น จะเป็นคนละชื่อกับที่ใช้เรียกเป็นการภายในและหลุดออกมาก่อนเสมอ ที่มา - GSMArena Thanks for your submissions. We’ll reveal the new name in a few weeks! #NameAndroidNhttps://t.co/qLtDZJNe9y — Android (@Android) June 8, 2016    ", 
  "Date": "9/June/2016", 
  "Image-Link": [
    "https://www.blognone.com/sites/default/files/styles/thumbnail/public/topics-images/nougat.png?itok=g2Ax37hW", 
    "/sites/all/themes/blognone42/images/linebutton.png"
  ], 
  "Link": "https://www.blognone.com/node/82057", 
  "News": "Google เผยเตรียมประกาศโค้ดเนม Android N ในอีกไม่กี่สัปดาห์ข้างหน้า", 
  "Tags": [
    "Nougat", 
    "Google", 
    "Android"
  ], 
  "Time": "12:50"
}