{
  "By": "mk", 
  "Contents": " Google App Engine เริ่มรองรับการพัฒนาโปรแกรมด้วยภาษา Ruby แล้ว สถานะตอนนี้ยังเป็นขั้น Beta แต่นักพัฒนาก็สามารถใช้เฟรมเวิร์คยอดนิยมอย่าง Rails หรือ  Sinatra ได้แล้ว การใช้งาน Ruby บน App Engine ยังสามารถใช้แพ็กเกจ gcloud เพื่อเข้าถึงฟีเจอร์ต่างๆ ของ Google Cloud Platform (เช่น BigQuery หรือ Cloud Datastore) ได้ทันที นอกจากนี้กูเกิลยังเปิดซอร์สตัวซอฟต์แวร์ทั้งหมดที่ใช้รัน Ruby บน App Engine ต่อสาธารณะด้วย ก่อนหน้านี้ App Engine รองรับการพัฒนาด้วยภาษา Python, Java, Go ตามด้วย PHP และ Node.js รวมทั้งหมด 5 ภาษา ส่วน Ruby นับเป็นภาษาที่หกครับ ที่มา - Google Cloud Platform Blog   ", 
  "Date": "7/May/2016", 
  "Image-Link": [
    "https://www.blognone.com/sites/default/files/styles/thumbnail/public/topics-images/ruby.png?itok=AGV8sdqo", 
    "/sites/all/themes/blognone42/images/linebutton.png"
  ], 
  "Link": "https://www.blognone.com/node/80720", 
  "News": "Google App Engine รองรับภาษา Ruby แล้ว", 
  "Tags": [
    "Ruby", 
    "App Engine", 
    "Google Cloud Platform", 
    "Programming"
  ], 
  "Time": "23:07"
}