{
  "By": "mk", 
  "Contents": " แอปเปิลประกาศรายชื่ออุปกรณ์ที่จะได้อัพเกรดเป็น iOS 10 ผลคือมีอุปกรณ์สาย iOS หลายตัวที่ได้อัพเกรดต่อเนื่องมานาน แต่สุดท้ายก็ต้องหยุดที่ iOS 9 เท่านั้น  iPhone: iPhone ตั้งแต่ 4S ลงไปจะไม่ได้อัพเกรด, ได้อัพที่ iPhone 5 หรือใหม่กว่า iPad: iPad 2-3 จะไม่ได้อัพเกรด, ได้อัพที่ iPad 4 หรือใหม่กว่า (รวม iPad Air และ iPad Pro) iPad mini: iPad mini รุ่นแรกไม่ได้อัพเกรด, ได้อัพที่ iPad mini 2 หรือใหม่กว่า iPod touch: iPod touch 5th gen จะไม่ได้อัพเกรด, เหลือเพียง iPod touch 6th gen เท่านั้นที่ได้ไปต่อ   ภาพจาก @dcseifert   ", 
  "Date": "14/June/2016", 
  "Image-Link": [
    "https://www.blognone.com/sites/default/files/styles/thumbnail/public/topics-images/ios10.png?itok=sLxwnpuP", 
    "http://i.imgur.com/d9TSNew.jpg", 
    "/sites/all/themes/blognone42/images/linebutton.png"
  ], 
  "Link": "https://www.blognone.com/node/82215", 
  "News": "ลาก่อน iPad 2-3, iPhone 4S, iPad mini รุ่นแรก ไม่ได้อัพเกรดเป็น iOS 10", 
  "Tags": [
    "iOS 10", 
    "iOS", 
    "Apple", 
    "iPhone 4S", 
    "iPad mini", 
    "iPad 2", 
    "iPad 3"
  ], 
  "Time": "01:58"
}