{
    "By": "Blltz", 
    "Contents": "\nหลังจากเลื่อนแล้วเลื่อนอีกจากกำหนดการเดิมช่วงปลายปี 2015 มาเป็นต้นปี 2016 (ก่อนจะบอกทีหลังว่าเป็นเดือนกุมภาพันธ์) ล่าสุด Comcept บริษัทต้นสังกัดของ Mighty No. 9 เกมสานต่อเจตนารมณ์ของซีรีส์ Rockman ก็ประกาศเลื่อนวันวางขายเกมออกไปอีกเป็นรอบที่สามแล้ว\nเหตุผลที่ทาง Comcept ออกมาประกาศเลื่อนในครั้งนี้เกิดจากความล่าช้าในการจัดการบั๊กสำคัญในโหมดเล่นหลายคน และฟีเจอร์สำหรับการจับคู่ผู้เล่น โดยระบุว่าปัญหาเหล่านี้มาจากสองสาเหตุใหญ่ๆ คือการรองรับหลายแพลตฟอร์ม และการต้องเขียนโค้ดส่วนนี้ด้วยตัวเองเนื่องจากเอนจินที่ใช้นั้นไม่รองรับฟีเจอร์ดังกล่าว\nจากปัญหาที่ว่ามา ทาง Comcept ยังไม่อาจระบุวันวางขายอย่างเป็นทางการได้ แต่ก็พยายามจะทำให้แล้วเสร็จภายในฤดูใบไม้ผลิของปี 2016 นี้ (ประมาณเดือนมีนาคมเป็นต้นไป)\nที่มา - Kickstarter\n\n", 
    "Date": "25/01/16", 
    "Image-Link": "https://www.blognone.com/sites/default/files/imagecache/news-thumbnail/news-thumbnails/photo-original_0.png", 
    "Link": "https://www.blognone.com/node/77090", 
    "News": "Mighty No. 9 ประกาศเลื่อนวันขายอีกรอบ อย่างเร็วเดือนมีนาคม 2016", 
    "Tags": "Comcept\nGames\n", 
    "Time": "23:10"
}