{
    "By": "lew", 
    "Contents": "\nชีวิตคนดังอย่าง Snowden อาจจะต้องเจอเรื่องแปลกๆ มากมาย เมื่อสัปดาห์ที่แล้วเขาทวีตแจ้งแฟนคลับสาวๆ ว่าขอบคุณสำหรับ \"ของขวัญคริสต์มาส\" พร้อมกับย้ำว่าเขามีหมายจับติดตัวและมีแฟนแล้ว\nคาดว่าของขวัญเหล่านั้นคือภาพนู้ดของสาวๆ ทั่วโลกที่ส่งไปให้ Snowden อย่างไรก็ดีตัวเขาเองตอบกลับนักข่าวว่าเขาไม่สามารถ \"ยืนยันหรือปฎิเสธ\" ได้ว่าของขวัญเหล่านั้นคืออะไร\nที่มา - Motherboard\nThe \"Christmas presents\" are flattering, ladies, but the FBI has a warrant. #AndIHaveAGirl\n— Edward Snowden (@Snowden) January 18, 2016\n", 
    "Date": "25/01/16", 
    "Image-Link": "https://www.blognone.com/sites/default/files/imagecache/news-thumbnail/category_pictures/snowden.jpg", 
    "Link": "https://www.blognone.com/node/77073", 
    "News": "Snowden ย้ำ \"ผมมีแฟนแล้ว\" หลังได้ของขวัญคริสต์มาสจากแฟนคลับ", 
    "Tags": "Edward Snowden\n", 
    "Time": "13:06"
}