{
    "By": "lew", 
    "Contents": "\nเว็บ TorrentFreak รายงานถึงไฟล์ทอร์เรนต์ที่เก่าที่สุดในโลก เป็นไฟล์หนัง The Matrix เวอร์ชั่น ASCII ที่ปล่อยไฟล์มาตั้งแต่ 20 ธันวาคม 2003 รวมระยะเวลาจนถึงตอนนี้นานกว่า 4,400 วันแล้ว แม้แต่เว็บไซต์ของผู้สร้างไฟล์คนแรกก็ถูกปิดไปแล้ว แต่ตัวไฟล์ยังคงมีการแพร่กระจายต่อเนื่อง ล่าสุดมี seeder อยู่ 8 ราย\nตัวเลขจำนวนผู้ดาวน์โหลดไฟล์นี้ไม่มากนัก ผู้สร้างรวบรวมตัวเลขไว้เมื่อปี 2008 ระบุว่ามีจำนวนดาวน์โหลดเพียง 7,000 รายเท่านั้น จนถึงตอนนี้ก็น่าจะไม่กี่หมื่นรายเท่านั้น\nBitTorrent ออกเวอร์ชั่นแรกเมื่อปี 2001 หรือ 14 ปีก่อน\nที่มา - TorrentFreak\n\n", 
    "Date": "25/01/16", 
    "Image-Link": "https://www.blognone.com/sites/default/files/imagecache/news-thumbnail/category_pictures/bittorrent-new.png", 
    "Link": "https://www.blognone.com/node/77074", 
    "News": "ไฟล์ Torrent ที่เก่าที่สุดในโลกยังมี seeder 8 รายหลังปล่อยไฟล์ 12 ปี", 
    "Tags": "BitTorrent\n", 
    "Time": "13:16"
}