{
    "By": "lew", 
    "Contents": "\nรัฐบาลญี่ปุ่นระกาศแผนเพิ่มบุคลากรในศูนย์เตรียมความพร้อมรับมือภัยไซเบอร์ (National Center of Incident Readiness and Strategy for Cybersecurity - NISC) อีก 40 อัตราจากตอนนี้ที่มีเจ้าหน้าที่แล้ว 140 คน พร้อมกับเตรียมเพิ่มกรรมการปกป้องข้อมูลส่วนบุคคล ที่วางตำแหน่งไว้ 9 คนรวมประธานแต่ตอนนี้มีกรรมการ 5 คน\nปีที่แล้วหน่วยสวัสดิการบำนาญญี่ปุ่นถูกโจมตีจนมีข้อมูลส่วนตัวรั่วไหลจำนวนมาก ขณะเดียวกันรัฐบาลก็ต้องการขยายความสามารถในการสอดส่องออนไลน์ให้มากขึ้น\nตำแหน่งที่เพิ่มขึ้นมา 40 ตำแหน่งจะดึงตัวมาจากเอกชน 18 คน ขณะเดียวกันก็จะส่งเจ้าหน้าที่เดิมไปอบรมในภาคเอกชนด้วย\nที่มา - Japan Times\n", 
    "Date": "25/01/16", 
    "Image-Link": "https://www.blognone.com/sites/default/files/imagecache/news-thumbnail/category_pictures/japan.png", 
    "Link": "https://www.blognone.com/node/77089", 
    "News": "รัฐบาลญี่ปุ่นเตรียมเพิ่มบุคลากรในศูนย์รับมือภัยไซเบอร์อีก 40 ตำแหน่ง", 
    "Tags": "Government\nJapan\n", 
    "Time": "22:47"
}