{
    "By": "lew", 
    "Contents": "\nIndia Times รายงานถึงสามองค์กรขนาดใหญ่ถูกโจมตีด้วยมัลแวร์เข้ารหัสข้อมูลเรียกค่าไถ่ (ransomware) โดยยังไม่สามารถยืนยันรายชื่อของบริษัทที่ถูกโจมตีครั้งนี้ได้\nMukul Shrivastava เจ้าหน้าที่สอบสวนของ Ernst & Young ระบุถึงเหตุการณ์ครั้งนี้ว่าบางบริษัทต้องยอมจ่ายเงินเพื่อปลดล็อกคอมพิวเตอร์ของผู้บริหาร บางกรณีต้องปลดทีละ 15 เครื่อง\nมัลแวร์ที่ระบาดในอินเดียครั้งนี้คือ Lechiffre มันเรียกค่าไถ่ข้อมูล 1 BTC หรือประมาณ 400 ดอลลาร์สหรัฐฯ\nที่มา - India Times\n", 
    "Date": "25/01/16", 
    "Image-Link": "https://www.blognone.com/sites/default/files/imagecache/news-thumbnail/category_pictures/india.png", 
    "Link": "https://www.blognone.com/node/77075", 
    "News": "Ransomware เล่นงานธนาคาร 3 แห่งและบริษัทยาอีกแห่งในอินเดียช่วงปีใหม่", 
    "Tags": "India\nRansomware\nSecurity\n", 
    "Time": "13:38"
}