{
  "By": "nrad6949", 
  "Contents": " เมื่อวานนี้ที่อินเดีย MediaTek บริษัทผู้ผลิตชิปจากไต้หวัน ประกาศความร่วมมือกับ Intex บริษัทผลิตสินค้าอิเล็กทรอนิกส์ของอินเดีย เปิดตัวนาฬิกาอัจฉริยะสองรุ่นคือ iRist Junior และ iRist Pro ทั้งสองตัวใช้หน่วยประมวลผลจากทาง MediaTek โดยรุ่น Junior ใช้หน่วยประมวลผลเป็น MT6261 ที่มี GPS ซึ่งทำให้ผู้ปกครองติดตามได้ว่าบุตรหลานกำลังอยู่ที่ใด, ผ่านมาตรฐานกันน้ำกันฝุ่น IP65, หน้าจอขนาด 0.96 นิ้ว แบตเตอรี่ความจุ 580 mAh และหนัก 48.5 กรัม รองรับทั้ง Android และ iOS ส่วนรุ่น Pro ใช้หน่วยประมวลผล MT2502 เชื่อมต่อกับสมาร์ทโฟนด้วย Bluetooth 4.0 และกันน้ำ โดยรองรับเฉพาะ Android ตั้งแต่รุ่น KitKat เป็นต้นไปเท่านั้น ไม่ระบุระบบปฏิบัติการทั้งสองรุ่น iRist Junior จะขายในราคา 3,999 รูปี ส่วนรุ่น Pro ยังไม่ระบุแต่อย่างใด ที่มา - Deccan Chronicle, Gadgets 360     ", 
  "Date": "13/May/2016", 
  "Image-Link": [
    "https://www.blognone.com/sites/default/files/styles/thumbnail/public/topics-images/mediatek.png?itok=xxVkjLla", 
    "https://i.imgur.com/iSmfmO3.jpg", 
    "https://i.imgur.com/EvhMXfa.jpg", 
    "/sites/all/themes/blognone42/images/linebutton.png"
  ], 
  "Link": "https://www.blognone.com/node/80925", 
  "News": "MediaTek ประกาศความร่วมมือกับ Intex เปิดตัวนาฬิกา iRist Junior และ iRist Pro", 
  "Tags": [
    "MediaTek", 
    "Intex", 
    "Wearable Computing", 
    "India"
  ], 
  "Time": "10:51"
}