{
  "By": "arjin", 
  "Contents": " Netflix ได้ปรับไอคอนตัวใหม่สำหรับใช้บนแอพ ตลอดจนรูปภาพประจำตัวในหน้า Facebook และ Twitter วันนี้ โดยเหลืออักษร N เพียงตัวเดียว ที่มีลักษณะเหมือนผืนพรมแดง ที่น่าสนใจคือ Netflix ระบุว่าโลโก้ของบริษัทยังคงเป็นแบบเดิม (ที่เป็นตัวอักษรคำว่า Netflix) แต่ที่สร้างไอคอน N ตัวเดียวเพิ่มขึ้นมา เพื่อนำมาใช้กับแอพมือถือ ตลอดจนผลิตภัณฑ์ใหม่ๆ ในอนาคต มีข้อสังเกตว่าการตัดให้เหลือ N ตัวเดียว จะเหมาะสมกับพื้นที่บนไอคอนสี่เหลี่ยมจัตุรัสมากกว่าแบบเดิม ที่คำเต็มสร้างพื้นที่ว่างค่อนข้างมาก ที่มา: The Next Web    ", 
  "Date": "21/June/2016", 
  "Image-Link": [
    "https://www.blognone.com/sites/default/files/styles/thumbnail/public/news-thumbnails/13502563_10153696123838870_522765110773053650_o.png?itok=MbO2Ci-x", 
    "http://i.imgur.com/SteFLAk.jpg", 
    "/sites/all/themes/blognone42/images/linebutton.png"
  ], 
  "Link": "https://www.blognone.com/node/82481", 
  "News": "Netflix เปิดตัวไอคอนใหม่ เหลืออักษร N ตัวเดียว", 
  "Tags": [
    "Netflix", 
    "Design", 
    "Logo", 
    "Branding"
  ], 
  "Time": "06:31"
}