{
  "By": "nrad6949", 
  "Contents": " เมื่อสัปดาห์ที่แล้วเราเห็นข่าวการทดลองเอา Windows 95 ขึ้นไปรันบน Apple Watch แล้ว มาคราวนี้ผู้ใช้งาน YouTube ที่มีชื่อว่า \"Hacking Jules\" ได้ทดลองทำแบบเดียวกัน โดยเปลี่ยนมาเป็นระบบปฏิบัติการ Windows 7 และใช้งานอยู่บน LG G Watch จากวิดีโอดังกล่าว (ดูได้ท้ายข่าว) จะเห็นว่า Windows 7 สามารถบูตขึ้นได้ โดยใช้ Bochs Emulator ที่มีอยู่บน Android แล้ว sideload เข้าไป ก่อนที่จะติดตั้ง Windows 7 และสามารถทำงานได้ อย่างไรก็ตาม ขั้นตอนในการบูตเข้าสู่ Windows 7 นั้นกินเวลายาวนานถึง 3 ชั่วโมง เป็นระยะเวลายาวนานกว่าจะใช้งานได้จริงครับ ส่วนใครที่มีนาฬิการุ่นนี้แล้วอยากลองใช้ ก็สามารถดูขั้นตอนได้จากที่มาครับ ที่มา - The Verge   ", 
  "Date": "14/May/2016", 
  "Image-Link": [
    "https://www.blognone.com/sites/default/files/styles/thumbnail/public/topics-images/Windows_7_logo.png?itok=Ba-f2DIX", 
    "/sites/all/themes/blognone42/images/linebutton.png"
  ], 
  "Link": "https://www.blognone.com/node/80969", 
  "News": "แฮกเกอร์พอร์ต Windows 7 ขึ้นไปรันบน LG G Watch ได้สำเร็จ ใช้เวลาบูตนาน 3 ชั่วโมง", 
  "Tags": [
    "Windows 7", 
    "Android Wear", 
    "Hacking", 
    "Windows", 
    "Wearable Computing"
  ], 
  "Time": "08:51"
}