{
  "By": "sunnywalker", 
  "Contents": " WhatsApp อาจมีแอพเวอร์ชัน Windows และ OS X ให้ดาวน์โหลดกันในเร็วๆ นี้ ต้นตอมาจากบัญชีทวิตเตอร์ชื่อว่า WABetaInfo โพสต์รูปที่แคปเจอร์จากหน้าจอที่ดูเหมือนเป็นวิธีดาวน์โหลด WhatsApp สำหรับ OS X ปัจจุบัน WhatsApp มีแอพอยู่แล้วบน Android, iOS, Windows Phone, BlackBerry OS, Nokia และ Symbian ซึ่งถ้าเพิ่มเวอร์ชัน Windows และ OS X เข้ามาด้วยจริง ก็น่าจะต่อยอดการซิงค์ได้ทุกอุปกรณ์โดยใช้เพียงหมายเลขโทรศัพท์เช่นเดิม ที่มา - androidpolice    ", 
  "Date": "2/May/2016", 
  "Image-Link": [
    "https://www.blognone.com/sites/default/files/styles/thumbnail/public/topics-images/whatsapp.png?itok=KzSwXlnq", 
    "http://i.imgur.com/Rnfd7oZ.jpg", 
    "/sites/all/themes/blognone42/images/linebutton.png"
  ], 
  "Link": "https://www.blognone.com/node/80524", 
  "News": "[ยังไม่ยืนยัน] WhatsApp อาจขยายการใช้งานครอบคลุม Windows และ OS X", 
  "Tags": [
    "WhatsApp", 
    "Windows", 
    "OS X", 
    "Rumor"
  ], 
  "Time": "15:07"
}