{
  "By": "lew", 
  "Contents": " ไมโครซอฟท์ประกาศเปิดบริการแบบจ่ายรายเดือนสำหรับ Windows 10 และ Surface Windows 10 Enterprise E3 for CSP จะขายผ่าน Cloud Service Provider (CSP) ที่ราคาเดือนละ 7 ดอลลาร์ ทำให้ CSP ของไมโครซอฟท์สามารถดูแลซอฟต์แวร์ทั้งชุด ตั้งแต่ Windows 10, Office 365, Dynamics, และ CRM ลูกค้าองค์กรสามารถเช่าใช้งานได้ทั้งหมด อีกชิ้นคือโครงการ Surface as a Service ที่เปิดให้ CSP ที่ขาย Surface อยู่แล้วสามารถนำเสนอการเช่าใช้ Surface เพิ่มเติม เพื่อให้เครื่องได้รับการอัพเกรดตามรอบตลอดเวลา โดยโครงการนี้ไม่ได้เปิดเผยค่าใช้จ่ายแต่อย่างใด ที่มา - Windows Blog   ", 
  "Date": "12/July/2016", 
  "Image-Link": [
    "https://www.blognone.com/sites/default/files/styles/thumbnail/public/topics-images/Windows.png?itok=NOR9DN0E", 
    "/sites/all/themes/blognone42/images/linebutton.png"
  ], 
  "Link": "https://www.blognone.com/node/83353", 
  "News": "ไมโครซอฟท์เปิดให้เช่า Windows 10 เดือนละ 7 ดอลลาร์ และ Surface รายเดือนสำหรับลูกค้าองค์กร", 
  "Tags": [
    "Windows", 
    "Microsoft", 
    "Enterprise"
  ], 
  "Time": "22:28"
}