{
  "By": "mk", 
  "Contents": " หลายคนแถวนี้คงเคยใช้ Atom Text Editor สำหรับเขียนโปรแกรม ที่พัฒนาโดย GitHub จริงๆ แล้วเบื้องหลังของ Atom คือเอนจินสำหรับสร้างแอพบนเดสก์ท็อปด้วย HTML/JavaScript ที่ตั้งชื่อล้อกันว่า Electron Electron เกิดมาเพื่อเป็นฐานให้ Atom แต่ภายหลังก็ถูกแอพชื่อดังตัวอื่นๆ นำไปใช้งานต่อด้วย ที่โด่งดังหน่อยคือ Slack และ Visual Studio Code ของไมโครซอฟท์ สถิติล่าสุดมีคนดาวน์โหลด Electron ไปใช้งานแล้ว 1.2 ล้านครั้ง ล่าสุดทางทีมพัฒนา Electron ประกาศออกเวอร์ชัน 1.0 เรียบร้อยแล้ว ถือเป็นเวอร์ชันเสถียรเวอร์ชันแรก ส่งผลให้ API เสถียรและเปลี่ยนแปลงน้อยลง ซึ่งน่าจะช่วยให้คนนำ Electron ไปใช้งานต่อยอดมากยิ่งขึ้น ที่มา - Electron   ", 
  "Date": "12/May/2016", 
  "Image-Link": [
    "https://www.blognone.com/sites/default/files/styles/thumbnail/public/topics-images/electron.png?itok=sglq00zf", 
    "/sites/all/themes/blognone42/images/linebutton.png"
  ], 
  "Link": "https://www.blognone.com/node/80886", 
  "News": "Electron เฟรมเวิร์คสำหรับสร้างแอพเดสก์ท็อปด้วย HTML ออกเวอร์ชัน 1.0 แล้ว", 
  "Tags": [
    "Electron", 
    "Atom Text Editor", 
    "Development", 
    "Open Source"
  ], 
  "Time": "14:26"
}