{
  "By": "Job_The_Gamer", 
  "Contents": " ไมโครซอฟท์ออกอัพเดตให้กับตัวแก้ไขซอร์สโค้ดโอเพนซอร์ส Visual Studio Code ขยับเลขเวอร์ชันเป็นรุ่น 1.3 โดยได้เพิ่มฟีเจอร์ใหญ่อย่างการเพิ่มแท็บสำหรับหน้าต่าง editor ช่วยจัดระเบียบ workbench ให้ใช้งานได้สะดวกขึ้น และเพิ่มหน้าจัดการ extension ช่วยให้สามารถค้นหาและติดตั้งและอัพเดตส่วนเสริมที่ต้องการได้จาก VS Code เลย (แต่ก่อนต้องค้นหาผ่าน Visual Studio Marketplace แล้วก็อปปี้คำสั่งติดตั้งมาใช้บน VS Code อีกที) สำหรับการปรับปรุงทั้งหมดที่ไมโครซอฟท์ยกให้เป็นไฮไลท์ของการอัพเดตครั้งนี้มีดังนี้  Tabs: เพิ่มแท็บบน editor pane ช่วยจัดระเบียบ workbench และช่วยให้เข้าถึงไฟล์ที่ทำงานอยู่ได้สะดวกขึ้น     Extensions: เพิ่มหน้าจัดการ extension ในตัว ช่วยให้ค้นหา, ติดตั้งและจัดการส่วนเสริมได้ง่ายขึ้น    Workbench:  ", 
  "Date": "9/July/2016", 
  "Image-Link": [
    "https://www.blognone.com/sites/default/files/styles/thumbnail/public/topics-images/visual-studio.png?itok=4xhSPRT6", 
    "https://lh3.googleusercontent.com/-y9QIKH6d7RM/V4DfoN_nvzI/AAAAAAAAAv0/jlFctcNRXhAnSbdOx5q5iDxAMjS2aDZUACCo/s640/VSCode13_tabs.png", 
    "https://lh3.googleusercontent.com/-LvZdOJuFpdY/V4Dfvkx5scI/AAAAAAAAAvw/7Vq-AXtOBU4BfpHtdIx2BG7WghMv-pKxgCCo/s640/VSCode13_extensions_view.png"
  ], 
  "Link": "https://www.blognone.com/node/83221", 
  "News": "Visual Studio Code ออกเวอร์ชัน 1.3 เพิ่มแท็บสำหรับ editor และตัวจัดการ extension", 
  "Tags": [
    "Visual Studio", 
    "Microsoft", 
    "Development"
  ], 
  "Time": "18:37"
}