{
  "By": "nrad6949", 
  "Contents": " ที่งาน Google I/O ประจำปีนี้ Google ประกาศเปิดตัว Android Wear 2.0 ซึ่งจะถือเป็นอัพเดตใหญ่ครั้งแรกและเตรียมที่จะออกในปลายปีนี้ แต่คำถามก็คือ อุปกรณ์สาย Android Wear ทุกรุ่นจะได้อัพเดต 2.0 รุ่นนี้หรือไม่ ซึ่งเว็บไซต์รายงานข่าวไอทีสาย Google อย่าง 9to5Google ก็ออกมาเปิดเผยข้อมูลที่รวบรวมมาจากผู้ใช้ใน Reddit แล้วว่า อุปกรณ์บางรุ่นจากบางผู้ผลิตจะไม่ได้รับอัพเดตดังกล่าวนี้ จากรายชื่ออุปกรณ์ที่ถูกเปิดเผยออกมา (ดูได้ที่มา) ส่วนมากจะอยู่ในสถานะที่ไม่ชัดเจน (remains unclear) ไม่ว่าจะเป็น Sony SmartWatch 3, Moto 360 รุ่นแรก หรือ Samsung Gear Live ยกเว้น LG G Watch รุ่นแรก (จอสี่เหลี่ยม) ที่ได้รับการยืนยันจากทาง LG แน่นอนแล้วว่าจะไม่ได้รับอัพเดตดังกล่าวนี้ ส่วนอุปกรณ์ที่ได้รับการยืนยันว่าจะได้รับอัพเดตแน่นอนมีทั้ง Huawei Watch, LG G Watch Urbane รุ่นที่สอง (สองรุ่นนี้มี Developer Preview) และ TAG Heuer Carrera Connected ครับ ที่มา - Reddit ผ่าน 9to5Google    ", 
  "Date": "29/May/2016", 
  "Image-Link": [
    "https://www.blognone.com/sites/default/files/styles/thumbnail/public/topics-images/android-wear.png?itok=3cTHcWDj", 
    "https://i.imgur.com/Kkow3zc.jpg", 
    "/sites/all/themes/blognone42/images/linebutton.png"
  ], 
  "Link": "https://www.blognone.com/node/81558", 
  "News": "9to5Google ระบุ อุปกรณ์สาย Android Wear บางรุ่นจะไม่ได้อัพเดต 2.0", 
  "Tags": [
    "Android Wear", 
    "Google", 
    "Android", 
    "Wearable Computing"
  ], 
  "Time": "09:36"
}