{
  "By": "nrad6949", 
  "Contents": " เมื่อวันพุธที่ผ่านมา Kosta Kartsotis ซีอีโอของ Fossil บริษัทผู้ผลิตสินค้าแฟชั่นและนาฬิกาจากสหรัฐอเมริกา ออกมาระบุกับสื่อมวลชนระหว่างการประชุมนักวิเคราะห์และสื่อมวลชนถึงตัวเลขผลประกอบการว่า สินค้าในกลุ่มอุปกรณ์ไอทีแบบสวมใส่ โดยเฉพาะอย่างยิ่ง Apple Watch และ Fitbit กำลังคุกคามตลาดนาฬิกาแบบดั้งเดิม เขาระบุว่าความสนใจในนาฬิกาแบบดั้งเดิมนั้นลดน้อยลง ขณะที่สินค้าอุปกรณ์ไอทีแบบสวมใส่ได้รับความสนใจมากขึ้น ส่วนหนึ่งเป็นเพราะสื่อและการประชาสัมพันธ์ที่ทำให้อุปกรณ์เหล่านี้อยู่ในความสนใจจากสาธารณะ ด้าน Greg McKelvey ประธานเจ้าหน้าที่ฝ่ายกลยุทธ์และดิจิทัลของบริษัท ออกมาระบุว่าบริษัทเชื่อในแพลตฟอร์มอย่าง Android Wear และยังคงจะทำนาฬิกาในสายนี้ต่อไป ทั้งในผลิตภัณฑ์แบรนด์ Fossil Q ของบริษัทเอง และ Michael Kors Access ที่บริษัทจะผลิตให้ ทั้งนี้ ในการประชุมดังกล่าว ซีอีโอของบริษัทระบุว่าความสนใจในนาฬิกาของบริษัทนั้นลดลง และคาดว่ากำไรในไตรมาสที่ 2 ของปีนี้ จะอยู่ที่เพียง 0 ถึง 15 เซนต์ต่อหุ้นเท่านั้น ข่าวนี้ทำให้ราคาหุ้นของบริษัทร่วงลงถึง 29% และราคาหุ้นของแบรนด์ที่ผลิตให้อย่าง Michael Kors ก็ลงไปกว่า 12% ที่มา - Investor's Business Daily    ", 
  "Date": "13/May/2016", 
  "Image-Link": [
    "https://www.blognone.com/sites/default/files/styles/thumbnail/public/topics-images/fossil-logo.png?itok=JIFI9ATT", 
    "https://farm2.staticflickr.com/1519/26200780710_439b2d9e25_z.jpg", 
    "/sites/all/themes/blognone42/images/linebutton.png"
  ], 
  "Link": "https://www.blognone.com/node/80920", 
  "News": "ซีอีโอ Fossil ยอมรับ อุปกรณ์ไอทีแบบสวมใส่กำลังคุกคามตลาดนาฬิกาแบบดั้งเดิม", 
  "Tags": [
    "Fossil", 
    "Wearable Computing", 
    "Smart Watch", 
    "Fashion"
  ], 
  "Time": "09:52"
}