{
  "By": "ตะโร่งโต้ง", 
  "Contents": " ในฐานะที่เป็นผู้ผลิตกล้องรายหนึ่ง Sony เองก็มีการคิดค้นวิจัยงานพัฒนาการถ่ายภาพอยู่เรื่อย ล่าสุดก็ได้ยื่นจดสิทธิบัตรว่าด้วยการถ่ายภาพแบบสุดล้ำ มันคือสิทธิบัตรคอนแทคเลนส์ที่ถ่ายภาพได้เมื่อผู้ใช้กะพริบตา ความคิดของ Sony คือการยัดกล้องถ่ายรูปเข้าไปกระจุกอยู่ในคอนแทคเลนส์ให้ได้ ไม่ว่าจะเป็นเลนส์ถ่ายภาพ, ส่วนรับภาพ, เซ็นเซอร์, จอแสดงผล, ส่วนบันทึกข้อมูล, ส่วนสื่อสารไร้สาย, แบตเตอรี่, หน่วยประมวลผล ร่วมด้วยแผงวงจรและระบบควบคุมเพื่อการปรับเลนส์และส่วนรับภาพ โดยทั้งหมดที่ว่ามานี้ไม่เพียงแต่จะต้องเล็กจนสามารถจัดวางไว้ด้วยกันให้อยู่ในคอนแทคเลนส์ได้แล้ว ยังต้องเล็กจิ๋วขนาดที่จะแน่ใจได้ว่าไม่ไปบดบังการรับภาพผ่านทางรูม่านตาของผู้ใช้ด้วย ยกเว้นก็แต่เพียงจอแสดงผลเท่านั้นที่จะมีลักษณะโปร่งใสและถูกวางไว้ปิดทับรอบรูม่านตาโดยตรง จอที่ว่านี้จะทำหน้าที่แสดงภาพที่ถ่ายได้ให้ผู้ใช้มองเห็นและรู้ว่าถ่ายภาพได้ตามที่ต้องการหรือไม่ ไอเดียของ Sony นั้นจะให้ผู้ใช้สามารถตั้งค่ารูรับแสงและการซูมได้ด้วยการขยับเปลือกตาออกคำสั่ง ส่วนการลั่นชัตเตอร์ถ่ายภาพนั้นจะทำด้วยการกะพริบตา โดยเซ็นเซอร์จะแยกแยะได้ว่าการกะพริบตาของผู้ใช้นั้นเป็นพฤติกรรมตามธรรมชาติ หรือเป็นความตั้งใจสั่งให้ถ่ายภาพด้วยการตรวจสอบแรงกดของเปลือกตาที่กระทำต่อเซ็นเซอร์ นอกจากนี้คอนแทคเลนส์ของ Sony ยังมีเซ็นเซอร์วัดอัตราเร่งซึ่งจะช่วยให้รู้ได้หากผู้ใช้กำลังเคลื่อนไหวศีรษะ ซึ่งในช่วงเวลานั้นมันจะทำการปรับความเร็วชัตเตอร์ให้เพิ่มขึ้นโดยอัตโนมัติเพื่อป้องกันภาพถ่ายเบลอ คอนแทคเลนส์ของ Sony ยังมีระบบซอฟต์แวร์อื่นๆ อย่างระบบกันสั่นและ optical zoom ด้วยเช่นกัน แนวคิดการสร้างคอนแทคเลนส์แบบมีกล้องในตัวของ Sony นี้ยังอยู่ในขั้นตอนการขอจดสิทธิบัตร นอกจากเรื่องความท้าทายทางเทคนิคที่คงยากจะบอกได้ว่าอีกนานแค่ไหนที่มันจะถูกพัฒนาขึ้นมาเป็นของที่ใช้งานได้จริงแล้ว ประเด็นเรื่องการละเมิดสิทธิส่วนบุคคลก็อาจเป็นอีกเหตุผลหนึ่งที่ทำให้ไอเดียนี้เป็นหมันตั้งแต่เริ่มเป็นข่าวก็เป็นได้ ที่มา - SonyAlpha Rumors via SlashGear, ข้อมูลสิทธิบัตรจาก FPO    ", 
  "Date": "4/May/2016", 
  "Image-Link": [
    "https://www.blognone.com/sites/default/files/styles/thumbnail/public/topics-images/u24Glc4J.png?itok=NWuXBvnU", 
    "//upic.me/i/80/sony-cameraincontactlenspatent1.jpg", 
    "/sites/all/themes/blognone42/images/linebutton.png"
  ], 
  "Link": "https://www.blognone.com/node/80600", 
  "News": "Sony ขอจดสิทธิบัตรคอนแทคเลนส์ที่ถ่ายภาพได้เมื่อกะพริบตา", 
  "Tags": [
    "Sony", 
    "Patent", 
    "Photography", 
    "Wearable Computing"
  ], 
  "Time": "11:18"
}