{
  "By": "nutmos", 
  "Contents": " Visa ได้ออกผลิตภัณฑ์ใหม่ของบริษัท เป็นแหวนที่ฝังชิพ NFC ไว้เพื่อทำการชำระเงินซื้อสินค้าโดยเฉพาะ แหวนของ Visa วงนี้ออกแบบโดย McLear & Co. ซึ่งภายในแหวนมีการฝังไมโครชิพสร้างโดย Gemalto และเสาอากาศ NFC โดยความสะดวกของแหวนวงนี้คือการจ่ายเงินที่ง่ายมาก เพียงแค่เอาแหวนเข้าไปใกล้ๆ กับเครื่องคิดเงินที่รองรับการจ่ายเงินผ่าน NFC ก็สามารถจ่ายเงินได้ทันที ตัวแหวนไม่มีแบตเตอรี่จึงไม่ต้องชาร์จไฟ และกันน้ำได้ลึก 50 เมตร ตัวแหวน NFC นี้จะใช้เทคโนโลยี token ของ Visa ที่ชื่อว่า Visa Token Service เพื่อแทนที่ข้อมูลการชำระเงินแบบเดิมๆ อย่างเช่นเลข 16 ตัวให้เป็นการยืนยันตัวตนทางดิจิทัล ฉะนั้นการจ่ายเงินก็ไม่จำเป็นต้องเผยรายละเอียดของบัญชีออกมา แหวน NFC ของ Visa นี้จะมอบให้กับผู้เข้าแข่งขันใน Rio 2016 Games ที่อยู่ใน Team Visa ซึ่งเป็นนักกีฬาอีก 45 คนทั่วโลก ที่มา - Visa, Business Wire    ", 
  "Date": "3/June/2016", 
  "Image-Link": [
    "https://www.blognone.com/sites/default/files/styles/thumbnail/public/topics-images/visa.png?itok=XMjIQosL", 
    "http://i.cubeupload.com/VsNG7s.jpg", 
    "/sites/all/themes/blognone42/images/linebutton.png"
  ], 
  "Link": "https://www.blognone.com/node/81802", 
  "News": "Visa ออกผลิตภัณฑ์แหวน NFC เพื่อการชำระเงินโดยเฉพาะ", 
  "Tags": [
    "Visa", 
    "NFC", 
    "Wearable Computing"
  ], 
  "Time": "11:23"
}