{
  "By": "nrad6949", 
  "Contents": " เว็บไซต์ข่าวแฟชั่น Haute Ecriture รายงานว่า Coach แบรนด์แฟชั่นหรูจากสหรัฐอเมริกา เริ่มวางจำหน่ายสายนาฬิกาสำหรับ Apple Watch อย่างเป็นทางการ หลังจากที่มีกระแสข่าวลือมาระยะหนึ่ง สำหรับสายนาฬิกาเหล่านี้ออกแบบมาสำหรับผู้หญิง มีหลากสีแล้วแต่รุ่น โดยสายนาฬิกาจะมีการประดับตกแต่งด้วย (ดูภาพได้ในข่าวด้านใน) ทางเว็บไซต์ระบุว่าเจ้าหน้าที่ของ Coach แจ้งว่าจะมีจำนวนจำกัดมาก และมีเพียงไม่กี่ร้านที่วางขายในสหรัฐอเมริกา รวมไปถึงทางออนไลน์ด้วย ส่วนราคาเริ่มต้นที่ 125 ดอลลาร์สหรัฐฯ (ประมาณ 4,400 บาท) ไปจบที่ 150 ดอลลาร์สหรัฐ (ประมาณ 5,280 บาท) ทั้งนี้ นี่ไม่ใช่ครั้งแรกที่แบรนด์สินค้าหรูเปิดตัวสายนาฬิกาสำหรับ Apple Watch ก่อนหน้านั้น Hermes แบรนด์สินค้าหรูจากฝรั่งเศสก็เคยเปิดตัวนาฬิการ่วมกับ Apple มาแล้ว และแยกมาขายเฉพาะสายอย่างเดียวในภายหลัง ที่มา - Haute Ecriture ผ่าน iMore, Ubergizmo     ", 
  "Date": "21/June/2016", 
  "Image-Link": [
    "https://www.blognone.com/sites/default/files/styles/thumbnail/public/topics-images/apple-watch.png?itok=OViyBycH", 
    "https://i.imgur.com/Ahl7ChB.jpg", 
    "https://i.imgur.com/RDQomEc.jpg", 
    "/sites/all/themes/blognone42/images/linebutton.png"
  ], 
  "Link": "https://www.blognone.com/node/82503", 
  "News": "Coach วางจำหน่ายสายนาฬิกาหรูสำหรับ Apple Watch ออกแบบเพื่อสุภาพสตรีโดยเฉพาะ", 
  "Tags": [
    "Coach", 
    "Apple Watch", 
    "Luxury", 
    "Wearable Computing", 
    "Fashion"
  ], 
  "Time": "12:24"
}