{
  "By": "nuntawat", 
  "Contents": " นักวิจัยจาก Future Interfaces Group มหาวิทยาลัยคาร์เนกีเมลลอน ได้เผยงานวิจัย SkinTrack ที่ใช้ผิวหนังโดยรอบอุปกรณ์ลักษณะสายรัดข้อมืออย่างสมาร์ทวอชเป็นทัชแพดของอุปกรณ์ได้ SkinTrack ประกอบด้วยสองส่วนหลัก คือ อิเล็กโทรดสี่คู่ที่ถูกฝังอยู่ในสายรัดข้อมือเพื่อจับสัญญาณที่ถูกส่งจากวงแหวนใต้อุปกรณ์ เพื่อแปลงตำแหน่งนิ้วเป็นตำแหน่งบนแกน X และ Y แล้วแปลงการเคลื่อนไหวของนิ้วเป็นคำสั่งในการสั่งการต่างๆ อีกที ลองดูคลิปนำเสนองานวิจัยได้ที่ท้ายข่าว ที่มา: TechRadar    ", 
  "Date": "8/May/2016", 
  "Image-Link": [
    "https://www.blognone.com/sites/default/files/styles/thumbnail/public/topics-images/watch_s.jpg?itok=KPASDPQe", 
    "http://i.imgur.com/bJM5UDa.jpg", 
    "/sites/all/themes/blognone42/images/linebutton.png"
  ], 
  "Link": "https://www.blognone.com/node/80736", 
  "News": "งานวิจัย SkinTrack เมื่อใช้ผิวหนังมนุษย์เป็นทัชแพดควบคุมอุปกรณ์ลักษณะสายรัดข้อมือ", 
  "Tags": [
    "Research", 
    "Wearable Computing"
  ], 
  "Time": "16:48"
}