{
  "By": "nrad6949", 
  "Contents": " ที่งานแข่งรถ Monaco Grand Prix ประจำปีนี้ TAG Heuer ผู้ผลิตนาฬิกาหรูจากประเทศสวิตเซอร์แลนด์ ประกาศเปิดตัว TAG Heuer Connected 18 Rose Gold (เอาชื่อ Carerra ออกไป) รุ่นเพิ่มความหรูให้กับ TAG Heuer Connected เดิมที่เคยเปิดตัวไปเมื่อเดือนพฤศจิกายนที่ผ่านมา ความแตกต่างของนาฬิกาเรือนนี้ที่ชัดเจนที่สุด คงเป็นเรื่องของตัวเรือนที่จากเดิมเคยใช้ไทเทเนียม ก็เปลี่ยนมาเป็นทองชมพูที่ความบริสุทธิ์ 18 กะรัต ส่วนที่เหลือจากนั้นเหมือนเดิมทุกประการ ราคาจำหน่ายอยู่ที่ 9,900 ดอลลาร์สหรัฐ (ประมาณ 353,000 บาท) ซึ่งอาจถือได้ว่าเป็นนาฬิกาอัจฉริยะสาย Android Wear ที่แพงที่สุดในเวลานี้ ที่มา - ข่าวประชาสัมพันธ์ TAG Heuer     ", 
  "Date": "29/May/2016", 
  "Image-Link": [
    "https://www.blognone.com/sites/default/files/styles/thumbnail/public/topics-images/tagheuer.png?itok=1AP6wY3E", 
    "https://i.imgur.com/5ravIuP.jpg", 
    "https://i.imgur.com/vdGGrpE.jpg", 
    "/sites/all/themes/blognone42/images/linebutton.png"
  ], 
  "Link": "https://www.blognone.com/node/81583", 
  "News": "TAG Heuer เปิดตัว Connected 18K Rose Gold ยกระดับความหรูยิ่งกว่าเดิม", 
  "Tags": [
    "TAG Heuer", 
    "Android Wear", 
    "Luxury", 
    "Wearable Computing"
  ], 
  "Time": "22:16"
}