{
  "By": "nismod", 
  "Contents": " นอกจากจะเปิดตัว Moto G4 และ G4 Plus ปรากฎว่ายังการซอยรุ่นน้องเล็กของซีรีส์ Moto G อีกหนึ่งรุ่นคือ Moto G4 Play ซึ่งเป็นรุ่นที่ถูกที่สุด Moto G4 Play มาพร้อมหน้าจอขนาด 5 นิ้ว ความละเอียด HD 720p รัน Snapdragon 410 แรม 2GB ความจุ 16GB กล้องหลัง 8 ล้านพิกเซลพร้อมแฟลช LED กล้องหน้า 5 ล้านพิกเซล แบตเตอรี่ 2,800 mAh พร้อมแอนดรอยด์  6.0.1 และยังไม่มีการเปิดเผยราคาออกมาครับ ที่มา - PhoneArena    ", 
  "Date": "18/May/2016", 
  "Image-Link": [
    "https://www.blognone.com/sites/default/files/styles/thumbnail/public/topics-images/motorola.png?itok=Pff47JHy", 
    "https://farm8.staticflickr.com/7403/26479679164_7b26c8557d_z.jpg", 
    "/sites/all/themes/blognone42/images/linebutton.png"
  ], 
  "Link": "https://www.blognone.com/node/81129", 
  "News": "ไม่ได้ซอยแค่ 2 แต่มาถึง 3 Motorola เปิดตัว Moto G4 Play รุ่นเล็กสุดในซีรีส์", 
  "Tags": [
    "Moto G", 
    "Motorola", 
    "Mobile"
  ], 
  "Time": "10:50"
}