{
  "By": "nismod", 
  "Contents": " หลังจากที่ก่อนหน้านี้มีภาพหลุดที่อ้างว่าเป็น Moto G4 และ Moto G4 Plus พร้อมด้วยปุ่มโฮมสี่เหลี่ยมด้านหน้า ล่าสุด @evleaks เจ้าเก่าได้เผยภาพเรนเดอร์ของ Moto G4 Plus อีกภาพก่อนงานเปิดตัวพรุ่งนี้ออกมา ซึ่งไม่มีปุ่มโฮมแล้ว อย่างไรก็ตาม ก่อนหน้าที่ @evleaks จะยืนยันว่าภาพหลุดนี้เป็นของ Moto G4 Plus ทั้งสื่อต่างประเทศและผู้ใช้ทวิตเตอร์หลายคนสับสนว่าภาพที่ปล่อยออกมานั้นเป็นของ Moto E รุ่นใหม่แทน ที่มา - @evleaks via GSM Arena Surprised there was so much confusion here. Thought quoting the G4 Plus leak would make it obvious that it's the G4. https://t.co/dVa8wcR0oT — Evan Blass (@evleaks) May 15, 2016   ", 
  "Date": "16/May/2016", 
  "Image-Link": [
    "https://www.blognone.com/sites/default/files/styles/thumbnail/public/topics-images/motorola.png?itok=Pff47JHy", 
    "/sites/all/themes/blognone42/images/linebutton.png"
  ], 
  "Link": "https://www.blognone.com/node/81031", 
  "News": "หลุดภาพเรนเดอร์ Moto G4 ก่อนเปิดตัว ไม่มีปุ่มโฮมแล้ว", 
  "Tags": [
    "Moto G", 
    "Motorola", 
    "Leak", 
    "Rumor"
  ], 
  "Time": "17:34"
}