{
  "By": "nrad6949", 
  "Contents": " Sony ประกาศว่าได้เข้าร่วมลงทุนกับ Cogitai บริษัทสตาร์ทอัพด้านปัญญาประดิษฐ์ที่สามารถเรียนรู้ได้เองจากประสบการณ์จริงของสหรัฐอเมริกา เป็นจำนวนเงินที่ไม่เปิดเผย Dr. Satinder Singh ผู้ร่วมก่อตั้ง Cogitai ระบุว่าการสร้างปัญญาประดิษฐ์ให้เรียนรู้ได้ด้วยตัวเองถือเป็นความท้าทายสำคัญ และการที่ปัญญาประดิษฐ์สามารถเรียนรู้ได้ด้วยตนเองนั้นถือเป็นก้าวต่อไป โดยบทบาทของ Sony นอกจากจะเป็นผู้ร่วมลงทุนแล้ว ยังจะทำงานร่วมกับทาง Cogitai ด้วย ทั้งนี้ Sony เองไม่ใช่ผู้เล่นรายใหม่ในตลาดปัญญาประดิษฐ์ เพราะเคยมีทั้งหุ่นยนต์สัตว์เลี้ยงอย่าง Aibo มาแล้ว และในปัจจุบันงานด้านปัญญาประดิษฐ์ก็ยังอยู่ภายใต้การดูแลของฝ่ายวิจัยและพัฒนาระบบของ Sony รวมไปถึงในบริษัทลูกอย่าง Sony Computer Science Laboratories ด้วย ที่มา - Sony, Cogitai (ผ่านระบบ PR Newswire), Engadget   ", 
  "Date": "18/May/2016", 
  "Image-Link": [
    "https://www.blognone.com/sites/default/files/styles/thumbnail/public/topics-images/u24Glc4J.png?itok=NWuXBvnU", 
    "/sites/all/themes/blognone42/images/linebutton.png"
  ], 
  "Link": "https://www.blognone.com/node/81123", 
  "News": "Sony ประกาศลงทุนใน Cogitai สตาร์ทอัพด้านปัญญาประดิษฐ์", 
  "Tags": [
    "Sony", 
    "Artificial Intelligence", 
    "Startup"
  ], 
  "Time": "09:47"
}