{
  "By": "magnamonkun", 
  "Contents": " แม้ยังไม่ยืนยันว่าโซนี่จะรวบตระกูล Xperia NXT มาเหลือเพียง Xperia X แต่จากมือถือรุ่นนี้คงจะเดาแนวทางในอนาคตได้อย่างแน่นอน เพราะวันนี้ Sony Mobile เปิดตัวมือถือสำหรับตลาดกลาง-บนเพิ่มเติมหนึ่งรุ่นในชื่อว่า Xperia XA Ultra (รวบเข้าตระกูล Xperia XA สำหรับตลาดกลาง) สำหรับ Xperia XA Ultra จะยังคงใช้พื้นฐานจาก Xperia C5 Ultra เช่นจอใหญ่ขอบบางแบบ edge-to-edge และกล้องหน้าความละเอียดสูง 16 ล้านพิกเซลพร้อมแฟลช LED เป็นต้น แต่ปรับงานออกแบบภายนอกให้สอดคล้องกับ Xperia X มากขึ้น สำหรับสเปคแบบละเอียดก็มีการปรับให้เป็นปัจจุบันดังนี้  หน่วยประมวลผล MediaTek Helio P10 (MT6755) แปดคอร์ 64 บิต ไม่ระบุความเร็ว แรม 3GB หน่วยความจำในตัว 16 GB ขยายเพิ่มผ่าน microSD ได้สูงสุด 200 GB หน้าจอ 6 นิ้ว ความละเอียด 1920*1080 พิกเซล พร้อม Mobile Bravia Engine 2 กล้องหลัก 21.5 ล้านพิกเซล เซ็นเซอร์ Exmor RS ขนาด 1/2.4 นิ้ว กล้องหน้า 16 ล้านพิกเซล เซ็นเซอร์ Exmor R พร้อมเลนส์มุมกว้าง 88 องศา และรองรับ OIS แบตเตอรี่ 2700 mAh อยู่ได้นาน 2 วันต่อการชาร์จ 1 ครั้ง รองรับ PumpExpress+ ผ่านหัวชาร์จ Quick Charger Adaptor  เบื้องต้น Xperia XA Ultra จะทำตลาดในบางประเทศตั้งแต่เดือนกรกฎาคมนี้เป็นต้นไป โดยยังไม่ระบุราคาวางจำหน่าย ที่มา - GSM Arena      ", 
  "Date": "17/May/2016", 
  "Image-Link": [
    "https://www.blognone.com/sites/default/files/styles/thumbnail/public/topics-images/xperia.png?itok=Gm29-0hl", 
    "//upic.me/i/ev/xperia-xa-ultra-slideshow-01-desktop-3a5b15c379af4970b1a637ebce1181d5.jpg", 
    "//upic.me/i/9b/xperia-xa-ultra-slideshow-02-desktop-478390ba2e1c25a2b1345831c82feed0.jpg", 
    "//upic.me/i/7f/xperia-xa-ultra-slideshow-03-desktop-6b1262bd910de0a47db51b0944fa5dcb.jpg", 
    "/sites/all/themes/blognone42/images/linebutton.png"
  ], 
  "Link": "https://www.blognone.com/node/81082", 
  "News": "โซนี่เปิดตัว Xperia XA Ultra มือถือจอใหญ่ 6 นิ้ว ภาคต่อของ Xperia C5 Ultra", 
  "Tags": [
    "Xperia", 
    "Sony", 
    "Mobile"
  ], 
  "Time": "14:59"
}