{
  "By": "nrad6949", 
  "Contents": " ในช่วง 1-2 วันที่ผ่านมา มีรายงานข่าวลือพร้อมกับภาพสไลด์การนำเสนอที่ระบุว่า Sony เตรียมที่จะยุบสายผลิตภัณฑ์อื่นๆ ในกลุ่ม Xperia ทั้งหมด (ปัจจุบันมี C และ M) ให้เหลือแต่กลุ่มผลิตภัณฑ์ X อย่างเดียวเท่านั้น ข่าวดังกล่าวถูกรายงานครั้งแรกโดยเว็บไซต์ Xperia Blog เว็บไซต์รวมข่าวของ Xperia ที่ระบุว่า Sony ได้เปลี่ยนยุทธศาสตร์ในการทำตลาดของ Xperia ซึ่งจะใช้ Xperia X เป็นหลักในการทำผลิตภัณฑ์ไปจนถึงอย่างน้อยในปี 2018 หากไม่มีการเปลี่ยนแผนอะไร ซึ่งทางเว็บได้นำเอาสไลด์นำเสนอแผนกลยุทธ์ภายในของ  Sony ที่เว็บไซต์ ePrice ของไต้หวัน ออกมาเป็นหลักฐานยืนยันข่าวลือดังกล่าวนี้ แม้ข่าวลือและภาพที่หลุดออกมาในครั้งนี้ไม่สามารถยืนยันได้ว่าจริงหรือไม่ แต่เมื่อดูทิศทางของ Xperia X ที่จะมีทำออกมาถึง 3 รุ่น (X Performance, X, XA) เพื่อจับตลาดที่แตกต่างกัน โอกาสที่ข่าวลือนี้จะเป็นความจริงก็อาจจะมีอยู่ไม่ใช่น้อย คงต้องดูการทำตลาดของ Sony ในรอบปีนี้ว่าจะสอดคล้องกับข่าวลือหรือไม่ ที่มา - Xperia Blog, ePrice ผ่าน Android Authority, GSM Arena    ", 
  "Date": "15/May/2016", 
  "Image-Link": [
    "https://www.blognone.com/sites/default/files/styles/thumbnail/public/topics-images/xperia.png?itok=Gm29-0hl", 
    "https://i.imgur.com/wLYtcWb.jpg", 
    "/sites/all/themes/blognone42/images/linebutton.png"
  ], 
  "Link": "https://www.blognone.com/node/80994", 
  "News": "[ไม่ยืนยัน] Sony จะยุบสาย Xperia ทุกรุ่นให้เหลือเพียง X อย่างเดียวเท่านั้น", 
  "Tags": [
    "Xperia", 
    "Sony", 
    "Mobile"
  ], 
  "Time": "22:09"
}