{
  "By": "nismod", 
  "Contents": " Sony ได้เปิดตัวสมาร์ทโฟนตระกูล Xpria ในซีรีส์ X ใหม่ในประเทศไทย โดย 2 รุ่นที่นำวางมาวางจำหน่ายคือรุ่น Xperia X และ Xperia XA สำหรับสเปคของ Xperia X มาพร้อมกับชิปเซ็ต Snapdragon 650 บนหน้าจอขนาด 5 นิ้วความละเอียด 1080p กล้องหน้า 13 ล้านพิกเซล กล้องหลัง 23 ล้านพิกเซลพร้อมเทคโนโลยี Predictive Hybrid Autofocus ที่คาดการณ์การเคลื่อนไหวล่วงหน้าก่อนโฟกัส แบตเตอรี่ความจุ 2,620 mAh ที่ทาง Sony เคลมว่าอยู่ได้นานถึง 2 วันต่อการชาร์จ 1 ครั้ง พร้อม Quick Charge 2.0 ความจุ 64GB รองรับ microSD ได้สูงสุด 200GB แรม 3GB และรองรับ 2 ซิม ราคา 21,990 บาท ส่วนสเปคของ Xperia XA ใช้ชิปเซ็ต MediaTek MT6755 บนหน้าจอขนาด 5 นิ้วความละเอียด 720p กล้องหน้า 8 ล้านพิกเซล กล้องหลัง 13 ล้านพิกเซล แบตเตอรี่ความจุ 2,300 mAh และอยู่ได้นานถึง 2 วันต่อการชาร์จ 1 ครั้งเช่นกัน แรม 2GB ความจุ 16GB รองรับ microSD ได้สูงสุด 200GB รองรับ 2 ซิม ราคา 9,990 บาท ทั้ง Xperia X และ Xperia XA วางจำหน่าย 4 สีคือสีทอง (ไลม์โกลด์) สีชมพู (โรสโกลด์) สีดำและสีขาว โดยสามารถจองสินค้าล่วงหน้าได้ตั้งแต่วันที่ 9-16 มิถุนายนนี้ ก่อนจะวางจำหน่ายจริงสิ้นเดือนมิถุนายนนี้  Xperia X  Xperia XA    ", 
  "Date": "8/June/2016", 
  "Image-Link": [
    "https://www.blognone.com/sites/default/files/styles/thumbnail/public/topics-images/xperia.png?itok=Gm29-0hl", 
    "https://c8.staticflickr.com/8/7712/27471642351_3810afbf00_z.jpg", 
    "https://c3.staticflickr.com/8/7098/27267099010_d933913f92_z.jpg", 
    "https://c8.staticflickr.com/8/7600/27471633871_aa6d62e3cc_z.jpg", 
    "/sites/all/themes/blognone42/images/linebutton.png"
  ], 
  "Link": "https://www.blognone.com/node/82025", 
  "News": "Sony เปิดตัว Xperia X และ Xperia XA ในประเทศไทย", 
  "Tags": [
    "Xperia", 
    "Sony", 
    "Mobile"
  ], 
  "Time": "23:18"
}