{
  "By": "xenogew", 
  "Contents": " Sony Mobile ออกมายืนยันแล้วว่าจะหยุดโครงการ Xperia Beta Program โดยไม่มีแผนที่จะปล่อย Firmware รุ่น Beta อีกต่อไป รหัส Build Number รุ่นสุดท้ายจะได้รับหมายเลข 23.5.A.1.238 พร้อมกันนี้ Sony ยังยืนยันการปล่อย Firmware รุ่นเสถียรให้กับ Xperia Z2/Z3 ในไม่กี่สัปดาห์ข้างหน้า ผู้ใช้งานคนใดที่ใช้งาน Firmware รุ่น Beta จะได้รับการอัพเดตให้เป็นรุ่นเสถียรดังกล่าวโดยอัตโนมัติ และไม่ได้มีการพูดถึงโอกาสในการกลับมาเปิดให้เข้าร่วมโปรแกรมลักษณะนี้อีก คาดว่านี่ จะเป็นการจบ Xperia Beta Program ลงอย่างเป็นทางการ ที่มา - XDA Developer จาก xperiablog.net   ", 
  "Date": "15/July/2016", 
  "Image-Link": [
    "https://www.blognone.com/sites/default/files/styles/thumbnail/public/topics-images/xperia.png?itok=Gm29-0hl", 
    "/sites/all/themes/blognone42/images/linebutton.png"
  ], 
  "Link": "https://www.blognone.com/node/83499", 
  "News": "Sony ประกาศปิดโครงการ Xperia Beta Program", 
  "Tags": [
    "Sony", 
    "Xperia"
  ], 
  "Time": "23:24"
}