{
  "By": "nuntawat", 
  "Contents": " HTC เปิดตัว Desire 830 ในไต้หวัน เพื่อมาแทน Desire 820 แล้ว โดยตัวเครื่องจะเป็นสองสี สเปคเป็นดังนี้  หน้าจอ 5.5 นิ้ว ที่ความละเอียด 1080p (Desire 820 มากับจอ 720p) ชิป MediaTek Helio X10 พร้อมซีพียูแบบแปดคอร์ที่ 1.5 กิกะเฮิรตซ์ (Desire 820 มากับ Snapdragon 615) แรม 3 กิกะไบต์ หน่วยความจำภายใน 32 กิกะไบต์ รองรับ microSD สูงสุด 128 กิกะไบต์ กล้องหลัก 13 ล้านพิกเซล เลนส์ f/2.0 พร้อมระบบป้องกันภาพสั่นไหว (OIS) กล้องหน้า 4 ล้านพิกเซล เลนส์ f/2.0 พร้อมเทคโนโลยี Ultrapixel (Desire 820 มากับกล้องหน้า 8 ล้านพิกเซล) ลำโพง BoomSound  แบตเตอรี่ 2,800 มิลลิแอมป์-ชั่วโมง ตัวเครื่องบาง 7.79 มม.  สนนราคาที่ 9,900 ดอลลาร์ไต้หวัน (ราว 10,700 บาท) แต่ยังไม่มีการเปิดเผยการวางขายนอกไต้หวันครับ ที่มา: HTC ผ่าน GSM Arena    ", 
  "Date": "4/May/2016", 
  "Image-Link": [
    "https://www.blognone.com/sites/default/files/styles/thumbnail/public/news-thumbnails/htc_desire_830_t.png?itok=mVKpg-jo", 
    "http://i.imgur.com/g9mrv3r.jpg", 
    "/sites/all/themes/blognone42/images/linebutton.png"
  ], 
  "Link": "https://www.blognone.com/node/80588", 
  "News": "HTC เปิดตัว Desire 830 ในไต้หวัน", 
  "Tags": [
    "HTC", 
    "Taiwan", 
    "Mobile", 
    "Android"
  ], 
  "Time": "08:32"
}