ไมโครซอฟท์
โปร
#
 
รุ่น
ลด
ราคา
ดอลลาร์
,
บัน
เดิ
ลด
อลลาร์
แถม
จอ
ย
เกม
Xbox
 
One
 
#
รู้
เคลียร์
สต๊
อก
ข่าวลือ
รุ่น
ใหม่
งาน
หรือเปล่า
ประกาศ
ลด
ราคา
รุ่น
ย่อย
ดอลลาร์
รุ่น
ล่าง
ตอนนี้
(
จุ
แถม
เกม
)
ราคา
เหลือ
เพียง
ดอลลาร์
เท่านั้น
ตัว
คุ้ม
น่าจะ
รุ่น
จุ
แถม
บัน
เดิล
เกม
ชุด
ราคา
เหลือ
เพียง
ดอลลาร์
เพียง
ดอลลาร์
อย่างไรก็ตาม
รุ่น
คุ้ม
ราคา
ดอลลาร์
ปกติ
แถม
จอ
ย
เกม
(
Halo
โม
ชั่น
แถม
เพิ่ม
จอ
ย
เกม
สิ้น
เดือน
มิถุนายน
ที่มา
Xbox
 
One
 
E
3
 
Xbox
 
One
 
Xbox
 
One
 
Xbox
 
One
 
Xbox
 
One
 
Spring
 
Bundle
 
Guardians
,
 
Gears
 
of
 
War
:
 
Ultimate
 
Edition
,
 
Rare
 
Replay
,
 
Ori
 
and
 
the
 
Blind
 
Forest
)
 
The
 
Verge
,
 
Kinja
 
