{
  "By": "vvkungx", 
  "Contents": " Telegram เวอร์ชั่นล่าสุด (3.9) เพิ่มฟีเจอร์ใหม่และปรับปรุงการใช้งานดังต่อไปนี้  แก้ไขข้อความที่ส่งแล้วได้ภายใน 2 วัน โดยข้อความที่ถูกแก้จะแสดงข้อความ Edited และไม่แสดงข้อความเดิม สามารถเมนชั่นหาใครก็ได้ในกลุ่มแม้ไม่มีรายชื่อเพื่อนกันเอง โดยพิมพ์ @ ก็จะแสดงรายชื่อของคนในกลุ่มมาให้ทั้งหมด ปรับปรุงหน้าค้นหารายชื่อให้ค้นหาง่ายขึ้น ใช้งาน inline bot ผ่านเมนู attachment ได้ง่ายๆ สำหรับผู้ใช้ Android สามารถสร้าง shortcut ห้องแชทไว้ที่ home screen ได้ เพิ่มปุ่ม forward ข้อความไปยังห้องแชทอื่นสำหรับ bot, channel และกลุ่มเปิด เปลี่ยนข้อความแจ้งเตือน เมื่อมีผู้ส่งสติกเกอร์มาจะแสดง emoji ที่เกี่ยวข้องกับสติกเกอร์นั้นๆ สำหรับผู้ใช้ iOS จะจำตำแหน่งของข้อความที่เราอ่านบนหน้าจอไว้ เมื่อสลับไปห้องแชทอื่นแล้วกลับมาจะแสดงตำแหน่งเดิมพร้อมปุ่มเลื่อนลงล่างสุดและจำนวนข้อความที่ยังไม่ได้อ่าน  อัพเดตใช้งานฟีเจอร์ใหม่เหล่านี้ได้แล้ววันนี้บน App Store, Play Store, Windows Phone, Windows 10 Mobile และ Telegram for Desktop ครับ ที่มา : Telegram Blog    ", 
  "Date": "16/May/2016", 
  "Image-Link": [
    "https://www.blognone.com/sites/default/files/styles/thumbnail/public/topics-images/m6BFtJQW.png?itok=UA233Sfu", 
    "//upic.me/i/0h/5bd7c8f4708afe28f8-side.jpeg", 
    "/sites/all/themes/blognone42/images/linebutton.png"
  ], 
  "Link": "https://www.blognone.com/node/81015", 
  "News": "Telegram เพิ่มฟีเจอร์แก้ไขข้อความ, เมนชั่นได้แม้ไม่มีรายชื่อกันในกลุ่มและอื่นๆ", 
  "Tags": [
    "Telegram", 
    "Instant Messenger"
  ], 
  "Time": "11:59"
}