{
  "By": "nutmos", 
  "Contents": " WhatsApp Web หรือบริการ WhatsApp บนเว็บ ได้เพิ่มความสามารถให้ส่งไฟล์ PDF ได้แล้ว จากที่ความสามารถนี้มีบน iOS, Android และ WhatsApp บนเดสก์ท็อป มาก่อนหน้านี้ วิธีส่งไฟล์ PDF คือเปิดการสนทนาก่อน แล้วไปที่ปุ่มแนบไฟล์มุมบนขวา และคลิกปุ่ม Document โดยปัจจุบัน WhatsApp ยังจำกัดให้ส่งได้เฉพาะไฟล์ PDF เท่านั้น ยังไม่สามารถส่งไฟล์เอกสารฟอร์แมตอื่นได้ ที่มา - The Next Web   ", 
  "Date": "13/May/2016", 
  "Image-Link": [
    "https://www.blognone.com/sites/default/files/styles/thumbnail/public/topics-images/whatsapp.png?itok=KzSwXlnq", 
    "/sites/all/themes/blognone42/images/linebutton.png"
  ], 
  "Link": "https://www.blognone.com/node/80957", 
  "News": "WhatsApp Web ส่งไฟล์ PDF ได้แล้ว", 
  "Tags": [
    "WhatsApp", 
    "PDF", 
    "Instant Messenger"
  ], 
  "Time": "20:15"
}