{
  "By": "mk", 
  "Contents": " ทิศทางของตลาดแท็บเล็ตมียอดขายตกลงอย่างชัดเจน และตัวเลขพยากรณ์ล่าสุดของ IDC ก็ระบุว่ายอดขายในปี 2016 จะลดลงจากยอดในปี 2015 อีก 9.6% แถมยังไม่มีทีท่าว่าจะกลับมาโตขึ้น จนกว่าจะถึงปี 2018 ที่ IDC คาดว่าจะกลับมาเติบโตอีกเล็กน้อย แต่ก็ไม่มีทางกลับมาโตเท่าช่วงก่อนปี 2015 ได้อีกแล้ว IDC บอกว่าสภาพตลาดแท็บเล็ตจะคล้ายกับตลาดพีซีช่วงก่อนหน้านี้ แต่ผู้ผลิตแท็บเล็ตก็เริ่มปรับตัวจากการขายแท็บเล็ตแบบดั้งเดิม (slate tablet) มาเป็นการขายแท็บเล็ตลูกผสมโน้ตบุ๊ก (detachable tablet) แทน แม้แต่แอปเปิลก็ยังลงมาเล่นตลาดนี้ และปีนี้เราเริ่มเห็นสินค้ากลุ่มนี้ออกสู่ตลาดกันมากขึ้น ส่งผลให้ราคาเฉลี่ยถูกลง ตอนนี้แท็บเล็ตแบบ detachable มีส่วนแบ่ง 16% ของตลาดแท็บเล็ตทั้งหมด แต่สัดส่วนจะเพิ่มเป็น 31% ในปี 2020 ส่วนแบ่งระบบปฏิบัติการ แท็บเล็ตแบบ slate มี Android ครองอยู่ 75% ตามด้วย iOS ที่ 22%, ส่วนแท็บเล็ตแบบ detachable ปัจจุบัน Windows เป็นเจ้าตลาดที่ 49% แต่ iOS ก็ชิงส่วนแบ่งตลาดเพิ่มขึ้นมากเป็น 38% ที่มา - IDC, Computerworld    ", 
  "Date": "5/June/2016", 
  "Image-Link": [
    "https://www.blognone.com/sites/default/files/styles/thumbnail/public/topics-images/logo-idc.png?itok=Xd-1G05W", 
    "https://i.imgur.com/4PrrZik.jpg", 
    "/sites/all/themes/blognone42/images/linebutton.png"
  ], 
  "Link": "https://www.blognone.com/node/81857", 
  "News": "IDC พยากรณ์ยอดขายแท็บเล็ตตกลง และยังไม่มีวี่แววจะกลับมาโตเหมือนเดิม", 
  "Tags": [
    "IDC", 
    "Tablet", 
    "Prediction", 
    "Market Share"
  ], 
  "Time": "07:44"
}