{
  "By": "nrad6949", 
  "Contents": " บริษัทวิจัยข้อมูล 1010data ออกมาเปิดเผยเบื้องต้นถึงรายงานการวิจัยของตนเองที่ระบุว่า แท็บเล็ตแบบ 2-in-1 ลูกผสม (เรียกว่า \"laplet\") เช่น Surface กำลังได้รับความนิยมและถือเป็นกลุ่มแท็บเล็ตที่มีการเติบโตอย่างต่อเนื่อง บริษัทระบุว่า แม้ Apple iPad จะยังครองส่วนแบ่งได้ที่ 32.5% ของตลาดรวมทั้งหมด แต่แท็บเล็ตกลุ่มลูกผสมเหล่านี้กำลังกินส่วนแบ่งตลาดเพิ่มขึ้นเรื่อยๆ โดยในไตรมาสแรกของปีนี้ Surface Book ของ Microsoft สามารถทำส่วนแบ่งเพิ่มขึ้นได้ถึง 9% ทำให้ Microsoft มีส่วนแบ่งในตลาดเป็นอันดับสองที่ 25% เมื่อเทียบกับไตรมาสแล้ว ขณะที่ Apple กลับมียอดส่งมอบ iPad คงที่ไม่เปลี่ยนแปลงนัก รายงานวิจัยฉบับเต็มจะเผยสู่สาธารณะในสัปดาห์หน้าครับ ที่มา - Computerworld    ", 
  "Date": "14/May/2016", 
  "Image-Link": [
    "https://www.blognone.com/sites/default/files/styles/thumbnail/public/topics-images/surface-book.png?itok=eHBLS5d-", 
    "https://farm1.staticflickr.com/571/22138284561_0366b58905_z.jpg", 
    "/sites/all/themes/blognone42/images/linebutton.png"
  ], 
  "Link": "https://www.blognone.com/node/80971", 
  "News": "บริษัทวิจัยข้อมูลระบุ แท็บเล็ตแบบ 2-in-1 กำลังได้รับความนิยมจากตลาด", 
  "Tags": [
    "Market", 
    "Tablet", 
    "Research", 
    "Surface Book", 
    "iPad"
  ], 
  "Time": "09:17"
}