{
  "By": "nismod", 
  "Contents": " วันนี้ Xiaomi เปิดตัว Mi Max อุปกรณ์ phablet จอใหญ่ โดยมีสเปคดังนี้  หน้าจอขนาด 6.4 นิ้ว พร้อมบอดี้โลหะ ชิปเซ็ต Snapdragon 650 และ 652 แรม 3GB และ 4GB ความจุ 32GB, 64GB และ 128GB แบตเตอรี่ความจุ 4,850 mAh พร้อมเซ็นเซอร์สแกนลายนิ้วมือด้านหลัง และเซ็นเซอร์อินฟาร์เรด กล้องหลัง 16 ล้านพิกเซลพร้อม PDAF กล้องหน้า 5 ล้านพิกเซล พร้อมเลนส์ไวด์กว้าง 85 องศา รองรับ 2 ซิมพร้อมโหมด dual-standby ตัวเครื่องบาง 7.5 มิลลิเมตร  Mi Max มีให้เลือกสามสีคือขาว ดำ (Dark Grey) และทอง โดยรุ่นความจุ 32GB (แรม 3GB และ Snapdragon 650) ราคาอยู่ที่ 1,499 หยวน, ความจุ 64GB (แรม 3GB และ Snapdragon 652) ราคาอยู่ที่ 1,699 หยวน และรุ่นความจุ 128GB (แรม 4GB และ Snapdragon 652) ราคา 1,999 หยวน ที่มา - MIUI, @xiaomi    #MiMax comes in Silver, Gold, Dark Grey. Priced from RMB1499 with various memory/CPU options & 128GB microSD support pic.twitter.com/SiDUd0uXI5 — Mi (@xiaomi) May 10, 2016   ", 
  "Date": "10/May/2016", 
  "Image-Link": [
    "https://www.blognone.com/sites/default/files/styles/thumbnail/public/topics-images/xiaomi.png?itok=W_8-Phci", 
    "https://farm8.staticflickr.com/7137/26655529510_df06a138d5_z.jpg", 
    "https://farm8.staticflickr.com/7342/26324429463_4db590191b_z.jpg", 
    "https://farm8.staticflickr.com/7627/26655529060_58cbae7be7_z.jpg", 
    "/sites/all/themes/blognone42/images/linebutton.png"
  ], 
  "Link": "https://www.blognone.com/node/80802", 
  "News": "Xiaomi เปิดตัว Mi Max Phablet จอยักษ์ พร้อมเซ็นเซอร์สแกนลายนิ้วมือ", 
  "Tags": [
    "Xiaomi", 
    "Mobile", 
    "Tablet"
  ], 
  "Time": "15:03"
}