{
  "By": "nrad6949", 
  "Contents": " เมื่อวันอังคารที่ผ่านมา Samsung ประเทศเยอรมนี ประกาศเปิดตัว Galaxy Tab A 10.1 (2016) อย่างเป็นทางการ โดยปรับสเปกให้ทันสมัยขึ้น รวมถึงเปลี่ยนขนาดหน้าจอให้ใหญ่กว่าเดิม สิ่งที่เปลี่ยนแปลงไปจากรุ่นที่แล้วอย่างชัดเจนคือขนาดหน้าจอ โดยปรับมาอยู่ที่ 10.1 นิ้ว ที่ความละเอียด 1,920 x 1,200 พิกเซล (อัตราส่วนหน้าจอปรับเป็น 16:10 แทนที่จะเป็น 4:3 แบบรุ่นที่แล้ว), แรมเป็น 2 GB, ใช้หน่วยประมวลผลไม่ระบุผู้ผลิตที่ความถี่ 1.6 GHz แบบ 8 แกนประมวลผล หน่วยความจำภายใน 16 GB และรองรับ microSD สูงสุด 200 GB (สเปกเต็มอ่านได้จากท้ายข่าว) ส่วนที่หายไปแน่นอนในรุ่นนี้คือ S Pen เริ่มต้นวางจำหน่ายต้นเดือนหน้าที่เยอรมนี โดยรุ่น Wi-Fi จำหน่ายที่ราคา 289 ยูโร (ประมาณ 11,000 บาท) ส่วนรุ่นที่มาพร้อมกับ LTE อยู่ที่ 349 ยูโร (ประมาณ 14,000 บาท) ที่มา - Samsung (ภาษาเยอรมัน) ผ่าน GSM Arena  Samsung Galaxy A 10.1 (2016)  กว้าง 15.53 ซม., ยาว 25.42 ซม., หนา 8.2 มม., หนัก 525 กรัม หน้าจอแบบ TFT PLS ขนาด 10.1 นิ้ว ที่ความละเอียด 1,920 x 1,200 พิกเซล อัตราส่วนหน้าจอ 16:10 หน่วยประมวลผลไม่ระบุผู้ผลิตและรุ่น ทำงานที่ความถี่ 1.6 GHz, 8 แกนประมวลผล แรม 2 GB, พื้นที่หน่วยความจำเก็บข้อมูล 16 GB แบบ eMMC กล้องหน้า 2 เมกะพิกเซล, f 2.2 aperture กล้องหลัง 8 เมกะพิกเซล, f 1.9 aperture พร้อมแฟลชและโฟกัสอัตโนมัติ รองรับ Wi-Fi 802.11 a/b/g/n/ac, Bluetooth 4.2, USB 2.0, GPS + GLOSNASS และ Beidou รุ่นที่เป็น LTE รองรับทั้ง 2G (850/900/1800/1900 MHz), 3G (850/900/1900/2100 MHz; รองรับ HSPA+), 4G LTE (800/850/900/1800/2100/2300/2600 MHz; รองรับเฉพาะ Cat. 4) แบตเตอรี่ความจุ 7,300 mAh Android 6.0 Marshmallow    ", 
  "Date": "13/May/2016", 
  "Image-Link": [
    "https://www.blognone.com/sites/default/files/styles/thumbnail/public/topics-images/j8u2rhG1.jpg?itok=CJuE6qSo", 
    "https://i.imgur.com/vbX8a5a.png", 
    "/sites/all/themes/blognone42/images/linebutton.png"
  ], 
  "Link": "https://www.blognone.com/node/80953", 
  "News": "Samsung เปิดตัว Galaxy Tab A 10.1 (2016) ที่เยอรมนี ขยายขนาดจอ ปรับสเปกทันสมัยขึ้น", 
  "Tags": [
    "Samsung", 
    "Galaxy Tab A", 
    "Tablet"
  ], 
  "Time": "19:29"
}