{
  "By": "twometre", 
  "Contents": " คัมภีร์ไบเบิลเป็นอีกหนึ่งคำเผยแผ่ศาสนาที่ถูกแปลเป็นหลากหลายภาษามากที่สุดชนิดหนึ่งในโลก และล่าสุดก็มีคนแปลเป็นภาษา Emoji แล้ว ด้วยบุคคลนิรนามที่ใช้นามแฝงเป็นอีโมจิ เขาแปลข้อความจากไบเบิลเวอร์ชั่น King James ในชื่อ Scripture 4 Millenials เขาใช้เวลากว่าหกเดือนกับความหนากว่า 3,000 หน้า จับคู่คำ 200 คำกับความหมายที่อีโมจิ 80 ภาพจะสื่อได้ครับ ราคา 2.99 เหรียญสหรัฐ วางจำหน่ายแล้วใน iTunes ที่มา - The Guardian  The Bible... translated w/ Emojis! pic.twitter.com/3OsT7Nr8iD — Bible Emoji (@BibleEmoji) May 29, 2016   ", 
  "Date": "31/May/2016", 
  "Image-Link": [
    "https://www.blognone.com/sites/default/files/styles/thumbnail/public/topics-images/emoji.png?itok=lfJWKIaP", 
    "//upic.me/i/s8/cjpoxvwwgaaq0zq.jpg", 
    "/sites/all/themes/blognone42/images/linebutton.png"
  ], 
  "Link": "https://www.blognone.com/node/81641", 
  "News": "เอเมน... พระคัมภีร์ไบเบิลถูกแปลเป็นภาษา Emoji แล้ว", 
  "Tags": [
    "Emoji", 
    "bible"
  ], 
  "Time": "10:14"
}