{
  "By": "mk", 
  "Contents": " หนังสือพิมพ์ Wall Street Journal รายงานข่าวว่าผู้ผลิตสมาร์ทโฟนรายใหญ่ของจีนทั้ง Huawei, ZTE, Lenovo กำลังเร่งสะสมสิทธิบัตรกันยกใหญ่ ทั้งผ่านการซื้อขาด ซื้อสิทธิ และการลงทุนวิจัยเอง กรณีของ Huawei ถือว่าชัดเจนที่สุด เพราะจดสิทธิบัตรมากถึง 3,898 รายการในปี 2015 ส่วนงบวิจัยของบริษัทก็สูงถึง 9.2 พันล้านดอลลาร์ต่อปี (แอปเปิลใช้งบวิจัย 8.1 พันล้านดอลลาร์ต่อปี) และก่อนหน้านี้ไม่นาน Huawei เพิ่งเปิดสงครามสิทธิบัตรกับซัมซุง และ WSJ ยังรายงานข่าวที่ไม่ยืนยันว่าแอปเปิลยอมจ่ายเงินค่าสิทธิบัตรให้ Huawei แล้ว กรณีของ Lenovo ก็ได้สิทธิบัตรจำนวนมากมาจากการซื้อ Motorola, ส่วน ZTE ก็เร่งขยายงบวิจัย แม้จะเจอปัญหาการกีดกันจากรัฐบาลสหรัฐก็ตาม บริษัทที่อาจยังไม่แข็งแรงเรื่องนี้มากนักคือ Xiaomi ที่ยังมีสิทธิบัตรไม่เยอะมาก แม้จะจดสิทธิบัตรเพิ่มขึ้นในปี 2015 เป็น 3,738 รายการ ที่มา - Wall Street Journal    ", 
  "Date": "27/June/2016", 
  "Image-Link": [
    "https://www.blognone.com/sites/default/files/styles/thumbnail/public/topics-images/huawei.png?itok=6S9mP3fu", 
    "https://i.imgur.com/PU51juk.jpg", 
    "/sites/all/themes/blognone42/images/linebutton.png"
  ], 
  "Link": "https://www.blognone.com/node/82727", 
  "News": "[ไม่ยืนยัน] แอปเปิลยอมจ่ายค่าสิทธิบัตรให้ Huawei แล้ว", 
  "Tags": [
    "Huawei", 
    "Apple", 
    "Patent", 
    "Lenovo", 
    "ZTE"
  ], 
  "Time": "23:43"
}