{
  "By": "nrad6949", 
  "Contents": " แม้จะเปิดตัว HTC 10 ไปเป็นที่เรียบร้อยแล้ว แต่ HTC ยังเดินหน้าปฏิบัติการซอย One M9 มือถือเรือธงของตัวเองปีที่แล้วต่อไป ด้วยการเปิดตัว One M9 Prime Camera Edition ที่ประเทศโปแลนด์อย่างเป็นทางการ จากการรายงานของเว็บไซต์ข่าว GSM Arena ลักษณะภายนอกนั้นแทบจะไม่ต่างจาก One M9 ทุกประการ ความต่างที่สำคัญคือกล้องหลังที่เป็น 13 เมกะพิกเซล f/2.0 พร้อม OIS, หน่วยประมวลเป็น MediaTek Helio X10 และแรมเหลือเพียง 2 GB ส่วนพื้นที่เก็บข้อมูลเหลือเพียง 16 GB จำหน่ายเฉพาะร่วมกับโปรโมชั่นรายเดือนติดสัญญาของผู้ให้บริการท้องถิ่นที่ชื่อว่า Play ในราคาเดือนละ 22.70 ยูโร (ประมาณ 911 บาท) ที่มา - GSM Arena    ", 
  "Date": "6/May/2016", 
  "Image-Link": [
    "https://www.blognone.com/sites/default/files/styles/thumbnail/public/topics-images/htc.png?itok=5TBfl4iq", 
    "https://upic.me/i/7g/nexus2cee_hero-3_thumb.png", 
    "/sites/all/themes/blognone42/images/linebutton.png"
  ], 
  "Link": "https://www.blognone.com/node/80698", 
  "News": "ซอยอีก HTC เปิดตัว One M9 Prime Camera Edition ที่โปแลนด์", 
  "Tags": [
    "HTC One", 
    "HTC", 
    "Android", 
    "Mobile"
  ], 
  "Time": "20:30"
}