{
  "By": "twometre", 
  "Contents": " วันก่อนเพิ่งได้รีวิว Garmin vivosmart HR ไป ตอนนี้มีรุ่นใหม่อย่าง vivosmart HR+ ออกมาอีกแล้ว เป็นสายรัดข้อมืออ่านค่าสุขภาพ วัดอัตราการเต้นของหัวใจเหมือนเดิมครับ แต่สิ่งที่เพิ่มขึ้นมามีดังนี้  ทำงานร่วมกับ GPS ไว้ติดตามเส้นทางที่ผู้ใช้เคลื่อนที่ได้ แต่แบตเตอรี่จะใช้ได้แค่ 8 ชั่วโมงต่อการชาร์จหนึ่งครั้ง (ถ้าปิดจะใช้ได้ 5 วัน) มี virtual pacer mode น่าจะไว้ท้าทายศักยภาพตัวเองขณะออกกำลังกาย ปรับปรุงดีไซน์เล็กน้อย จอภาพขนาดเท่าเดิม มีสามสี ดำ ม่วง และน้ำเงิน ราคา 219.99 เหรียญสหรัฐฯ (ประมาณ 7,800 บาท)  ที่มา - Garmin    ", 
  "Date": "16/May/2016", 
  "Image-Link": [
    "https://www.blognone.com/sites/default/files/styles/thumbnail/public/topics-images/garmin.png?itok=uwT0uIvY", 
    "//upic.me/i/3f/sc-03-lg.jpg", 
    "/sites/all/themes/blognone42/images/linebutton.png"
  ], 
  "Link": "https://www.blognone.com/node/81038", 
  "News": "Garmin เปิดตัวสายรัดข้อมือ vivosmart HR+: รองรับ GPS, มีโหมด virtual pacer", 
  "Tags": [
    "Garmin", 
    "Fitness Tracker", 
    "vivosmart HR"
  ], 
  "Time": "18:56"
}