{
  "By": "nuntawat", 
  "Contents": " เว็บไซต์ MicrosoftInsider.es เผยว่าได้พบเกมบนมือถือจากไมโครซอฟท์ (ซึ่งระบุผู้พัฒนาเป็น Internal Beta Account) ชื่อ FYCPT บน Windows Store ความพิเศษของเกมนี้คือ ต้องใช้ Microsoft Band ในการควบคุมหยดหมึกสีซึ่งเป็นตัวละครหลักในเกม อาทิ ไม่ให้โดนฟองอากาศ (water bubble) และดินสอ เป็นต้น ลองดูคลิปเดโมได้จากท้ายข่าว หวังว่าไมโครซอฟท์จะปล่อยเกมนี้ออกมานะ ที่มา: MicrosoftInsider.es ผ่าน MSPoweruser   ", 
  "Date": "7/May/2016", 
  "Image-Link": [
    "https://www.blognone.com/sites/default/files/styles/thumbnail/public/news-thumbnails/FYCPT_logo.png?itok=-oNSfqny", 
    "/sites/all/themes/blognone42/images/linebutton.png"
  ], 
  "Link": "https://www.blognone.com/node/80708", 
  "News": "หลุดเกมบนมือถือสาย Windows ตัวแรกจากไมโครซอฟท์ที่ต้องใช้ Microsoft Band เล่น", 
  "Tags": [
    "Microsoft", 
    "Mobile", 
    "Games", 
    "Windows Phone", 
    "Microsoft Band"
  ], 
  "Time": "11:36"
}