{
  "By": "sunnywalker", 
  "Contents": " Dwayne Johnson นักมวยปล้ำและนักแสดง ที่รู้จักในนาม The Rock เปิดตัวแอพนาฬิกาปลุกในนาม The Rock Clock ที่อาจทำให้คุณบอกว่า นี่เป็นเสียงปลุกที่ดีสุดเท่าที่เคยได้ยินมา The Rock Clock มีเสียงปลุก 25 แบบ ตัวอย่างเสียงปลุกบางเสียงเช่น “clasic alarm” ในนาฬิกาปลุกทั่วไปอาจะเป็นเสียงกริ๊งๆธรรมดา แต่ The Rock Clock ไม่เป็นเช่นนั้น clasic alarm ในแบบ The Rock คือ เสียงของเขาเองที่พูดว่า Beep Beep Beep อาจฟังดูธรรมดาแต่เมื่อเป็นเสียง The Rock จะไม่ตื่นเชียวหรือ อีกเสียงคือ “Ring Ring” เป็นเสียงของเขาพูดว่า Ring Ring ไปเรื่อยๆ จากโทนเสียงธรรมดากลายเป็นตะโกนตะคอก หรือเสียง “chainsaw” ไม่ต้องสงสัยเลยว่ามันต้องเป็นเสียงเลื่อยไฟฟ้าที่จะสร้างความรำคาญมากจนต้องตื่น The Rock Clock เปิดให้ดาวน์โหลดฟรีผ่าน Play Store  ที่มา - Android Police   ", 
  "Date": "3/May/2016", 
  "Image-Link": [
    "https://www.blognone.com/sites/default/files/styles/thumbnail/public/news-thumbnails/unnamed_31.png?itok=YdmJczmO", 
    "http://i.imgur.com/pjRfdX3.jpg", 
    "/sites/all/themes/blognone42/images/linebutton.png"
  ], 
  "Link": "https://www.blognone.com/node/80569", 
  "News": "rock มาก! เมื่อ The Rock เปิดตัวแอพนาฬิกาปลุกที่เสียงปลุกคือเสียงของเขาเอง ", 
  "Tags": [
    "The Rock", 
    "The Rock Clock", 
    "Application"
  ], 
  "Time": "16:37"
}