{
  "By": "mk", 
  "Contents": " Fidji Simo ผู้บริหารด้านวิดีโอของ Facebook ไปพูดที่งานสัมมนา VidCon เปิดเผยว่าเราจะได้เห็นโฆษณาในระบบ Facebook Live ในเร็วๆ นี้ โดย Facebook จะเริ่มทดลองวิธีการหารายได้แบบต่างๆ ในช่วง 2-3 เดือนข้างหน้า เพื่อดูว่าวิธีไหนประสบความสำเร็จบ้าง วิธีการหารายได้แบบหนึ่งที่ Facebook ระบุคือการแทรกโฆษณามาระหว่างการสตรีมสด โดย Fidji บอกว่าคนมักมีพฤติกรรมชมวิดีโอถ่ายทอดสด นานกว่าคลิปปกติ และการชมวิดีโอสดเกิน 1 ชั่วโมงก็เกิดขึ้นได้ไม่ยากนัก ด้วยระยะเวลาที่นานแบบนี้ การแทรกโฆษณาเข้ามาระหว่างกลางก็มีโอกาสประสบความสำเร็จสูง ที่มา - Marketing Land    ", 
  "Date": "26/June/2016", 
  "Image-Link": [
    "https://www.blognone.com/sites/default/files/styles/thumbnail/public/topics-images/fb-500.png?itok=7KEmyKx1", 
    "https://i.imgur.com/OyUVECf.jpg", 
    "/sites/all/themes/blognone42/images/linebutton.png"
  ], 
  "Link": "https://www.blognone.com/node/82685", 
  "News": "อีกไม่นานเกินรอ Facebook Live จะเริ่มทดลองมีโฆษณาในเร็วๆ นี้", 
  "Tags": [
    "Facebook", 
    "Live Streaming", 
    "Advertising"
  ], 
  "Time": "22:32"
}