{
  "By": "nrad6949", 
  "Contents": " เมื่อสัปดาห์ที่ผ่านมา Bank of America (BoA) ธนาคารรายใหญ่ของสหรัฐอเมริกา ประกาศเตรียมให้ลูกค้าของธนาคารที่ใช้ Android Pay สามารถถอนเงินจากตู้ ATM ด้วยการใช้ Android Pay ภายในสิ้นปีนี้ BoA ระบุว่าเตรียมที่จะติดตั้งตู้ ATM แบบใหม่ที่รองรับการถอนเงินด้วย Android Pay ทั่วสหรัฐอเมริกา โดยภายในสิ้นปีนี้จะมีจำนวนทั้งสิ้น 5,000 ตู้ คอยให้บริการ โดยเงื่อนไขมีว่าผู้ใช้บริการต้องเป็นลูกค้าของ BoA, ใช้ Android Pay และเปิด NFC เอาไว้ ที่มา - TalkAndroid   ", 
  "Date": "23/May/2016", 
  "Image-Link": [
    "https://www.blognone.com/sites/default/files/styles/thumbnail/public/topics-images/android-pay.png?itok=WRw6Zknu", 
    "/sites/all/themes/blognone42/images/linebutton.png"
  ], 
  "Link": "https://www.blognone.com/node/81270", 
  "News": "Bank of America ประกาศให้บริการถอนเงินสดจาก ATM ด้วย Android Pay ภายในสิ้นปีนี้", 
  "Tags": [
    "Android Pay", 
    "Bank of America", 
    "FinTech", 
    "Mobile Payment"
  ], 
  "Time": "09:16"
}