{
  "By": "nrad6949", 
  "Contents": " เว็บไซต์ Android Police รายงานข่าวโดยอ้างอิงถึงทวิตของ Greg Willard (@r3pwn) ที่เป็นนักพัฒนาสาย Android ว่า Google เพิ่ม Raspberry Pi 3 เข้าสู่ code repository ของ AOSP อย่างเป็นทางการ ตัว code repository นั้นอยู่ใน directory เดียวกับอุปกรณ์อย่าง Nexus และ source code ทั่วไป ซึ่งตัว repository นี้สร้างมา 5 อาทิตย์แล้ว แต่ยังไม่มีการปล่อย source code ใดๆ ใน directory นี้ ซึ่ง Android Police ระบุว่าความเคลื่อนไหวนี้อาจสอดคล้องกับแนวทางที่หลายบริษัทรวมถึงหลายระบบปฏิบัติการ ออกมาประกาศรองรับ Raspberry Pi ในช่วงเวลาที่ผ่านมาครับ ที่มา - @r3pwn ผ่าน Android Police, Google    ", 
  "Date": "25/May/2016", 
  "Image-Link": [
    "https://www.blognone.com/sites/default/files/styles/thumbnail/public/topics-images/rpi.png?itok=6foMUDiT", 
    "http://i.imgur.com/bVl9zv9.png", 
    "/sites/all/themes/blognone42/images/linebutton.png"
  ], 
  "Link": "https://www.blognone.com/node/81373", 
  "News": "Google เพิ่ม Raspberry Pi 3 เข้า code repository ของ AOSP", 
  "Tags": [
    "Google", 
    "Raspberry Pi", 
    "Android"
  ], 
  "Time": "11:06"
}