{
  "By": "lew", 
  "Contents": " Raspberry Pi Zero ออกมาตั้งแต่ปลายปีที่แล้วด้วยราคาถูกเหลือเชื่อที่ 5 ดอลลาร์ทำให้การผลิตไม่เคยเพียงพอต่อการขาย แถมโรงงานของ Raspberry Pi เองก็ต้องปรับปรุงเพื่อเปิดสายการผลิต Raspberry Pi 3 เพิ่มเติม แต่ทางโครงการก็อาศัยการปรับสายการผลิตนี้ออกรุ่นปรับปรุง Zero เสียใหม่เป็นรุ่น 1.3 ด้วยการเพิ่มพอร์ตกล้องเข้าไป พอร์ตกล้อง FPC เป็นแบบพอร์ตเล็กพิเศษที่เคยใช้งานใน Compute Module Development Kit การต่อกับโมดูลกล้องของ Raspberry Pi จำเป็นต้องต่อผ่านสายแปลง หลังปรับสายการผลิตตอนนี้มี Zero รุ่นใหม่อยู่ในสต็อก 30,000 ตัว และกำลังผลิตจะสามารถผลิตได้อีกวันละหลายพันตัวไปเรื่อยๆ จนกว่าจะเริ่มเพียงพอต่อความต้องการ ที่มา - Raspberry Pi    ", 
  "Date": "17/May/2016", 
  "Image-Link": [
    "https://www.blognone.com/sites/default/files/styles/thumbnail/public/topics-images/rpi.png?itok=6foMUDiT", 
    "//upic.me/i/lb/2016-05-15-16.32.19.jpg", 
    "/sites/all/themes/blognone42/images/linebutton.png"
  ], 
  "Link": "https://www.blognone.com/node/81079", 
  "News": "Raspberry Pi Zero ปรับปรุงย่อยรุ่น 1.3 เพิ่มพอร์ตกล้อง", 
  "Tags": [
    "Raspberry Pi"
  ], 
  "Time": "14:18"
}