{
  "By": "nismod", 
  "Contents": " กลุ่ม Unicode Consotrium ประกาศรับรองอีโมจิใหม่อีก 72 ตัว โดยจะเพิ่มเข้าสู่มาตรฐาน Unicode 9.0 ที่จะออกในช่วงปลายเดือนนี้ โดยหนึ่งในอีโมจิที่เพิ่มเข้ามา นำมาจากคำแสลงบนอินเทอร์เน็ตอย่าง ROFL (Rolling on the Floor Laughing) หรือแม้แต่สัญลักษณ์อย่าง ¯_(ツ)_/¯ ที่ถูกใช้กันอย่างแพร่หลายเช่นกัน อีโมจิอื่นๆ ที่เพิ่มเข้ามาอย่างเช่น หน้าพินอกคิโอ (จมูกยาว) อาเจียน แม้แต่ภาษามืออย่างไขว้นิ้ว จับมือ หรือ facepalm กลุ่มสัตว์อย่างเช่นกอริลลา แรด จิ้งจก กลุ่มอาหารก็มีครัวซอง ขนมปัง เบคอน ไข่ ฯลฯ ดูภาพอีโมจิใหม่ได้ที่นี่ครับ ที่มา - TechCrunch   ", 
  "Date": "3/June/2016", 
  "Image-Link": [
    "https://www.blognone.com/sites/default/files/styles/thumbnail/public/topics-images/emoji.png?itok=lfJWKIaP", 
    "/sites/all/themes/blognone42/images/linebutton.png"
  ], 
  "Link": "https://www.blognone.com/node/81826", 
  "News": "Unicode รับรองอีโมจิใหม่ 72 ตัวเข้ามาตรฐาน Unicode 9.0", 
  "Tags": [
    "Emoji", 
    "Unicode", 
    "Open Standard"
  ], 
  "Time": "16:09"
}