{
  "By": "nutmos", 
  "Contents": "
ปัจจุบันวิธีหาเพื่อนของ Snapchat ก็คือการส่ง Snapcode (โค้ดใน background สีเหลือง ลากลงมาจากหน้ากล้องก็จะเจอ) หรือค้นหา Username ตอนนี้ Snapchat ได้อัพเดตใหม่โดยมีระบบเพิ่มเพื่อนผ่าน URL เพิ่มขึ้นมา
วิธีเพิ่มเป็นเพื่อนผ่าน URL คือฝ่ายหนึ่งจะต้องเอา URL ของตัวเองจากเมนู Add Friends -> Share Username หลังจากนั้นก็ส่ง URL ให้เพื่อนอีกฝ่าย และเมื่ออีกฝ่ายเปิด URL นั้นก็จะสามารถเพิ่มเพื่อนได้ทันที
การเพิ่มเพื่อนผ่าน URL จะถือว่าสะดวกกว่า 2 แบบเดิมในบางครั้ง เช่น ต้องการส่งให้ผ่านทางแชทหรือโพสต์ลิงก์ทาง Twitter เนื่องจาก Snapcode จะเหมาะกับผู้ที่อยู่ใกล้ๆ มากกว่า ส่วนการค้นหา Username ก็มีปัญหาคือหากผู้ใช้มี Username ยาวๆ และจำยากก็อาจค้นหาลำบาก
ที่มา - The Verge
", 
  "Date": "29/01/16", 
  "Image-Link": "https://www.blognone.com/sites/default/files/imagecache/news-thumbnail/category_pictures/snapchat.png", 
  "Link": "https://www.blognone.com/node/77242", 
  "News": "Snapchat ออกอัพเดต รองรับการเพิ่มเป็นเพื่อนผ่าน URL", 
  "Tags": "Snapchat
", 
  "Time": "8:01"
}