{
  "By": "mk", 
  "Contents": " เมื่อเดือนมีนาคม Instagram ประกาศว่าจะเปลี่ยนมาใช้ timeline แบบใหม่ที่เรียงตามอัลกอริทึม ไม่เรียงตามลำดับเวลา ซึ่งในรอบ 3 เดือนที่ผ่านมา ผู้ใช้หลายคนน่าจะเริ่มเห็นกันบ้างแล้ว วันนี้ Instagram ประกาศบังคับใช้ timeline แบบใหม่กับผู้ใช้ทุกคนแล้ว โดยจะทยอยเปิดใช้งานทีละกลุ่มไปตลอดเดือนมิถุนายนนี้ บริษัทยังให้เหตุผลเหมือนเดิมว่า ปกติแล้วผู้ใช้จะพลาดโอกาส มองไม่เห็นเนื้อหา 70% ของ feed ทั้งหมด แต่การเปลี่ยนมาใช้ระบบอัลกอริทึมช่วยเลือกเนื้อหามาแสดง จะช่วยให้เราไม่พลาดโพสต์สำคัญๆ ของเพื่อนๆ ได้ ที่มา - Instagram    ", 
  "Date": "4/June/2016", 
  "Image-Link": [
    "https://www.blognone.com/sites/default/files/styles/thumbnail/public/topics-images/ig.png?itok=IUjEmhEC", 
    "http://i.imgur.com/sZx3Lum.png", 
    "/sites/all/themes/blognone42/images/linebutton.png"
  ], 
  "Link": "https://www.blognone.com/node/81843", 
  "News": "Instagram ประกาศเริ่มใช้ Timeline แบบใหม่ไม่เรียงลำดับเวลากับผู้ใช้ทุกคน", 
  "Tags": [
    "Instagram", 
    "Social Network"
  ], 
  "Time": "08:33"
}