{
  "By": "nrad6949", 
  "Contents": " Robby Stein ผู้บริหารฝ่ายผลิตภัณฑ์และถือเป็นหนึ่งในผู้บริหารคนสำคัญที่ซีอีโอ Marissa Mayer ไว้ใจและดึงตัวมาทำงานด้วย ประกาศลาออกจาก Yahoo และเตรียมจะเข้าทำงานกับ Instagram อย่างเป็นทางการ Stein ประกาศข่าวนี้บน Instagram ส่วนตัวของเขา โดยระบุว่าตื่นเต้นที่จะได้ทำงานร่วมกับ Kevin Systrom ผู้ก่อตั้งและซีอีโอของ Instagram ซึ่งทั้งสองเคยเจอกันสมัยที่ Stein ยังอยู่ Yahoo และเป็นอดีตที่ปรึกษาให้กับ Stein ที่ออกมาตั้งสตาร์ทอัพ Stamped เองก่อนจะถูก Yahoo เข้าซื้อกิจการไป บทบาทของ Stein ขณะที่อยู่ Yahoo นอกจากจะเป็นผู้บริหารฝ่ายผลิตภัณฑ์แล้ว เขายังเป็นหัวหน้าทีมวิศวกรรมของ Yahoo ที่ New York รับผิดชอบผลิตภัณฑ์สายโมบายและวิดีโอทั้งหมดของบริษัท ซึ่ง Mayer ตั้งเป้าหมายว่าจะเป็นแกนหลักในการพลิกฟื้นบริษัท แต่ก็ไม่สามารถทำได้สำเร็จอย่างที่คาดจนมีข่าวลือว่าบริษัทจะถูกขายอีกครั้ง ที่มา - Recode      I'm excited to share the news that next week I'll be joining the product leadership team at Instagram! As one of the first users on the initial beta, I've seen Instagram grow to become the essential visual platform that connects the world, and I am thrilled to reunite with @kevin to help lead this exciting next phase of the product. I'm also incredibly thankful to Marissa for giving me the opportunity to build new products and teams at Yahoo the last several years. It has been inspiring to see firsthand her truly uncompromising commitment to both the end user and the company. Also with this new chapter, I will now be based in the Bay Area. I'll be back in NYC frequently, but say hi if you're traveling out West! A photo posted by Robby Stein (@robby) on May 13, 2016 at 7:34am PDT     ", 
  "Date": "16/May/2016", 
  "Image-Link": [
    "https://www.blognone.com/sites/default/files/styles/thumbnail/public/news-thumbnails/fcb7e7b6fbaf8af3066424f27eb0901b.jpeg?itok=h223pQmf", 
    "/sites/all/themes/blognone42/images/linebutton.png"
  ], 
  "Link": "https://www.blognone.com/node/81010", 
  "News": "Robby Stein ผู้บริหารฝ่ายผลิตภัณฑ์ของ Yahoo ลาออกไปทำงานกับ Instagram", 
  "Tags": [
    "Instagram", 
    "Yahoo!"
  ], 
  "Time": "10:19"
}