{
  "By": "nismod", 
  "Contents": " Jani (นามสมมติ) เด็กชายวัย 10 ขวบชาวฟินแลนด์ กลายเป็นเด็กที่อายุน้อยที่สุดที่ได้รับรางวัล Bug Bounty จากเฟสบุ๊คจากการค้นพบช่องโหว่ที่ทำให้เขาสามารถลบคอมเม้นท์ไหนก็ได้บน Instagram แม้จะไม่ใช่ของตัวเองก็ตาม Jani มีความสนใจเรื่องการเขียนโปรแกรมอยู่ก่อนแล้ว และการค้นพบช่องโหว่นี้ ทำให้เขาสามารถเข้าไปลบคอมเม้นท์ Instagram ได้จากเซิร์ฟเวอร์ และหลังจากแจ้งไปยังเฟซบุ๊คแล้ว เด็กน้อยคนนี้ได้ยืนยันการค้นพบ ด้วยการลบคอมเม้นท์ที่ทาง Instagram โพสต์จากแอคเคาท์ทดสอบ ซึ่งนั่นทำให้ Jani ได้เงินรางวัลสูงถึง 1 หมื่นเหรียญสหรัฐฯ ช่องโหว่นี้ถูกค้นพบตั้งแต่เดือนกุมภาพันธ์ที่ผ่านมา และทาง Instagram ก็ได้อัพเดตแพทช์แก้ช่องโหว่นี้ไปเรียบร้อยแล้ว ก่อนที่ Jani จะได้เงินรางวัลในเดือนถัดมา ที่มา - Forbes   ", 
  "Date": "3/May/2016", 
  "Image-Link": [
    "https://www.blognone.com/sites/default/files/styles/thumbnail/public/topics-images/ig.png?itok=IUjEmhEC", 
    "/sites/all/themes/blognone42/images/linebutton.png"
  ], 
  "Link": "https://www.blognone.com/node/80578", 
  "News": "เด็กฟินแลนด์วัย 10 ขวบได้รางวัลกว่า 1 หมื่นเหรียญ จากการพบบั๊กลบคอมเม้นท์ใน Instagram ", 
  "Tags": [
    "Instagram", 
    "Sweden", 
    "Bug"
  ], 
  "Time": "21:36"
}