{
  "By": "nutmos", 
  "Contents": " Huawei เพิ่งเปิดตัวมือถือเรือธง P9 ที่มาพร้อมกล้องคู่​ผลงานความร่วมมือกับ Leica ซึ่งแน่นอนว่า Huawei ต้องชูจุดขายเรื่องการถ่ายภาพ และโปรโมตความสามารถของกล้องโดยการโพสต์ภาพที่ถ่ายผ่าน Huawei P9 ลงบน social network ต่าง ๆ มากมาย แต่ก็มีคนไปพบว่ามีภาพหนึ่งที่โพสต์ผ่าน +HuaweiMobile บอกว่าถ่ายจาก P9 แต่ข้อมูลที่แสดงออกมาบอกว่าถ่ายจาก Canon ในภาพดังกล่าวที่เป็นปัญหา Huawei อ้างว่าถ่ายจาก P9 แต่ EXIF ที่ Google+ แสดงขึ้นมาบอกว่า ภาพดังกล่าวถ่ายโดยใช้กล้อง Canon EOS 5D Mark III และเลนส์ EF70-200mm f/2.8L IS II USM ซึ่งมีราคารวมของกล้องและเลนส์อยู่ที่ประมาณ 4,500 ดอลลาร์ และแน่นอนว่ามันราคาแพงกว่ามือถือ Huawei มาก หลังจากถูกจับได้ Huawei ก็ยืนยันว่าภาพนั้นไม่ได้ถูกถ่ายบน Huawei P9 จริง แต่ถ่ายในช่วงที่กำลังทำโฆษณา Huawei P9 ซึ่ง Huawei ไม่ได้มีเจตนาหลอกลวง และยอมรับผิดพร้อมกับลบรูปดังกล่าวเรียบร้อยแล้ว ที่มา - DIY Photography, Android Police    ", 
  "Date": "5/July/2016", 
  "Image-Link": [
    "https://www.blognone.com/sites/default/files/styles/thumbnail/public/topics-images/huawei.png?itok=6S9mP3fu", 
    "http://i.cubeupload.com/aJ6Bq6.jpg", 
    "/sites/all/themes/blognone42/images/linebutton.png"
  ], 
  "Link": "https://www.blognone.com/node/82997", 
  "News": "Huawei โพสต์ภาพที่อ้างว่าถ่ายจาก P9 แต่ข้อมูลจากไฟล์ภาพบอกว่าถ่ายจาก Canon", 
  "Tags": [
    "Huawei"
  ], 
  "Time": "07:49"
}