{
    "By": "Blltz", 
    "Contents": "\nในยุคของอินเทอร์เน็ต แม้แต่ยานพาหนะรุ่นเล็กอย่างสกู๊ตเตอร์ก็ถูกทำให้เก่งขึ้นด้วย ในงาน CES 2016 ที่เพิ่งจบไป มีผู้ผลิตสกู๊ตเตอร์สัญชาติอเมริกาอย่าง GenZe ที่มีผู้ผลิตรายใหญ่สัญชาติอินเดีย Mahindra ให้การสนับสนุนเบื้องหลังออกมาเปิดสกู๊ตเตอร์ไฟฟ้ารุ่นใหม่ที่ทำได้มากกว่าสกู๊ตเตอร์ทั่วไปด้วยการเชื่อมต่อตัวรถเข้ากับระบบกลุ่มเมฆ\nด้านสเปคของตัวสกู๊ตเตอร์ GenZe 2.0 เป็นสกู๊ตเตอร์ขนาดมาตรฐาน ขับเคลื่อนด้วยความเร็วสูงสุดราว 50 กิโลเมตรต่อชั่วโมง แบตเตอรี่วางอยู่ใต้เบาะคนขับใช้เดินทางได้ราว 50 กิโลเมตรเช่นกัน โดยสามารถชาร์จกลับจนเต็มได้ในเวลา 3 ชั่วโมงครึ่งผ่านปลักไฟตามบ้านทั่วไป\nฟีเจอร์น่าสนใจของ GenZe 2.0 มีตั้งแต่การเลือกโหมดขับขี่สามแบบระหว่าง Safe, Econ และ Sport โดย Safe จะมีแรงบิดต่ำสุด, Sport แรงบิดสูงสุด เร่งความเร็วจาก 0 ถึง 50 กิโลเมตรต่อชั่วโมงได้ภายใน 8 วินาที ส่วน Econ จะเน้นระยะการเดินทางมากกว่าความเร็ว โดยของใหม่กว่านั้นคือ GenZe 2.0 สามารถเชื่อมต่อกับกลุ่มเมฆเพื่อส่งข้อมูลกลับ และแสดงผลข้อมูลพื้นฐานอย่างความเร็ว ปริมาณแบตเตอรี่บนหน้าจอขนาด 7\" หรือแอพบนสมาร์ทโฟน ซึ่งมีฟีเจอร์อื่นๆ ตั้งแต่การเช็คสภาพรถ ระบุตำแหน่ง หรือแม้แต่การวางแผนการเดินทาง\n\nMahindra เปิดราคา GenZe 2.0 สกู๊ตเตอร์ไฟฟ้ารุ่นใหม่มาที่ 3,000 เหรียญ (ราว 110,000 บาท) พร้อมบริการอีก 3 ปี\nที่มา - Digital Trends\n\n\n", 
    "Date": "12/01/16", 
    "Image-Link": "https://www.blognone.com/sites/default/files/imagecache/news-thumbnail/news-thumbnails/gzw.png", 
    "Link": "https://www.blognone.com/node/76621", 
    "News": "GenZe 2.0 สกู๊ตเตอร์ไฟฟ้าพร้อมระบบเชื่อมต่อกลุ่มเมฆ เช็คสภาพรถได้จากสมาร์ทโฟน", 
    "Tags": "Cloud\nTransportation\n", 
    "Time": "13:57"
}