{
    "By": "lew", 
    "Contents": "\nกรรมการโทรคมนาคม (National Telecommunications Commission - NTC) ของฟิลิปปินส์กำลังเสนอร่างเงื่อนไขการโฆษณาบริการอินเทอร์เน็ตว่าเป็น \"บรอดแบนด์เคลื่อนที่\" (mobile broadband) ว่าต้องมีความเร็วขั้นต่ำ 256kbps เท่าๆ กับประกาศนิยามบรอดแบนด์มีสายที่เพิ่งประกาศไปเมื่อปีที่แล้ว\nฟิลิปปินส์มีพื้นที่เป็นเกาะจำนวนมาก ประชากรถึง 90% เชื่อมต่ออินเทอร์เน็ตผ่านโทรศัพท์มือถือ\nกระบวนการผ่านร่างนี้อยู่ในขั้นตอนการรับฟังความคิดเห็นครั้งสุดท้าย อย่างไรก็ดีผู้ให้บริการที่ไม่ทำตามร่างประกาศนี้จะถูกลงโทษด้วยกฎหมายบริการสาธารณะที่ตรากฎหมายไว้ตั้งแต่ปี 1936 และมีบทลงโทษการโฆษณาผิดเป็นค่าปรับเพียงวันละ 155 บาท (200 เปโซฟิลิปปินส์) เท่านั้น โดยกำลังมีการเสนอแก้กฎหมายเพื่อเพิ่มค่าปรับอยู่\nหากร่างนี้ผ่าน NTC เตรียมจะทดสอบความเร็วอินเทอร์เน็ตภายในเดือนมิถุนายนนี้ก่อนการเลือกตั้ง\nที่มา - Rappler\n", 
    "Date": "12/01/16", 
    "Image-Link": "https://www.blognone.com/sites/default/files/imagecache/news-thumbnail/category_pictures/philippines.png", 
    "Link": "https://www.blognone.com/node/76641", 
    "News": "กสทช. ฟิลิปปินส์ร่างประกาศนิยามบรอดแบนด์เคลื่อนที่ต้อง 256kbps ขึ้นไป", 
    "Tags": "Internet\nMobile\nPhilippines\n", 
    "Time": "21:56"
}