{
    "By": "mk", 
    "Contents": "\nBill Ford Jr. ประธานบอร์ดของบริษัทรถยนต์ Ford (และเหลนของ Henry Ford ผู้ก่อตั้งบริษัท) ให้สัมภาษณ์กับ Wall Street Journal ถึงความจำเป็นของ Ford ในการปฏิวัติตัวเองใหม่ (reinvent this company) เพื่อตอบโจทย์ของผู้ใช้รถยนต์ในอีก 50 ปีข้างหน้า\nแนวทางของ Ford มีทั้งรถยนต์ไฟฟ้า, รถยนต์ไร้คนขับ และบริการแชร์รถยนต์ (car-sharing ลักษณะเดียวกับ Uber/Lyft) เป้าหมายระยะยาวของบริษัทคือเปลี่ยนตัวเองเป็นบริษัทเทคโนโลยี สร้างรถยนต์รุ่นใหม่ที่ฉลาดและเป็นมิตรต่อสิ่งแวดล้อม แทนการเป็นบริษัทประกอบรถยนต์ที่ต้องพึ่งพาเทคโนโลยีของผู้อื่น\nส่วนของธุรกิจรถยนต์ไร้คนขับนั้น Ford ใช้วิธีจับมือกับกูเกิล โดย Ford จะพัฒนาซอฟต์แวร์สำหรับชิ้นส่วนรถยนต์ ส่วนกูเกิลทำซอฟต์แวร์ระดับสูงสำหรับขับเคลื่อนและนำทาง\nข่าววงในล่าสุดคือ Ford อาจแยกธุรกิจรถยนต์ไร้คนขับออกมาเป็นบริษัทลูก เพื่อทุ่มทุนวิจัยเรื่องนี้อย่างจริงจัง นอกจากนี้ Ford ยังจะแตกบริษัทใหม่ชื่อ FordPass ที่เป็นบริการซ่อมบำรุง-ช่วยเหลือผู้ใช้รถยนต์ผ่านสมาร์ทโฟนอีกด้วย\nที่มา - Wall Street Journal\n", 
    "Date": "12/01/16", 
    "Image-Link": "https://www.blognone.com/sites/default/files/imagecache/news-thumbnail/category_pictures/ford.png", 
    "Link": "https://www.blognone.com/node/76626", 
    "News": "[ข่าวลือ] Ford เตรียมแยกบริษัทลูก ทำเรื่องรถยนต์ไร้คนขับโดยเฉพาะ", 
    "Tags": "Automobile\nFord\nRumor\n", 
    "Time": "15:06"
}