{
    "By": "mk", 
    "Contents": "\nแว่นเสมือนจริง HTC Vive เลื่อนมาหลายรอบ คราวนี้ซีอีโอ Cher Wang คอนเฟิร์มว่าไม่เลื่อนแล้ว บริษัทจะเปิดให้สั่งซื้อล่วงหน้า 29 กุมภาพันธ์นี้ และของจะส่งมอบในเดือนเมษายน ตอนนี้ยังไม่เปิดเผยราคา\nHTC เพิ่งนำแว่น Vive รุ่นที่สองมาโชว์ในงาน CES 2016 เมื่อสัปดาห์ที่แล้ว แว่นรุ่นใหม่มีความเปลี่ยนแปลงจากเดิมหลายจุด รวมถึงเพิ่มกล้องหน้าเข้ามาเพื่อให้ผู้ใช้มองเห็นภาพด้านหน้าของตัวเองด้วย\nที่มา - Telegraph\n\n", 
    "Date": "12/01/16", 
    "Image-Link": "https://www.blognone.com/sites/default/files/imagecache/news-thumbnail/category_pictures/vivepre.png", 
    "Link": "https://www.blognone.com/node/76608", 
    "News": "HTC Vive เปิดขาย 29 ก.พ. นี้ ของส่งมอบเดือน เม.ย.", 
    "Tags": "HTC\nHTC Vive\nValve\nVirtual Reality\n", 
    "Time": "9:20"
}