{
    "By": "nrad6949", 
    "Contents": "\nเว็บไซต์ Luxy ซึ่งเป็นเว็บไซต์และแอพสำหรับหาคู่ในบรรดาคนร่ำรวย เปิดเผยผลการสำรวจในบรรดาลูกค้าของตนเองจำนวน 1,400 คน โดยพบว่าลูกค้าที่เป็นผู้ชายนั้น ร้อยละ 72 จะชื่นชอบนาฬิกา Apple Watch ส่วนลูกค้าผู้หญิงนั้น กว่าร้อยละ 80 เลือกที่จะคบ (เดท) กับคนที่ใส่นาฬิกาอย่าง Rolex ซึ่งเป็นนาฬิกาที่บ่งบอกถึงสถานภาพทางสังคมมากกว่า\nแม้ต่อให้เปลี่ยนเป็นนาฬิกาแบบ Apple Watch Edition ที่ใช้ทอง 18 กะรัต และมีราคาจำหน่ายแพงมากแล้ว ผู้หญิงกว่าร้อยละ 43 ก็ยังคงเลือกที่จะคบกับผู้ชายที่ใส่ Rolex มากกว่าอยู่ดี\nโฆษกของ Luxy ระบุว่า มันไม่ชัดเจนว่าในอีก 12 - 18 เดือนจากนี้ Apple Watch จะยังได้รับความนิยมอยู่หรือไม่ ขณะที่นาฬิกาอย่าง Rolex นั้นอย่างน้อยก็ยังมีค่าอยู่\nที่มา - Cult of Mac\n", 
    "Date": "12/01/16", 
    "Image-Link": "https://www.blognone.com/sites/default/files/imagecache/news-thumbnail/category_pictures/apple-watch.png", 
    "Link": "https://www.blognone.com/node/76640", 
    "News": "ผลสำรวจในหมู่คนร่ำรวยเผย แม้ผู้ชายจะชอบ Apple Watch แต่ผู้หญิงเลือกจะคบกับคนใส่ Rolex มากกว่า", 
    "Tags": "Apple Watch\nLuxury\nRolex\nSmart Watch\nWearable Computing\n", 
    "Time": "20:30"
}