{
    "By": "nuntawat", 
    "Contents": "\nเว็บไซต์ Nokiapoweruser เผยภาพหลุดต้นแบบฟีเจอร์โฟนติดโลโก้ Nokia จากเว็บไซต์ในจีน พร้อมระบุว่าต้นแบบนี้น่าจะถูกยกเลิกโครงการไปแล้ว\nNokiapoweruser ยังกล่าวว่า โนเกียกำลังพัฒนามือถือรัน Android ถึงสามรุ่น โดยสองในสามน่าจะมีหน้าจอราว 5-5.5 นิ้ว และน่าจะมากับฟีเจอร์ใหม่อย่างการปฏิสัมพันธ์กับเครื่องด้วยการโบกนิ้ว (hover interaction) กล้อง และเสียง\nหวังว่าเราจะได้เห็นมือถือรัน Android จากโนเกียในอนาคตนะ\nที่มา: Weibo และ Tieba Baidu ผ่าน Nokiapoweruser\n\n", 
    "Date": "12/01/16", 
    "Image-Link": "https://www.blognone.com/sites/default/files/imagecache/news-thumbnail/category_pictures/nokia.png", 
    "Link": "https://www.blognone.com/node/76610", 
    "News": "หลุดฟีเจอร์โฟนจากโนเกียที่น่าจะถูกยกเลิกโครงการไป, ลือ โนเกียทำมือถือ Android สามรุ่น", 
    "Tags": "Android\nLeak\nMobile\nNokia\nRumors\n", 
    "Time": "9:50"
}