{
  "By": "sunnywalker", 
  "Contents": " ผลวิจัยจากหน่วยงานประเมินการศึกษาของสหรัฐฯ (NAEP) พบว่า ผู้หญิงมีผลการทดสอบด้านวิศวกรรมและเทคโนโลยีสูงกว่าผู้ชาย โดยทำการทดสอบเด็กนักเรียนระดับเกรดแปด ประเมินจาก 3 เนื้อหา คือ เทคโนโลยีและสังคม, การออกแบบและระบบ และเทคโนโลยีสารสนเทศ (เป็นผลการศึกษาในปี 2014) ผลคือ ผู้หญิงมีคะแนนค่าเฉลี่ยนสูงกว่าผู้ชาย 3 คะแนน และ 43% ของนักเรียนทั้งหมด ทำคะแนนสูงในระดับที่เรียกได้ว่าเชี่ยวชาญ ในจำนวนนี้ เป็นผู้หญิง 45% และ ผู้ชาย 42% ผลการศึกษานี้อาจโต้แย้งความคิดที่่านักเรียนผู้หญิงมีความสนใจด้านเทคโนโลยีน้อย อย่างน้อยก็ในระดับนักเรียนเกรดแปด ผลการศึกษานี้อาจเป็นส่วนหนึ่งที่ช่วยลดช่องว่างทางเพศในบริษัทเทคโนโลยีและวิศวกรรมได้  ที่มา - The Register   ", 
  "Date": "18/May/2016", 
  "Image-Link": [
    "https://www.blognone.com/sites/default/files/styles/thumbnail/public/topics-images/542px-Heterosexuality_symbol.svg_.png?itok=OFK2f0c4", 
    "http://i.imgur.com/AjmFVmY.png", 
    "/sites/all/themes/blognone42/images/linebutton.png"
  ], 
  "Link": "https://www.blognone.com/node/81153", 
  "News": "นักเรียนหญิงในสหรัฐฯได้คะแนนทดสอบวิศวกรรมและเทคโนโลยีสูงกว่าเด็กผู้ชาย", 
  "Tags": [
    "Gender", 
    "Technology", 
    "Engineering"
  ], 
  "Time": "17:53"
}