{
  "By": "nutmos", 
  "Contents": " Fujifilm ได้เปิดตัวกล้องรุ่นใหม่ X-T2 ซึ่งเป็นกล้องรุ่นแรกในตระกูล X-series ของ Fujifilm ที่รองรับการถ่ายวิดีโอแบบ 4K ตัวกล้องของ X-T2 ใช้เซนเซอร์ 24.3 ล้านพิกเซล X-Trans CMOS III APS-C ซึ่งเป็นตัวเดียวกับ X-Pro2 พร้อมกับระบบ hybrid AF ที่อัพเกรดใหม่ รวมถึงมี joystick สำหรับเลือกจุดโฟกัสอัตโนมัติเหมือนกับ X-Pro2 และมีความเร็วชัตเตอร์สูงสุดในทางกลไกที่ 1/8000 และในทางอิเล็กทรอนิกส์ที่ 1/32000 และปรับปรุงอัลกอริทึมของ AF-C ซึ่งจะช่วยให้การตอบสนองของตัวกล้องเร็วขึ้น ส่วนการแสดงผลนั้น X-T2 ใช้ช่องมองภาพอิเล็กทรอนิกส์แบบ OLED ที่ 2.36 ล้านจุด มี lag time 0.005 วินาที อัตราการขยาย 0.77x เท่า ส่วนจอหลักเป็น LCD ขนาด 3 นิ้ว 1.04 ล้านจุด พร้อมบานพับ ตัวกล้องทำจากแมกนีเซียมอัลลอยด์ พร้อมการซีลกันน้ำกันฝุ่น 63 จุด สามารถใช้งานได้ในสถานที่ที่อุณหภูมิต่ำสุดถึง 14 องศาฟาเรนไฮต์ (-10 องศาเซลเซียส) นอกจากนี้ยังมีแฟลชตัวใหม่ EF-X500 ไว้สำหรับเสียบกับ hot shoe ของตัวกล้อง รองรับโหมด FP (high-speed flash sync) ซึ่งสามารถใช้งานได้ทุกค่าความเร็วชัตเตอร์ รวมถึงสามารถตั้งค่า multi-flash สำหรับใช้งานกับแฟลชตัวอื่นได้ด้วย และสามารถใช้โหมด TTL ได้ทั้งโหมด single-flash และ multi-flash สำหรับราคาของ Fujifilm X-T2 บอดี้อย่างเดียวอยู่ที่ 1,559.95 ดอลลาร์ (ประมาณ 55,000 บาท) ส่วนบอดี้พร้อมเลนส์ XF18-55mm อยู่ที่ 1,899.95 ดอลลาร์ (ประมาณ 67,000 บาท) และแฟลช EF-X500 ราคาอยู่ที่ 449.99 ดอลลาร์ (ประมาณ 16,000 บาท) ที่มา - dpreview         ", 
  "Date": "7/July/2016", 
  "Image-Link": [
    "https://www.blognone.com/sites/default/files/styles/thumbnail/public/news-thumbnails/fujifilm-x-t2.jpg?itok=JTPzTHMy", 
    "http://i.cubeupload.com/xs9Grt.jpg", 
    "http://i.cubeupload.com/dWYzG4.jpg", 
    "http://i.cubeupload.com/hcquyO.jpg", 
    "http://i.cubeupload.com/miK1Zo.jpg", 
    "http://i.cubeupload.com/serK0j.jpg", 
    "http://i.cubeupload.com/WSwQh6.jpg", 
    "/sites/all/themes/blognone42/images/linebutton.png"
  ], 
  "Link": "https://www.blognone.com/node/83140", 
  "News": "Fujifilm เปิดตัว X-T2 ถ่ายวิดีโอได้ 4K พร้อมปรับปรุงความเร็วการโฟกัส", 
  "Tags": [
    "Fujifilm", 
    "Camera", 
    "Mirrorless"
  ], 
  "Time": "18:13"
}