{
  "By": "nrad6949", 
  "Contents": " Donald Trump ตัวเก็งว่าที่ผู้สมัครลงเลือกตั้งประธานาธิบดีสหรัฐฯ จากพรรคริพับลิกัน ออกมาให้สัมภาษณ์กับสถานีโทรทัศน์ FOX News ของสหรัฐอเมริกา โดยระบุว่า Jeff Bezos เจ้าของหนังสือพิมพ์ Washington Post และ Amazon มีพฤติกรรมที่ผูกขาดและพยายามหลบเลี่ยงภาษี Trump กล่าวหา Bezos ว่าใช้หนังสือพิมพ์ Washington Post ในการเป็นกระบอกเสียงให้กับตัวเอง ซึ่งทำให้นักการเมืองไม่ออกมาตรวจสอบการเสียภาษีและการดำเนินธุรกิจของ Amazon ที่พยายามหลีกเลี่ยงไม่จ่ายภาษีในสิ่งที่ควรจะจ่าย (ว่าง่ายๆ คือ Trump กล่าวหาว่า Bezos ใช้ Washington Post เพื่อเบี่ยงประเด็นการเลี่ยงภาษีของ Amazon) เมื่อผู้สื่อข่าวพยายามติดต่อทั้ง Bezos และ Amazon เพื่อขอความเห็น ต่างได้รับการปฏิเสธที่จะกล่าวถึงเรื่องนี้ การตอบโต้ของ Trump ในครั้งนี้ เกิดขึ้นเพราะหนึ่งในบรรณาธิการของหนังสือพิมพ์ ออกมาระบุว่าเตรียมที่จะตีแผ่ชีวิตของ Trump ในทุกมิติ โดยเตรียมผู้สื่อข่าวกว่า 20 คน ในการทำข่าวเชิงลึก ทั้งหมดได้รับไฟเขียวจาก Bezos ให้ทำแบบนี้กับผู้สมัครลงชิงชัยตำแหน่งประธานาธิบดีสหรัฐฯ ทุกราย อย่างไรก็ตามโดยส่วนตัวแล้ว Bezos เพิ่งบริจาคเงินใหักับ สส. ของพรรคริพับลิกันประจำมลรัฐ Utah ไปเมื่อกันยายนที่ผ่านมา ที่มา - FOX News    ", 
  "Date": "14/May/2016", 
  "Image-Link": [
    "https://www.blognone.com/sites/default/files/styles/thumbnail/public/topics-images/donald-trump.png?itok=ZgmCdBaL", 
    "https://c2.staticflickr.com/6/5456/17454990406_88ef19dbe9_z.jpg", 
    "/sites/all/themes/blognone42/images/linebutton.png"
  ], 
  "Link": "https://www.blognone.com/node/80970", 
  "News": "Donald Trump กล่าวหา Jeff Bezos ว่ามีพฤติกรรมผูกขาด", 
  "Tags": [
    "Donald Trump", 
    "Jeff Bezos", 
    "Antitrust", 
    "Amazon", 
    "USA", 
    "Politics"
  ], 
  "Time": "09:08"
}