{
  "By": "mk", 
  "Contents": " ไมโครซอฟท์ออกซอฟต์แวร์ด้านการวิเคราะห์ข้อมูลทั้ง Power BI และ Cortana Intelligence ชุดใหญ่ ดังนี้  Power BI Embedded หรือ Power BI เวอร์ชันนำไปฝังบนแอพพลิเคชันของคนอื่น เข้าสถานะตัวจริง general availability (GA) แล้ว บริษัทผู้พัฒนาซอฟต์แวร์เชิงธุรกิจสามารถนำ Power BI ไปใช้งานได้ ไม่ต้องเขียนระบบส่วนนี้เอง จ่ายค่าใช้งานให้ไมโครซอฟท์ตามจำนวนครั้งในการเรนเดอร์ข้อมูล Power BI publish to web หรือ Power BI เวอร์ชันสำหรับฝังลงหน้าเว็บ โดยสร้างกราฟจากเวอร์ชันเดสก์ท็อปแล้วนำกราฟมาลงเว็บอีกที ตัวนี้เข้าสถานะ GA เช่นกัน แต่ใช้งานได้ฟรี (ใครอยากลองดูตัวอย่าง ดูได้จากเว็บนักลงทุนของไมโครซอฟท์ ที่นำข้อมูลการเงินไปลง Power BI แล้วฝังลงเว็บอีกที) Cortana Intelligence หรือชื่อเดิม Cortana Analytics Suite เพิ่มฟีเจอร์ชื่อ Bing Predicts ที่ดึงฐานข้อมูลเว็บและโซเชียลของ Bing มาประกอบการวิเคราะห์ข้อมูลของเราเองได้ (ไม่ต้องเสียเวลามาดูดข้อมูลเว็บและโซเชียลเอง ใช้ของ Bing ได้เลย) ฟีเจอร์ตัวนี้เป็นตัวเดียวกับที่ Bing ใช้ทายผลกีฬาหรือผลการเลือกตั้งต่างๆ นั่นเอง  ที่มา - Microsoft   ", 
  "Date": "9/July/2016", 
  "Image-Link": [
    "https://www.blognone.com/sites/default/files/styles/thumbnail/public/topics-images/powerbi.png?itok=-KDhFckk", 
    "/sites/all/themes/blognone42/images/linebutton.png"
  ], 
  "Link": "https://www.blognone.com/node/83205", 
  "News": "ไมโครซอฟท์ออก Power BI Embedded รุ่นจริง และฟีเจอร์ฝังกราฟลงหน้าเว็บ", 
  "Tags": [
    "Power BI", 
    "Microsoft", 
    "Cortana", 
    "Big Data", 
    "Enterprise"
  ], 
  "Time": "11:14"
}