{
  "By": "nrad6949", 
  "Contents": "
Chris Hoffman คอลัมนิสต์ของเว็บไซต์ข่าวไอที PCWorld ได้ออกบทความที่ตั้งสมมติฐานว่าทำไม Chromebook หลายรุ่น โดยเฉพาะรุ่นแรกๆ จะไม่ได้รับความสามารถให้รันแอพ Android โดยระบุว่าอาจเป็นเพราะมีการเปลี่ยนแปลงด้านซอฟต์แวร์ทำให้ไม่สามารถทำงานได้อย่างที่คาด
PCWorld ระบุว่า แม้ Google จะไม่ออกมาระบุว่าทำไมอุปกรณ์ Chrome OS บางรุ่นถึงไม่ได้อัพเดตความสามารถดังกล่าวนี้ แต่ทางเว็บไซต์คาดว่าอาจเป็นเพราะการเปลี่ยนแนวทางที่จากเดิมใช้ ARC มาเป็น container ทำงานบน Chrome OS แทน ทำให้ความสามารถระดับล่าง (low-level features) บางอย่าง อาจมีความจำเป็นที่จะต้องใช้ Linux Kernel รุ่นใหม่ และทำให้การอัพเกรดอาจทำได้ล่าช้าขึ้น ซค่งน่าจะเป็นเหตุผลที่ทำให้ Google ตัดสินในนำเอาคุณสมบัตินี้ออกไปจาก Chromebook บางรุ่น (แม้แต่ Chromebook Pixel รุ่นแรกก็ยังไม่ได้)
ทั้งนี้ Google เองมีนโยบายการสนับสนุนอุปกรณ์ในสายองค์กรที่ยาวนานกว่า 5 ปี ซึ่งไม่ได้ระบุว่าอุปกรณ์เหล่านี้จำเป็นที่จะต้องได้รับอัพเดตด้านคุณสมบัติเสมอไปตลอดระยะเวลาการสนับสนุน
ที่มา - PCWorld

 ", 
  "Date": "29/May/2016", 
  "Image-Link": "https://www.blognone.com/sites/default/files/badges/badge-writer.png", 
  "Link": "https://www.blognone.com/node/81563", 
  "News": "คอลัมนิสต์ PCWorld ตั้งสมมติฐาน ระบุที่ Chromebook บางรุ่นรันแอพ Android ไม่ได้ อาจเกี่ยวข้องกับซอฟต์แวร์", 
  "Tags": [
    "Chromebook", 
    "Android", 
    "Chrome OS"
  ], 
  "Time": "10:58"
}