{
  "By": "nrad6949", 
  "Contents": "
Patrick Klepek คอลัมนิสต์และผู้สื่อข่าวอาวุโสของเว็บไซต์ Kotaku เขียนบทความวิจารณ์กระบวนการบังคับอัพเกรดของ Windows 10 ว่ารุนแรงขึ้นเรื่อยๆ และวิธีการที่ Microsoft ใช้ ก็เป็นวิธีการที่สร้างชื่อเสียงในทางลบให้กับบริษัท
Klepek ระบุว่ากระบวนการแจ้งเตือนให้อัพเกรดของบริษัททำให้ผู้ใช้เลื่อนกระบวนการอัพเกรดยากขึ้นไปเรื่อยๆ และไม่มีตัวเลือกให้เลื่อนวันออกไปแบบง่ายๆ เหมือนในตอนแรกๆ ในที่สุดเขาต้องเจอการอัพเกรดทั้งที่เขากดปุ่มปิด (close หรือ X ของหน้าต่าง) หน้าจอแจ้งเตือนไปแล้ว ทำให้เขารู้สึกว่าถูกปฏิบัติเหมือนเด็กเล็ก (I was being treated like a child.) ซึ่งทำให้เขาไม่พอใจมาก
Klepek บอกว่าตัวเขาเองมีแผนที่จะอัพเกรดอยู่แล้ว แต่ไม่เข้าใจว่าทำไม Microsoft ถึงต้องบังคับมากมายขนาดนี้ (ในบทความถึงขั้นมีคำผรุสวาท) และ Windows 10 ก็เป็นผลิตภัณฑ์ที่ดี และควรให้ผลิตภัณฑ์พูดด้วยตัวเองจะดีที่สุดมากกว่าการบังคับให้อัพเกรด
ที่มา - Kotaku

 ", 
  "Date": "29/May/2016", 
  "Image-Link": "https://www.blognone.com/sites/default/files/badges/badge-writer.png", 
  "Link": "https://www.blognone.com/node/81565", 
  "News": "คอลัมนิสต์ Kotaku วิจารณ์ Microsoft กรณีพยายามผลักดันอัพเกรดเป็น Windows 10 บอกรุนแรงขึ้นเรื่อยๆ", 
  "Tags": [
    "Windows 10", 
    "Kotaku", 
    "Microsoft"
  ], 
  "Time": "12:13"
}