{
  "By": "mk", 
  "Contents": " EA Sports เปิดตัวเกมฟุตบอลภาคใหม่ประจำปี FIFA 17 การเปลี่ยนแปลงที่สำคัญของภาคนี้มี 2 อย่าง อย่างแรกคือเปลี่ยนเอนจินเกมมาใช้ Frostbite (เอนจินตัวเดียวกับ Battlefield ที่กำลังจะกลายเป็นเอนจินมาตรฐานของค่าย EA) ผลคือกราฟิกมีความสวยงาม สมจริง ลงรายละเอียดขึ้นอีกมาก อย่างที่สองคือโหมดเนื้อเรื่อง เราจะรับบทเป็น Alex Hunter นักฟุตบอลดาวรุ่งอายุ 17 ปีที่กำลังจะเซ็นสัญญามาเล่นในพรีเมียร์ลีก (เลือกทีมเองได้ แต่ในเทรลเลอร์เป็นนักเตะของแมนยู) เกมโหมดเนื้อเรื่องมีทั้งการแข่งขันในสนามฟุตบอล และการตัดสินใจเลือกเส้นทางอาชีพ เช่น เลือกเอเยนต์ส่วนตัว สัมพันธ์กับเพื่อนร่วมทีมและผู้จัดการทีม เกมภาคนี้ได้นักฟุตบอลชื่อดังมาเป็นพรีเซนเตอร์ 4 คนคือ Eden Hazard (Chelsea), Anthony Martial (Manchester United), Marco Reus (Dortmund), James Rodríguez (Real Madrid) รวมถึงผู้จัดการทีม Jose Mourinho ที่มาร่วมงานแถลงข่าวเปิดตัวเกมด้วย FIFA 17 จะวางขายวันที่ 27 กันยายน 2016 ลงเครื่อง Xbox One, PlayStation 4, PC, Xbox 360, PlayStation 3 ที่มา - EA     โหมดเนื้อเรื่อง ชีวิตของ Alex Hunter เทรลเลอร์สาธิตเกมเพลย์   ", 
  "Date": "13/June/2016", 
  "Image-Link": [
    "https://www.blognone.com/sites/default/files/styles/thumbnail/public/news-thumbnails/fifa17.jpg?itok=CIqZwtKU", 
    "http://i.imgur.com/XomRQZY.jpg", 
    "http://i.imgur.com/261eKhM.jpg", 
    "http://i.imgur.com/3Y3jfUa.jpg", 
    "http://i.imgur.com/KMDbMg9.jpg", 
    "/sites/all/themes/blognone42/images/linebutton.png"
  ], 
  "Link": "https://www.blognone.com/node/82174", 
  "News": "FIFA 17 เปิดตัว เปลี่ยนเอนจินเป็น Frostbite, เพิ่มโหมดเนื้อเรื่อง สานฝันพรีเมียร์ลีก", 
  "Tags": [
    "FIFA", 
    "EA", 
    "Games", 
    "Football"
  ], 
  "Time": "09:01"
}