{
  "By": "nutmos", 
  "Contents": " Variety รายงานว่า BitTorrent เตรียมขยายบริการถ่ายทอดสดของทางบริษัทเพิ่มเติมให้ทันภายในการเลือกตั้งเดือนพฤศจิกายนนี้ เป็นบริการข่าวสดที่ใช้ชื่อว่า BitTorrent News โดยการขยายบริการจากแอพ OTT News ที่ปัจจุบันมีอยู่บน Apple TV, iOS และ Android และตอนนี้ทางบริษัทกำลังหาตัวผู้กำกับและทีมงานข่าวอยู่ จากรายการสมัครงานนั้นก็พอจะทราบว่าบริการข่าวของ BitTorrent จะเน้นไปในด้านข่าวด่วน อย่างเช่น แคมเปญการเมือง, กีฬา, ไอที และวัฒนธรรม ซึ่งรายงานข่าวของ Variety บอกว่าบริการใหม่ของ BitTorrent จะยังไม่เปิดเร็ว ๆ นี้ และบริการนี้ไม่น่าใช่ข่าวแบบ 24 ชั่วโมงที่จะเป็นคู่แข่งโดยตรงกับเคเบิลทีวีด้วย โฆษกของ BitTorrent ปฏิเสธที่จะให้ความเห็นเกี่ยวกับเรื่องนี้ และบอก Variety เพียงว่า \"เราได้การดำเนินการที่เน้นด้านสื่อบนแพลตฟอร์มทั้งหมดของเราอย่างมาก ซึ่งรวมถึงความบันเทิงแบบ on-demand และโปรแกรมการถ่ายทอดสดแล้ว\" ที่มา - Variety, Engadget   ", 
  "Date": "21/June/2016", 
  "Image-Link": [
    "https://www.blognone.com/sites/default/files/styles/thumbnail/public/topics-images/bittorrent_0.png?itok=h1aU7EKT", 
    "/sites/all/themes/blognone42/images/linebutton.png"
  ], 
  "Link": "https://www.blognone.com/node/82488", 
  "News": "BitTorrent ประกาศรับสมัครงานเตรียมเปิดบริการช่องข่าวในชื่อ BitTorrent News", 
  "Tags": [
    "BitTorrent"
  ], 
  "Time": "09:17"
}