{
  "By": "nismod", 
  "Contents": " ศาลในสหรัฐต้องเผชิญกับการยื่นฟ้องละเมิดลิขสิทธิ์ จากการดาวน์โหลดและอัพโหลดไฟล์ผ่าน BitTorrent แทบจะทุกอาทิตย์ ล่าสุดดูเหมือนว่าผู้พิพากษาในศาลแขวงออริกอน จะกำหนดมาตรฐานการยื่นฟ้องใหม่แล้ว จากการปฏิเสธไม่ยอมรับว่าหมายเลข IP อย่างเดียวเพียงพอที่จะเป็นหลักฐานในการยื่นฟ้อง โจทก์ในคดีนี้คือผู้สร้างหนัง The Cobbler ยื่นฟ้องนาย Thomas Gonzales ว่าละเมิดลิขสิทธิ์หนังของตน แต่ทว่าผู้พิพากษา Stacie Beckerman ของศาลแขวงรัฐออริกอนปฏิเสธรับฟ้องโดยให้เหตุผลว่า หมายเลข IP ที่ตามปกติมักถูกใช้เป็นหลักฐานในการเอาผิด ไม่เพียงพอจะเป็นหลักฐานอีกต่อไปแล้ว ผู้พิพากษาให้เหตุผลว่า ถึงแม้ว่าผู้ที่ถูกฟ้องอาจจะละเมิดลิขสิทธิ์จริง แต่ก็ยังมีความเป็นไปได้ที่บุคคลอื่นๆ ภายในบ้านจะเป็นคนละเมิดลิขสิทธิ์ ไม่ใช่นาย Gonzales ซึ่งเท่ากับว่านาย Gonzales เป็นเพียงหนึ่งในผู้ที่มีความเป็นไปได้ที่จะละเมิดลิขสิทธิ์ และการเจาะจงนาย Gonzales เป็นเพียงการคาดเดาสุ่มเท่านั้น ที่มา - TorrentFreak   ", 
  "Date": "29/June/2016", 
  "Image-Link": [
    "https://www.blognone.com/sites/default/files/styles/thumbnail/public/topics-images/bittorrent_0.png?itok=h1aU7EKT", 
    "/sites/all/themes/blognone42/images/linebutton.png"
  ], 
  "Link": "https://www.blognone.com/node/82796", 
  "News": "ศาลออริกอนไม่รับฟ้องละเมิดลิขสิทธิ์ ชี้หมายเลข IP อย่างเดียวไม่พอเป็นหลักฐาน", 
  "Tags": [
    "BitTorrent", 
    "Lawsuit", 
    "USA"
  ], 
  "Time": "11:16"
}