{
  "By": "nismod", 
  "Contents": " หลังจากเปลี่ยนไปใช้โดเมมนอื่นๆ มาหลายโดเมนทั้ง .to, .sx, .ac และ .se ล่าสุด The Pirate Bay อ่าวโจรสลัดที่เป็นแหล่งรวมไฟล์ torrent ขนาดใหญกลับไปใช้โดเมน .org ซึ่งเป็นโดเมนสมัยก่อตั้งแล้ว โดยโดเมนอื่นๆ ทั้งหมดจะถูก redirect ไปยัง thepiratebay.org ทั้งหมด การเปลี่ยนโดเมนครั้งนี้ อาจได้เห็นท่าทีของทางการสหรัฐมากยิ่งขึ้น เนื่องจากหน่วยงานที่ดูแลโดเมน .org ตั้งอยู่ในรัฐเวอร์จิเนียของสหรัฐ ที่มา - CNET   ", 
  "Date": "25/May/2016", 
  "Image-Link": [
    "https://www.blognone.com/sites/default/files/styles/thumbnail/public/news-thumbnails/piratebay.PNG?itok=CA8pnIfq", 
    "/sites/all/themes/blognone42/images/linebutton.png"
  ], 
  "Link": "https://www.blognone.com/node/81394", 
  "News": "The Pirate Bay กลับไปใช้โดเมน .org แล้ว", 
  "Tags": [
    "The Pirate Bay", 
    "BitTorrent"
  ], 
  "Time": "15:20"
}