{
  "By": "nutmos", 
  "Contents": " BitTorrent ได้เปิดตัวระบบสตรีมมิ่งของตัวเองในชื่อ BitTorrent Live โดยบริการนี้จะเป็นบริการสตรีมมิ่งถ่ายทอดสดจากทีวี และช่วงเปิดบริการจะเน้นคอนเทนต์ฟรีจากช่องเล็ก ๆ หลาย ๆ ช่อง BitTorrent Live นั้นไม่ได้เปิดตัวมาพร้อมกับช่องใหญ่ ๆ ซึ่ง BitTorrent บอกว่าถึงแม้จะไม่มีช่องใหญ่ ๆ แต่ก็มีช่องที่ครอบคลุมเนื้อหากว้างขวาง เช่น Fightbox, Filmbox Arthouse, Clubbing TV, AWE, FAST&FUN, OpenNews TV ส่วนสำคัญของบริการ BitTorrent Live นั้นคงไม่ใช่คอนเทนต์ แต่เป็นเทคโนโลยีที่ใช้ระบบ torrent ในการส่งข้อมูล หรือว่าเปลี่ยนให้ผู้ชมทุกคนเป็นผู้กระจายเนื้อหาด้วยนั่นเอง โดย BitTorrent บอกว่าเทคโนโลยีนี้จะช่วยแก้ปัญหาการแลคในการถ่ายทอดสด ทำให้ผู้ชมดูวิดีโอสดได้โดยมี latency ไม่ถึง 10 วินาที โดยไม่ต้องใช้ CDN ที่มีราคาแพงเลย ในอนาคตนั้น BitTorrent เผยว่าจะมีการเพิ่มคอนเทนต์อื่นๆ เช่นคอนเทนต์ที่ต้องจ่ายเงินเข้ามาเพิ่มเติมอีกด้วย BitTorrent Live วางแผนว่าจะออกแอพบน Apple TV ในสัปดาห์นี้ ก่อนที่จะมาบน iOS และ Android ในเดือนมิถุนายน ที่มา - BitTorrent, The Verge    ", 
  "Date": "23/May/2016", 
  "Image-Link": [
    "https://www.blognone.com/sites/default/files/styles/thumbnail/public/topics-images/bittorrent_0.png?itok=h1aU7EKT", 
    "http://i.cubeupload.com/6H4w8d.png", 
    "/sites/all/themes/blognone42/images/linebutton.png"
  ], 
  "Link": "https://www.blognone.com/node/81292", 
  "News": "BitTorrent เปิดตัว BitTorrent Live บริการสตรีมทีวี ใช้ระบบ torrent ส่งข้อมูล", 
  "Tags": [
    "BitTorrent", 
    "Live Streaming"
  ], 
  "Time": "16:24"
}