{
  "By": "nutmos", 
  "Contents": " หลายคนน่าจะยังจำบริการ BitTorrent Sync บริการแชร์ไฟล์ข้ามเครื่องคอมพิวเตอร์ผ่านโพรโตคอลแบบ P2P ซึ่งทาง BitTorrent ได้เปิดตัวมาตั้งแต่ปี 2013 ก่อนหน้านี้ 2 เดือน BitTorrent Inc. เพิ่งจะเปลี่ยนตัวซีอีโอจาก Eric Klinker โดยมี Jeremy Johnson และ Robert Delamar มาแทน ซึ่งแต่เดิม Klinker ทำให้ BitTorrent เป็นบทบาททางเทคนิค (in a technical role) ซึ่งบทบาทนี้มีอายุสั้น และ Delamer จะตั้งธุรกิจใหม่ที่ชื่อว่า Resilio Delamer พูดถึงโมเดลธุรกิจใหม่ของ BitTorrent ไว้ว่า Sync นั้นมีฐานผู้ใช้ที่เติบโตและมีบริษัทที่สนใจที่ให้โอกาสที่ธุรกิจ ส่วน BitTorrent Bundle program นั้นมีผู้ใช้ร้อยล้านคนและผู้สร้างสรรค์ถึง 3 หมื่นคนที่สนใจ ซึ่งเป็นโอกาสอันดีของเราในการโฟกัสไปยังด้านสื่อ นอกจากนี้ เขายังกล่าวต่อไปว่าถ้าแยกบริษัทออกเป็น 2 บริษัท คือธุรกิจสื่อสำหรับผู้ใช้ทั่วไป และธุรกิจสำหรับองค์กร ก็จะช่วยให้บริษัทแข็งแกร่งขึ้น ซึ่งหมายความว่า BitTorrent นั้นจะเน้นสื่อสำหรับผู้ใช้ทั่วไป ส่วน Resilio จะเน้นตลาดองค์กรด้วย Sync ที่มา - VentureBeat   ", 
  "Date": "16/June/2016", 
  "Image-Link": [
    "https://www.blognone.com/sites/default/files/styles/thumbnail/public/topics-images/bittorrent_0.png?itok=h1aU7EKT", 
    "/sites/all/themes/blognone42/images/linebutton.png"
  ], 
  "Link": "https://www.blognone.com/node/82351", 
  "News": "BitTorrent เตรียมแยก Sync ออกมาเป็นบริษัท Resilio สำหรับเน้นตลาดองค์กร", 
  "Tags": [
    "BitTorrent"
  ], 
  "Time": "23:11"
}