{
  "By": "sunnywalker", 
  "Contents": " ผลิตภัณฑ์ดังกล่าวมีชื่อว่า Watt a Box ลักษณะเป็นกล่องใส่อาหารธรรมดาที่ประกอบ power bank ไว้ในตัว มีช่องเสียบชาร์จแบตเตอรี่เหมือน power bank มีราคา 149 รูปีหรือ 3 ดอลลาร์ ราคารวมอาหารในกล่องแล้ว และไม่ใช่ทุกคนที่ซื้อได้ ทางร้านจะคัดเลือกจากผู้โชคดีจาก Facebook ที่เข้าร่วมการแข่งขันออนไลน์ บริษัทฟาสต์ฟู้ดในอินเดียเข้าอื่นก็ทำผลิตภัณฑ์ทำนองนี้มาก่อนแล้ว เช่นกล่องพิซซ่า Pizza Hut เป็นโปรเจ็กเตอร์ฉายหนังได้ ก่อนหน้านี้ไม่นาน McDonald ร่วมมือกับ Rovio และ Sony ทำวิดีโอ 360 องศา บริษัทระบุว่าตัว power bank มีกำลัง 6,100 มิลลิแอมป์ มากพอที่จะชาร์จ iPhone 6 ให้เต็มได้ถึง 3 ครั้ง แต่จากการตรวจสอบโดยเว็บไซต์เกี่ยวกับเทคโนโลยีในอินเดีย พบว่า พลังงานของมันไม่พอที่จะชาร์จโทรศัพท์ได้แม้แต่รอบเดียวด้วยซ้ำ ที่มา - The Straits Times, The Times of India   ", 
  "Date": "23/June/2016", 
  "Image-Link": [
    "https://www.blognone.com/sites/default/files/styles/thumbnail/public/topics-images/kfc.png?itok=nYVL2KGe", 
    "/sites/all/themes/blognone42/images/linebutton.png"
  ], 
  "Link": "https://www.blognone.com/node/82586", 
  "News": "KFC ในอินเดีย เปิดตัวกล่องใส่อาหารที่ชาร์จโทรศัพท์ได้ ", 
  "Tags": [
    "KFC", 
    "India"
  ], 
  "Time": "14:03"
}