{
  "By": "nismod", 
  "Contents": " คำว่า แฟนบอลคือผู้เล่นคนที่ 12 ดูจะจับต้องได้และเป็นรูปธรรมมากขึ้น เมื่อ Wearable Experiments บริษัทผลิตอุปกรณ์สวมใส่เปิดตัว Football Fan Shirt เสื้ออัจฉริยะสำหรับแฟนๆ ได้สัมผัสอารมณ์และแอคชันต่างๆ ในเกมร่วมไปกับนักฟุตบอลจริงๆ ทางบริษัทไม่ได้ระบุว่าบนเสื้อฝังอุปกรณ์อะไรไว้บ้าง ระบุแต่เพียงว่าใช้เทคโนโลยี Choreographed Haptic Feedback โดยตัวเสื้อจะต้องเชื่อมต่อกับสมาร์ทโฟนผ่าน Bluetooth ก่อนและเลือกทีมที่ต้องการติดตาม ขณะที่แอคชันต่างๆ ที่ผู้สวมใส่จะได้สัมผัสร่วมไปกับเกมมีทั้งตอนเตะมุม, แจกใบเหลือง/แดง, ยิงจุดโทษ/ฟรีคิก, การทำฟาล์ว/ล้ำหน้า, รวมไปถึงจังหวะทำประตูและช่วงการแสดงอาการดีใจหลังทำประตู อย่างไรก็ตามทาง Wearable Experiments ไม่ได้ระบุว่าจะทำออกมาขายเมื่อใดและราคาเท่าไหร่ครับ ที่มา - Wearable Experiments via Engadget   ", 
  "Date": "20/June/2016", 
  "Image-Link": [
    "https://www.blognone.com/sites/default/files/styles/thumbnail/public/topics-images/watch_s.jpg?itok=KPASDPQe", 
    "/sites/all/themes/blognone42/images/linebutton.png"
  ], 
  "Link": "https://www.blognone.com/node/82461", 
  "News": "พาไปชมเสื้อฟุตบอลอัจฉริยะ ให้แฟนบอลได้สัมผัสอารมณ์ร่วมในเกมการแข่งขัน", 
  "Tags": [
    "Football", 
    "Wearable Computing"
  ], 
  "Time": "15:27"
}