{
  "By": "nismod", 
  "Contents": " นักพัฒนาและบริษัทด้านความปลอดภัยทางไซเบอร์พยายามจะพัฒนาซอฟต์แวร์ที่ตรวจจับ Crypto Ransomware รวมถึงพยายามหาทางปลดล็อกการเข้ารหัสไฟล์มาอย่างต่อเนื่อง ขณะที่ฝั่งแฮกเกอร์เองก็พยายามทำให้ Ransomware ของตัวเองให้ก้าวล้ำอย่างต่อเนื่องเช่นกัน เนื่องจากเป็นช่องทางที่อาจเรียกได้ว่าสร้างรายได้ค่อนข้างมาก เฉพาะ Crypto Ransomware ที่มีชื่อว่า CryptoXXX เพียงตัวเดียว สามารถทำเงินหลังปล่อยออกมาเมื่อต้นเดือนที่ผ่านมาไปแล้วกว่า 45,228 เหรียญสหรัฐ และปัจจุบันก็ยังคงไม่มีเครื่องมือของบริษัทด้านความปลอดภัยเจ้าไหนสามารถถอดรหัสไฟล์ได้ โดยนักวิจัยของ SentinelOne บริษัทด้านความปลอดทางไซเบอร์ระบุว่า จำนวนเงินที่ได้จากการเรียกค่าไถ่ ทำให้เราจะได้เห็น ransomware ทั้งในกลุ่มนี้และกลุ่มอื่นๆ พัฒนาตัวเองอย่างต่อเนื่อง โดยปัจจัยสำคัญคือการเก็บข้อมูลสำคัญไว้บนคอมพิวเตอร์ รวมถึงระบบของ Bitcoin ที่ทำให้การติดตามแฮ็กเกอร์นั้นแทบเป็นไปไม่ได้ ที่มา - Ars Technica   ", 
  "Date": "28/June/2016", 
  "Image-Link": [
    "https://www.blognone.com/sites/default/files/styles/thumbnail/public/topics-images/security-icon.png?itok=JZKobGMz", 
    "/sites/all/themes/blognone42/images/linebutton.png"
  ], 
  "Link": "https://www.blognone.com/node/82770", 
  "News": "Ransomware CryptoXXX เรียกค่าไถ่ไปได้แล้วกว่า 4 หมื่นเหรียญใน 3 สัปดาห์", 
  "Tags": [
    "Ransomware", 
    "Malware", 
    "Security"
  ], 
  "Time": "16:11"
}