{
  "By": "arjin", 
  "Contents": " Google Trends รายงานแนวโน้มการค้นหาข้อมูลของคนในสหราชอาณาจักร หลังจากผล Brexit หรือการลงประชามติที่สรุปว่าต้องการออกจากสหภาพยุโรป โดยคำค้นว่า \"จะเกิดอะไรขึ้นถ้าเราต้องออกจากสหภาพยุโรป\" (what happens if we leave the EU) เพิ่มขึ้นถึง 250% หลังการประกาศผลประชามติ นอกจากนี้ยังมีคำค้นที่เกี่ยวกับสหภาพยุโรป หรือ EU ที่มีจำนวนเพิ่มสูงขึ้นมากหลังประกาศผล อาทิเช่น \"อะไรคือ EU\" หรือ \"EU มีประเทศใดบ้าง\" นอกจากนี้คำค้นอื่นที่เพิ่มขึ้นเช่นกัน ก็มีทั้ง \"หนังสือเดินทางไอร์แลนด์\" หรือปริมาณการค้นเกี่ยวกับเงินปอนด์ ของอังกฤษ ก็เพิ่มสูงที่สุดในประวัติศาสตร์ของกูเกิล อย่างไรก็ตามต้องระมัดระวังว่า Google Trends รายงานปริมาณการค้นแบบเทียบอัตราส่วน ไม่ได้ระบุว่ามีจำนวนมากน้อยเพียงใดครับ ที่มา: Business Insider และ BBC    ", 
  "Date": "25/June/2016", 
  "Image-Link": [
    "https://www.blognone.com/sites/default/files/styles/thumbnail/public/topics-images/1280px-Flag_of_the_United_Kingdom.svg_.png?itok=uzQi5eG9", 
    "https://c8.staticflickr.com/8/7429/27894345415_a1dcbcf940_z.jpg", 
    "/sites/all/themes/blognone42/images/linebutton.png"
  ], 
  "Link": "https://www.blognone.com/node/82667", 
  "News": "Google Trends เผยชาวสหราชอาณาจักรค้น \"ออกจาก EU แล้วเป็นอย่างไร\" เพิ่มขึ้น", 
  "Tags": [
    "United Kingdom", 
    "Google Trends"
  ], 
  "Time": "18:03"
}