{
  "By": "mk", 
  "Contents": " ซัมซุงประกาศลงทุนวิจัยด้าน IoT ในสหรัฐอเมริกาเป็นเงิน 1.2 พันล้านดอลลาร์ในอีก 4 ปีข้างหน้า โดยจะกระจายงานไปยังศูนย์วิจัยของซัมซุง 3 แห่งคือ Samsung Strategy and Innovation Center, Global Innovation Center, Samsung Research America Wall Street Journal รายงานว่าเงินก้อนนี้จะถูกแบ่งไปใช้ลงทุนวิจัยภายในบริษัท และการลงทุนในสตาร์ตอัพอื่นอย่างละครึ่งเท่าๆ กัน (อีกสักพักเราคงเห็นซัมซุงไล่ลงทุนในบริษัท IoT มากขึ้น) Oh-Hyun Kwon รองประธานและซีอีโอของซัมซุงบอกว่าบริษัทกำลังผลักดัน IoT เข้ามาเป็นแกนกลางของยุทธศาสตร์ด้วย ซัมซุงยังประกาศความร่วมมือกับอินเทลชื่อ National Internet of Things Strategy เป็นโครงการผลักดัน IoT ในสหรัฐ โครงการนี้จะบริหารโดยกลุ่มอุตสาหกรรม  Information Technology Industry Council (ITI) ด้วย ที่มา - Samsung Newsroom, Samsung Newsroom, Wall Street Journal   ", 
  "Date": "22/June/2016", 
  "Image-Link": [
    "https://www.blognone.com/sites/default/files/styles/thumbnail/public/topics-images/j8u2rhG1.jpg?itok=CJuE6qSo", 
    "/sites/all/themes/blognone42/images/linebutton.png"
  ], 
  "Link": "https://www.blognone.com/node/82556", 
  "News": "ซัมซุงทุ่มงบวิจัย 1.2 พันล้านดอลลาร์ ผลักดัน IoT ในสหรัฐ เตรียมลงทุนสตาร์ตอัพ", 
  "Tags": [
    "Samsung", 
    "Internet of Things", 
    "Startup"
  ], 
  "Time": "19:08"
}