{
  "By": "mk", 
  "Contents": " Citi สถาบันการเงินรายใหญ่โลก โชว์วิดีโอต้นแบบการซื้อขายหุ้นด้วยแว่น HoloLens ของไมโครซอฟท์ ซึ่งช่วยให้ผู้ซื้อขายหุ้นเห็นความเชื่อมโยงของข้อมูลการเงินแบบเรียลไทม์ด้วยการแสดงผลผ่าน holographic ต้นแบบของ Citi มาพร้อมกับโต๊ะที่มีมอนิเตอร์ และสามารถแสดงผลให้เพื่อนร่วมงานหรือลูกค้าดูได้พร้อมๆ กัน เพื่อร่วมแสดงความเห็นว่าควรซื้อหุ้นตัวนั้นหรือไม่ ที่มา - Bank Innovation   ", 
  "Date": "19/June/2016", 
  "Image-Link": [
    "https://www.blognone.com/sites/default/files/styles/thumbnail/public/topics-images/citi.png?itok=7HvXyQ9R", 
    "/sites/all/themes/blognone42/images/linebutton.png"
  ], 
  "Link": "https://www.blognone.com/node/82434", 
  "News": "ซื้อหุ้นแบบเสมือนจริง Citi โชว์ต้นแบบระบบซื้อขายหุ้นผ่านแว่น HoloLens", 
  "Tags": [
    "Citigroup", 
    "HoloLens", 
    "Hologram", 
    "Virtual Reality"
  ], 
  "Time": "19:55"
}