{
  "By": "lew", 
  "Contents": " AIS Fibre หยุดจ่าย public IPv4 ให้กับลูกค้าตามบ้านแล้วหันมาจ่าย private IPv4 ที่ต้องใช้งานผ่าน NAT คู่กับ IPv6 ตั้งแต่วันที่ 16 มิถุนายนที่ผ่านมา และลูกค้าใหม่ทั้งหมดจะได้รับ IPv6 โดยแต่ละบ้านได้รับ prefix แบบ /64 ผ่านกระบวนการ DHCP-PD ทาง AIS คาดว่าโครงสร้างนี้จะทำให้เปิดบริการเพิ่มเติมให้ลูกค้าได้ในอนาคต เช่น การขายกล้องวงจรปิดที่เชื่อมต่อกับ IPv6 ได้โดยตรง และทางบริษัทเชื่อว่าการเชื่อมต่อในอนาคตเช่น IPTV หรืออุปกรณ์ IoT จะเชื่อมต่อผ่าน IPv6 ทั้งหมด บทเรียนในการวางระบบ IPv6 ขนาดใหญ่ครั้งนี้ทาง AIS มีความได้เปรียบหลายอย่าง เช่น การเป็นรายใหม่ทำให้สามารถวางอุปกรณ์โครงสร้างพื้นฐานให้รองรับ IPv6 ได้ตั้งแต่ต้น, การแจกจ่ายอุปกรณ์ CPE ให้ลูกค้าต้องมีการทดสอบเฟิร์มแวร์ล่วงหน้า, และสำรวจตลาดว่าต้องการใช้งานแบบใด ซึ่งสุดท้าย AIS ยังเลือกวางระบบแบบ dual-stack ในแง่ต้นทุนแล้ว ทาง AIS ต้องการลดต้นทุนในการวางระบบ NAT ขนาดใหญ่ในระยะยาวอีกด้วย ที่มา - APNIC   ", 
  "Date": "20/June/2016", 
  "Image-Link": [
    "https://www.blognone.com/sites/default/files/styles/thumbnail/public/topics-images/ais.png?itok=v9BMgBcj", 
    "/sites/all/themes/blognone42/images/linebutton.png"
  ], 
  "Link": "https://www.blognone.com/node/82471", 
  "News": "AIS Fibre หยุดจ่าย public IPv4 และหันมาจ่าย private IPv4 คู่กับ IPv6", 
  "Tags": [
    "AIS", 
    "IPv6", 
    "Thailand"
  ], 
  "Time": "21:17"
}