{
  "By": "Lamicrosz", 
  "Contents": " ไมโครซอฟท์ออกอัพเดตแอพ Maps ที่ติดตั้งมากับ Windows 10 ให้กับผู้ใช้ทั่วไปที่ไม่ใช่ Windows Insider  ปรับปรุงระบบการนำทาง, รองรับการแสดงผลแนวนอน, เพิ่มการแจ้งเตือนเกี่ยวกับการขนส่งสาธารณะ รองรับการค้นหาหลายจุดพร้อมๆ กัน ปรับปรุงการ์ดแสดงรายละเอียดของสถานที่ เพิ่มข้อมูลในการแสดงผลแบบออฟไลน์ เพิ่มระบบโอนย้ายสถานที่โปรดจาก HERE เนื่องด้วย HERE ได้ประกาศหยุดพัฒนาแอพเวอร์ชัน Windows  ที่มา - Windows Experience Blog      ", 
  "Date": "22/June/2016", 
  "Image-Link": [
    "https://www.blognone.com/sites/default/files/styles/thumbnail/public/topics-images/MSFT_logo_rgb_C-Gray.png?itok=j3hJhqua", 
    "http://i.imgur.com/kjLspjx.jpg", 
    "http://i.imgur.com/zmA7z0I.jpg", 
    "http://i.imgur.com/KcHSNfn.jpg", 
    "/sites/all/themes/blognone42/images/linebutton.png"
  ], 
  "Link": "https://www.blognone.com/node/82563", 
  "News": "ไมโครซอฟท์ออกอัพเดตแอพ Maps เพิ่มตัวโอนสถานที่โปรดจาก HERE", 
  "Tags": [
    "Microsoft", 
    "Maps", 
    "Here", 
    "Windows 10 Mobile", 
    "Windows 10"
  ], 
  "Time": "23:02"
}