{
  "By": "nutmos", 
  "Contents": " เรียกได้ว่าเป็นหนึ่งในโลกโซเชียลจริง ๆ สำหรับสตรีหมายเลขหนึ่ง Michelle Obama ซึ่งตอนนี้เธอก็ได้สร้างบัญชี Snapchat เป็นที่เรียบร้อยแล้ว บัญชี Snapchat ของ Mrs. Obama จะใช้ในการโพสต์ Snap จากทำเนียบขาว ให้ผู้ติดตามของเธอดูเบื้องหลังของกิจวัตรประจำวัน รวมถึงงานอย่างเป็นทางการของเธอและสามีที่จัดขึ้นตลอดปี ใครที่สนใจสามารถเข้าไปติดตามได้โดยการส่อง Snapcode ด้านท้ายข่าวครับ ส่วนบทสัมภาษณ์เรื่องความเป็นหนึ่งในโลกโซเชียลของ Mrs. Obama สามารถอ่านได้จากข่าวเก่า ที่มา - The Verge    ", 
  "Date": "22/June/2016", 
  "Image-Link": [
    "https://www.blognone.com/sites/default/files/styles/thumbnail/public/topics-images/snapchat.png?itok=JyM_TIkc", 
    "http://i.cubeupload.com/3hH0Ln.jpg", 
    "/sites/all/themes/blognone42/images/linebutton.png"
  ], 
  "Link": "https://www.blognone.com/node/82533", 
  "News": "Michelle Obama สตรีหมายเลขหนึ่งเปิดบัญชี Snapchat แล้ว", 
  "Tags": [
    "Snapchat", 
    "Michelle Obama"
  ], 
  "Time": "07:38"
}