{
  "By": "Job_The_Gamer", 
  "Contents": " Groove Music แอพฟังเพลงจากไมโครซอฟท์ประกาศเพิ่มระบบแนะนำเพลงในชื่อว่า Your Groove ซึ่งจะช่วยสร้างเพลย์ลิสต์ที่ตรงใจผู้ใช้ (แบบเดียวกับ Spotify) โดยอาศัยข้อมูลจากการใช้งาน Groove Music อย่างเพลงที่ผู้ใช้เปิดบ่อย/เพลงที่เพิ่งเพิ่มเข้ามา, ข้อมูลต่างๆ ของเพลงอย่างแนวเพลง อารมณ์เพลง, ความเป็นไปของวงการดนตรีในขณะนั้น จนไปถึงแนวดนตรีที่เหมาะกับการฟังตามโอกาส/กิจกรรมต่างๆ เช่น เข้าสู่โหมดตั้งใจทำงานหรือเพลงสำหรับปาร์ตี้ และเช่นเดียวกับบริการสตรีมเพลงอื่นๆ ผู้ใช้จำเป็นต้องสมัครสมาชิกเพื่อที่จะเข้าถึงเพลงในคลังได้อย่างเต็มที่ อย่างไรก็ตามผู้ที่ไม่ได้สมัคร Music Pass ก็ยังสามารถใช้งานฟังก์ชั่น Your Groove เพื่อช่วยจัดเพลย์ลิสต์จากคลังเพลงบน OneDrive ที่ผู้ใช้ได้อัพโหลดไว้ได้ ผู้ใช้งาน Windows Insider กลุ่ม Fast ring ทั้งพีซีและมือถือ สามารถอัพเดต Groove Music เพื่อทดลองใช้ Your Groove ก่อนใครได้ผ่าน Windows Store สำหรับผู้ใช้ทั่วไปผมคาดว่าอัพเดตน่าจะมาพร้อมๆ กับ Windows 10 Anniversary Update ครับ ที่มา - Windows Central 1, 2    ", 
  "Date": "22/June/2016", 
  "Image-Link": [
    "https://www.blognone.com/sites/default/files/styles/thumbnail/public/news-thumbnails/Groove_Music_logo.png?itok=bxc_XUU2", 
    "https://lh3.googleusercontent.com/-PbpLjNIv6HE/V2q0FaGtAhI/AAAAAAAAAtk/vuu9y8YekC0gNmymZPjBbc4HaL6M5g8VQCCo/s640/Your%2BGroove.png", 
    "/sites/all/themes/blognone42/images/linebutton.png"
  ], 
  "Link": "https://www.blognone.com/node/82562", 
  "News": "Groove บน Windows 10 อัพเดตฟีเจอร์ครั้งใหญ่, เพิ่มระบบแนะนำเพลง Your Groove ", 
  "Tags": [
    "Groove", 
    "Music Streaming", 
    "Windows 10", 
    "Windows 10 Mobile", 
    "Microsoft"
  ], 
  "Time": "23:00"
}