{
  "By": "Lamicrosz", 
  "Contents": " สโมสรฟุตบอล Schalke 04 จากประเทศเยอรมนี ประกาศผ่านหน้าเว็บไซต์อย่างเป็นทางการถึงการเข้าซื้อ Elements ทีมแข่งขันเกมแนว MOBA ชื่อดังอย่าง League of Legends แล้ว และพร้อมลงแข่งรายการ EU LCS รายการแข่งขันเก็บคะแนนประจำสัปดาห์ ที่จะเริ่มต้นในช่วงหน้าร้อนที่จะถึงนี้ ในส่วนของการแถลงข่าวอย่างเป็นทางการ จะมีขึ้นในวันที่ 19 พฤษภาคม ปัจจุบันวงการ eSports กำลังได้รับความนิยมสูงขึ้น รวมไปถึงในส่วนของมูลค่าทางการตลาดและเงินรางวัล อย่างในรายการแข่ง Mid-Season Invitational 2016 ที่เพิ่งจบไปมีเงินรางวัลรวมทั้งหมด 450,000 ดอลลาร์สหรัฐฯ (ประมาณ 15.9 ล้านบาท) ที่มา - Schalke 04, ภาพจาก FC Schalke 04 eSports (Facebook) #Schalke 04 acquires eSports team \"Elements\".More info: https://t.co/r3hJWVFToi@S04Esports! @LeagueOfLegends pic.twitter.com/iQYClQVOWS — FC Schalke 04 (@s04_en) May 16, 2016    ", 
  "Date": "16/May/2016", 
  "Image-Link": [
    "https://www.blognone.com/sites/default/files/styles/thumbnail/public/news-thumbnails/League_of_legends_logo_transparent.png?itok=NU62lLyf", 
    "http://i.imgur.com/2KiI36I.png", 
    "/sites/all/themes/blognone42/images/linebutton.png"
  ], 
  "Link": "https://www.blognone.com/node/81032", 
  "News": "สโมสรฟุตบอล Schalke 04 เข้าซื้อ Elements ทีมแข่งเกม League of Legends", 
  "Tags": [
    "League of Legends", 
    "Acquisition", 
    "Games", 
    "Germany", 
    "eSport"
  ], 
  "Time": "18:06"
}