{
  "By": "sunnywalker", 
  "Contents": " บริษัทไอทีอย่าง Facebook, Twitter, Microsoft และ YouTube เห็นพ้องกับคณะกรรมการสหภาพยุโรป ในการใช้ระเบียบปฏิบัติ ลบข้อความที่แสดงความเกลียดชัง (Hate Speech) ในโซเชียลมีเดีย ปัญหานี้เกิดจากกลุ่มก่อการร้าย ISIS ใช้โซเชียลมีเดีย เผยแพร่โฆษณาชวนเชื่อและรับสมัครนักรบเข้าร่วมกลุ่ม ISIS แม้โซเชียลมีเดียเป็นพื้นที่เปิดกว้างทางความคิดเห็น แต่ในช่วง 1-2 ปีที่ผ่านมา Twitter ระงับบัญชีที่เกี่ยวข้องกับ ISIS ไปแล้วกว่า 125,000 บัญชี Facebook เองก็ให้ความร่วมมือกับรัฐบาลเยอรมันตั้งแต่ปี 2015 ดูแลเรื่อง Hate Speech หลังจากนั้น Google และ Twitter ก็เข้าร่วมด้วย วันนี้ บริษัทยักษ์ใหญ่ไอทีทั้งสี่ ตกลงทำสัญญาอย่างเป็นทางการกับ EU เพื่อให้นโยบายนี้ไม่เพียงบังคับใช้ในบางประเทศ แต่เป็นทุกประเทศสมาชิกสหภาพยุโรป ระเบียบนี้ยังรวมถึงถ้อยคำเหยียดผิว เหยียดชาติพันธุ์ด้วย ที่มา - Techcrunch  ภาพเอกสารแถลงจาก EU   ", 
  "Date": "1/June/2016", 
  "Image-Link": [
    "https://www.blognone.com/sites/default/files/styles/thumbnail/public/topics-images/eu-flag.png?itok=5wwQInGK", 
    "http://i.imgur.com/bn7YMZq.png", 
    "http://i.imgur.com/Awgf1rJ.png", 
    "/sites/all/themes/blognone42/images/linebutton.png"
  ], 
  "Link": "https://www.blognone.com/node/81684", 
  "News": "4 ยักษ์ไอที ทำข้อตกลงกับ EU ในการลบ Hate Speech ออกจากโซเชียล", 
  "Tags": [
    "EU", 
    "Facebook", 
    "Twitter", 
    "Microsoft", 
    "YouTube", 
    "Social Network"
  ], 
  "Time": "09:26"
}