{
  "By": "mk", 
  "Contents": " Facebook ยังเดินหน้ารุกหนักกับเนื้อหาประเภทวิดีโอ จากเดิมที่มีโฆษณาแบบวิดีโอเฉพาะในเว็บ-แอพของ Facebook เอง ล่าสุดโฆษณาวิดีโอเหล่านี้สามารถแสดงผลบนเว็บไซต์อื่นๆ ผ่านเครือข่ายโฆษณา Facebook Audience Network แล้ว โฆษณาแบบวิดีโอบน Facebook Audience Network มีได้ 2 รูปแบบคือ in-stream (โฆษณาวิดีโอก่อน ตรงกลาง หรือท้ายวิดีโออื่น) และ in-article ที่เป็นเหมือนแบนเนอร์วิดีโอแทรกตามบทความทั่วไป เล่นวิดีโออัตโนมัติแต่ไม่เปิดเสียง การลงโฆษณาสามารถทำได้ง่าย โดยเฉพาะถ้าผู้ลงโฆษณาจะลงโฆษณาใน Facebook อยู่แล้ว ก็แค่เลือก Audience Network เพิ่มอีกช่องทางหนึ่งก็เรียบร้อยแล้ว ที่มา - Facebook for Business  ตัวอย่างโฆษณาแบบ in-stream ตัวอย่างโฆษณาแบบ in-article   ", 
  "Date": "17/May/2016", 
  "Image-Link": [
    "https://www.blognone.com/sites/default/files/styles/thumbnail/public/topics-images/fb-500.png?itok=7KEmyKx1", 
    "https://i.imgur.com/FlAc2zu.jpg", 
    "/sites/all/themes/blognone42/images/linebutton.png"
  ], 
  "Link": "https://www.blognone.com/node/81050", 
  "News": "Facebook ขยายโฆษณาแบบวิดีโอให้แสดงผลบนเว็บอื่นด้วย ผ่าน Audience Network", 
  "Tags": [
    "Facebook", 
    "Advertising", 
    "Online Video"
  ], 
  "Time": "07:57"
}