{
  "By": "mk", 
  "Contents": " กูเกิลซื้อบริษัท Anvato เจ้าของซอฟต์แวร์ด้านวิดีโอบนกลุ่มเมฆแบบครบวงจร ทั้งระบบสตรีมมิ่ง เข้ารหัส ตัดต่อ โฆษณา สถิติ ซึ่งมีลูกค้าเป็นบริษัทสื่อรายใหญ่ เช่น NBCUniversal, Fox, CBS และสถานีทีวีทั่วโลก Anvato จะยังให้บริการเหมือนเดิมต่อไป แต่ทีมงานจะเข้าเป็นส่วนหนึ่งของ Google Cloud Platform เพื่อขยายบริการบนโครงสร้างพื้นฐานของกูเกิลที่ใหญ่กว่ามาก ที่มา - Anvato, Google    ", 
  "Date": "9/July/2016", 
  "Image-Link": [
    "https://www.blognone.com/sites/default/files/styles/thumbnail/public/topics-images/google-cloud.png?itok=CR_PzPE2", 
    "https://i.imgur.com/Ssc3eRP.png", 
    "/sites/all/themes/blognone42/images/linebutton.png"
  ], 
  "Link": "https://www.blognone.com/node/83208", 
  "News": "กูเกิลซื้อ Anvato บริษัทซอฟต์แวร์วิดีโอบนกลุ่มเมฆ จับเข้า Google Cloud Platform", 
  "Tags": [
    "Google Cloud Platform", 
    "Google", 
    "Acquisition", 
    "Online Video"
  ], 
  "Time": "11:56"
}