{
    "By": "Blltz", 
    "Contents": "\nถ้าจำกันได้ ในปี 2014 พานาโซนิคเคยเปิดตัว Lumix DMC-CM1 สมาร์ทโฟนฟิวชันกับกล้องที่มาพร้อมกับเซ็นเซอร์ขนาดใหญ่ ความละเอียดสูงถึง 20 เมกะพิกเซลพร้อมกับการควบคุมที่ครบครัน แต่วางขายจำกัดในแถบยุโรปเท่านั้น\nผ่านมาปี 2016 ดูเหมือนพานาโซนิคจะยังอยากทำกล้องรันแอนดรอยด์เจ๋งๆ อีกครั้ง ด้วยการเปิดตัว DMC-CM10 ที่สเปค และหน้าตาเหมือนกับรุ่นก่อนหน้าอย่าง DMC-CM1 ทุกประการ ต่างกันเพียงแค่ฟังก์ชันการโทรศัพท์ที่หายไป (ยังใส่ซิมต่อ 4G ได้) และอัพเกรดระบบปฏิบัติการเป็น 5.0 Lollipop แทน\nLumix DMC-CM10 จะวางขายในญี่ปุ่นเท่านั้นตามที่ประกาศมา ยังไม่เปิดราคา แต่จะเริ่มขาย 25 กุมภาพันธ์นี้\nที่มา - Panasonic\n\n", 
    "Date": "21/01/16", 
    "Image-Link": "https://www.blognone.com/sites/default/files/imagecache/news-thumbnail/news-thumbnails/jn160119-4-1.jpg", 
    "Link": "https://www.blognone.com/node/76982", 
    "News": "พานาโซนิคเปิดตัว Lumix DMC-CM10 กล้องคอมแพค 20 ล้านรันแอนดรอยด์ รองรับ 4G", 
    "Tags": "Android\nCamera\nLumix\nPanasonic\n", 
    "Time": "18:05"
}