{
    "By": "Blltz", 
    "Contents": "\nเพื่อเพิ่มปริมาณนักพัฒนาในแพลตฟอร์ม iOS ให้มากขึ้นไปอีก วันนี้แอปเปิลประกาศเปิดศูนย์ฝึกอบรมนักพัฒนาแอพ iOS เป็นแห่งแรกในยุโรป ที่ประเทศอิตาลี\nการเปิดศูนย์ฝึกอบรมในครั้งนี้ แอปเปิลจับมือกับพันธมิตรในเมืองเนเปิลส์ โดยระบุว่าในยุโรปมีคนในแวดวงในไอทีกว่า 1.2 ล้านคนที่น่าจะสนใจเข้ามามีส่วนร่วมกับการพัฒนาแอพ iOS โดยเฉพาะในอิตาลีประเทศเดียวก็มีมากกว่า 75,000 คนแล้ว และมีแผนจะขยายไปยังประเทศในภูมิภาคอื่นๆ ต่อไปอีก\nการเปิดศูนย์ฝึกอบรมนักพัฒนาในครั้งนี้เรียกได้ว่าเป็นภาคต่อของแผนการอบรมออนไลน์ที่แอปเปิลเปิดมาพักใหญ่ โดยก่อนหน้านี้แอปเปิลเคยประกาศเปิดศูนย์คล้ายกันในอินโดนีเซียเมื่อปลายปีก่อนเช่นกัน\nที่มา - Apple\n\n", 
    "Date": "21/01/16", 
    "Image-Link": "https://www.blognone.com/sites/default/files/imagecache/news-thumbnail/category_pictures/Apple_logo_black.svg_.png", 
    "Link": "https://www.blognone.com/node/76996", 
    "News": "แอปเปิลเปิดศูนย์ฝึกอบรมนักพัฒนาแอพ iOS ในอิตาลี, แห่งแรกในยุโรป", 
    "Tags": "Apple\nDeveloper\nEurope\niOS\nItaly\n", 
    "Time": "23:46"
}