{
    "By": "bluemoon", 
    "Contents": "\nยุคสมัยเปลี่ยนไป การเชียร์กีฬาไปและเล่นโซเชียลเน็ตเวิร์กไปก็เป็นพฤติกรรมใหม่ของคนในยุคปัจจุบัน Facebook เองก็ได้เล็งเห็นถึงข้อนี้ จึงทำระบบ Sport Stadium เพื่ออัพเดตผลการแข่งขันแบบเรียลไทม์ และสามารถเชียร์หรือวิจารณ์การแข่งขันได้พร้อมกับดูว่ามีใครพูดถึงทีมตัวเองหรือทีมคู่แข่งอย่างไร\nสามารถใช้ระบบนี้ได้แล้วผ่านการค้นหาเกมหรือแมตช์ที่ตนเองสนใจ (แต่แมตช์ที่เกี่ยวกับไทยหรือเฉพาะกลุ่มมากๆ นี่ไม่ค่อยแน่ใจว่าสามารถเข้าถึงระบบนี้ได้หรือไม่)\nที่มา - Facebook Newsroom\n\nFacebook Sports Stadium\n\n", 
    "Date": "21/01/16", 
    "Image-Link": "https://www.blognone.com/sites/default/files/imagecache/news-thumbnail/category_pictures/facebook-app-new.png", 
    "Link": "https://www.blognone.com/node/76989", 
    "News": "Facebook เปิดตัว Sport Stadium ติดตามกีฬาโปรดติดขอบสนาม", 
    "Tags": "Facebook\n", 
    "Time": "20:09"
}