{
    "By": "Lamicrosz", 
    "Contents": "\nPavel Durov ซีอีโอของ Telegram แอพแชทเข้ารหัสที่หลายๆ คนในเว็บนี้น่าจะรู้จักกัน เผยแพร่ข้อความผ่านทาง Twitter ว่าทางบริษัทมีแผนทำแอพแบบ Universal สำหรับ Windows 10 อย่างแน่นอน (Definitely)\nเรื่องนี้อาจเป็นข่าวดีสำหรับผลตอบรับจากผู้พัฒนาในแนวทาง Universal Windows Apps ที่ไมโครซอฟท์ได้ประกาศไว้ตั้งแต่ปี 2014\nที่มา - Pavel Durov (Twitter) via Microsoft News\n@GArena85 Definitely.\n— Pavel Durov (@durov) January 19, 2016\n", 
    "Date": "21/01/16", 
    "Image-Link": "https://www.blognone.com/sites/default/files/imagecache/news-thumbnail/category_pictures/telegram.png", 
    "Link": "https://www.blognone.com/node/76947", 
    "News": "ซีอีโอ Telegram ยืนยัน กำลังพัฒนาแอพเวอร์ชัน Universal สำหรับ Windows อยู่", 
    "Tags": "Instant Messenger\nTelegram\nWindows 10\n", 
    "Time": "5:28"
}