{
    "By": "lew", 
    "Contents": "\nเครือข่าย IoT สำหรับการติดตั้งในพื้นที่ขนาดใหญ่ (Low Power Wide Area Network - LPWAN) มีตัวเลือกเพิ่มขึ้นหลายตัวเลือก ที่ได้รับความนิยมมากสักหน่อยในตอนนี้เช่น LoRa และ Sigfox ล่าสุด WAVIoT เสนอโซลูชั่นทางเลือก  WAVIoT Nb-Fi\nWAVIoT Nb-Fi เชื่อมต่อกับเกตเวย์ที่ความเร็วต่ำมากๆ (เริ่มต้นเพียง 8bps) และใช้แถบคลื่นความถี่เพียง 100Hz เท่านั้น ทำให้ประสิทธิภาพการใช้คลื่นความถี่โดยรวมอยู่ในระดับสูง ระยะทำการในที่โล่งของ WAVIoT Nb-Fi ไกลถึง 50 กิโลเมตร และเกตเวย์แต่ละตัวสามารถรองรับอุปกรณ์ได้ถึง 2 ล้านชุด้ คลื่นความถี่ที่ใช้งานเป็นความถี่ในกลุ่มที่ใช้ได้ฟรี เช่น 915MHz, 868MHz, และ 433MHz\nทาง WAVIoT ระบุว่าค่าอุปกรณ์ปลายทางของ WAVIoT นั้นเริ่มต้นเพียง 2 ดอลลาร์ โดยสามารถใช้ชิปโมเด็มราคาถูกที่มีอยู่ในตลาดแล้ว เช่น Texas Instrument CC1310, หรือ Silicon Labs SI4461 ที่ราคาไม่เกิน 5 ดอลลาร์ ชิปเหล่านี้เป็นชิปกลุ่มเดียวกับที่ LoRa\nโมเดลธุรกิจของ WAVIoT ค่อนข้างน่าสนใจ เพราะบริษัทระบุว่าจะขายฮาร์ดแวร์ในราคาเท่าทุน ขณะที่บริษัทจะให้ซอฟต์แวร์เพื่อการตั้งเครือข่าย IoT รวมไปถึงซอฟต์แวร์เก็บค่าบริการจากผู้ใช้เครือข่ายด้วย แต่บริษัทจะเก็บค่าไลเซนส์ 0.05 ดอลลาร์ต่ออุปกรณ์ที่ต่อเดือน\nตอนนี้ชุดพัฒนาเริ่มต้นวางขายแล้วที่ราคา 274.99 ดอลลาร์ สำหรับมิตเตอร์น้ำราคา 28 ดอลลาร์ และมิเตอร์ไฟราคา 59 ดอลลาร์\nที่มา - CNX Software\n\n\n", 
    "Date": "21/01/16", 
    "Image-Link": "https://www.blognone.com/sites/default/files/imagecache/news-thumbnail/news-thumbnails/f905uFFk.png", 
    "Link": "https://www.blognone.com/node/76967", 
    "News": "WAVIoT แพลตฟอร์มสร้างเครือข่าย IoT ขนาดใหญ่รองรับอุปกรณ์ 2 ล้านชุดต่อเกตเวย์", 
    "Tags": "Internet of Things\n", 
    "Time": "13:54"
}