{
  "By": "nismod", 
  "Contents": " ข้อมูลส่วนตัวเป็นข้อมูลสำคัญ ที่ควรถูกปกปิดและเก็บเป็นความลับ แต่ในหลายๆ ครั้งผมกลับเห็นบางคนโพสต์ข้อมูลส่วนตัวอย่างบัตรประชาชนลงบนที่สาธารณะ โดยหารู้ไม่ว่าสามารถถูกนำเอาไปใช้สวมรอยหรือปลอมแปลงเป็นตัวเองได้ ครั้นเราอาจจะจำเป็นต้องเปิดเผยข้อมูลส่วนตัวผ่านรูป แต่ต้องการเปิดเผยข้อมูลเพียงบางส่วนเท่านั้น เว็บแอพและโมบายล์แอพอย่าง Pixlr (พิกเซลเลอร์) จากค่าย Autodesk ที่มีเครื่องมือให้เลือกมาก ใช้ง่ายและที่สำคัญคือฟรี สามารถช่วยคุณได้ครับ เว็บ Pixlr  สำหรับเว็บแอพ ให้เข้าไปที่ pixlr.com แล้วเลื่อนลงมาด้านล่าง จะมี 2 ตัวเลือกให้เลือกคือ Pixlr Editor และ Pixlr Express ให้เลือก Launch Web App ที่ตัว Editor ครับเพราะตัว Express จะคล้ายๆ กับการแต่งรูปในแอพ Instagram ที่มีให้ใส่ฟิลเตอร์ เอฟเฟ็ค และสติ๊กเกอร์  หลังจากนั้นให้เลือกแห่งที่มารูปภาพครับ ส่วนใหญ่ก็น่าจะเลือกจากคอมพิวเตอร์ตัวเองมากกว่า  อินเทอร์เฟสของ Pixlr เรียกได้ว่าแทบจะเหมือนกับ Photoshop ก็ไม่ปาน ผมไม่ลองอะไรมากนัก แต่เท่าที่ดูลูกเล่นค่อนข้างเยอะอยู่เหมือนกันครับ  เริ่มต้นการเบลอข้อความหรือข้อมูลที่เราไม่ต้องการแสดง ให้ไปที่แถบเครื่องมือ Marquee สำหรับครอบทับข้อความที่เราต้องการ โดยจุดที่ถูกครอบจะมีลักษณะเป็นกรอบจุดไข่ปลา  เมื่อครอบแล้ว ให้ไปที่แถบ Filter ด้านบนแล้วเลือก Box Blur.. จะมีแถบ Amount ขึ้นมาให้เลือกว่าเบลอมากน้อยแค่ไหน ก็ปรับกันตามใจชอบเลยครับ   หากต้องการเบลอหลายจุด ใหใช้เครื่องมือ Marquee ครอบจุดใหม่และ Box Blur อีกครั้ง ทำซ้ำได้ตามต้องการ เสร็จแล้วให้ไปที่ File บริเวณซ้ายบน แล้วกดเซฟจะมีหน้าต่างข้อมูลของรูปภาพขึ้นมา ให้กด OK แล้วหน้าต่างจะเด้งขึ้นมา ให้เราเลือกตำแหน่งไฟล์สำหรับเซฟภาพ  แอพ Pixlr ส่วนแอพ Pixlr สามารถดาวน์โหลดได้จากทั้ง Play Store และ App Store เมื่อเข้าแอพมาแล้ว กดเลือกถ่ายรูปหรืออัพรูปจาก Gallery ในเครื่องได้เลย  แล้วให้เลือกที่แถบ Brushes อันที่สอง จะพบตัวเลือกให้อีก 4 อันคือ Brighten, Darken, Pixelate และ Doodle ซึ่งพระเอกของเราก็คือ Pixelate นี่แหละครับ  Pixelate จะมี 3 ตัวเลือกให้ปรับครับคือ Size ของเคอร์เซอร์สำหรับเบลอ, Feather ความโปร่งใสของจุดที่เบลอ (ยิ่งมากยิ่งโปร่ง) และ Cell คือขนาดของเม็ดพิกเซลที่มาบังข้อความของเรา  สำหรับยางลบ จะอยู่บริเวณมุมซ้ายบนใต้รูปพู่กัน เลือกแล้ววาดไปตามจุดเบลอที่เราต้องการลบได้เลย  เท่านี้ก็เป็นอันเรียบร้อยโรงเรียน Pixlr แล้วครับ เบลอภาพหรือข้อมูลส่วนตัวง่ายๆ โดยไม่ต้องเสียเวลาลงโปรแกรมอะไรมากมายเลย Forums: Howto  ", 
  "Date": "31/May/2016", 
  "Image-Link": [
    "https://c1.staticflickr.com/8/7613/27335730336_3c94e7d805_z.jpg", 
    "https://c3.staticflickr.com/8/7431/27335729626_b3c4fcc5e3_z.jpg", 
    "https://c7.staticflickr.com/8/7744/27335729326_888775512f_z.jpg", 
    "https://c5.staticflickr.com/8/7020/27271618852_ac5ea6de82_z.jpg", 
    "https://c7.staticflickr.com/8/7714/27335728926_87b3d71397_z.jpg", 
    "https://c7.staticflickr.com/8/7723/27271618262_d9d8d69df9_z.jpg", 
    "https://c3.staticflickr.com/8/7301/27335728466_181dab676b_z.jpg", 
    "https://c7.staticflickr.com/8/7289/27271617822_782dfd58d0_z.jpg", 
    "https://c4.staticflickr.com/8/7681/27300008051_187712dc06.jpg", 
    "https://c5.staticflickr.com/8/7457/27336820476_196a9e3a57.jpg", 
    "https://c2.staticflickr.com/8/7768/27300007961_759b409c3c.jpg", 
    "https://c4.staticflickr.com/8/7304/27300007931_8fea9d80bb.jpg", 
    "https://c7.staticflickr.com/8/7448/27272836742_4e1125d4f9.jpg", 
    "https://c3.staticflickr.com/8/7573/27336820346_12db288e25.jpg", 
    "https://c6.staticflickr.com/8/7614/27300007901_d9d6b4c913.jpg", 
    "https://c2.staticflickr.com/8/7403/27300007881_8e65778d1b.jpg", 
    "/sites/all/themes/blognone42/images/linebutton.png"
  ], 
  "Link": "https://www.blognone.com/node/81654", 
  "News": "[Howto] ปกปิดข้อมูลส่วนตัวจากภาพถ่ายง่ายๆ ด้วยเว็บแอพและโมบายล์แอพ Pixlr", 
  "Tags": "-", 
  "Time": "14:56"
}