{
  "By": "sunnywalker", 
  "Contents": " เมื่อรู้จักวิธีลบการเข้าถึงแอพพลิเคชั่นผ่านเฟซบุ๊กกันไปแล้ว ก็มาดูวิธีลบในบัญชี Google กันบ้าง เมื่อไรก็ตามที่เรารู้สึกว่าแอพพลิเคชั่นนี้ หรือเว็บไซต์ที่เคยตั้งค่าการเชื่อมต่อผ่านบัญชี Google เอาไว้ไม่ปลอดภัยต่อบัญชีของเราอีกต่อไป หรือไม่ได้ใช้งานแอพฯนั้นเลย ก็สามารถลบออกจากบัญชี Google ได้ไม่ยาก เริ่มจากไปที่ account ของเราบน Google  คลิก \"Connected apps & sites\"  คลิก \"Manage Apps\"  ในที่นี้มีแอพพลิเคชั่นที่เชื่อมต่อกับบัญชีของเราเพียง 2 แอพ ถ้าต้องการลบอันไหนให้คลิกที่แถบแอพนั้นๆ  คลิก \"Remove\"  เพียงเท่านี้ก็กำจัดแอพฯที่เราไม่ไว้ใจออกไปได้แล้ว วิธีนี้ยังช่วยให้เราจัดการบัญชีได้อย่างมีประสิทธิภาพมากขึ้นด้วย Forums: Howto  ", 
  "Date": "6/June/2016", 
  "Image-Link": [
    "http://i.imgur.com/nqCtIIN.png", 
    "http://i.imgur.com/ehywUHV.png", 
    "http://i.imgur.com/xxUTwZN.png", 
    "http://i.imgur.com/rFH5Jvg.png", 
    "http://i.imgur.com/K8iG9s6.png", 
    "/sites/all/themes/blognone42/images/linebutton.png"
  ], 
  "Link": "https://www.blognone.com/node/81915", 
  "News": "[Howto] อยากลบการเข้าถึงแอพพลิเคชั่นของบัญชี Google", 
  "Tags": "-", 
  "Time": "17:55"
}