{
  "By": "nutmos", 
  "Contents": " Twitter ได้เพิ่มขนาดไฟล์ภาพเคลื่อนไหว GIF ที่สามารถอัพโหลดได้ จากเดิม 5MB เป็น 15MB แล้ว ซึ่งจะช่วยให้ผู้ใช้อัพโหลดไฟล์ภาพ GIF ที่มีความยาวมากขึ้นกว่าเดิม แต่สำหรับรูปภาพธรรมดานั้นยังคงขนาดที่ 5MB เหมือนเดิม โดยการเปลี่ยนแปลงนี้ Twitter ได้ทำแบบเงียบ ๆ ซึ่งมีผู้สังเกตเห็นผ่านเว็บไซต์ Twitter Support ทั้งนี้การอัพโหลดไฟล์ภาพและภาพเคลื่อนไหว GIF บน Twitter นั้นจะรองรับเฉพาะการอัพโหลดผ่านเว็บเท่านั้น ยังไม่รองรับการอัพโหลดผ่านมือถือรวมถึง TweetDeck แต่อย่างใด ที่มา - The Verge   ", 
  "Date": "12/July/2016", 
  "Image-Link": [
    "https://www.blognone.com/sites/default/files/styles/thumbnail/public/topics-images/twitter300.png?itok=DkxsrWCR", 
    "/sites/all/themes/blognone42/images/linebutton.png"
  ], 
  "Link": "https://www.blognone.com/node/83293", 
  "News": "Twitter เพิ่มขนาดไฟล์ภาพและ GIF ที่สามารถอัพโหลดได้เป็น 15MB", 
  "Tags": [
    "Twitter", 
    "GIF"
  ], 
  "Time": "07:32"
}