{
  "By": "nismod", 
  "Contents": " Reynaldo Gonzalez บิดาผู้สูญเสียลูกสาวจากเหตุก่อการร้ายโดยกลุ่มรัฐอิสลาม (IS) ในกรุงปารีสเมื่อเดือนพฤศจิกายนปีที่แล้ว ได้ยื่นเรื่องต่อศาลแขวง Northern District ของรัฐแคลิฟอร์เนียเพื่อฟ้อง Facebook, Google และ Twitter ฐานรับรู้และปล่อย (knowingly admitted) ให้กลุ่ม IS ใช้งานแพลตฟอร์มตัวเอง เพื่อหาสมาชิก ระดมทุนและเผยแพร่โฆษณาชวนเชื่อ อย่างไรก็ตามทางสำนักข่าว AP ระบุว่า ตามกฎหมายของสหรัฐแล้ว บริษัทที่ให้บริการไม่ต้องรับผิดชอบต่อเนื้อหาที่เกิดขึ้นในแพลตฟอร์มที่ให้บริการ อย่างไรก็ตามทนายของนาย Gonzalez อีเมลถึง AP ระบุว่าการยื่นฟ้องครั้งนี้ ไม่เกี่ยวข้องกับเนื้อหาบนเครือข่ายสังคมออนไลน์ แต่เป็นการที่ทั้ง 3 บริษัทรู้แล้วยังคงปล่อยให้กลุ่มก่อการร้ายใช้งานต่างหาก ทางด้าน Facebook ระบุว่าบริษัทมีนโยบายแจ้งเจ้าหน้าที่รัฐ ในทุกครั้งที่เจอเนื้อหาที่ส่งผลและเป็นภัยต่อความมั่นคง ส่วน Google ยืนยันถึงนโยบายของบริษัทในการยับยั้งการหาสมาชิกของกลุ่มก่อการร้าย รวมถึงการแสดงเนื้อหาที่เกี่ยวข้องกับความรุนแรง รวมถึงการลบวิดีโอ YouTube ที่ละเมิดข้อตกลงการใช้งานเป็นประจำอยู่แล้ว Twitter เองก็ยืนยันว่ามีทีมที่คอยสอดส่องเนื้อหาบนแพลตฟอร์ม และมีการติดต่อเจ้าหน้าที่รัฐทุกครั้งหากมีเหตุจำเป็น พร้อมพูดถึงกรณีก่อนหน้านี้ที่ Twitter ลบบัญชีที่เกี่ยวกับผู้ก่อการร้ายไปแล้วกว่า 1 แสนบัญชี ที่มา - Digital Trend   ", 
  "Date": "16/June/2016", 
  "Image-Link": [
    "https://www.blognone.com/sites/default/files/styles/thumbnail/public/topics-images/fb-500.png?itok=7KEmyKx1", 
    "/sites/all/themes/blognone42/images/linebutton.png"
  ], 
  "Link": "https://www.blognone.com/node/82330", 
  "News": "Facebook, Google, Twitter โดนพ่อของเหยื่อโจมตีปารีสฟ้อง เหตุปล่อยให้ IS ใช้งาน", 
  "Tags": [
    "Facebook", 
    "Google", 
    "Twitter", 
    "Social Media", 
    "Terrorism"
  ], 
  "Time": "12:01"
}