{
  "By": "nutmos", 
  "Contents": " Twitter ได้ประกาศอัพเดตแอพใหม่สำหรับ Android ซึ่ง Twitter ได้ทำการออกแบบใหม่ทั้งแอพโดยใช้ Material Design เพื่อความเข้ากันได้กับ Android เช่น  Tab bar เหนือหน้าจอและสามารถปาดไปมาระหว่าง Timeline, การแจ้งเตือน, DM และอื่นๆ เมนู Navigation จะเป็นแท็บที่จะเลื่อนออกจากทางซ้ายของหน้าจอเพื่อการเข้าถึงโปรไฟล์, Highlights, lists, Connect และการตั้งค่าได้ง่ายขึ้น ปุ่มทวีตเป็นปุ่มแบบ floating action สามารถเขียนและส่งทวีตได้ง่ายขึ้น  ตอนนี้ Twitter สำหรับ Android โฉมใหม่เปิดให้ใช้แล้วสำหรับผู้ใช้ Android ทั่วโลกแล้ว ใครที่มีแอพ Twitter ก็สามารถอัพเดตทาง Google Play ได้เลย ที่มา - Twitter A revamped look and feel for our @Android app, now rolling out globally! See what's new: https://t.co/MOaWKJgjqc pic.twitter.com/snL8pBLnDL — Twitter (@twitter) June 7, 2016   ", 
  "Date": "7/June/2016", 
  "Image-Link": [
    "https://www.blognone.com/sites/default/files/styles/thumbnail/public/topics-images/twitter300.png?itok=DkxsrWCR", 
    "/sites/all/themes/blognone42/images/linebutton.png"
  ], 
  "Link": "https://www.blognone.com/node/81985", 
  "News": "Twitter ออกอัพเดตแอพบน Android ใช้ Material Design", 
  "Tags": [
    "Twitter"
  ], 
  "Time": "23:59"
}