{
  "By": "mk", 
  "Contents": " บริษัทวิจัยตลาด IDC ออกมาพยากรณ์ยอดขายสมาร์ทโฟนตลอดทั้งปี 2016 ว่าจะอยู่ที่ 1.48 พันล้านเครื่อง เติบโตเพียง 3.1% จากปีก่อนเท่านั้น ถือว่าอัตราการเติบโตลดลงมากเมื่อเทียบกับปี 2015 ที่โต 10.5% และปี 2014 ที่โต 27.8% ปัจจัยที่ทำให้ยอดขายสมาร์ทโฟนเติบโตช้าคือ ตลาดสหรัฐอเมริกา ยุโรปตะวันตก และจีน เริ่มอิ่มตัวแล้ว มิหนำซ้ำในบางประเทศอย่างญี่ปุ่นและแคนาดา ยอดขายจะติดลบ ขายได้น้อยกว่าปีที่แล้วด้วยซ้ำ IDC ประเมินส่วนแบ่งตลาดมือถือที่ขายในปี 2016 ว่า Android จะขายได้ 1.2 พันล้านเครื่อง ชิงส่วนแบ่งตลาด 83.7%, iOS 226.8 ล้านเครื่อง ส่วนแบ่งตลาด 15.3% (แถมยอดขายน้อยลงจากปีที่แล้ว 2% ด้วยซ้ำ), Windows Phone 11.2 ล้านเครื่อง ส่วนแบ่ง 0.8% (ขายได้น้อยลงมาก -61.6% จากปีก่อน) ที่มา - IDC, ภาพประกอบจาก Pexels    ", 
  "Date": "3/June/2016", 
  "Image-Link": [
    "https://www.blognone.com/sites/default/files/styles/thumbnail/public/topics-images/logo-idc.png?itok=Xd-1G05W", 
    "https://i.imgur.com/AEJIGiF.jpg", 
    "/sites/all/themes/blognone42/images/linebutton.png"
  ], 
  "Link": "https://www.blognone.com/node/81828", 
  "News": "IDC พยากรณ์ยอดขายสมาร์ทโฟนปี 2016 โตแค่ 3.1%, ยอดขาย iPhone ติดลบด้วยซ้ำ", 
  "Tags": [
    "IDC", 
    "Market Share", 
    "Prediction"
  ], 
  "Time": "17:02"
}