{
  "By": "nismod", 
  "Contents": " นอกจาก Mi Max Phablet แล้ว Xiaomi ยังได้เปิดตัวระบบปฏิบัติการตัวใหม่อย่าง MIUI 8 เวอร์ชันของประเทศจีน ที่มาพร้อมดีไซน์และฟีเจอร์ใหม่ๆ ดังนี้  ดีไซน์แอพพื้นฐานอย่างโทรศัพท์, กล้อง, เครื่องคิดเลข, โน้ต รวมถึงไปแถบแจ้งเตือน (Notification Bar) ใหม่  เพิ่มฟีเจอร์รักษาความปลอดภัยให้แอพโน้ต อย่างการตั้งรหัสหรือสแกนลายนิ้วมือ พร้อมเพิ่มเท็มเพลตแบบใหม่ เพิ่มโหมดประหยัดพลังงาน (Power Saving Mode) หยุดการทำงานทุกอย่างของเครื่อง จำกัดการทำงานของแอพลงเมื่อไม่ได้ใช้งาน เพิ่มฟีเจอร์ Multi-window สำหรับจัดการแอพ มาพร้อมระบบตรวจจับข้อความหลอกลวง (scam and fraud) เพิ่มแอพสแกนเนอร์ สำหรับอ่าน QR โค้ดและบาร์โค้ด เพื่อค้นหาสินค้าแบบออนไลน์ รวมถึงสามารถถ่ายโจทย์เลขและแก้ปัญหาให้ แอพ Gallery เพิ่มการปรับแต่งทั้งภาพและวิดีโอ พร้อมปุ่ม quick share ปรับแต่งฟอนต์ใหม่  Xiaomi จะเปิดให้ลงทะเบียนทดสอบรุ่นเบต้าวันที่ 16 พฤษภาคมนี้ และเริ่มทดสอบเบต้าวันที่ 1 มิถุนายน ก่อนที่จะปล่อยเวอร์ชันสำหรับนักพัฒนา 17 มิถุนายน โดย MIUI 8 รองรับตั้งแต่ Mi2, Mi2S, Mi3, Mi4, Mi4C, Mi5, Mi Max, Redmi และ Mi Note ที่มา - MIUI (1, 2)               ", 
  "Date": "10/May/2016", 
  "Image-Link": [
    "https://www.blognone.com/sites/default/files/styles/thumbnail/public/topics-images/xiaomi.png?itok=W_8-Phci", 
    "https://farm8.staticflickr.com/7401/26861855051_f30ec1e539_z.jpg", 
    "https://farm8.staticflickr.com/7063/26929128805_4000db08f5_z.jpg", 
    "https://farm8.staticflickr.com/7553/26895623096_7feedc3ea2_z.jpg", 
    "https://farm8.staticflickr.com/7369/26323764494_cac5ebdae4_z.jpg", 
    "https://farm8.staticflickr.com/7312/26929128995_e5aa994321_z.jpg", 
    "https://farm8.staticflickr.com/7472/26323764944_f9132ae483_z.jpg", 
    "https://farm8.staticflickr.com/7502/26895623906_d36f167edc_z.jpg", 
    "https://farm8.staticflickr.com/7358/26323765084_9a1d8e5934_z.jpg", 
    "https://farm8.staticflickr.com/7571/26895623456_f85c6e87fe_z.jpg", 
    "https://farm8.staticflickr.com/7427/26861877681_e175a326a5_z.jpg", 
    "https://farm8.staticflickr.com/7326/26325169463_6700de3359_z.jpg", 
    "https://farm8.staticflickr.com/7634/26325170163_41c68ae23e_z.jpg", 
    "/sites/all/themes/blognone42/images/linebutton.png"
  ], 
  "Link": "https://www.blognone.com/node/80807", 
  "News": "Xiaomi เปิดตัว MIUI 8 เวอร์ชันจีน ภายใต้แนวคิดดีไซน์ใหม่ ประสบการณ์ใหม่", 
  "Tags": [
    "Xiaomi", 
    "MIUI", 
    "China"
  ], 
  "Time": "16:02"
}