{
  "By": "nutmos", 
  "Contents": "
Facebook เตรียมเปิดใช้งานระบบเข้ารหัสแบบ end-to-end สำหรับ Messenger แล้ว เพื่อป้องกันการอ่านข้อความจากบุคคลที่สาม
สำนักข่าว The Guardian ได้รายงานข่าว โดยอ้างข้อมูลจากแหล่งข่าวว่า Facebook กำลังพัฒนาระบบเข้ารหัสแบบ end-to-end ของระบบ Messenger และเตรียมจะเปิดให้ใช้งานในอีกไม่กี่เดือนข้างหน้า
จากรายงานกล่าวว่า แม้ Facebook จะเปิดให้ใช้งานการเข้ารหัสแบบ end-to-end ใน Messenger แต่ฟีเจอร์นี้จะไม่ถูกเปิดเป็นค่าเริ่มต้น หากผู้ใช้ต้องการใช้งานจะต้องไปเปิดเอง ซึ่งคาดว่าเหตุผลที่ Facebook ไม่ได้เปิดให้ใช้งานเป็นค่าเริ่มต้นเพราะ Messenger มีฟีเจอร์ machine learning ที่ยังต้องการข้อมูลจากผู้ใช้อยู่
ที่มา - Cult of Mac, The Guardian
 ", 
  "Date": "1/June/2016", 
  "Image-Link": "https://www.blognone.com/sites/default/files/badges/badge-writer.png", 
  "Link": "https://www.blognone.com/node/81675", 
  "News": "[ไม่ยืนยัน] Facebook Messenger เตรียมใช้การเข้ารหัสแบบ end-to-end อีกไม่กี่เดือนข้างหน้า", 
  "Tags": [
    "Facebook Messenger", 
    "Facebook", 
    "Encryption"
  ], 
  "Time": "07:35"
}