{
  "By": "nrad6949", 
  "Contents": "
หลังเผลอปล่อยภาพก่อนกำหนด ล่าสุด Sony ได้เปิดตัว Xperia E5 ภาคต่อของสมาร์ทโฟนราคาถูกของบริษัทอย่างเป็นทางการ (รายงานเรื่องยุทธศาสตร์ X ก่อนหน้าคงไม่ได้เป็นไปตามนั้น)
ในเชิงสเปก Xperia E5 มีสเปกไม่ต่างสมาร์ทโฟนในตลาดล่างเท่าใดนัก ใช้หน่วยประมวลผล MediaTek MTK6735 พร้อมแรม 1.5 GB และพื้นที่เก็บข้อมูล 16 GB รองรับ microSD สูงสุดถึง 200 GB (อ่านสเปกเต็มท้ายข่าว)
Android Police ระบุว่าราคาจำหน่ายจะอยู่ที่ 199 ยูโร (ประมาณ 7,800 บาท) โดยจะวางจำหน่ายในบางประเทศในยุโรป, ลาตินอเมริกา, แอฟริกา และเอเชีย ตั้งแต่เดือนนี้เป็นต้นไป
ที่มา - Sony ผ่าน Android Police
Sony Xperia E5

หน่วยประมวลผล MediaTek MTK6735 สี่แกนประมวลผลไม่ระบุความถี่
แรม 1.5 GB, พื้นที่หน่วยความจำเก็บข้อมูล 16 GB, รองรับ microSD สูงสุด 200 GB
ขนาด 144 x 69 x 8.2 มม., หนัก 147 กรัม
แบตเตอรี่ 2,700 mAh แบตอยู่ได้ 2 วัน
ซิมเดียวแบบ Nano SIM
กล้องหลัง 13 เมกะพิกเซล พร้อมแฟลชและโฟกัสอัตโนมัติ
กล้องหน้า 5 เมกะพิกเซล
หน้าจอ 5 นิ้ว ที่ความละเอียด 720p
มีสีขาวและดำ
Android 6.0 Marshmallow


 ", 
  "Date": "1/June/2016", 
  "Image-Link": "https://www.blognone.com/sites/default/files/badges/badge-writer.png", 
  "Link": "https://www.blognone.com/node/81683", 
  "News": "Sony เปิดตัว Xperia E5 สมาร์ทโฟนราคาถูก ชูจุดเด่นใช้งานได้นาน 2 วัน", 
  "Tags": [
    "Xperia", 
    "Sony", 
    "Mobile", 
    "Android"
  ], 
  "Time": "09:23"
}