{
  "By": "nismod", 
  "Contents": "
หลังจากมีข่าวการทดสอบหลุดออกมาก่อนหน้านี้ ล่าสุด Instagram ได้เปิดตัวเครื่องมือสำหรับผู้ใช้ที่ต้องการจะทำธุรกิจอย่างเป็นทางการ ซึ่งประกอบไปด้วยโปรไฟล์ธุรกิจแบบใหม่, เครื่องมือวิเคราะห์และแสดงสถิติ รวมถึงการเปลี่ยนหน้าโพสต์ให้กลายเป็นโฆษณาได้โดยตรง
ฟีเจอร์ที่เพิ่มเข้ามาอาทิ ช่องทางการติดต่อร้านค้าโดยตรงผ่านปุ่ม Contact ทั้งโทรศัพท์ อีเมลหรือเมสเสจ ขณะที่หน้าโปรไฟล์ก็จะมีแผนที่หรือตำแหน่งของร้านค้านั้นๆ, ติดตามดูว่าโพสต์ไหนได้รับความนิยม จำนวนผู้เข้าชมเท่าไหร่ เป็นต้น เรียกได้ว่าไม่แตกต่างจากหน้าเพจของเฟซบุ๊กมากนัก โดยทาง Instagram มีแผนจะทำให้เจ้าของร้านค้าสามารถทำโฆษณาได้หลากหลายรูปแบบมากยิ่งขึ้นด้วย
ทั้งนี้ ร้านค้าที่จะใช้โปรไฟล์ธุรกินใน Instagram ได้จะต้องมีเพจเฟซบุ๊กก่อนเท่านั้น โดยเครื่องมือตัวใหม่นี้จะเริ่มปล่อยให้ใช้กันในอีกไม่กี่เดือนข้างหน้า เริ่มต้นในสหรัฐ ออสเตรเลียและนิวซีแลนด์ก่อนเป็นที่แรกๆ
ที่มา - TechCrunch


 ", 
  "Date": "1/June/2016", 
  "Image-Link": "https://www.blognone.com/sites/default/files/badges/badge-trainee-shadow.png", 
  "Link": "https://www.blognone.com/node/81689", 
  "News": "Instagram เปิดตัวเครื่องมือสำหรับโปรไฟล์ธุรกิจอย่างเป็นทางการ", 
  "Tags": [
    "Instagram"
  ], 
  "Time": "10:56"
}