{
  "By": "lew", 
  "Contents": " วงในขยายตลาดท้องถิ่นในจังหวัดนครราชสีมา (โคราช) เป็นสำนักงานท้องถิ่นที่ 5 ต่อจาก เชียงใหม่, ชลบุรี, หาดใหญ่, และภูเก็ต โดยเข้าซื้อเว็บไซต์ WeKorat.com มาเป็น WeKorat by Wongnai ข้อมูลเปิดเผย: mk (ผู้ร่วมก่อตั้ง Blognone) เป็นผู้ร่วมก่อตั้ง WeKorat รวมกับ arjin ที่เป็น Blognone Writer อีกท่านหนึ่ง อย่างไรก็ตามในแง่องค์กรแล้วทั้งสองเว็บไซต์แยกจากกัน ตัวผู้เขียนข่าว (lew) ไม่มีความสัมพันธ์โดยตรงกับ WeKorat ตัวเว็บ WeKorat เองใช้เซิร์ฟเวอร์ร่วมกับ Blognone มาจนตอนนี้ ในแง่เนื้อหา WeKorat มีรีวิวร้านอาหารอยู่แล้วกว่า 300 ร้านตรงกับแนวทางของวงใน และยังมีเนื้อหาอื่นๆ ตั้งแต่ที่เที่ยว, ที่พัก, และข้อมูลอื่นๆ เช่น ข่าวการเปิดห้างเซ็นทรัลในโคราช แนวทางการซื้อเว็บท้องถิ่นของวงในมีมาก่อนหน้านี้ ช่วงเปิดสำนักงานเชียงใหม่ วงในก็เคยซื้อเว็บน้าอ้วนชวนหิวเช่นกัน ที่มา - งานแถลงข่าว    ", 
  "Date": "1/July/2016", 
  "Image-Link": [
    "https://www.blognone.com/sites/default/files/styles/thumbnail/public/news-thumbnails/Website.png?itok=nbPW9V8U", 
    "https://c2.staticflickr.com/8/7087/27942676561_baa9736a82_z.jpg", 
    "/sites/all/themes/blognone42/images/linebutton.png"
  ], 
  "Link": "https://www.blognone.com/node/82903", 
  "News": "วงในเข้าซื้อเว็บ WeKorat พร้อมเปิดสำนักงานท้องถิ่นนครราชสีมาเป็นแห่งที่ 5", 
  "Tags": [
    "Wongnai", 
    "Thailand"
  ], 
  "Time": "14:46"
}