{
  "By": "mk", 
  "Contents": " ทีมพัฒนา Chrome ออกมาประกาศว่า Chrome 52 (ตอนนี้สถานะยังเป็นรุ่นทดสอบ) จะรองรับมาตรฐาน ECMAScript (ชื่ออย่างเป็นทางการของ JavaScript) เวอร์ชัน 6 และ 7 แล้ว สเปก ECMAScript 6 ผ่านเป็นมาตรฐานเมื่อกลางปีที่แล้ว สถานะของ Chrome 52 สามารถผ่านชุดทดสอบมาตรฐานได้ 98% แล้ว เบราว์เซอร์อีกตัวที่ได้คะแนนระดับเดียวกันคือ Safari Technology Preview ทำคะแนนได้ 99% ส่วน Edge และ Firefox อยู่ที่ 90% ใครสนใจตามไปดูตารางคะแนนกันได้ ส่วน ECMAScript 7 ยังอยู่ในขั้นตอนการออกมาตรฐาน ถึงแม้ Chrome 52 จะรองรับแล้ว แต่ร่างมาตรฐานจะถูกแก้ไขไปเรื่อยๆ อยู่ดี ใครที่อยู่ในแวดวงการเขียน JavaScript และอยากเรียนรู้ฟีเจอร์ของภาษาเวอร์ชันใหม่ๆ ก็สามารถดาวน์โหลด Chrome 52 มาลองเล่นกันก่อนได้ครับ ที่มา - Chromium Blog, V8 Blog    ", 
  "Date": "3/May/2016", 
  "Image-Link": [
    "https://www.blognone.com/sites/default/files/styles/thumbnail/public/topics-images/js.png?itok=CLobQrmU", 
    "https://i.imgur.com/FKEJGIJ.png", 
    "/sites/all/themes/blognone42/images/linebutton.png"
  ], 
  "Link": "https://www.blognone.com/node/80576", 
  "News": "Chrome 52 รุ่นทดสอบ รองรับ ECMAScript เวอร์ชัน 6 และ 7 แล้ว", 
  "Tags": [
    "JavaScript", 
    "Chrome", 
    "ECMA", 
    "Standard", 
    "Browser", 
    "Programming"
  ], 
  "Time": "20:21"
}