{
  "By": "trinakub", 
  "Contents": " Fallout Shelter เกมมือถือที่ Spin-off มาจากซีรี่ส์ชื่อดังอย่าง Fallout กำลังถูกนำมาลง PC แล้ว โดยจะมาพร้อมกับอัปเดตครั้งใหญ่เวอร์ชัน 1.6 บน Mobile Fallout Shelter เป็นเกม Free-to-play สำหรับ iOS และ Android มีรูปแบบการเล่นของเกม Simulation ภายในเกมเราจะต้องบริหารเหล่าประชากรที่อาศัยอยู่ในสถานที่หลบภัย ด้วยการส่งไปทำหน้าที่ต่าง ๆ ที่แต่ละคนมีความชำนาญ เช่น ทำอาหาร ดูแลระบบไฟฟ้า ระบบน้ำประปา ค้นหาทรัพยากร ฯลฯ เพื่อเอาตัวรอดจากสภาพแวดล้อมที่โหดร้ายซึ่งปนเปื้อนไปด้วยสารกัมมันตรังสีให้ได้ ทาง Bethesda ไม่ได้ประกาศวันที่ออกมาแน่ชัด บอกเพียงแต่ว่าจะมาภายในอีก 5 วันนี้ อาจจะเป็นวันที่ 14 หรือ 15 กรกฎาคม ขึ้นกับเวลาของแต่ละท้องที่ ด้านอัปเดตเวอร์ชัน 1.6 ของเกมเป็นการอัปเดตครั้งใหญ่ มีรายละเอียดและเนื้อหาใหม่ ๆ เพิ่มเข้ามามากมาย ตั้งแต่ระบบการต่อสู้ใหม่, การส่งผู้อยู่อาศัยออกไปทำเควสต่าง ๆ, สถานที่ ศัตรู และตัวละครใหม่ ๆ เป็นต้น ส่วนของเวอร์ชัน PC ยังไม่ได้มีการบอกรายละเอียดอย่างแน่ชัดว่าจะเป็นเกมเวอร์ชันไหน และจะมีอะไรที่แตกต่างจากเวอร์ชัน Mobile บ้าง สำหรับใครที่ไม่เคยเล่นเกม Fallout Shelter มาก่อน และสนใจที่อยากจะลองเล่นสามารถดาวน์โหลดมาเล่นได้ฟรีที่ลิ้งก์ต่อไปนี้ iOS / Android ที่มา – Eurogamer   ", 
  "Date": "11/July/2016", 
  "Image-Link": [
    "https://www.blognone.com/sites/default/files/styles/thumbnail/public/news-thumbnails/Fallout%20Shelter%20Logo.png?itok=CwxQSIQS", 
    "/sites/all/themes/blognone42/images/linebutton.png"
  ], 
  "Link": "https://www.blognone.com/node/83244", 
  "News": "เกม Fallout Shelter มาเยือน PC ภายในอาทิตย์นี้ พร้อมอัปเดตใหญ่ 1.6", 
  "Tags": [
    "Fallout", 
    "Games", 
    "PC", 
    "iOS", 
    "Android"
  ], 
  "Time": "09:23"
}