{
  "By": "nrad6949", 
  "Contents": " Belkin ผู้ผลิตอุปกรณ์เสริมและอุปกรณ์อิเล็กทรอนิกส์จากสหรัฐอเมริกา ประกาศว่าอุปกรณ์สาย Wemo ที่เป็นสายอุปกรณ์ในบ้านอัจฉริยะ (เช่น ปลั๊กไฟ, หลอดไฟ) สามารถทำงานร่วมกับอุปกรณ์ของ Nest ได้แล้ว ทำให้สวิตช์ของ Wemo ทั้งหมด ทำงานได้กับ Nest Thermostat ในตอนนี้ Belkin ระบุว่าผู้ใช้ Wemo จะสามารถควบคุมการทำงานพื้นฐานของ Nest Thermostat ได้โดยตรงจากแอพของ Wemo ตัวอย่างเช่นเช็คอุณหภูมิและความชื้น ดูสถานะของ Thermostat ตั้งค่าอุณหภูมิ และเปลี่ยนโหมดจากอยู่บ้านเป็นออกไปข้างนอกได้ ส่วนผลิตภัณฑ์ Wemo ที่ทำงานได้มีทั้ง Wemo Switch, Wemo Insight Switch, Wemo Light Switch และ Wemo Maker สำหรับความสามารถนี้จะมาพร้อมกับการอัพเดตแอพ Wemo ที่จะปล่อยในวันนี้ทั้ง iOS และ Android ครับ ที่มา - Belkin    ", 
  "Date": "17/May/2016", 
  "Image-Link": [
    "https://www.blognone.com/sites/default/files/styles/thumbnail/public/topics-images/belkin.png?itok=-6PMAAx7", 
    "https://i.imgur.com/8Nq5xXH.jpg", 
    "/sites/all/themes/blognone42/images/linebutton.png"
  ], 
  "Link": "https://www.blognone.com/node/81103", 
  "News": "Belkin ประกาศ ผลิตภัณฑ์สาย Wemo ทำงานกับ Nest Thermostat ได้แล้ว", 
  "Tags": [
    "Belkin", 
    "Nest", 
    "Internet of Things"
  ], 
  "Time": "20:52"
}