{
  "By": "nutmos", 
  "Contents": " ในงาน Google I/O นั้น Google ได้เปิดตัวแอพแชทใหม่ Allo แอพแชทที่มีฟีเจอร์แชทสมัยใหม่ พร้อมกับกระบวนการแนะนำคำพูดโดยใช้ปัญญาประดิษฐ์ Google ไม่ได้ตั้งค่าให้แอพ Allo เข้ารหัสข้อความแบบ end-to-end เป็นค่าเริ่มต้นเหมือนกับบริการแชทอื่น ๆ (แต่มี Incognito mode ซึ่งจะทำการเข้ารหัสทุกข้อความแบบ end-to-end เป็นค่าเริ่มต้น) โดยผู้ใช้ Allo สามารถเปิดการเข้ารหัสแบบ end-to-end ในระบบแชทปกติได้เอง ซึ่งทำให้ Edward Snowden ออกมาทวีตข้อความว่าการที่ Google เลือกไม่เปิดการเข้ารหัสแบบ end-to-end เป็นค่าเริ่มต้นทำให้ Allo อันตราย และให้หลีกเลี่ยงการใช้งานแอพนี้ สำหรับใครที่สนใจฟีเจอร์ต่าง ๆ ของ Allo สามารถอ่านได้จากข่าวเก่า ที่มา - @snowden ผ่าน The Inquirer   ", 
  "Date": "20/May/2016", 
  "Image-Link": [
    "https://www.blognone.com/sites/default/files/styles/thumbnail/public/topics-images/66_cUYfj.jpg?itok=NplukLNS", 
    "/sites/all/themes/blognone42/images/linebutton.png"
  ], 
  "Link": "https://www.blognone.com/node/81219", 
  "News": "Edward Snowden เตือน หลีกเลี่ยง Allo เพราะไม่เข้ารหัสเป็นค่าเริ่มต้น", 
  "Tags": [
    "Edward Snowden", 
    "Google", 
    "Allo", 
    "Instant Messenger", 
    "Privacy"
  ], 
  "Time": "07:18"
}