{
  "By": "nismod", 
  "Contents": " หน่วยงานด้านสารสนเทศของจีน (Cyberspace Administration of China) ออกหนังสือเตือนไปยังสื่อต่างๆ โดยเฉพาะเว็บพอร์ทัลให้รายงานข่าวที่เป็นข้อเท็จจริง โดยเฉพาะการอ้างอิงข่าวจากสื่อโซเชียลมีเดียต่างๆ จะต้องมีการยืนยันความถูกต้องของข้อมูลก่อนทุกครั้ง ใจความของหนังสือระบุด้วยว่าเว็บไซต์และสื่อต่างๆ จะต้องมีเครื่องมือในการค้นหา ตรวจสอบและจัดการกับข่าวที่ถูกบิดเบือนและไม่มีมูลด้วย โดยทางหน่วยงานด้านสารสนเทศได้จัดตั้งหน่วยงานย่อยที่จะคอยคอยดูแล สอดส่องและตรวจสอบเนื้อหาข่าว รวมถึงมีอำนาจในการลงโทษเว็บไซต์หรือสื่อที่ละเมิดด้วย ทั้งนี้เบื้องต้นมีเว็บไซต์พอร์ทัลจำนวนหนึ่งได้รับการแจ้งเตือนและลงโทษจากทางการ จากการรายงานข่าวเท็จไปบ้างแล้ว แต่ไม่มีรายละเอียดว่าเว็บไซต์เหล่านั้นถูกลงโทษอย่างไร ที่มา - South China Morning Post via Engadget   ", 
  "Date": "5/July/2016", 
  "Image-Link": [
    "https://www.blognone.com/sites/default/files/styles/thumbnail/public/topics-images/china.png?itok=DbpIQN62", 
    "/sites/all/themes/blognone42/images/linebutton.png"
  ], 
  "Link": "https://www.blognone.com/node/83015", 
  "News": "ทางการจีนเตือนสื่อ ห้ามอ้างอิงข่าวจากโซเชียลมีเดีย หากไม่มีการยืนยันข้อมูล", 
  "Tags": [
    "China", 
    "Social Media"
  ], 
  "Time": "12:28"
}