{
  "By": "nrad6949", 
  "Contents": " เมื่อวานนี้ Microsoft ประกาศเพิ่มพันธมิตรภายใต้โครงการ Surface Enterprise Initiative ที่เป็นโครงการผลักดันการใช้อุปกรณ์ Surface ภายในองค์กร (คล้ายๆ กับกรณีที่ Dell ทำหน้าที่ขาย Surface ให้กับ Microsoft ในตลาดองค์กร) โดยมี IBM และ Booz Allen Hamilton เป็นสองบริษัทในการประกาศนี้ ตามข้อตกลงนี้ IBM จะขาย Surface ของ Microsoft ให้กับองค์กรต่างๆ ในรูปแบบของโซลูชั่นสำหรับการใช้งานในองค์กร (ข้อตกลงลักษณะเดียวกับ Apple ที่เคยทำมาแล้ว) โดยจะมีแอพลิเคชั่นเฉพาะทางติดตั้งมาเพื่อใช้กับ Surface เป็นการเฉพาะด้วย ส่วน Booz Allen Hamilton บริษัทที่ปรึกษาสายองค์กรภาครัฐของสหรัฐอเมริกา จะขายโซลูชั่นที่ใช้กับ Surface เช่นเดียวกับ IBM แต่เจาะไปยังตลาดของภาครัฐ องค์กรสาธารณะ และองค์การสาธารณสุข การประกาศนี้มาไล่เลี่ยกับการประกาศก่อนหน้าที่เริ่มให้องค์กรเช่าใช้ Surface ที่มา - Microsoft ผ่าน ZD Net    ", 
  "Date": "13/July/2016", 
  "Image-Link": [
    "https://www.blognone.com/sites/default/files/styles/thumbnail/public/topics-images/ibm300.png?itok=QToF6k8H", 
    "http://i.imgur.com/VPu4p5A.jpg", 
    "/sites/all/themes/blognone42/images/linebutton.png"
  ], 
  "Link": "https://www.blognone.com/node/83399", 
  "News": "Microsoft ประกาศเพิ่ม IBM และ Booz Allen Hamilton เป็นพันธมิตร ขายโซลูชั่นใช้ Surface", 
  "Tags": [
    "IBM", 
    "Microsoft", 
    "Surface", 
    "Enterprise", 
    "Booz Allen Hamilton"
  ], 
  "Time": "20:03"
}