{
  "By": "mk", 
  "Contents": " เมื่อต้นปี กูเกิลเพิ่งประกาศยกเครื่อง Google Analytics ครั้งใหญ่เป็น Google Analytics 360 Suite โดยซอฟต์แวร์ตัวหนึ่งในชุดคือ Data Studio 360 สำหรับวิเคราะห์ข้อมูลและทำ visualization จากข้อมูล วันนี้กูเกิลเปิดให้ใช้งาน Data Studio รุ่นฟรีแล้ว (ชื่อ Google Data Studio เฉยๆ ไม่มี 360) ข้อจำกัดของรุ่นฟรีคือสร้างรายงานได้สูงสุดแค่ 5 ชิ้น แต่แก้ไขและแชร์ต่อได้ไม่จำกัด รูปแบบการใช้งานเป็นการนำข้อมูลที่มีอยู่แล้ว (เช่น จาก Google Analytics กับ AdWords) เข้ามาอยู่ด้วยกัน ใส่สูตรวิเคราะห์ และแสดงผลในรูป dashboard ที่มีกราฟหรือ visualization ต่างๆ ที่สวยงาม กูเกิลบอกว่า Data Studio ยังใช้งานได้เฉพาะในสหรัฐ แต่ผมลองแล้วก็พบว่าใช้ได้ครับ (สำหรับคนอยากลอง) ที่มา - Google Analytics Blog     ", 
  "Date": "27/May/2016", 
  "Image-Link": [
    "https://www.blognone.com/sites/default/files/styles/thumbnail/public/topics-images/analytics.png?itok=PmQeuj1K", 
    "https://i.imgur.com/o5uWcCg.png", 
    "https://i.imgur.com/138S5We.png", 
    "/sites/all/themes/blognone42/images/linebutton.png"
  ], 
  "Link": "https://www.blognone.com/node/81496", 
  "News": "Google เปิดซอฟต์แวร์วิเคราะห์ข้อมูล Data Studio รุ่นฟรีให้ทดลองใช้งาน", 
  "Tags": [
    "Google Analytics", 
    "Google", 
    "Visualization"
  ], 
  "Time": "10:23"
}