{
  "By": "trinakub", 
  "Contents": " สตูดิโอ Halfbrick ประกาศว่าจะนำเกมมือถือสุดคลาสสิค Fruit Ninja มาทำใหม่ในรูปแบบของเกม VR ให้พวกเราได้เล่นกัน “หลังจากเทคโนโลยี VR ถูกปล่อยออกมา พวกเราคิดว่าไม่มีเกมไหนที่จะเหมาะกับ VR ไปมากกว่า Fruit Ninja” “ความเรียบง่ายของเกม Fruit Ninja รวมกับความเป็น VR จะสร้างประสบการณ์ของเกมในรูปแบบที่ไม่เหมือนใครให้กับคุณ” กล่าวโดย Halfbrick’s Adam Wood ผู้จัดการฝ่ายผลิตของ Fruit Ninja VR ภายในเกมจะมีทั้งหมด 3 โหมดด้วยกัน (Classic, Arcade และ Zen) และสตูดิโอยังมีแผนจะทำโหมด PVP เพิ่มเข้ามาด้วย เกมจะปล่อยให้โหลดบน Steam ของ HTC Vive ภายในสิ้นเดือนนี้ ส่วนบน Oculus Rift, Google Daydream และ PlayStation VR จะออกภายในสิ้นปีนี้ ที่มา - IGN   ", 
  "Date": "9/June/2016", 
  "Image-Link": [
    "https://www.blognone.com/sites/default/files/styles/thumbnail/public/news-thumbnails/Fruit%20NInja%20Logo.png?itok=I6ce5Uv7", 
    "/sites/all/themes/blognone42/images/linebutton.png"
  ], 
  "Link": "https://www.blognone.com/node/82065", 
  "News": "Fruit Ninja จะกลับมาใหม่ในรูปแบบของเกม VR ภายในสิ้นเดือนนี้", 
  "Tags": [
    "Games", 
    "Fruit Ninja", 
    "Virtual Reality"
  ], 
  "Time": "14:18"
}