{
  "By": "nismod", 
  "Contents": " ถึงแม้อีโมจิในมาตรฐาน Unicode จะมีรูปของเบียร์อยู่แล้ว แต่ทว่าสมาคมผู้ผลิตเบียร์ของเบลเยียม (Belgian Brewer's Association) กลับมองว่าอีโมจิตัวนั้น ไม่ได้สะท้อนถึงความหลากหลายของเบียร์ที่แท้จริง จึงได้ออกแอพ Belgian Beer Emojis ที่รองรับทั้ง iOS และแอนดรอยด์ออกมา เพื่อเป็นการสื่อถึงความหลากหลายของเครื่องดื่มประเภทนี้ รวมถึงโฆษณาเบียร์ของเบลเยียมไปในตัว แอพนี้มีอีโมจิมาให้กว่า 60 แบบที่แตกต่างกันไปตามประเภทของเบียร์และยี่ห้อ โดยเบียร์ทั้ง 60 ยี่ห้อจะถูกบรรจุอยู่ในแก้วแบบเฉพาะของแต่ละยี่ห้อด้วยเช่นกัน อย่างไรก็ตามมีรายงานว่าแอพนี้มีปัญหาเรื่องการเข้ากันได้ (Compatibility Issues) กับแอพอื่นๆ บางตัวอยู่ด้วย ที่มา - Fortune    ", 
  "Date": "6/June/2016", 
  "Image-Link": [
    "https://www.blognone.com/sites/default/files/styles/thumbnail/public/topics-images/emoji.png?itok=lfJWKIaP", 
    "https://c7.staticflickr.com/8/7405/27461261606_9e9214c00b_z.jpg", 
    "/sites/all/themes/blognone42/images/linebutton.png"
  ], 
  "Link": "https://www.blognone.com/node/81901", 
  "News": "สมาคมผู้ผลิตเบียร์เบลเยียม ออกอีโมจิเบียร์จากกว่า 60 ยี่ห้อในประเทศ", 
  "Tags": [
    "Belgium", 
    "Emoji"
  ], 
  "Time": "14:59"
}