{
  "By": "nuntawat", 
  "Contents": " ไมโครซอฟท์ปล่อย Windows 10 และ Windows 10 Mobile รุ่นทดสอบ 14376 ให้สมาชิก Windows Insider กลุ่ม Fast ring ไมโครซอฟท์เผยว่า จะถอด Messaging Everywhere ฟีเจอร์รับส่ง SMS บนมือถือรัน Windows 10 Mobile จากพีซีรัน Windows 10 ออกจาก Windows 10 Anniversary Update โดยเริ่มถอดตั้งแต่รุ่นทดสอบนี้เป็นต้นไป (ไม่รวมการตอบกลับข้อความจากพีซีโดยใช้ Cortana) แต่บริษัทจะไปสนับสนุนการพัฒนา Skype UWP ให้รองรับฟีเจอร์ดังกล่าวแทน ทั้งนี้ จะเปิดเผยรายละเอียดในไม่กี่เดือนข้างหน้า สำหรับรายละเอียดการอัพเดตมี อาทิ Windows 10  มีอัพเดตแอป Store เพื่อเพิ่มประสิทธิภาพกับเสถียรภาพ แก้บั๊กคลิกการเชื่อมต่อเครือข่ายหรือ VPN ที่ flyout บนทาสก์บาร์แล้วไม่เข้าหน้าตั้งค่า แก้บั๊กขึ้น error เมื่อเปิดโหมดนักพัฒนา แก้บั๊กพิมพ์ข้อความในแอปแบบ UWP ไม่ได้ในบางแอป แก้บั๊กไอคอนในบางไทล์บนเมนู Start ที่ถูกแสดงผลแบบซูมเข้า อาทิ แอป Alarms & Clock หรือ Calculator ปรับปรุงความสอดคล้องในความเร็วของการเลื่อน (scroll) และการซูมระหว่างหน้าจอเมื่อใช้ทัชแพดบนเครื่องที่ต่อหลายหน้าจอ แก้บั๊ก Explorer.exe ล่มเมื่อได้รับ notification จาก Microsoft Edge  Windows 10 Mobile  มีอัพเดตแอป Store เพื่อเพิ่มประสิทธิภาพกับเสถียรภาพ และอัพเดตแอป Gadgets เพื่อแก้ปัญหาเมื่อใช้ Microsoft Display Dock แก้บั๊กไทล์กลายเป็นว่างๆ เมื่อกู้คืนเครื่องและบั๊ก Live tile ไม่อัพเดตจนกว่าเครื่องจะรีบู๊ต แก้บั๊กแอป Camera ค้างชั่วครู่เมื่อถูกเรียกใช้งานจากแอปอื่น Known issue: เปิดไฟล์ PDF บน Microsoft Edge แต่ไม่สามารถมีปฏิสัมพันธ์อย่างการเลื่อนดูกับซูมได้ แบตเตอรี่ของมือถือรุ่นเก่าอย่าง Lumia 830, 930 และ 1520 หมดเร็ว ไวไฟตัดการเชื่อมต่อ  ที่มา: Microsoft - Windows Experience Blog   ", 
  "Date": "29/June/2016", 
  "Image-Link": [
    "https://www.blognone.com/sites/default/files/styles/thumbnail/public/topics-images/Windows_logo_Cyan_rgb_D.png?itok=bKOyx4bD", 
    "/sites/all/themes/blognone42/images/linebutton.png"
  ], 
  "Link": "https://www.blognone.com/node/82788", 
  "News": "ไมโครซอฟท์ปล่อย Windows 10/Windows 10 Mobile Build 14376, ถอด Messaging Everywhere ไปใส่แอป Skype แทน", 
  "Tags": [
    "Windows 10", 
    "Windows 10 Mobile", 
    "Microsoft", 
    "Skype"
  ], 
  "Time": "08:39"
}