{
  "By": "Lamicrosz", 
  "Contents": " ไมโครซอฟท์เปิดตัวบริการ Skype Meetings เครื่องมือออนไลน์เน้นเจาะตลาดกลุ่มธุรกิจขนาดเล็ก ที่ผู้ใช้งานสามารถสร้างลิงก์แบบเฉพาะขึ้นมาได้เอง, แบ่งปันหน้าจอหรือสไลด์ PowerPoint ผู้ใช้ฟรีสามารถสนทนาแบบกลุ่ม 10 คนได้ใน 60 วันแรกหลังสมัคร หลังจากนั้นจะลดเหลือ 3 คน เบื้องต้นผู้ที่ใช้ต้องมีไมโครโฟน, ลำโพงและกล้อง ส่วนผู้ที่สมัคร Office 365 จะสนทนาแบบกลุ่มได้สูงสุด 250 คน ณ เวลานี้บริการยังเปิดให้ใช้งานได้ในสหรัฐอเมริกาเท่านั้น สามารถอ่านรายละเอียดเพิ่มเติมได้ที่ Skype Meetings ที่มา - Microsoft Office Blogs   ", 
  "Date": "6/July/2016", 
  "Image-Link": [
    "https://www.blognone.com/sites/default/files/styles/thumbnail/public/topics-images/skype.png?itok=scEYk_7O", 
    "/sites/all/themes/blognone42/images/linebutton.png"
  ], 
  "Link": "https://www.blognone.com/node/83094", 
  "News": "ไมโครซอฟท์เปิดตัว Skype Meetings เน้นเจาะตลาดกลุ่มธุรกิจรายย่อย", 
  "Tags": [
    "Skype", 
    "Microsoft"
  ], 
  "Time": "22:23"
}