{
  "By": "mk", 
  "Contents": " เมื่อปลายปี 2015 ไมโครซอฟท์ประกาศความร่วมมือกับ Red Hat หลายอย่าง หนึ่งในนั้นคือการซัพพอร์ต .NET บนลินุกซ์ ตอนนี้โอกาสที่ว่ามาถึงแล้ว หลังจาก ไมโครซอฟท์ออก .NET Core 1.0 ที่ทำงานบนลินุกซ์ ฝั่งของ Red Hat ก็ประกาศรองรับ .NET Core บน Red Hat Enterprise Linux (RHEL) และ OpenShift ทันที ถือเป็นดิสโทรเชิงพาณิชย์รายเดียวที่ซัพพอร์ต .NET อย่างเป็นทางการ ลูกค้าสามารถใช้บริการซัพพอร์ตจาก Red Hat และไมโครซอฟท์ได้ด้วย Red Hat บอกว่าการซัพพอร์ต .NET จะช่วยให้แอพพลิเคชันที่เขียนบางส่วนด้วย .NET และบางส่วนด้วย Java สามารถทำงานบน RHEL ได้แล้ว และลูกค้าที่มีแอพพลิเคชัน .NET ก็สามารถย้ายแพลตฟอร์มเซิร์ฟเวอร์ระหว่าง Windows Server มายัง RHEL ได้ง่ายขึ้นมาก ที่มา - Red Hat    ", 
  "Date": "29/June/2016", 
  "Image-Link": [
    "https://www.blognone.com/sites/default/files/styles/thumbnail/public/topics-images/Screenshot%202016-03-24%20at%2009.12.35.png?itok=qPQOqWNa", 
    "https://i.imgur.com/RNvdmBb.png", 
    "/sites/all/themes/blognone42/images/linebutton.png"
  ], 
  "Link": "https://www.blognone.com/node/82830", 
  "News": "และแล้วก็มีวันนี้ Red Hat ประกาศซัพพอร์ต .NET Core บน RHEL อย่างเป็นทางการ", 
  "Tags": [
    "Red Hat", 
    "RHEL", 
    "Microsoft", 
    "Open Source", 
    "Enterprise"
  ], 
  "Time": "20:48"
}