{
  "By": "nismod", 
  "Contents": " AIS ประกาศความร่วมมือกับร้าน Starbucks Coffee ในประเทศไทย ในการขยายการให้บริการ AIS Super Wifi ไปยังร้าน Starbucks กว่า 258 สาขาทั่วประเทศ ยกเว้นสาขาสนามบินสุวรรณภูมิ ตั้งแต่วันนี้เป็นต้นไป ขณะที่ลูกค้า AIS Serenade ยังได้รับสิทธิ์ซื้อเครื่องดื่มแก้วที่ 2 พร้อมส่วนลด 50% ทุกวันพฤหัสบดี ตั้งแต่เวลา 4 โมงเย็นเป็นต้นไป (ยกเว้นสาขาสนามบินและซื้อผ่าน Drive Thru) โดย 1 หมายเลข สามารถรับสิทธิ์ได้เพียง 1 ครั้งเท่านั้น (จำกัดที่ 1 หมื่นสิทธิต่อวัน) ตลอดช่วงระยะเวลาของโปรโมทชัน ตั้งแต่วันนี้ถึงวันที่ 2 มิถุนายนนี้    ", 
  "Date": "12/May/2016", 
  "Image-Link": [
    "https://www.blognone.com/sites/default/files/styles/thumbnail/public/topics-images/ais.png?itok=v9BMgBcj", 
    "https://farm8.staticflickr.com/7538/26964549945_b7c1f21c72_z.jpg", 
    "/sites/all/themes/blognone42/images/linebutton.png"
  ], 
  "Link": "https://www.blognone.com/node/80877", 
  "News": "AIS ประกาศให้บริการ AIS Super Wifi ที่ร้านกาแฟ Starbucks ทุกสาขา", 
  "Tags": [
    "AIS", 
    "Starbucks", 
    "Thailand"
  ], 
  "Time": "12:28"
}