{
  "By": "mk", 
  "Contents": " Toyota ผู้ผลิตรถยนต์รายใหญ่ของโลก ประกาศลงทุนใน Uber เพื่อพัฒนาบริการแชร์รถยนต์ร่วมกัน การลงทุนครั้งนี้จะผ่านบริษัทลูกคือ Toyota Financial Services Corporation และ Mirai Creation Investment Limited Partnership โดยไม่เปิดเผยมูลค่าการลงทุน ภายใต้ข้อตกลงระหว่างสองบริษัท Toyota จะเปิดโอกาสให้ผู้ขับสามารถขอสินเชื่อรถจาก Toyota Financial Services แล้วผ่อนชำระจากรายได้ที่เข้ามาทาง Uber ได้ด้วย (ไม่ระบุว่าครอบคลุมถึงประเทศใดบ้าง แต่น่าจะเฉพาะในสหรัฐอเมริกา) Toyota บอกว่าบริการ ridesharing มีโอกาสเติบโตอีกมาก บริษัทจึงเข้ามาลงทุนกับ Uber เพื่อมองหาโอกาสใหม่ๆ ต่อไป ที่มา - Toyota    ", 
  "Date": "25/May/2016", 
  "Image-Link": [
    "https://www.blognone.com/sites/default/files/styles/thumbnail/public/topics-images/toyota.png?itok=p4lwrCD5", 
    "https://i.imgur.com/Ovhv6U5.jpg", 
    "/sites/all/themes/blognone42/images/linebutton.png"
  ], 
  "Link": "https://www.blognone.com/node/81369", 
  "News": "Toyota ลงทุนใน Uber เพื่อพัฒนาบริการ Ridesharing ร่วมกัน", 
  "Tags": [
    "Toyota", 
    "Uber", 
    "Transportation", 
    "Sharing Economy"
  ], 
  "Time": "09:49"
}