{
  "By": "mk", 
  "Contents": " เมื่อวานนี้มีข่าว Toyota ลงทุนใน Uber เพื่อพัฒนาบริการ Ridesharing ร่วมกัน ในวันเดียวกันก็มีข่าวแบบเดียวกัน แต่เปลี่ยนบริษัทครับ Volkswagen Group ธุรกิจรถยนต์รายใหญ่ของเยอรมนี ประกาศลงทุน 300 ล้านดอลลาร์ในบริษัท Gett (ชื่อเดิม GetTaxi) บริการเรียกรถแท็กซี่จากอิสราเอล ซึ่งปัจจุบันมีให้บริการใน 60 เมืองทั่วโลก (อิสราเอล รัสเซีย สหราชอาณาจักร สหรัฐ) โดยเฉพาะในกรุงลอนดอนที่แท็กซี่แค็บสีดำ (black cab) กว่าครึ่งเลือกใช้แอพ Gett เป้าหมายของ Volkswagen เกิดจากยุทธศาสตร์ของบริษัทที่ต้องการหารายได้จากโมเดลธุรกิจแบบใหม่ๆ ให้ได้ภายในปี 2025 ซึ่งการลงทุนใน Gett ถือเป็นวิธีการหนึ่งในการบรรลุเป้าหมายนี้ ที่มา - Volkswagen    ", 
  "Date": "26/May/2016", 
  "Image-Link": [
    "https://www.blognone.com/sites/default/files/styles/thumbnail/public/topics-images/vw.png?itok=QTb39oFM", 
    "https://i.imgur.com/P9h1bwK.jpg", 
    "/sites/all/themes/blognone42/images/linebutton.png"
  ], 
  "Link": "https://www.blognone.com/node/81449", 
  "News": "Volkswagen ลงทุน 300 ล้านดอลลาร์ใน Gett แอพเรียกรถแท็กซี่จากอิสราเอล", 
  "Tags": [
    "Volkswagen", 
    "Transportation", 
    "Sharing Economy"
  ], 
  "Time": "13:29"
}