{
  "By": "nismod", 
  "Contents": " ขณะที่ Uber เหมือนจะยืนยันอย่างเป็นทางการผ่านภาพหลุดแล้วว่า จะนำรถไร้คนขับมาให้บริการ ทาง Grab เองก็ดูเหมือนจะมีแนวคิดในลักษณะเดียวกันนี้โดยซีอีโอ Anthony Tan ให้สัมภาษณ์กับเว็บไซต์ Recode ว่าบริษัทเปิดกว้างต่อการนำรถไร้คนขับมาให้บริการ หากเทคโนโลยีนี้พร้อม Tan มองว่าสิงคโปร์น่าจะเป็นประเทศแรกที่จะมีรถไร้คนขับวิ่งก่อนประเทศอื่นในภูมิภาค เนื่องจากการเก็บแผ่นที่ค่อนข้างง่าย ขณะที่รัฐบาลสิงคโปร์ก็ผลักดันเทคโนโลยีนี้ด้วย ซึ่งขณะนี้ทาง Grab ก็เริ่มเก็บข้อมูลแผนที่และการจราจรในเอเชียตะวันออกเฉียงใต้ โดยเริ่มประเทศฟิลิปปินส์ไปแล้ว (ทำแผนที่ให้รัฐบาล) Arul Kumaravel รองประธาน Grab ฝ่ายวิศวกรรมยอมรับด้วยว่า รถไร้คนขับจะช่วยทำให้ Grab เพิ่มความสามารถและฟีเจอร์ได้มากยิ่งขึ้น โดยปัจจุบันบริษัทกำลังทดสอบฟีเจอร์ที่เชื่อมต่อกับปฏิทินของผู้ใช้ และพร้อมจะเรียก Grab ให้ทันทีที่ใกล้จะถึงอีเวนท์หรือนัดหมาย และอีกหนึ่งฟีเจอร์ที่กำลังทดสอบในสิงคโปร์ คือการนำ GPS ไปติดบนรถเมล์ในสิงคโปร์ และแจ้งเตือนคนขับให้จอดรถ เมื่อมีผู้โดยสารถึงที่หมายที่ระบุไว้ในแอพพลิเคชัน ที่มา - Recode   ", 
  "Date": "19/May/2016", 
  "Image-Link": [
    "https://www.blognone.com/sites/default/files/styles/thumbnail/public/topics-images/grab_0.png?itok=cZumEDP8", 
    "/sites/all/themes/blognone42/images/linebutton.png"
  ], 
  "Link": "https://www.blognone.com/node/81213", 
  "News": "ซีอีโอ Grab เผยมีแผนนำรถไร้คนขับมาให้บริการผ่านแอพในอนาคต", 
  "Tags": [
    "Grab", 
    "Transportation", 
    "Google Self-Driving Car"
  ], 
  "Time": "21:26"
}