{
  "By": "nutmos", 
  "Contents": " DJI ได้ร่วมมือกับ Hasselblad ออกชุดโดรนที่มาพร้อมกับกล้อง medium format ชุดแรก ซึ่งมีโดรน Matrice 600 หรือ M600 ตัวท็อปของ DJI กับกล้อง medium format รุ่น A5D-50c Aerial ของ Hasselblad หรือเป็นกล้อง H5D ที่ทำมาเพื่อการถ่ายภาพทางอากาศ ระบบของ DJI นี้มีทั้งระบบควบคุมการบิน A3 และระบบส่งข้อมูล Lightbridge 2 สำหรับการถ่ายทอดสดแบบ 1080p ส่วนตัวกล้อง A5D นั้นก็เป็นกล้องเซนเซอร์ CMOS ขนาด medium format ที่มี 50 ล้านพิกเซล มาพร้อมเลนส์ HC 3,5/50mm-II ที่ปรับปรุงเป็นพิเศษและล็อกการโฟกัสไว้ที่ระยะอนันต์ สำหรับราคาและวันที่จะวางจำหน่ายทั้ง DJI และ Hasselblad ยังไม่ได้เผยออกมา โดยจากราคาของโดรนรุ่น M600 กับขายึดกล้อง Ronin-MX ทั้งคู่ก็มีราคารวมแล้วอยู่ที่ 6,198 ดอลลาร์ (ประมาณ 2 แสนกว่าบาท) จึงคาดว่าราคาที่ออกมาจริง ๆ คงจะไม่ใช่ถูกแน่นอน แต่เชื่อว่าชุดโดรนพร้อมกล้องนี้น่าจะถูกใจช่างภาพที่ชอบถ่ายภาพทางอากาศและนักสำรวจแน่นอน นอกจากนี้ทาง DJI กับ Hasselblad จะยังร่วมมือกับสร้างโดรนพร้อมกล้องต่อไป และน่าจะขยายไปจนถึงไลน์สินค้า Phantom ซึ่งเป็นโดรนสำหรับผู้ใช้ทั่วไปของ DJI ด้วย ที่มา - Hasselblad, The Verge     ", 
  "Date": "13/July/2016", 
  "Image-Link": [
    "https://www.blognone.com/sites/default/files/styles/thumbnail/public/topics-images/dji.png?itok=NKBjLiIM", 
    "http://i.cubeupload.com/8F3pvb.jpg", 
    "http://i.cubeupload.com/Y0WyTP.jpg", 
    "/sites/all/themes/blognone42/images/linebutton.png"
  ], 
  "Link": "https://www.blognone.com/node/83363", 
  "News": "DJI ร่วมมือ Hasselblad ออกชุดโดรนพร้อมกล้อง medium format", 
  "Tags": [
    "DJI", 
    "Hasselblad", 
    "Drone", 
    "Camera", 
    "Medium Format"
  ], 
  "Time": "08:51"
}