{
  "By": "ตะโร่งโต้ง", 
  "Contents": " ตอนต้นปีในงาน CES 2016 ผู้ผลิตโดรนจากจีนที่มีชื่อว่า Ehang ได้นำโดรนรุ่น Ehang 184 ที่ใหญ่จนคนโดยสารได้ไปโชว์ในงาน มาตอนนี้ Ehang ได้ร่วมมือกับบริษัท Lung Biotechnology ทำการนำเอาโดรนรุ่นดังกล่าวไปประยุกต์ใช้งานขนส่งอวัยวะเพื่อการผ่าตัดปลูกถ่าย ภายใต้โครงการชื่อ MOTH (Manufactured Organ Transport Helicopter) ตัว Lung Biotechnology เองนั้นเป็นบริษัทในสหรัฐอเมริกาผู้พัฒนาเทคโนโลยีการผลิตปอดสำหรับผู้ป่วยภาวะความดันหลอดเลือดแดงปอดสูง (PAH) และโรคปอดอื่นๆ โดยสร้างจากสเต็มเซลล์ และการใช้เทคนิคปลูกถ่ายอวัยวะด้วยซีโนกราฟท์ (ซึ่งหมายถึงการปลูกถ่ายเซลล์หรืออวัยวะ โดยใช้เซลล์จากสิ่งมีชีวิตประเภทอื่น) ลูกค้าผู้ต้องการปลูกถ่ายปอดของ Lung Biotechnology นั้นมีเป็นจำนวนมาก นั่นทำให้กระบวนการจัดการเพื่อการนำส่งปอดไปยังผู้ป่วยที่ต้องการปลูกถ่ายปอดใหม่ถือเป็นเรื่องสำคัญอย่างยิ่ง ซึ่ง Lung Biotechnology มองว่าการใช้โดรนจะช่วยให้งานนี้ทำได้อย่างมีประสิทธิภาพมากขึ้น Lung Biotechnology ตั้งใจจะให้มีโดรน Ehang 184 ประจำอยู่ที่โรงงานผลิตและพร้อมนำปอดไปส่งให้ผู้ป่วยทันทีที่มันผลิตเสร็จ ซึ่งการใช้โดรนแทนการใช้เฮลิคอปเตอร์จริงๆ หรือการใช้รถเพื่อการขนส่งนั้น ไม่เพียงแต่จะลดการใช้เชื้อเพลิงอย่างมีนัยสำคัญแล้ว การจัดการวางแผนจัดส่งปอดก็ทำได้อย่างมีประสิทธิภาพยิ่งขึ้น Lung Biotechnology หวังว่าการขออนุญาตใช้โดรนเพื่อโครงการ MOTH นี้จะได้รับการอนุมัติจาก FAA และ FDA โดยไว ซึ่ง Martine Rothblatt ประธานและซีอีโอของ Lung Biotechnology คาดการณ์ว่าเมื่อโครงการ MOTH ได้เริ่มปฏิบัติการจริง Lung Biotechnology จะสามารถนำส่งอวัยวะสู่ผู้ป่วยที่ต้องการได้หลายร้อยชิ้นต่อวัน ที่มา - Digital Trends    ", 
  "Date": "5/May/2016", 
  "Image-Link": [
    "https://www.blognone.com/sites/default/files/styles/thumbnail/public/topics-images/DJI-Phantom2-Vision-plus.png?itok=vVuEjHIR", 
    "//upic.me/i/uh/deliveringlivingorganwithdrone1.jpg", 
    "/sites/all/themes/blognone42/images/linebutton.png"
  ], 
  "Link": "https://www.blognone.com/node/80652", 
  "News": "บริษัทจีนและอเมริกาเตรียมแผนปรับใช้โดรนจัดส่งอวัยวะเพื่อการผ่าตัดด่วน", 
  "Tags": [
    "Drone", 
    "China", 
    "Medical"
  ], 
  "Time": "18:24"
}