{
  "By": "trinakub", 
  "Contents": "
หลังจากที่ Capcom ได้เพิ่มตัวละครใหม่ของเกม Street Fighter V เข้ามาให้เล่นกันคือ Alex ที่มาในเดือนมีนาคม และ Guile ที่มาในเดือนเมษายน
ล่าสุดทางค่ายพัฒนาได้ปล่อยคลิปตัวอย่างตัวละครใหม่มาให้ชมกันอีกตัวคือ Ibuki นินจาสาวที่เคยปรากฏตัวครั้งแรกในเกม Street Fighter III และโผล่มาใน Super Street Fighter IV ด้วย
Ibuki เป็นตัวละครที่มีความเร็วค่อนข้างสูง จะเน้น Combo ในระยะประชิดมากกว่า แต่ก็มีสกิลระยะไกลเยอะอยู่พอตัว คาดว่าตัวละครใหม่อาจถูกเพิ่มเข้ามาในเดือนมิถุนายนนี้ครับ

ที่มา - gematsu
 ", 
  "Date": "31/May/2016", 
  "Image-Link": "https://www.blognone.com/sites/default/files/badges/badge-contributer.png", 
  "Link": "https://www.blognone.com/node/81628", 
  "News": "Street Fighter V ปล่อยคลิปตัวละครใหม่ นินจาสาว Ibuki !", 
  "Tags": [
    "Street Fighter", 
    "Games", 
    "Capcom"
  ], 
  "Time": "09:02"
}