{
  "By": "nuntawat", 
  "Contents": "
Evan Blass (@evleaks) เจ้าเก่า เผยว่า เอชทีซีเลื่อนเปิดตัวสมาร์ทวอทช์ที่มีข่าวว่าจะมีการเปิดตัวใน 6 มิ.ย. นี้ ออกไปช่วงฤดูใบไม้ร่วงปีนี้
หากนับจากมีข่าวภาพหลุดสมาร์ทวอทช์ (1, 2) ก็เกือบสองปีแล้วที่ข่าวว่าเอชทีซีซุ่มทำอุปกรณ์ลักษณะดังกล่าว แต่ยังไม่ปรากฏออกสู่ตลาดเสียที
ที่มา: @evleaks ผ่าน HTC Source
What a clusterf***: HTC wearable bumped again, to the fall. Hurry up, HTC, before people realize that they don't really need these products.
— Evan Blass (@evleaks) 27 พฤษภาคม 2559
 ", 
  "Date": "31/May/2016", 
  "Image-Link": "https://www.blognone.com/sites/default/files/badges/badge-writer.png", 
  "Link": "https://www.blognone.com/node/81632", 
  "News": "[ลือ] เอชทีซีเลื่อนเปิดตัวสมาร์ทวอทช์ออกไปช่วงฤดูใบไม้ร่วงปีนี้", 
  "Tags": [
    "HTC", 
    "Rumors", 
    "Smart Watch"
  ], 
  "Time": "09:24"
}