{
  "By": "nismod", 
  "Contents": "
ถึงแม้จะยังไม่มีในบ้านเรา แต่รู้ไว้อิจฉาเล่นๆ ก็ไม่เสียหลาย เมื่อ Google เริ่มส่งอีเมลหาสมาชิก YouTube Red บางคนว่าจะได้รับ Chromecast ไปแบบฟรี ผ่านลิงก์ที่ redirect ไปยังหน้าของ Google Store สำหรับเลือกสีของ Chromecast และกดสั่งซื้อโดยไม่เสียเงิน
อย่างไรก็ตามโปรโมชันนี้ทาง Google ไม่ได้ประกาศหรือโปรโมทออกมาอย่างเป็นทางการ มีเพียงการส่งลิงก์ไปยังผู้ใช้บางคนเท่านั้น อาจจะเป็นคำขอบคุณเล็กๆ น้อยๆ จากทาง Google ก้ได
อนึ่งก่อนหน้านี้ Google ก็เคยแจกโปรโมชันสำหรับผู้ใช้ Chromecast ในการสมัครสมาชิก YouTube Red เป็นเวลา 3 เดือนในราคาเพียง $1 มาแล้ว
ที่มา - GSM Arena
 ", 
  "Date": "31/May/2016", 
  "Image-Link": "https://www.blognone.com/sites/default/files/badges/badge-trainee-shadow.png", 
  "Link": "https://www.blognone.com/node/81648", 
  "News": "Google แจก Chromecast ให้สมาชิก YouTube Red ฟรี", 
  "Tags": [
    "Chromecast", 
    "YouTube", 
    "Google"
  ], 
  "Time": "13:00"
}