{
  "By": "lew", 
  "Contents": "
มัลแวร์เข้ารหัสไฟล์เรียกค่าไถ่ส่วนมากมักจะส่งมาทางอีเมลเพื่อล่อให้เหยื่อกดลิงก์ แต่มัลแวร์ Ransom:Win32/ZCryptor.A เพิ่มความสามารถในการแพร่กระจายตัวเองผ่านทางแฟลชไดรฟ์ โดยเพิ่มไฟล์ autorun.inf เข้าไปในไดรฟ์แบบถอดได้ หากไฟล์ถูกรันก็จะแพร่กระจายต่อไปเรื่อยๆ
ตัวมัลแวร์เรียกค่าไถ่ 1.2 BTC หรือประมาณ 17,500 บาท และหากไม่ยอมจ่ายในสี่วันก็จะเพิ่มเป็น 5 BTC หรือประมาณ 77,000 บาท
ไมโครซอฟท์แนะนำให้ผู้ใช้อัพเดตระบบปฎิบัติการ, สำรองไฟล์สม่ำเสมอ, เปิดระบบ file history, และระวังตัวเองจากอีเมลปลอม
ที่มา - TechNet, Trend Micro

 ", 
  "Date": "31/May/2016", 
  "Image-Link": "https://www.blognone.com/sites/default/files/badges/badge-founder.png", 
  "Link": "https://www.blognone.com/node/81649", 
  "News": "มัลแวร์เรียกค่าไถ่ ZCryptor เป็นเวิร์มในตัว แพร่กระจายผ่านแฟลชไดรฟ์ได้เอง", 
  "Tags": [
    "Ransomware", 
    "Security"
  ], 
  "Time": "13:03"
}