{
  "By": "trinakub", 
  "Contents": "
บริษัท Starbreeze จากสวีเดนประกาศว่าซื้อเกม FPS "ร่วมด้วยช่วยกันปล้น" แฟรนไชส์ Payday จากเจ้าของเดิม 505 Games ด้วยเงินจำนวนกว่า 30 ล้านเหรียญสหรัฐ พร้อมทั้งประกาศทำภาคต่อ Payday 3 แต่ยังไม่เผยรายละเอียดของเกมภาคใหม่
การซื้อสิทธิครั้งนี้ จะทำให้ Starbreeze ได้รับรายได้ทั้งหมดจาก Payday 2 บนพีซี Steam ตั้งแต่วันที่ 1 พฤษภาคม 2559 เป็นต้นไป ส่วนเวอร์ชันคอนโซล รายได้จะถูกแบ่งระหว่าง Starbreeze และ 505 Games เหมือนที่ผ่าน ๆ มา
สำหรับรายได้จากเกมภาคใหม่ Payday 3 ทาง 505 Games จะได้รับเป็นจำนวน 33% จากรายได้ของ Starbreeze โดยจำกัดไม่เกิน 40 ล้านเหรียญสหรัฐ หลังหักลบค่าใช้จ่ายด้านการพัฒนาและการตลาดออกแล้ว
CEO ของ Starbreeze คุณ Bo Andersson Klint ให้สัมภาษณ์ว่า “เกม Payday มีความสำคัญต่อผมอย่างมาก มันเป็นรากฐานของความสำเร็จของ Starbreeze ในปีที่ผ่าน ๆ มา พวกเรารู้สึกตื่นเต้นมากที่จะได้นำเหล่านักปล้นมายังบ้านหลังใหม่ ในส่วนของ Payday 2 พวกเรายังคงทำต่อไปเป็นเวลาอีกอย่างน้อย 18 เดือน”
ปัจจุบันซีรีส์  Payday มีผู้เล่นทั้งหมดทุกเครื่องรวมกันกว่า 14 ล้านคน หลังจากเปิดตัวมาเป็นครั้งแรกบน PC ในปี 2011
ในส่วนของ Payday 2 หลังการประกาศครั้งนี้ Starbreeze นำระบบ microtransactions ออกทั้งหมด ระบบนี้สร้างความขัดแย้งสูง  ในกลุ่มผู้เล่น เพราะทางผู้พัฒนา Overkill เคยสัญญาไว้ว่าจะไม่มีระบบ microtransactions แต่ก็ผิดสัญญาทำให้ผู้เล่นหลายคนโกรธเคือง การนำระบบนี้ออกไปย่อมส่งผลให้ผู้เล่นพึงพอใจมากขึ้น
ที่มา – Gamespot
 ", 
  "Date": "31/May/2016", 
  "Image-Link": "https://www.blognone.com/sites/default/files/badges/badge-contributer.png", 
  "Link": "https://www.blognone.com/node/81636", 
  "News": "เกม Payday เปลี่ยนเจ้าของ ยืนยันทำ Payday 3 แน่นอน", 
  "Tags": [
    "Games", 
    "Payday"
  ], 
  "Time": "13:12"
}