{
  "By": "sunnywalker", 
  "Contents": "
Jimmy Wales ผู้ก่อตั้ง  Wikipedia เป็นหนึ่งเสียงที่สนับสนุน Net Neutrality มาโดยตลอด เห็นได้จากโครงการ Wikipedia Zero ที่ผลักดันให้คนใช้ Wikipedia ผ่านทางสมาร์ทโฟนให้มากขึ้นโดยไม่เสียค่าบริการ ล่าสุด Wales ออกมายอมรับว่า Net Neutrality เป็นหัวข้อที่ซับซ้อนและยากต่อการทำความเข้าใจ
ประเด็น Net Neutrality กลับมาอีกครั้งหลัง TRAI (กสทช.ของอินเดีย) จัดทำเอกสารการปรึกษาเกี่ยวกับ Net Neutrality รวบรวมข้อมูลจากบรรดาผู้ถือผลประโยชน์ร่วมเพื่อค้นหาว่าหลักการสำคัญของ Net Neutrality ควรประกอบด้วยอะไรบ้าง
ด้าน Jimmy Wales ให้สัมภาษณ์กับสำนักข่าว ET NOW ว่า "Net Neutrality เป็นสิ่งที่ผมใฝ่ฝัน แต่มันค่อนข้างซับซ้อน ขณะเดียวกันมันสำคัญมากที่จะให้คนยากจนเข้าถึงอินเทอร์เน็ต บางครั้งมันเป็นเรื่องกดดันและต้องระมัดระวัง ผมคิดว่าพื้นฐานสำคัญที่ต้องรักษาไว้เลยคือความเปิดกว้างและเสรีของอินเทอร์เน็ต"

ที่มา - ETtech, ภาพจาก Wikipedia โดย Joi Ito
 ", 
  "Date": "31/May/2016", 
  "Image-Link": "https://www.blognone.com/sites/default/files/badges/badge-contributer.png", 
  "Link": "https://www.blognone.com/node/81653", 
  "News": "Jimmy Wales ผู้สร้าง Wikipedia ยอมรับ Net Neutrality เป็นเรื่องซับซ้อน ", 
  "Tags": [
    "Net Neutrality", 
    "Wikipedia"
  ], 
  "Time": "14:19"
}