{
  "By": "mk", 
  "Contents": "
นอกจากข่าว Core i7 Extreme Edition แบบ 10 คอร์ อินเทลยังประกาศข่าวที่หลายคนอยากรู้ นั่นคือซีพียู Core รุ่นที่เจ็ด (7th Gen) รหัส Kaby Lake จะเปิดตัวและวางขายภายในปีนี้
Kaby Lake จะยังใช้กระบวนการผลิตขนาด 14 นาโนเมตร เท่ากับ Skylake รุ่นที่ขายอยู่ในปัจจุบัน (6th Gen) แต่จะปรับเปลี่ยนสถาปัตยกรรมบ้างเล็กน้อย ถือว่า Kaby Lake เป็นซีพียูตัวแรกตามนโยบายการออกรุ่นแบบใหม่ของอินเทล ที่เลิกใช้ระบบ Tick-Tock เปลี่ยนมาเป็นรอบรุ่น 3 ปีแทน
นอกจาก Kaby Lake แล้ว ครึ่งหลังของปีนี้เรายังจะเห็นซีพียูรหัส Apollo Lake รุ่นราคาถูกที่เคยเปิดตัวไปแล้ว แต่ยังไม่ชัดเจนว่าจะทำตลาดในชื่อ Atom หรือ Pentium/Celeron
ที่มา - Intel, Engadget
ภาพประกอบคือ Core 6th Gen

 ", 
  "Date": "31/May/2016", 
  "Image-Link": "https://www.blognone.com/sites/default/files/badges/badge-founder.png", 
  "Link": "https://www.blognone.com/node/81665", 
  "News": "อินเทลยืนยัน Core 7th Gen "Kaby Lake" วางขายตามกำหนดภายในปีนี้", 
  "Tags": [
    "Core", 
    "Intel", 
    "Processor", 
    "CPU", 
    "Computex"
  ], 
  "Time": "18:40"
}