{
  "By": "mk", 
  "Contents": "
MediaTek เปิดตัวระบบชาร์จเร็วเวอร์ชันใหม่ล่าสุดชื่อ Pump Express 3.0 โฆษณาว่าเป็นระบบชาร์จไฟมือถือที่เร็วที่สุดในตอนนี้ สามารถชาร์จจาก 0% เป็น 70% ได้ภายใน 20 นาที เร็วกว่าคู่แข่งถึง 2 เท่า และเร็วกว่าระบบชาร์จปกติ 5 เท่า
MediaTek คุยว่าการชาร์จไฟผ่าน Pump Express 3.0 เพียง 5 นาที สามารถใช้คุยสนทนาได้นาน 4 ชั่วโมง นอกจากนี้ ยังเป็นระบบชาร์จเร็วที่รองรับการชาร์จไฟเข้าแบตเตอรี่โดยตรงผ่านพอร์ต USB Type-C เป็นเจ้าแรกในท้องตลาด อีกทั้งมีระบบความปลอดภัยกว่า 20 ฟีเจอร์ช่วยป้องกันปัญหาความร้อนหรือ overheat ด้วย
เทคโนโลยี Pump Express 3.0 มาจากบริษัท Richtek ที่ MediaTek เพิ่งซื้อกิจการมา โดยจะเริ่มใช้กับชิป MediaTek Helio P20 ซึ่งจะมีอุปกรณ์ออกวางขายช่วงปลายปี 2016 นี้
ที่มา - MediaTek
 ", 
  "Date": "31/May/2016", 
  "Image-Link": "https://www.blognone.com/sites/default/files/badges/badge-founder.png", 
  "Link": "https://www.blognone.com/node/81667", 
  "News": "MediaTek เปิดตัวระบบชาร์จเร็ว Pump Express 3.0 ชาร์จเต็ม 70% ภายใน 20 นาที", 
  "Tags": [
    "MediaTek", 
    "Charging", 
    "Hardware"
  ], 
  "Time": "18:51"
}