{
  "By": "nismod", 
  "Contents": " Google ประกาศเข้าซื้อ Kifi สตาร์ทอัพที่พัฒนาส่วนเสริมสำหรับการแชร์และแนะนำลิงก์ในโซเชียลมีเดีย มาเสริมทัพแอพแชทกลุ่ม Spaces ที่เปิดตัวไปเมื่อต้นปีที่ผ่านมา โดยไม่มีการเปิดเผยมูลค่า ถึงแม้แอพ Kifi จะปิดตัวลงในอีก 2-3 อาทิตย์ข้างหน้า แต่ทีมงานและเทคโนโลยีของ Kifi จะไปร่วมงานและน่าจะถูกนำไปพัฒนาและควบรวมไว้ในแอพ Spaces อย่างไรก็ตามทาง Google ไม่ได้เปิดเผยว่าดึงพนักงานของ Kifi เข้าไปร่วมงานด้วยทั้งหมดกี่คน ที่มา - TechCrunch   ", 
  "Date": "13/July/2016", 
  "Image-Link": [
    "https://www.blognone.com/sites/default/files/styles/thumbnail/public/topics-images/Google_2015_logo.svg_.png?itok=bd4RvVLK", 
    "/sites/all/themes/blognone42/images/linebutton.png"
  ], 
  "Link": "https://www.blognone.com/node/83380", 
  "News": "Google เข้าซื้อ Kifi สตาร์ทอัพทำส่วนเสริมแนะนำลิงก์ในโซเชียลมาเสริมทัพแอพ Space", 
  "Tags": [
    "Google", 
    "Social Network", 
    "Acquisition"
  ], 
  "Time": "14:14"
}