{
  "By": "twometre", 
  "Contents": "
Product Hunt แพลตฟอร์มรวบรวมแอพ เครื่องมือ และผลิตภัณฑ์ต่างๆ บนโลกออนไลน์แยกเป็นหลากหลายหมวดในชีวิตประจำวัน ล่าสุดส่งบ็อตเข้าไปให้บริการใน Slack แล้ว ในชื่อ Kittybot ครับ
สิ่งที่บ็อตตัวนี้ทำได้คือการอัพเดตข่าวสารในวงการที่ทีม Slack นั้นอยู่และตั้งค่าเพิ่มเติมได้ เช่นถ้าผู้ใช้ทำงานสายแอพเรื่อง IoT ก็สามารถตั้งให้บ็อตอัพเดตทุกข่าวที่เกี่ยวกับสิ่งนี้ในแชนแนลได้ วิธีการติดตั้งไม่ยาก แค่คลิก Add to Slack จากหน้าแลนดิ้งเพจก็ใช้งานได้เลย
ที่มา - Product Hunt

 ", 
  "Date": "27/May/2016", 
  "Image-Link": "https://www.blognone.com/sites/default/files/badges/badge-writer.png", 
  "Link": "https://www.blognone.com/node/81482", 
  "News": "Product Hunt ร่วมวงส่งบ็อต Kittybot ลง Slack", 
  "Tags": [
    "Product Hunt", 
    "Slack", 
    "Chat Bot"
  ], 
  "Time": "01:39"
}