{
  "By": "nismod", 
  "Contents": "
กลุ่มนักเคลื่อนไหวในเวียดนามให้ข้อมูลกับสำนักข่าว Reuters ว่าในช่วงที่ประธานาธิบดีบารัก โอบามามาเดินทางเยือนเวียดนามอย่างเป็นทางการเมื่อวันจันทร์ถึงวันพุธที่ผ่านมานั้น รัฐบาลได้ปิดกั้นการเข้าถึงเฟซบุ๊กตั้งแต่วันอาทิตย์จนถึงวันพุธ เพื่อป้องกันการนัดรวมตัวเคลื่อนไหวหรือประท้วง
ส่วนหนึ่งคาดว่าน่าจะมาจากคาดการของรัฐบาลเวียดนามที่มองว่า ประธานาธิบดีของสหรัฐน่าจะแสดงความกังวลถึงเรื่องเสรีภาพและสิทธิมนุษยชน ซึ่งอาจเปิดช่องให้กลุ่มนักเคลื่อนไหวนัดรวมตัวประท้วงรัฐบาลผ่านเฟซบุ๊ก และในท้ายที่สุดแล้วโอบามาก็กล่าวสุนทรพจน์เกี่ยวกับสิทธิมนุษยชนและตำหนิรัฐบาลเวียดนาม ที่ปิดกั้นเสรีภาพในการแสดงออกทางการเมืองจริงๆ
ทั้งนี้ก่อนหน้านี้ รัฐบาลเวียดนามเคยบล็อกเฟซบุ๊ก ด้วยเหตุผลคล้ายๆ กันนี้มาแล้วครั้งหนึ่ง
ที่มา - Reuters

 ", 
  "Date": "27/May/2016", 
  "Image-Link": "https://www.blognone.com/sites/default/files/badges/badge-trainee-shadow.png", 
  "Link": "https://www.blognone.com/node/81504", 
  "News": "รัฐบาลเวียดนามบล็อกเฟซบุ๊ก ช่วงที่โอบามาเดินทางมาเยือน", 
  "Tags": [
    "Facebook", 
    "Vietnam", 
    "Obama"
  ], 
  "Time": "14:02"
}