{
  "By": "trinakub", 
  "Contents": " Square Enix ประกาศนำเกมมือถือ Free-to-play Online Card Battle RPG เกม Kai-ri-Sei Million Arthur มา port ลง PlayStation 4 และ PlayStation Vita แล้ว มีกำหนดการเปิดตัวในเขตญี่ปุ่นภายในช่วงไตรมาสที่ 3 นี้ รูปแบบการเล่นบนเวอร์ชัน PlayStation จะมีลักษณะที่คล้ายคลึงกับรูปแบบบนมือถือ โดยจะมีการปรับแต่งรายละเอียดในส่วนต่าง ๆ เพิ่มเติม การเปลี่ยนแปลงหลัก ๆ ที่เกิดขึ้นบนเวอร์ชันคอนโซล  ตัวละครใหม่ บอส 3D ตัวใหม่  ปรับปรุงลักษณะหน้าตาของบอส 3D ให้ดูดีขึ้น แฟรี่ช่วยเหลือจะอยู่ในรูปแบบของ 3D   ผู้ที่สนใจสามารถสมัครสมาชิกสำหรับเวอร์ชันคอนโซลล่วงหน้าได้ที่หน้าเว็บไซต์หลักของ Million Arthur ซึ่งจะเปิดรับสมัครวันที่ 8 กรกฎคม 2559 เวลา 13:00 น. ตามเวลา JST (15:00 น. ตามเวลาไทย) สำหรับเขตตะวันตกยังไม่มีประกาศออกมาแน่ชัดว่าจะมีการนำเวอร์ชัน PS4 และ PS Vita เข้ามาด้วยหรือไม่ แต่เวอร์ชันมือถือนั้น ได้มีการนำเข้าแล้ว สามารถดาวน์โหลดมาเล่นได้ที่ iTunes และ Google Play ที่มา – DualShockers   ", 
  "Date": "7/July/2016", 
  "Image-Link": [
    "https://www.blognone.com/sites/default/files/styles/thumbnail/public/news-thumbnails/Million%20Arthur%20Logo.png?itok=YFRIMQst", 
    "http://i.imgur.com/vhEHj7e.jpg", 
    "/sites/all/themes/blognone42/images/linebutton.png"
  ], 
  "Link": "https://www.blognone.com/node/83148", 
  "News": "Square Enix ประกาศนำเกม Kai-ri-Sei Million Arthur ลง PS4 และ PS Vita", 
  "Tags": [
    "Million Arthur", 
    "Square Enix", 
    "Games"
  ], 
  "Time": "23:03"
}