{
  "By": "sunnywalker", 
  "Contents": " วันนี้ Pope Francis ได้เข้าพบปะพูดคุยกับเหล่า creator บน YouTube จำนวน 11 ผู้ซึ่งมาจากหลากหลายประเทศ เพื่อพูดคุยแชร์ประสบการณ์ และความเห็นด้านสังคม วัฒนธรรม เพศ สิทธิของผู้อพยพ และภายในอาทิตย์ถัดไป เหล่า creator จะทำคลิปแชร์ประสบการณ์ที่ได้จากการพูดคุยลง YouTube ด้วย แม้สถานะความเป็นพระสันตะปาปาและเทคโนโลยี โดยเฉพาะโซเชียลมีเดียจะไม่ใช่สิ่งแปลกแยกซึ่งกันและกันอีกต่อไป  เพราะพระ Benedict XVI ก็มีแชนเนลทาง YouTube เมื่อปีที่แล้ว แต่นี่เป็นครั้งแรกที่มีการพบปะพูดคุยระหว่างกัน และ 11 คนที่มาร่วมพูดคุยแต่ละคนมีผู้ติดตามไม่ต่ำกว่า 1 ล้านคน อาจเป็นหนึ่งในแรงผลักดันในการสร้างความเข้าใจระหว่างกันของสังคมที่มีความแตกต่างกันทั่วโลก  ภาพจาก YouTube Official Blog ที่มา - YouTube Official Blog, Engadget   ", 
  "Date": "30/May/2016", 
  "Image-Link": [
    "https://www.blognone.com/sites/default/files/styles/thumbnail/public/topics-images/youtube300.png?itok=YF7mGiqj", 
    "http://i.imgur.com/6Hu55Fi.jpg", 
    "/sites/all/themes/blognone42/images/linebutton.png"
  ], 
  "Link": "https://www.blognone.com/node/81596", 
  "News": "Pope Francis พบ 11 YouTubers จากทั่วโลก แบ่งปันประเด็นด้านสังคม  ", 
  "Tags": [
    "YouTube"
  ], 
  "Time": "11:55"
}