{
  "By": "nismod", 
  "Contents": " แม้จะดูไม่มีน้ำหนักมากนัก แตกรณีนี้อาจเป็นอีก 1 กรณีที่สะท้อนถึงอิทธิพลของเฟซบุ๊กต่อการเลือกตั้งหรือแม้แต่ผลของการเลือกตั้งที่มีการพูดกันมากขึ้นเรื่อยๆ ในระยะหลัง ในสหราชอาณาจักร กำลังจะมีการลงประชามติเพื่อถามความเห็นประชาชนว่า สหราชอาณาจักรยังคงเป็นสมาชิกสหภาพยุโรปต่อไปหรือไม่ โดยเมื่อวันอังคารที่่ผ่านมาเป็นวันสุดท้าย สำหรับการเปิดให้ประชาลงทะเบียน เพื่อสิทธิที่จะลงประชามติครั้งนี้ และเมื่อวันศุกร์ที่ผ่านมา เฟซบุ๊กได้แจ้งเตือนบริเวณด้านบนของนิวส์ฟิตผู้ใช้ในสหราชอาณาจักร ว่าอย่าลืมไปลงทะเบียน ปรากฎว่ามีผู้ลงทะเบียนออนไลน์ในวันนั้นพุ่งสูงขึ้นมาอย่างผิดปกติ (spike) ตัวเลขจากรัฐบาลอังกฤษระบุว่าวันศุกร์มีผู้ลงทะเบียนออนไลน์กว่า 186,000 คน ซึ่งสูงกว่าตัวเลขผู้ลงทะเบียนออนไลน์ที่ผ่านมาทั้งหมด ซึ่งอยู่แต่ประมาณหลักหมื่นเท่านั้น โดยประชาชนที่ลงทะเบียนในวันศุกร์ส่วนใหญ่มีอายุต่ำกว่า 34 ปีลงมา อย่างไรก็ตาม วันศุกร์ที่ผ่านมานั้นเป็นวันสุดท้ายสำหรับชาวไอร์แลนด์เหนือ สำหรับลงทะเบียนเพื่อลงประชามติ ซึ่งตรงนี้ก็อาจเป็นอีกเหตุผลที่ทำให้ยอดผู้ลงทะเบียนในวันนั้นพุ่งสูงขึ้นอย่างผิดปกติก็เป็นได้ ที่มา - The Atlantic   ", 
  "Date": "8/June/2016", 
  "Image-Link": [
    "https://www.blognone.com/sites/default/files/styles/thumbnail/public/topics-images/fb-500.png?itok=7KEmyKx1", 
    "/sites/all/themes/blognone42/images/linebutton.png"
  ], 
  "Link": "https://www.blognone.com/node/81993", 
  "News": "ชาว UK แห่ลงทะเบียนเพื่อลงประชามติ หลังเฟซบุ๊กแจ้งเตือนบนนิวส์ฟีต", 
  "Tags": [
    "Facebook", 
    "Social Media", 
    "United Kingdom"
  ], 
  "Time": "11:55"
}