{
  "By": "twometre", 
  "Contents": " ตอนนี้สายนักออกแบบให้ความสนใจกับอุปกรณ์ที่ชื่อว่า Spector ครับ สิ่งนี้เป็นเครื่องสแกนตัวอักษรบนสิ่งพิมพ์ และช่วยหาว่าตัวอักษรนั้นใช้ฟอนต์ (หรือไทป์เฟซ) ชื่ออะไร สีรหัสใด ทว่าสิ่งนี้ยังเป็นแค่รุ่นทดลอง (แต่ใช้งานได้) ในโปรเจกต์จบของ Fiona O’Leary จาก Royal College of Art วิธีการใช้คือวางเจ้า Spector ลูกกลมๆ คล้าย Pokeball นี้บนสิ่งพิมพ์ที่ต้องการ ก็จะดูดสีและค่าฟอนต์เก็บไว้ได้สูงสุด 20 แบบ ถ้าเชื่อมต่ออยู่กับคอมพิวเตอร์ ก็จะมีปลั๊กอินส่งค่าเหล่านี้เข้าไปใช้ใน Adobe InDesign ได้ทันที ที่มา - Fiona O'Leary      ", 
  "Date": "7/July/2016", 
  "Image-Link": [
    "https://www.blognone.com/sites/default/files/styles/thumbnail/public/news-thumbnails/2016-07-07%2013_02_40-Spector%20-%20Fiona%20O%27Leary.png?itok=fCbfl89Z", 
    "//upic.me/i/kr/spector_pressshot02_fionaoleary_1200-copy.jpg", 
    "//upic.me/i/kr/spector_pressshot06_fionaoleary_1200.jpg", 
    "//upic.me/i/kr/spector_pressshot03_fionaoleary_1200.jpg", 
    "/sites/all/themes/blognone42/images/linebutton.png"
  ], 
  "Link": "https://www.blognone.com/node/83121", 
  "News": "รู้จัก Spector: ถ้า Shazam ไว้หาชื่อเพลง สิ่งนี้ก็เอาไว้หาชื่อฟอนต์ที่ใช้บนสิ่งพิมพ์", 
  "Tags": [
    "Spector", 
    "Gadget", 
    "Font", 
    "Graphic"
  ], 
  "Time": "13:03"
}