{
  "By": "BlackMiracle", 
  "Contents": " HTC เปิดตัว HTC 10 สมาร์ทโฟนเรือธงรุ่นใหม่ของบริษัทไปเมื่อช่วงต้นปี ได้คะแนนรีวิวก็ไม่แย่ แต่ขายแพงไปหน่อย ขนาดซอยรุ่นตัดสเปกมาขายในประเทศกำลังพัฒนาเป็น HTC 10 Lifestyle ก็ยังมีข่าวว่ายอดจองในประเทศจีนมีเพียง 251 เครื่อง ล่าสุดมีรายงานจาก Trendforce ทำนายว่า HTC 10 จะมียอดขายทั้งปี 2016 เพียงแค่ราว 1 ล้านเครื่องเท่านั้น ในขณะที่ Samsung Galaxy S7 ขายได้เป็นสิบล้านเครื่อง ดูเหมือนว่าความหวังที่จะพึ่ง HTC 10 เพื่อช่วยกู้สถานการณ์บริษัทคงจะไปได้ไม่สวยนักนะครับ ที่มา - Neowin    ", 
  "Date": "7/July/2016", 
  "Image-Link": [
    "https://www.blognone.com/sites/default/files/styles/thumbnail/public/topics-images/htc.png?itok=5TBfl4iq", 
    "https://i.imgur.com/icHJjvK.jpg", 
    "/sites/all/themes/blognone42/images/linebutton.png"
  ], 
  "Link": "https://www.blognone.com/node/83147", 
  "News": "HTC ยังอาการหนัก คาดว่าทั้งปีนี้จะขาย HTC 10 ได้แค่ 1 ล้านเครื่อง", 
  "Tags": [
    "HTC", 
    "HTC 10", 
    "Mobile"
  ], 
  "Time": "22:41"
}