{
  "By": "trinakub", 
  "Contents": " หลังจากที่คุณ Hideo Kojima เปิดตัวเกม Death Stranding ไปในงาน E3 ที่ผ่านมาแล้ว ล่าสุดที่งาน Develop Conference 2016 คุณ Kojima พูดคุยกับ PS4 lead designer คุณ Mark Cerny ถึงความมั่นใจในตัวเกม Death Stranding “ที่ผ่านมา ทุกครั้งที่ผมสร้างเกม ผมจำเป็นต้องยอมตัดบางอย่างทิ้งไปหรืออะลุ่มอล่วยบางอย่างเพื่อให้เกมออกมาสำเร็จ” “แต่ไม่ใช่กับครั้งนี้ การร่วมงานกับคุณ Mark ด้วยเทคโนโลยีที่ทันสมัย จะทำให้เราสามารถก้าวข้ามปัญหานั้นไปได้” “ผมมั่นใจมากว่าพวกเรากำลังทำสิ่งใหม่ ๆ ที่ไม่เคยมีใครเคยเห็นมาก่อน และครั้งนี้จะเป็นงานที่ยอดเยี่ยมที่สุดของผม ผมมั่นใจในเรื่องนี้มาก” เกม Death Stranding มีกำหนดการวางจำหน่ายแบบ Exclusive บน PS4 แต่จะนำมาลง PC ด้วยเช่นกัน วันจำหน่ายยังไม่มีการประกาศออกมาแน่ชัด ล่าสุดคุณ Kojima กล่าวว่ายังไม่สามารถวางจำหน่ายได้ภายในเร็ว ๆ นี้แน่นอน ที่มา – GameSpot   ", 
  "Date": "14/July/2016", 
  "Image-Link": [
    "https://www.blognone.com/sites/default/files/styles/thumbnail/public/news-thumbnails/logo_6.jpg?itok=iquT7d7H", 
    "/sites/all/themes/blognone42/images/linebutton.png"
  ], 
  "Link": "https://www.blognone.com/node/83407", 
  "News": "Hideo Kojima มั่นใจ Death Stranding จะเป็นผลงานที่ดีเยี่ยมที่สุดของเขา", 
  "Tags": [
    "Death Stranding", 
    "Hideo Kojima", 
    "Games"
  ], 
  "Time": "01:49"
}