{
  "By": "mk", 
  "Contents": " ฟีเจอร์ใหญ่ของ Ubuntu 16.10 รุ่นถัดไปที่เคยสัญญาเอาไว้ คือเปลี่ยนเอนจินของระบบเดสก์ท็อปมาใช้ Mir และ Unity 8 แต่ล่าสุดแผนการนี้ก็ต้องเลื่อนไปอีกแล้ว ช่วงนี้ Ubuntu จัดงานประชุมวางแผนของ Ubuntu 16.10 พอดี ซึ่งตัวแทนของโครงการบอกว่า Ubuntu 16.10 จะมี Mir/Unity 8 มาให้ แต่จะไม่เปิดใช้เป็นค่าดีฟอลต์ (ใครอยากลองสามารถใช้งานได้จาก Alternative Session ในหน้าจอล็อกอิน) ส่วนตัวเดสก์ท็อปหลักจะยังเป็น Unity 7 เหมือนเดิม Unity 8 เป็นแผนการยกเครื่องส่วนติดต่อผู้ใช้ครั้งใหญ่ของ Ubuntu โดยเริ่มพัฒนามาจากฝั่งมือถือ-แท็บเล็ตก่อน และพยายามจะรวมเวอร์ชันเดสก์ท็อปเข้ามาด้วยกัน ที่มา - OMG Ubuntu    ", 
  "Date": "4/May/2016", 
  "Image-Link": [
    "https://www.blognone.com/sites/default/files/styles/thumbnail/public/topics-images/ubuntu.png?itok=gAATZaZR", 
    "https://i.imgur.com/QgwQvw3.jpg", 
    "/sites/all/themes/blognone42/images/linebutton.png"
  ], 
  "Link": "https://www.blognone.com/node/80595", 
  "News": "เลื่อนอีกแล้ว Ubuntu 16.10 จะยังไม่ใช้ Unity 8 เป็นค่าดีฟอลต์", 
  "Tags": [
    "Ubuntu", 
    "Unity", 
    "Linux"
  ], 
  "Time": "10:38"
}