{
  "By": "nutmos", 
  "Contents": " ในยุคที่ผู้ให้บริการต่างก็มีถ่ายทอดสดเป็นของตัวเอง เช่น Facebook มี Facebook Live, Twitter มี Periscope, YouTube มี YouTube Live, Amazon มี Twitch ตอนนี้ทาง Tumblr เตรียมเปิดตัวบริการถ่ายทอดสดใหม่ของตัวเองในวันพรุ่งนี้แล้วเช่นกัน ซึ่งตอนนี้ได้เปิดหน้า livevideo.tumblr.com ไว้รอแล้ว ในบล็อก Live Video ของ Tumblr นั้นมีการเผยตารางของการเปิดตัวฟีเจอร์ถ่ายทอดสดในวันนี้ เช่น ถ่ายทอดสดจากดาวอังคาร, ช่วงถามตอบกับ Adam J. Kurtz, เรียนรู้บาสเกตบอลจาก Harlem Globetrotter และอื่น ๆ สำหรับฟีเจอร์ถ่ายทอดสดของ Tumblr นี้น่าจะอนุญาตให้ผู้ใช้ดูได้ผ่านแอพ Tumblr บนอุปกรณ์พกพา หรือเว็บเบราว์เซอร์ และเมื่อจบการถ่ายทอดสดแล้วก็จะเก็บวิดีโอไว้ดูในภายหลังได้ และจากรายงานข่าวของ TechCrunch บอกว่า Tumblr อาจไม่ได้เปิดตัวแค่ฟีเจอร์ถ่ายทอดสดเท่านั้น แต่จะรวมถึงคอนเทนต์แบบ real-time หลายรูปแบบก็ได้ ตอนนี้ยังไม่มีการยืนยันว่า บริการใหม่ของ Tumblr นี้จะมาในลักษณะไหน และจะมาเป็นคู่แข่งโดยตรงกับ Facebook Live หรือ Twitter Periscope หรือไม่ ที่มา - TechCrunch    ", 
  "Date": "21/June/2016", 
  "Image-Link": [
    "https://www.blognone.com/sites/default/files/styles/thumbnail/public/topics-images/tumblr_0.png?itok=sTzY1upg", 
    "http://i.cubeupload.com/dxEc9F.png", 
    "/sites/all/themes/blognone42/images/linebutton.png"
  ], 
  "Link": "https://www.blognone.com/node/82485", 
  "News": "Tumblr เตรียมเปิดตัวฟีเจอร์ถ่ายทอดสดวันนี้", 
  "Tags": [
    "Tumblr", 
    "Live Streaming"
  ], 
  "Time": "08:39"
}