{
  "By": "lew", 
  "Contents": " ฟูจิตสึผู้ผลิตซุปเปอร์คอมพิวเตอร์รายใหญ่จากญี่ปุ่นประกาศในงาน ISC 2016 ระบุว่าซุปเปอร์คอมพิวเตอร์เครื่องต่อไปจะใช้ชิปที่รันชุดคำสั่งสถาปัตยกรรม ARM จากเดิมที่ฟูจิตสึเคยเน้นชิปสถาปัตยกรรม SPARC มาโดยตลอด ซีพียูที่ใช้นี้จะออกแบบใหม่โดยรับชุดคำสั่ง ARMv8 การเชื่อมต่อระหว่างซีพียูจะใช้ระบบ Tofu ของฟูจิตสึเอง ฟูจิตสึได้รับว่าจ้างจากศูนย์วิจัย RIKEN ให้สร้างซุปเปอร์คอมพิวเตอร์ Post-K ที่น่าจะเปิดใช้งานในปี 2020 โดยมีพลังประมวลผลระดับ 1,000 PFLOPS (เครื่อง Sunway TaihuLight ของจีนตอนนี้มีพลังประมวลผล 125.4 PFLOPS) แม้จะใช้สถาปัตยกรรมชุดคำสั่ง ARMv8 แต่ในการนำเสนอในงาน ISC ทางฟูจิตสึก็เน้นว่าสถาปัตยกรรมภายในเป็นของบริษัทเอง ที่มา - The Register   ", 
  "Date": "21/June/2016", 
  "Image-Link": [
    "https://www.blognone.com/sites/default/files/styles/thumbnail/public/topics-images/fujitsu.png?itok=XRQXNzwB", 
    "/sites/all/themes/blognone42/images/linebutton.png"
  ], 
  "Link": "https://www.blognone.com/node/82507", 
  "News": "ฟูจิตสึประกาศซุปเปอร์คอมพิวเตอร์เครื่องต่อไปใช้สถาปัตยกรรม ARMv8", 
  "Tags": [
    "Fujitsu", 
    "High Performance Computing", 
    "ARM"
  ], 
  "Time": "13:14"
}