{
  "By": "twometre", 
  "Contents": " มีอีกหนึ่งความเคลื่อนไหวของ Tinder แอพหาคู่ ที่นอกจากจะฮิตที่สหรัฐฯ, ยุโรป, ออสเตรเลีย (และไทย?) แล้ว ที่อินเดียแอพนี้ก็ได้รับความนิยมไม่เบา ล่าสุดมีผู้ใช้ในประเทศนี้สูงถึง 400% เพิ่มขึ้นจากปี 2015 มีอัตราการปัดจอซ้ายขวากว่า 14 ล้านครั้งต่อวัน สาเหตุที่ทำให้แอพแบบนี้ได้รับความนิยมในอินเดีย ส่วนหนึ่งมาจากวัฒนธรรมการเลือกคู่ครองของประเทศนี้จะถูกจำกัดด้วยจารีตและประเพณี ทั้งการเลือกคู่ที่ฝ่ายชายทำได้ หรือการจับคู่โดยบิดามารดา ซึ่งจากสถิติปี 2013 มีชาวอินเดียอายุ 18 ถึง 35 ปีกว่าร้อยละ 75 เปิดเผยว่าตนยังต้องการแต่งงานแบบจัดการให้ Tinder สนองเทรนด์นี้ด้วยการทำโฆษณา (ชิ้นแรกของบริษัท) ว่าด้วยคุณแม่และลูกสาวกำลังคุยกันและแต่งตัวเพื่อไปเดทกับหนุ่มที่ปัดขวาเจอในแอพ แทนที่จะจับคู่แบบคลุมถุงชน ก็เป็นการให้มารดาช่วยสกรีนหนุ่มให้แทน ที่มา - CNET ยังมีประเด็นเพิ่มเติมว่าทำไม Tinder ถึงฮิตในอินเดีย ส่วนหนึ่งมาจากมันลิงก์กับ Facebook และเป็นสินค้าตะวันตกที่แฝงมาในวัฒนธรรมทางทีวีครับ  ภาพประกอบ   ", 
  "Date": "27/May/2016", 
  "Image-Link": [
    "https://www.blognone.com/sites/default/files/styles/thumbnail/public/topics-images/tinder_0.png?itok=IAa6k7Q9", 
    "//upic.me/i/i4/ritual-323318_640.jpg", 
    "/sites/all/themes/blognone42/images/linebutton.png"
  ], 
  "Link": "https://www.blognone.com/node/81480", 
  "News": "แอพหาคู่ Tinder ทลายกำแพงความรักหนุ่มสาวแดนภารตะ", 
  "Tags": [
    "Tinder", 
    "Love", 
    "India"
  ], 
  "Time": "00:49"
}