{
  "By": "twometre", 
  "Contents": " Tinder - แอพคนเหงาขอปัดขวา มองหารักแท้ กำลังจะออกมาตรการใหม่ ระงับการใช้งานของผู้ใช้อายุต่ำกว่า 18 ปี เริ่มต้นสัปดาห์หน้า ซึ่งตอนนี้ Tinder มีกฎระเบียบเพียงแค่ผู้ใช้ต้องอายุมากกว่า 13 ปีเท่านั้น ซึ่งขัดกับบริการอื่นอย่าง OkCupid, eHarmony หรือ Match.com กระทั่งบริการอีกรายอย่าง Plenty of Fish กำหนดถึงขั้นว่า สุภาพสตรีอายุ 18-21 ปี จะถูกจับคู่กับสุภาพบุรุษอายุต่ำกว่า 30 ปีเท่านั้น การปรับปรุงอายุขั้นต่ำครั้งนี้ Tinder ระบุว่าจะมีผลกระทบกับผู้ใช้ทั่วโลกน้อยกว่าร้อยละ 3 ครับ ที่มา - TechCrunch    ", 
  "Date": "9/June/2016", 
  "Image-Link": [
    "https://www.blognone.com/sites/default/files/styles/thumbnail/public/topics-images/tinder_0.png?itok=IAa6k7Q9", 
    "https://img.in.th/images/faa2a3041c689e6c7b861069005ec092.jpg", 
    "/sites/all/themes/blognone42/images/linebutton.png"
  ], 
  "Link": "https://www.blognone.com/node/82031", 
  "News": "หมดเวลาของเยาวชน Tinder จะระงับการให้บริการผู้ใช้อายุต่ำกว่า 18 ปี", 
  "Tags": [
    "Tinder", 
    "Love"
  ], 
  "Time": "06:23"
}