{
  "By": "twometre", 
  "Contents": " แอพหาคู่ ที่กำลังเป็นที่นิยมตอนนี้อย่าง Tinder กำลังดำเนินการฟ้องแอพอีกรายจากสหราชอาณาจักรที่ชื่อ \"3nder\" ที่สร้างไว้เพื่อนัดสร้างสัมพันธ์แบบสามภาคี (ทรีซั่ม) และยังใช้ชื่อพ้องกับ Tinder อีกด้วย จึงมีการร้องขอให้ถอนชื่อนี้ออกจากอินเทอร์เน็ตเพื่อป้องกันการสับสน ด้าน Dimo Trifonov ผู้ก่อตั้งแอพ 3nder ก็แจงว่าชื่อแอพเขาออกเสียงเป็น Thrinder และยังกังขาถึงแอพหาคู่รายอื่นที่ใช้ชื่อคล้ายกัน อย่าง Grindr ด้วย และยิ่งไปกว่านั้นเมื่อล่าสุด 3nder ยังเขียนบล็อกเย้ยการดำเนินการของ Tinder ครั้งนี้ พร้อมกับตั้งแฮชแท็ก #TinderSuckMySocks ออกมาด้วย ด้านฐานะการเงินของ 3nder ตอนนี้เพิ่งได้รับเงินลงทุนจาก angel investor มาราว 500,000 เหรียญสหรัฐไม่นานนี้ ก่อนที่จะเกือบปิดกิจการก่อนหน้านี้ ที่มา - Fortune  หน้าตาแอพ 3nder ตอนนี้มีบน iOS ก่อน   ", 
  "Date": "24/May/2016", 
  "Image-Link": [
    "https://www.blognone.com/sites/default/files/styles/thumbnail/public/topics-images/tinder_0.png?itok=IAa6k7Q9", 
    "//upic.me/i/bf/3nderphoneios.png", 
    "/sites/all/themes/blognone42/images/linebutton.png"
  ], 
  "Link": "https://www.blognone.com/node/81317", 
  "News": "Tinder เล็งฟ้องแอพนัดเดทสามคน \"3nder\" เหตุชื่อพ้องเสียงกัน", 
  "Tags": [
    "Tinder", 
    "Love"
  ], 
  "Time": "09:06"
}