{
  "By": "Lamicrosz", 
  "Contents": " หลังผลประชามติ Brexit ที่คะแนนฝั่งออกจากสหภาพยุโรปได้ครองเสียงข้างมากไป ส่งผลต่อเรื่องความเชื่อมั่นทางเศรษฐกิจและการลงทุน ทางฝั่ง Satya Nadella ซีอีโอของไมโครซอฟท์ ออกมาให้ความเชื่อมั่นว่า ผลประชามติที่ออกมา จะไม่ส่งผลต่อการลงทุนและการจ้างงานของบริษัท เนื่องด้วยสหราชอาณาจักรเป็นตลาดที่ใหญ่ และรายได้กว่า 55% มาจากภูมิภาคอื่นๆ ทั่วโลก นอกจากสหรัฐอเมริกา ไมโครซอฟท์มีพนักงานในสหราชอาณาจักรอยู่กว่า 3,000 คน ในสำนักงาน 6 แห่ง ที่มา - Business Journal   ", 
  "Date": "4/July/2016", 
  "Image-Link": [
    "https://www.blognone.com/sites/default/files/styles/thumbnail/public/topics-images/MSFT_logo_rgb_C-Gray.png?itok=j3hJhqua", 
    "/sites/all/themes/blognone42/images/linebutton.png"
  ], 
  "Link": "https://www.blognone.com/node/82992", 
  "News": "ไมโครซอฟท์ยืนยัน ผลโหวต Brexit ไม่ส่งผลต่อการลงทุนของบริษัท ในสหราชอาณาจักร", 
  "Tags": [
    "Microsoft", 
    "Investment", 
    "United Kingdom", 
    "Brexit"
  ], 
  "Time": "23:52"
}