{
  "By": "advertorial", 
  "Contents": " การใช้งานโทรศัพท์มือถือโดยทั่วไปเราคงไม่สามารถมาดูแลโทรศัพท์ได้ตลอดเวลา ทั้งการตกกระแทกเล็กๆ น้อยๆ รอยขีดข่วนจากพวกกุญแจในกระเป๋า หรือการใช้งานอื่นๆ ล้วนสร้างริ้วรอยให้โทรศัพท์ของเราได้ทั้งสิ้น Samsung Galaxy A (2016) ไม่ได้มีแค่ความสวยงามภายนอก แต่ในแง่วัสดุแล้วมันยังใช้ Gorilla Glass 4 ที่ออกแบบมาเพื่อความทนทานโดยเฉพาะเป็นกระจกหน้า ตัวกระจกรองรับแรงกดก่อนจะเกิดริ้วรอยในเนื้อกระจกได้มากกว่า Gorilla Glass 3 มากกว่าสองเท่าตัว ทนทานต่อความร้อนสูง ส่งผลให้ความทนทานโดยรวมของตัวโทรศัพท์ดีขึ้นไปด้วย  ที่แรงกดเท่ากัน Gorilla Glass 4 เกิดริ้วรอยตื้นกว่า Gorilla Glass 3 มาก โอกาสเกิดร่องรอยที่มองเห็นได้บนตัวเครื่องน้อยกว่าเดิม นอกจากกระจกที่ทนทานแล้ว ตัวเครื่องโดยรอบของ Galaxy A (2016) ยังใช้ Aluminium Alloy 6061 อัลลอยด์น้ำหนักเบาความทนทานสูง เป็นวัสดุเดียวกับที่ใช้ในอุตสาหกรรมการบิน วัสดุภายนอกทั้งหมดของ Samsung Galaxy A (2016) จึงไม่ได้ถูกเลือกมาเพียงเพื่อความสวยงามเพียงอย่างเดียว แต่เพื่อความทนทานในการใช้งานจริงไปพร้อมกัน   ", 
  "Date": "2/June/2016", 
  "Image-Link": [
    "https://www.blognone.com/sites/default/files/styles/thumbnail/public/topics-images/j8u2rhG1.jpg?itok=CJuE6qSo", 
    "//upic.me/i/py/image00.jpg", 
    "/sites/all/themes/blognone42/images/linebutton.png"
  ], 
  "Link": "https://www.blognone.com/node/81760", 
  "News": "Gorilla Glass 4 บน Samsung Galaxy A แข็งแกร่งแค่ไหน", 
  "Tags": [
    "Samsung", 
    "Galaxy A", 
    "Advertorial"
  ], 
  "Time": "16:42"
}