{
  "By": "mk", 
  "Contents": " บริการเก็บสถิติ SimilarWeb รวบรวมสถิติแอพแชทยอดนิยมของแต่ละประเทศในโลก รวม 187 ประเทศ พบว่า WhatsApp ได้รับความนิยมสูงสุด และถือเป็นแอพแชทอันดับ 1 ใน 109 ประเทศ โดยเฉพาะในละตินอเมริกา แอฟริกา ยุโรปบางประเทศ ตะวันออกกลาง-เอเชียใต้ รวมถึงรัสเซีย แอพที่ได้รับความนิยมตามมาเป็นอันดับสองคือ Facebook Messenger ที่ครองแชมป์ใน 49 ประเทศ ได้แก่ สหรัฐอเมริกา แคนาดา ออสเตรเลีย ฝรั่งเศส ยุโรปตะวันออก (เท่ากับว่าแอพแชทยอดนิยมใน 158 ประเทศเป็นของ Facebook ทั้งหมด) อันดับสามในแง่จำนวนประเทศคือ Viber ที่ครองแชมป์ใน 10 ประเทศ ได้แก่ยุโรปตะวันออก แอฟริกาบางประเทศ รวมถึงพม่าและศรีลังกา LINE ตามมาเป็นอันดับสี่ ฐานที่มั่นสำคัญคือญี่ปุ่น ไต้หวัน ไทย ตามด้วย Telegram ที่เป็นแชมป์ในอิหร่านและอุซเบกิสถาน ส่วนแอพแชทตัวที่เหลือมีฐานที่มั่นเฉพาะของตัวเอง เช่น KakaoTalk (เกาหลีใต้) WeChat (จีน) Zalo (เวียดนาม) BBM (อินโดนีเซีย) imo (คิวบา)  กราฟอย่างละเอียดดูได้จากลิงก์ต้นฉบับครับ ที่มา - SimilarWeb via Android Community   ", 
  "Date": "28/May/2016", 
  "Image-Link": [
    "https://www.blognone.com/sites/default/files/styles/thumbnail/public/topics-images/whatsapp.png?itok=KzSwXlnq", 
    "https://i.imgur.com/M6lgfap.jpg", 
    "/sites/all/themes/blognone42/images/linebutton.png"
  ], 
  "Link": "https://www.blognone.com/node/81544", 
  "News": "WhatsApp แชมป์แอพแชทยอดนิยมใน 109 ประเทศ, Facebook Messenger อันดับสอง", 
  "Tags": [
    "WhatsApp", 
    "Facebook Messenger", 
    "Market Share", 
    "Instant Messenger"
  ], 
  "Time": "16:47"
}