{
  "By": "nismod", 
  "Contents": " หลังภาพยนตร์อย่าง Warcraft ดูจะประสบความสำเร็จไปแล้วระดับหนึ่งในฐานะภาพยนตร์ที่สร้างจากเกม ขณะที่ฝั่ง Ubisoft ยังคงมี Assassin's Creed รอพิสูจน์ตัวเองอยู่ปลายปีนี้ แต่ดูเหมือน Ubisoft จะไม่รอดูกระแสและเริ่มเตรียมการสร้าง Tom Clancy's The Division ฉบับภาพยนตร์แล้ว The Variety เว็บไซต์ข่าวสายฮอลลีวูดรายงานว่าโปรเจคนี้จะได้ Jake Gyllahaal (ที่เคยแสดงนำในภาพยนตร์จากเกมอย่าง Prince of Persia: The Sands of Time) มาเป็นโปรดิวเซอร์และนักแสดงนำ อย่างไรก็ตามโครงการยังอยู่ในช่วงเริ่มต้นเท่านั้น ยังไม่มีการพัฒนาบทหรือแม้แต่วางตัวผู้กำกับแต่อย่างใด ขณะเดียวกันก็ยังไม่มีการยืนยันจาก Ubisoft ถึงโครงการนี้อย่างเป็นทางการเช่นกันครับ ที่มา - The Variety via Polygon   ", 
  "Date": "2/June/2016", 
  "Image-Link": [
    "https://www.blognone.com/sites/default/files/styles/thumbnail/public/topics-images/Ubisoft.png?itok=IsdXHzQm", 
    "/sites/all/themes/blognone42/images/linebutton.png"
  ], 
  "Link": "https://www.blognone.com/node/81758", 
  "News": "[ไม่ยืนยัน] Ubisoft กำลังเตรียมการสร้าง The Division ฉบับภาพยนตร์", 
  "Tags": [
    "The Division", 
    "Ubisoft", 
    "Tom Clancy", 
    "Movie"
  ], 
  "Time": "15:55"
}