{
  "By": "nrad6949", 
  "Contents": " Engadget รายงานข่าวว่า Tavis Ormandy พนักงานของ Google ตรวจพบช่องโหว่ memory buffer overflow ในเอนจินสแกนไวรัสของ Symantec ซึ่งจะเกิดขึ้นต่อเมื่อตัวเอนจินไปสแกนไฟล์บีบอัดที่ภายในมีไฟล์ที่รันได้ (executable) ซึ่งจะทำให้เข้าถึงสิทธิในการใช้งานระดับสูงเพื่อเข้าถึงระบบปฏิบัติการได้ และได้นำช่องโหว่ดังกล่าวนี้เข้าโครงการ Project Zero ด้วย ช่องโหว่ดังกล่าวนี้มีอันตรายที่รุนแรง เพราะผู้ที่ตกเป็นเหยื่อไม่จำเป็นต้องเปิดอ่านแม้กระทั่งอีเมล ขอเพียงแค่ตัวเอนจินสแกนไวรัสทำการสแกนอีเมลเราเท่านั้นก็สามารถทำงานได้ ช่องโหว่นี้กระทบกับผลิตภัณฑ์ Symantec ที่ใช้เอนจินสแกนไวรัสทุกระบบปฏิบัติการทั้ง Linux, Mac และ Windows (ช่องโหว่ดังกล่าวได้คะแนน 9.4 บน CVSS v2 และ 9.1 บน CVSS V3) ข่าวดีก็คือ Symantec รีบออกอัพเดตตัวแก้ไขมาแล้ว ใครที่ใช้งานผลิตภัณฑ์ที่มีเอนจินดังกล่าวแนะนำให้รีบอัพเดตโดยทันทีครับ ที่มา - Project Zero ผ่าน Engadget, Symantec   ", 
  "Date": "18/May/2016", 
  "Image-Link": [
    "https://www.blognone.com/sites/default/files/styles/thumbnail/public/topics-images/symantec.png?itok=-sRtP9RM", 
    "/sites/all/themes/blognone42/images/linebutton.png"
  ], 
  "Link": "https://www.blognone.com/node/81121", 
  "News": "Google พบช่องโหว่ในเอนจินสแกนไวรัสของ Symantec กระทบทุกแพลตฟอร์ม มีอัพเดตแล้ว", 
  "Tags": [
    "Symantec", 
    "Security", 
    "Antivirus", 
    "Project Zero"
  ], 
  "Time": "09:10"
}