{
  "By": "nismod", 
  "Contents": " ไม่ผิดจากที่ลือก่อนหน้านี้ Google ได้เปิดตัว Google Home อุปกรณ์ที่รองรับการสั่งงานด้วยเสียงตลอดเวลา ออกมาท้าชน Amazon Echo โดยตรง รูปทรงของ Google Home ไม่แตกต่างจากเราท์เตอร์ OnHub มากนัก โดยฐานของตัวเครื่องจะมีตัวเลือกให้ผู้ใช้เปลี่ยนได้หลากหลายทังสีและวัสดุ ตัว Google Home นอกจากจะรองรับคำสั่งพื้นฐานทั่วไปเหมือนที่เราสามารถสั่ง Google Now บนสมาร์ทโฟนได้แล้ว ยังสามารถเชื่อมต่อกับอุปกรณ์สมาร์ทโฟนอื่นๆ และยังรองรับการเชื่อมต่อผ่าน Chromecast และแอพ Google Cast ได้โดยตรง ผู้ใช้สามารถสั่งให้ Google Home เล่นเพลงจากสมาร์ทโฟนหรือผู้ให้บริการสตรีมเพลงออนไลน์ โดยในอนาคต Google วางแผนจะพัฒนาให้ Google Home รองรับการสั่งงานที่อยู่นอกเหนือตัวบ้านอาทิ สั่งอาหารหรือสั่งดอกไม้ Google Home จะเริ่มวางขายในช่วงปลายปีนี้ โดยยังไม่มีการเปิดเผยราคาครับ       ", 
  "Date": "19/May/2016", 
  "Image-Link": [
    "https://www.blognone.com/sites/default/files/styles/thumbnail/public/news-thumbnails/Google%20Home.PNG?itok=sUqP_a9b", 
    "https://farm8.staticflickr.com/7220/26822269080_9dcb9b39a7_z.jpg", 
    "https://farm8.staticflickr.com/7278/27096342265_30a688a0ab_z.jpg", 
    "https://farm8.staticflickr.com/7758/26492743603_fd923271a8_z.jpg", 
    "https://farm8.staticflickr.com/7004/26491201464_50a1d9592f_z.jpg", 
    "/sites/all/themes/blognone42/images/linebutton.png"
  ], 
  "Link": "https://www.blognone.com/node/81166", 
  "News": "[Google I/O] Google เปิดตัว Google Home ผู้ช่วยสั่งงานด้วยเสียงประจำบ้าน", 
  "Tags": [
    "Google Home", 
    "Google", 
    "Voice Recognition", 
    "Google I/O"
  ], 
  "Time": "00:56"
}