{
  "By": "nuntawat", 
  "Contents": "
หากใครติดตามมือถือระดับเรือธงจากซัมซุงจะพบว่าเรือธงตระกูล Galaxy S และตระกูล Galaxy Note มัความใกล้เคียงกันมากในเรื่องสเปค ต่างกันเพียงขนาดหน้าจอและปากกาสไตลัส แต่หากสิทธิบัตรที่จะถูกกล่าวถึงต่อไปเป็นสินค้าจริงขึ้นมาได้ มือถือระดับเรือธงตระกูล Galaxy Note อาจถูกแทนที่ด้วยมือถือตระกูล Galaxy S ไปเลย
ซัมซุงจดสิทธิบัตรเคสมือถือที่มากับหน้าจอขนาดใหญ่ขอบโค้งคล้าย Galaxy Note Edge ช่องเสียบสไตลัส และส่วนที่ถูกตัดเป็นช่องสำหรับปุ่มโฮม กล้องหน้า ช่องเสียบหูฟัง หัวยูเอสบี และไมโครโฟน โดยบริษัทจดสิทธิบัตรนี้ตั้งแต่ปีก่อน
เว็บไซต์ Phone Arena คาดว่า ที่ต้องออกแบบเคสนี้เพราะหน้าจอของเคสจะรองรับ digitizer สำหรับสไตลัสอย่าง S Pen ซึ่งหน้าจอมือถือตระกูล Galaxy S ไม่มี
คงต้องตามกันว่าจะมีเคสแบบนี้ออกสู่ตลาดหรือไม่
ที่มา: Phone Arena

", 
  "Date": "01/02/16", 
  "Image-Link": "https://www.blognone.com/sites/default/files/imagecache/news-thumbnail/category_pictures/samsung-big.png", 
  "Link": "https://www.blognone.com/node/77320", 
  "News": "ซัมซุงจดสิทธิบัตร เคสพร้อมสไตลัสแปลงมือถือตระกูล Galaxy S เป็น Galaxy Note Edge", 
  "Tags": "Mobile
Patent
Samsung
", 
  "Time": "12:14"
}