{
  "By": "lew", 
  "Contents": "
ปัญหาความเร็วเน็ตช้ากว่าที่ซื้อมาอาจจะเป็นเรื่องปกติที่เราต้องทนกัน จะแจ้งศูนย์ตลอดเวลาหรือโวยวายออกสื่อก็ดูจะต้องใช้ความพยายาม ผู้ใช้บริการ Comcast ชื่อว่า Aleksey จึงหาทางที่สะดวกกว่าด้วยการเขียนบอต ให้ทวีตทุกครั้งที่อินเทอร์เน็ตหลุดหรือความเร็วต่ำกว่า 50mbps ผ่านบัญชี @A_Comcast_User
แนวทางนี้อาจจะแก้ปัญหาความน่าเบื่อสำหรับผู้ใช้ทั่วไปที่ต้องเสียเวลาโวยวายทุกครั้งที่อินเทอร์เน็ตมีปัญหา แถมถ้าคนจำนวนมากใช้งานจะได้รู้ได้ทันทีว่ามีปัญหาในเขตไหนหรือไม่
Aleksey โพสซอร์สโค้ดเอาไว้ที่ Pastebin
ที่มา - Engadget
Hey @Comcast why is my internet speed 29down\8up when I pay for 150down\10up in Washington DC? @ComcastCares @xfinity #comcast #speedtest
— AComcast User (@A_Comcast_User) January 29, 2016
", 
  "Date": "01/02/16", 
  "Image-Link": "https://www.blognone.com/sites/default/files/imagecache/news-thumbnail/category_pictures/usa.png", 
  "Link": "https://www.blognone.com/node/77321", 
  "News": "เน็ตช้าอย่าเก็บไว้ในใจ บอต Raspberry Pi ทวีตแจ้งผู้ให้บริการทุกครั้งที่เน็ตช้า", 
  "Tags": "Internet
USA
", 
  "Time": "12:56"
}