{
  "By": "lew", 
  "Contents": "
ประเด็นการประมูลคลื่น 900 MHz ที่จนตอนนี้ยังไม่มีผู้ชนะเข้ามาจ่ายค่าประมูลจนมีกระแสว่าอาจจะต้องจัดประมูลใหม่ ตอนนี้นายฐากร ตัณฑสิทธิ์ เลขาธิการกสทช. ก็ออกมาระบุว่าโอกาสที่ผู้ชนะไม่เข้ามาจ่ายเงินประมูลนั้นมีน้อย
ผู้ชนะประมูลทั้งสองรายยังมีเวลาถึงวันที่ 21 มีนาคมนี้
สำหรับผู้ที่ไม่มาชำระค่าประมูล จะถูกยึดเงินประกันก่อนเป็นอย่างแรก เป็นเงิน 644 ล้านบาท และจะต้องชดใช้ค่าเสียหายและค่าจัดการประมูลใหม่ ไม่รวมถึงชื่อเสียงที่จะเสียหาย การไม่มาชำระค่าประมูลจึงน่าจะเป็นไปได้ยาก
ระหว่างที่ผู้ชนะยังไม่มาจ่ายเงินประมูล ใครเชียร์ค่ายไหนก็ลุ้นกันต่อไปครับ
ที่มา - @TakornNBTC
", 
  "Date": "01/02/16", 
  "Image-Link": "https://www.blognone.com/sites/default/files/imagecache/news-thumbnail/category_pictures/nbtc.png", 
  "Link": "https://www.blognone.com/node/77324", 
  "News": "เลขาธิการกสทช. ระบุโอกาสผู้ชนะประมูลคลื่น 900 MHz ไม่มาชำระค่าประมูลมีน้อย", 
  "Tags": "NBTC
Thailand
", 
  "Time": "13:46"
}