{
  "By": "sunnywalker", 
  "Contents": " คาดว่าผู้อ่านคงเคยมีประสบการณ์ค้นหาอาการป่วยจาก Google และผลลัพธ์คือ \"ไม่ได้ผลลัพธ์อะไรเลย\" เพราะมีบทความปรากฏขึ้นมาเยอะมากเกินกว่าจะรู้ว่าอันไหนเกี่ยวข้องกับอาการที่คุณเป็นอยู่จริงๆ หรือไม่ก็พบว่าคุณอาจเกี่ยวข้องกับโรคร้ายแรงน่ากลัวจากการค้นหาด้วยคำว่า \"ปวดหัว\" ล่าสุด Google ออกมาบอกว่าการค้นหาอาการป่วยจะดีขึ้นกว่าเดิม Google ร่วมมือกับทีมแพทย์ทั้งแพทย์จากมหาวิทยาลัยฮาวาร์ด และ Mayo Clinic ในด้านคอนเทนต์อาการป่วย เพื่อให้ผลการค้นหามีประสิทธิภาพและเกี่ยวข้องกับอาการจริงมากขึ้น แสดงอาการที่พบบ่อย และเสนอหนทางรักษาเบื้องต้นด้วย (Google ยังยืนยันว่าเป็นประโยชน์ด้านข้อมูล การพบแพทย์ยังจำเป็นอยู่) Google Search อยู่ในระห่างอัปเดต ใช้ได้ช่วงอาทิตย์หน้า และใช้ได้แค่ภาษาอังกฤษเท่านั้น โดยอนาคตจะพัฒนาให้ครอบคลุมอาการป่วยอื่นและภาษาอื่นๆด้วย  ที่มา - Google Official Blog   ", 
  "Date": "21/June/2016", 
  "Image-Link": [
    "https://www.blognone.com/sites/default/files/styles/thumbnail/public/topics-images/Google_2015_logo.svg_.png?itok=bd4RvVLK", 
    "http://i.imgur.com/4ZB1K7A.png", 
    "/sites/all/themes/blognone42/images/linebutton.png"
  ], 
  "Link": "https://www.blognone.com/node/82499", 
  "News": "Google ปรับปรุงการค้นหาอาการป่วย ให้ผลลัพธ์ละเอียดและตรงอาการมากขึ้น", 
  "Tags": [
    "Google", 
    "Medical", 
    "Google Search", 
    "Health"
  ], 
  "Time": "11:14"
}