{
  "By": "nutmos", 
  "Contents": " Chrome OS ได้เพิ่มฟีเจอร์ใหม่สำหรับการจัดการพื้นที่ โดยแต่เดิมนั้นผู้ใช้สามารถดูพื้นที่เหลือของอุปกรณ์ได้จากแอพ Files แต่ไม่บอกว่าใช้กับอะไรไปบ้าง ตอนนี้ Google ได้เพิ่มฟีเจอร์จัดการไฟล์ให้กับ Chrome OS แล้ว ฉะนั้นผู้ใช้จะสามารถดูรายละเอียดของข้อมูลอย่างคร่าว ๆ ได้ทันที ได้แก่ ความจุของตัวเครื่อง, พื้นที่ที่ใช้ไป มีการแยกระหว่างไฟล์ที่ดาวน์โหลดและไฟล์ที่เก็บไว้ใช้แบบออฟไลน์ และพื้นที่เหลือบนอุปกรณ์ ซึ่งถ้าผู้ใช้ต้องการดูรายละเอียดเพิ่มเติม สามารถเข้าไปที่ chrome://quota-internals ได้ ที่มา - Engadget    ", 
  "Date": "24/June/2016", 
  "Image-Link": [
    "https://www.blognone.com/sites/default/files/styles/thumbnail/public/topics-images/C720-zoom-big.png?itok=LlppYcGm", 
    "http://i.cubeupload.com/dI0lbQ.jpeg", 
    "/sites/all/themes/blognone42/images/linebutton.png"
  ], 
  "Link": "https://www.blognone.com/node/82647", 
  "News": "Chrome OS เพิ่มฟีเจอร์จัดการพื้นที่ในตัวเครื่อง แสดงการใช้งานพื้นที่ได้ละเอียดขึ้น", 
  "Tags": [
    "Chrome OS", 
    "Chromebook", 
    "Google"
  ], 
  "Time": "23:33"
}