{
  "By": "mk", 
  "Contents": " ไมโครซอฟท์ออก Surface Pro 4 และ Surface Book รุ่นความจุ 1TB โดยใช้สเปกเดียวกับตัวท็อปเดิมคือ Core i7, 16GB RAM ไมโครซอฟท์อธิบายว่ากลุ่มผู้ใช้ระดับโปร เช่น ช่างภาพ วิศวกร นักวิจัย ที่ต้องทำงานกับไฟล์จำนวนมากๆ เรียกร้องให้ออก Surface รุ่นที่มีความจุสูงขึ้น ไมโครซอฟท์จึงตอบสนองกับความต้องการดังกล่าวของลูกค้า Surface Book รุ่นความจุ 1TB ขายในราคา 3,199 ดอลลาร์ (รุ่นความจุ 512GB ขาย 2,699 ดอลลาร์) ส่วน Surface Pro 4 รุ่นความจุ 1TB ขายในราคา 2,699 ดอลลาร์ (รุ่น 512GB ขาย 2,199 ดอลลาร์) อุปกรณ์ทั้งสองรุ่นวางขายใน 10 ประเทศ (ไม่มีไทย) ที่มา - Microsoft    ", 
  "Date": "1/July/2016", 
  "Image-Link": [
    "https://www.blognone.com/sites/default/files/styles/thumbnail/public/topics-images/surface-book.png?itok=eHBLS5d-", 
    "https://i.imgur.com/NkqSRW1.jpg", 
    "/sites/all/themes/blognone42/images/linebutton.png"
  ], 
  "Link": "https://www.blognone.com/node/82889", 
  "News": "ไมโครซอฟท์ออก Surface Pro 4 และ Surface Book รุ่นความจุ 1TB", 
  "Tags": [
    "Surface Book", 
    "Surface Pro 4", 
    "Microsoft"
  ], 
  "Time": "10:37"
}