{
  "By": "mk", 
  "Contents": " แอปเปิลขยายฟีเจอร์ของ Apple Pay ให้สามารถจ่ายเงินซื้อของผ่านหน้าเว็บไซต์ได้ด้วย (เฉพาะบน Safari) เว็บที่รองรับจะมีปุ่ม Pay with Apple Pay เมื่อกดแล้วจะมีหน้าจอยืนยันตัวตน ซึ่งเราสามารถยืนยันผ่านการสแกนนิ้วบน iPhone ที่เชื่อมต่อเครื่องแมคผ่าน Continuity หรือจะผ่าน Apple Watch ก็ได้เช่นกัน นอกจากนี้ แอปเปิลยังประกาศขยาย Apple Pay อีก 3 ประเทศคือ สวิตเซอร์แลนด์ ฝรั่งเศส ฮ่องกง      ", 
  "Date": "14/June/2016", 
  "Image-Link": [
    "https://www.blognone.com/sites/default/files/styles/thumbnail/public/topics-images/Apple_Pay_logo.svg_.png?itok=7PsSORZo", 
    "http://i.imgur.com/YtU7ncP.jpg", 
    "http://i.imgur.com/jhA40Ck.jpg", 
    "http://i.imgur.com/xkZh6YE.jpg", 
    "/sites/all/themes/blognone42/images/linebutton.png"
  ], 
  "Link": "https://www.blognone.com/node/82212", 
  "News": "Apple Pay รองรับการจ่ายเงินซื้อของบนเว็บ ยืนยันตัวตนผ่าน Continuity", 
  "Tags": [
    "Apple Pay", 
    "Payment", 
    "Apple", 
    "WWDC16"
  ], 
  "Time": "00:49"
}