{
  "By": "nismod", 
  "Contents": " จากกรณีที่อดีตพนักงานเฟซบุ๊กออกมาแฉว่าบริษัทมีฝ่ายที่คอยควบคุมเนื้อหาบนแถบ Trending (ข่าวเก่า) ล่าสุดทางเฟซบุ๊กและ Mark Zuckerberg ซีอีโอออกมาแถลงอย่างเป็นทางการแล้ว Justin Osofsky รองประธานฝ่าย Global Operations แถลงว่า ทางเฟซบุ๊กได้สอบสวนเกี่ยวกับข้อกล่าวหาข้างต้นอย่างจริงจัง และยืนยันไม่พบหลักฐานตามที่มีการกล่าวอ้าง พร้อมยืนยันว่าบริษัทให้ความสำคัญกับเนื้อหาบนแถบ Trending ซึ่งจะต้องสะท้อนประเด็นที่กำลังถูกพูดถึงอย่างแท้จริง โดยประเด็นเหล่านี้จะถูกตัดเลือกจากอัลกอริทึม ที่ติดตามคีย์เวิร์ดจากทั้งบนเฟซบุ๊กและ RSS Feed จากเว็บอื่นๆ ขณะที่ทีมงานมีหน้าที่คอยตรวจสอบว่าเนื้อหาที่ถูกเลือกมานั้น กำลังเป็นที่นิยมและถูกพูดถึงบนโลกแห่งความเป็นจริงและบนโซเชียลมีเดียเท่านั้น ซึ่งทีมงานเหล่านี้จะมีไกดืไลน์และกฎระเบียบที่ชัดเจนว่า \"ห้ามก่อให้เกิดความลำเอียงทางการเมือง\" ขณะที่ Mark Zuckerberg ซีอีโอของเฟซบุ๊กก็โพสต์บนหน้าเพจของตัวเองในลักษณะเดียวกัน พร้อมเน้นย้ำถึงภารกิจของบริษัท ที่ให้ความสำคัญกับความหลากหลายทางความคิด และการเปิดโอกาสให้ทุกคนมีสิทธิมีเสียงอย่างเท่าเทียม โดย Zuckerberg ระบุว่ามีแผนจะพูดคุยกับผู้คนในแวดวงการเมือง ถึงประเด็นที่ถูกกล่าวหาก่อนหน้านี้ด้วย ที่มา - FB Newsroom, Mark Zuckerberg   ", 
  "Date": "13/May/2016", 
  "Image-Link": [
    "https://www.blognone.com/sites/default/files/styles/thumbnail/public/topics-images/fb-500.png?itok=7KEmyKx1", 
    "/sites/all/themes/blognone42/images/linebutton.png"
  ], 
  "Link": "https://www.blognone.com/node/80928", 
  "News": "เฟซบุ๊กแถลงยืนยันไม่พบการควบคุมเนื้อหา Trending, ยืนยันทีมงานรีวิวจากการเลือกของอัลกอริทึม", 
  "Tags": [
    "Facebook", 
    "Social Media"
  ], 
  "Time": "11:19"
}