{
  "By": "mk", 
  "Contents": " AIS Fibre เปิดตัวบริการอินเทอร์เน็ตผ่านไฟเบอร์แบบเติมเงิน โดยใช้ชื่อบริการว่า \"เน็ตหอ\" จับกลุ่มคนอยู่หอพักหรืออพาร์ทเมนต์ ที่มีข้อจำกัดเรื่องระยะเวลาของการพักอาศัย เช่น อยู่เป็นช่วงสั้นๆ มีช่วงปิดเทอมต้องกลับบ้าน หรือต้องย้ายหอ ทำให้ไม่สะดวกทำสัญญาระยะยาว แม้จะมีความต้องการและมีกำลังซื้ออินเทอร์เน็ตความเร็วสูงก็ตาม แพ็กเกจ \"เน็ตหอ\" เริ่มต้นที่ความเร็ว 15/5Mbps โดยคิดราคา 500 บาทต่อ 30 วัน ไม่ต้องทำสัญญาและมีค่ามัดจำ วิธีเติมเงินสามารถใช้ช่องทางของ 1-2-Call ได้เลย เบื้องต้นบริการ \"เน็ตหอ\" เปิดให้บริการกับหอพัก 20 แห่งรอบมหาวิทยาลัยหลายแห่ง และจะขยายเป็น 900 อาคารภายในสิ้นปีนี้ ที่มา - อีเมลประชาสัมพันธ์ AIS  หอพัก และบริเวณมหาวิทยาลัย  @Home Place ม.รังสิต Bandit Apartment ม.รังสิต Bandit Mansion ม.รังสิต Deluxe Place ม.รังสิต เมืองเอก แมนชั่น ม.รังสิต Key Stone ม.ธรรมศาสตร์ รังสิต The Porch ม.ABAC บางนา 5 Eleven ม.ABAC บางนา The Leisure ม. ABAC บางนา U Place ม.เทคโนฯลาดกระบัง Perfect Apartment ม.ธุรกิจบัณฑิต Panida ม.ธุรกิจบัณฑิต Bandit Home Condo ม.มหิดล Bandit Castle Condo ม.มหิดล Bandit House Condo ม.มหิดล Bandit Place Condo ม.มหิดล Chyathip Condo ม.ศิลปากร T.M.House Condo ม.ศิลปากร THE SENSE SALAYA ม.มหิดล The Sense Salaya S1,S2 ม.มหิดล    ", 
  "Date": "23/May/2016", 
  "Image-Link": [
    "https://www.blognone.com/sites/default/files/styles/thumbnail/public/topics-images/ais.png?itok=v9BMgBcj", 
    "https://i.imgur.com/XBFQRub.jpg", 
    "/sites/all/themes/blognone42/images/linebutton.png"
  ], 
  "Link": "https://www.blognone.com/node/81288", 
  "News": "AIS Fibre เปิดตัวแพ็กเกจ \"เน็ตหอ\" อินเทอร์เน็ตไฟเบอร์แบบเติมเงิน ไม่ต้องมีติดสัญญา", 
  "Tags": [
    "AIS", 
    "Fiber Optics", 
    "Telecom"
  ], 
  "Time": "14:22"
}