{
    "By": "Blltz", 
    "Contents": "\nโปรโมตจนแฟนๆ ติดตามกันมาอย่างต่อเนื่อง ในที่สุดนินเทนโดก็ประกาศวันวางขายของ Pokkén Tournament เกมแนวต่อสู้อย่างเป็นทางการในวันที่ 18 มีนาคมนี้แล้ว\nพร้อมกับการเผยวันวางขายในครั้งนี้ นินเทนโดได้ประกาศตัวละครใหม่อย่าง แชนเดลา (シャンデラ) โปเกมอนผีทรงโคมไฟเข้ามาด้วย ส่วนรายละเอียดตัวเกม Pokkén Tournament for Wii U ชุดแรกจะมาพร้อมกับการ์ด amiibo มิวทู ซึ่งใช้เพิ่มตัวมิวทูให้เล่นกันในเกมด้วย โดยเปิดราคามาที่ 59 เหรียญ\nสำหรับวันวางขายที่ 18 มีนาคมนี้ จะเป็นการวางขายพร้อมกันทั่วโลก เรียกได้ว่าเป็นครั้งแรกของเกมซีรีส์โปเกมอนเลยก็ว่าได้\nที่มา - Siliconera\n\n", 
    "Date": "16/01/16", 
    "Image-Link": "https://www.blognone.com/sites/default/files/imagecache/news-thumbnail/category_pictures/pokemon.png", 
    "Link": "https://www.blognone.com/node/76795", 
    "News": "สังเวียนกำลังจะลุกเป็นไฟ! Pokkén Tournament วางขายพร้อมกันทั่วโลก 18 มีนาคมนี้", 
    "Tags": "Games\nNintendo\nPokemon\nTekken\nWii U\n", 
    "Time": "18:12"
}