{
    "By": "Lamicrosz", 
    "Contents": "\nหลังจากข่าวหน่วยประมวลผลตระกูล Skylake พบปัญหาหยุดทำงานเมื่อประมวลผลแบบซับซ้อน ซึ่ง Intel ก็ได้ออกมายอมรับแล้ว และเตรียมแก้ไขปัญหาด้วยการอัพเดตผ่าน BIOS\nล่าสุด MSI หนึ่งในผู้ผลิตเมนบอร์ดที่ใช้กับหน่วยประมวลผลนี้ ได้เริ่มออกอัพเดต BIOS ให้กับเมนบอร์ดรุ่น Z170A XPower Gaming Titanium Edition และ Z170A Gaming M7 พร้อมสัญญาว่าเมนบอร์ดรุ่นอื่นๆ จะตามมาทีหลัง\nที่มา - OC3D\n@MSI__UK have released a new BIOS to fix Intel Skylake's Freezing bug. \n\nhttps://t.co/lfXWjes5VY pic.twitter.com/zvobASnC81\n— OC3D (@OC3D) January 15, 2016\n", 
    "Date": "16/01/16", 
    "Image-Link": "https://www.blognone.com/sites/default/files/imagecache/news-thumbnail/category_pictures/msi.png", 
    "Link": "https://www.blognone.com/node/76803", 
    "News": "MSI ปล่อยอัพเดต BIOS แก้ปัญหาอาการค้างของซีพียูตระกูล Skylake แล้ว", 
    "Tags": "CPU\nIntel\nMSI\nProcessor\nSkylake\n", 
    "Time": "22:43"
}