{
    "By": "lew", 
    "Contents": "\nYahoo! สนับสนุนการวิจัยการวิเคราะห์ข้อมูลด้วยการปล่อยฐานข้อมูลการใช้เว็บข่าวของผู้ใช้ Yahoo! ที่มีการโต้ตอบกับเนื้อหาข่าวในหน้าแรก หรือ Yahoo News, Yahoo Sports, Yahoo Finance, Yahoo Movies, และ Yahoo Real Estate โดยปล่อยข้อมูลออกมาเป็นช่วงเวลาสี่เดือนระหว่าง กุมภาพันธ์ถึงพฤษภาคม 2015 ที่ผ่านมา\nข้อมูลเหล่านี้สามารถนำไปเป็นข้อมูลสำหรับการวิจัยการวิเคราะห์ข้อมูล หรือวิจัย machine learning ที่อาจจะปรับปรุงระบบการเรียงลำดับข่าว\nข้อมูลมีตั้งแต่หัวข้อข่าว, บทสรุป, คำสำคัญ, เวลาที่ผู้ใช้กด, ข้อมูลพื้นฐานผู้ใช้ เช่น ช่วงอายุ, เพศ, พื้นที่ที่ใช้งาน แต่ลบข้อมูลระบุตัวตนออกไปแล้ว\nที่มา - Yahoo! Labs\n\n", 
    "Date": "16/01/16", 
    "Image-Link": "https://www.blognone.com/sites/default/files/imagecache/news-thumbnail/category_pictures/yahoo-blue.png", 
    "Link": "https://www.blognone.com/node/76791", 
    "News": "Yahoo! ปล่อยฐานข้อมูลการใช้งานเว็บข่าวกว่าแสนล้านรายการให้นักวิจัย", 
    "Tags": "Data Science\nYahoo!\n", 
    "Time": "12:19"
}