{
    "By": "mk", 
    "Contents": "\nลำโพงอัจฉริยะ Amazon Echo ได้ฟีเจอร์ใหม่ชื่อ Kindle Books by Alexa ให้ผู้ช่วยส่วนตัว Alexa อ่านหนังสือในระบบ Kindle ให้เราฟังได้ด้วย\nAlexa จะอ่านอีบุ๊กในไลบรารี Kindle ของเราโดยใช้เทคโนโลยี text-to-speech แบบเดียวกับที่ใช้อ่านบทความและข่าวให้เราฟัง แต่น่าเสียดายว่ายังไม่สามารถฟัง audiobook จากระบบ Audible ได้ ความสามารถก็ยังถือว่าจำกัดอยู่บ้างครับ\nที่มา - Amazon, ZDNet\n\n", 
    "Date": "16/01/16", 
    "Image-Link": "https://www.blognone.com/sites/default/files/imagecache/news-thumbnail/category_pictures/aecho.png", 
    "Link": "https://www.blognone.com/node/76801", 
    "News": "ลำโพง Amazon Echo อ่านหนังสือจาก Kindle ให้เราฟังได้แล้ว", 
    "Tags": "Amazon\nAmazon Echo\nE-book\nKindle\nText-to-Speech\n", 
    "Time": "21:01"
}