{
    "By": "lew", 
    "Contents": "\nไมโครซอฟท์แนะนำฟีเจอร์ใหม่ของ SQL Server 2016 และ Azure SQL DB คือ Dynamic Data Masking (DDM) ที่ช่วยป้องกันข้อมูลรั่วไหล\nDDM เปิดให้กำหนดสิทธิ์จำกัดการเข้าอ่านข้อมูลแบบปกติทำให้ไม่สามารถเห็นข้อมูลทั้งหมดได้ โดยกำหนดส่วนของข้อมูลที่อ่านได้ตั้งแต่โครงสร้างตาราง โดยใช้คำสั่ง ALTER COLUMN เพื่อเลือกปิดข้อมูลในฟิลด์ กระบวนการปิดบังข้อมูลมีตั้งแต่ปิดทั้งหมด, ปิดบางส่วน, และแทนที่ข้อมูลด้วยค่าสุ่ม\nตัวข้อมูลจริงจะเก็บข้อมูลทั้งหมดไว้ แต่ผู้ที่จะอ่านข้อมูลเต็มได้ต้องได้สิทธิ์ UNMASK ก่อนจึงเข้าอ่านได้ ผู้ใช้ของฐานข้อมูลทั่วไปแม้จะมีสิทธิ์อ่านตารางก็ดึงข้อมูลเต็มออกมาไม่ได้ แนวทางนี้ทำให้กระบวนการควบคุมนโยบายความเป็นส่วนตัวทำได้ง่ายขึ้น จากเดิมกระบวนการบังข้อมูลเช่นนี้ต้องทำที่ระดับแอปพลิเคชั่นทำให้ควบคุมได้ยาก และบางครั้งโปรแกรมเมอร์อาจจะทำพลาดจนกระทั่งเปิดเผยข้อมูล ก็มาควบคุมจากตัวฐานข้อมูลโดยตรง\nที่มา - TechNet\n\n", 
    "Date": "27/01/16", 
    "Image-Link": "https://www.blognone.com/sites/default/files/imagecache/news-thumbnail/category_pictures/microsoft-new.png", 
    "Link": "https://www.blognone.com/node/77172", 
    "News": "ไมโครซอฟท์เพิ่มฟีเจอร์ป้องกันข้อมูลส่วนตัวรั่วไหลใน SQL Server 2016", 
    "Tags": "Microsoft\nPrivacy\nSQL Server\n", 
    "Time": "16:54"
}