{
    "By": "mk", 
    "Contents": "\nกูเกิลเพิ่งปรับลดราคา Nexus 5X จาก 379 ดอลลาร์เหลือ 349 ดอลลาร์เมื่อไม่นานนี้ แต่ดูเหมือนกูเกิลจะยังไม่พอใจ เลยลดราคาอีกรอบเป็น 299 ดอลลาร์\nแต่เท่านั้นยังไม่พอ ตอนนี้ราคา Nexus 5X ใน eBay ก็ลดลงมาเหลือ 299 ดอลลาร์เช่นกัน แถมในชุดยังมีบัตรของขวัญ Visa มูลค่า 20 ดอลลาร์ให้ด้วย\nส่วนคนที่อยากได้พี่ใหญ่ Nexus 6P ตอนนี้ Amazon ลดราคา Nexus 6P 32GB รุ่นสีทองลงมา 50 ดอลลาร์ เหลือ 449 ดอลลาร์ และรุ่น 64GB ลงมาเหลือ 499 ดอลลาร์\nที่มา - 9to5google, 9to5toys\n\n", 
    "Date": "27/01/16", 
    "Image-Link": "https://www.blognone.com/sites/default/files/imagecache/news-thumbnail/category_pictures/5x.png", 
    "Link": "https://www.blognone.com/node/77152", 
    "News": "ลดอีกรอบ กูเกิลหั่นราคา Nexus 5X เหลือ 299 ดอลลาร์", 
    "Tags": "Google Nexus\nMobile\nNexus 5X\nNexus 6P\n", 
    "Time": "8:40"
}