{
    "By": "nrad6949", 
    "Contents": "\nยังไม่ทันที่จะพ้นกรณี Surfacegate ก็มีกรณีล่าสุดที่มีรายงานว่า Surface ที่ใช้ในระหว่างการแข่งขัน NFL อันเป็นผลจากข้อตกลงที่จะใช้งานในระหว่างเกม กลับไม่สามารถทำงานได้ระหว่างการแข่งขันของทีม New England Patriots กับ Denver Broncos ในวันจันทร์ที่ผ่านมา (ตามเวลาในสหรัฐ)\nเรื่องนี้ร้อนถึงไมโครซอฟท์ ต้องออกมาชี้แจงว่า Surface นั้นไม่ได้หยุดทำงาน และใช้งานได้ตามปกติไม่มีปัญหา ตลอด 2 ปีที่ผ่านมา รวมไปถึงหลายๆ ทีมที่ใช้ก็ใช้งานได้ดีมาตลอด ส่วน NFL ในฐานะผู้จัด ออกมาระบุว่าเป็นเพราะปัญหาของระบบเครือข่าย ไม่ใช่ที่ตัว Surface แต่อย่างใดครับ\nที่มา - ABC News, Microsoft, NFL, Supersite for Windows\n", 
    "Date": "27/01/16", 
    "Image-Link": "https://www.blognone.com/sites/default/files/imagecache/news-thumbnail/category_pictures/surface.png", 
    "Link": "https://www.blognone.com/node/77176", 
    "News": "Surface หยุดทำงานระหว่างเกม NFL, บริษัทแถลงไม่ได้หยุดทำงาน ส่วนคนจัดบอกเป็นเพราะเครือข่าย", 
    "Tags": "NFL\nSport\nSurface\n", 
    "Time": "18:35"
}