{
  "By": "mk", 
  "Contents": " ในงานแถลงข่าวของ AMD ที่งาน Computex นอกจากการเปิดตัวจีพียูใหม่ Radeon RX 480 และ APU รุ่นที่เจ็ด Bristol Ridge/Stoney Ridge AMD ยังโชว์ \"Zen\" แกนซีพียูรุ่นถัดไปที่พูดกันมานาน โดยซีพียูตัวแรกที่ใช้สถาปัตยกรรม Zen มีโค้ดเนมว่า Summit Ridge จะยังเป็นแค่ซีพียูเดสก์ท็อปแยกเดี่ยวๆ ก่อน ก่อนจะรวมจีพียูเข้าเป็น APU ครบชุดในรุ่นถัดไป ข้อมูลตอนนี้ยังมีน้อยมาก บอกเพียงว่าเป็นซีพียู 8 คอร์ 16 เธร็ด, ผลิตด้วยกระบวนการแบบ FinFET และใช้ชิปเซ็ตแพลตฟอร์ม AM4 รุ่นใหม่เท่านั้น AMD ระบุว่าสุดท้ายแล้วแกน Zen จะใช้กับหน่วยประมวลผลทุกระดับ โดยเริ่มจากเดสก์ท็อปก่อน ตามด้วยเซิร์ฟเวอร์ แล้วขยายไปยังโน้ตบุ๊กและอุปกรณ์ฝังตัวต่อไป โลโก้ของ Zen  แผนการใช้งาน Zen  รายละเอียดของซีพียูเดสก์ท็อป Summit Ridge ที่เป็น Zen ตัวแรก (ในงานมีแค่สไลด์หน้าเดียวนี่ล่ะครับ)  หน้าตาของ Summit Ridge ตัวจริง  ใครอยากดูการเปิดตัว Zen ดูได้จากคลิปงานแถลงข่าวของ AMD ช่วงนาทีที่ 51 ครับ ที่มา - AnandTech   ", 
  "Date": "2/June/2016", 
  "Image-Link": [
    "https://www.blognone.com/sites/default/files/styles/thumbnail/public/topics-images/amd.png?itok=6OE1UWFO", 
    "http://i.imgur.com/zbA7Mvh.jpg", 
    "http://i.imgur.com/iARQbrA.jpg", 
    "http://i.imgur.com/uKJg43W.jpg", 
    "http://i.imgur.com/VUVRaG0.jpg", 
    "/sites/all/themes/blognone42/images/linebutton.png"
  ], 
  "Link": "https://www.blognone.com/node/81750", 
  "News": "AMD โชว์ตัวอย่างซีพียูสถาปัตยกรรม Zen รุ่นแรก โค้ดเนม Summit Ridge", 
  "Tags": [
    "AMD", 
    "CPU", 
    "Processor", 
    "Computex", 
    "Hardware"
  ], 
  "Time": "12:56"
}