{
  "By": "sunnywalker", 
  "Contents": " ย้อนกลับไปช่วงเดือนกุมภาพันธ์ Facebook ฟอร์มทีมทำวิจัยพยายามเพิ่มความสามารถให้ผู้คนเชื่อมต่อและแชร์สิ่งต่างๆผ่านเทคโนโลยี virtual reality ล่าสุด ผู้ใช้ Oculus (ที่ Facebook ซื้อไป) สามารถกดปุ่ม reaction วิดีโอ 360 องศาได้แล้ว แถมยังรู้ด้วยว่าเพื่อนๆ มี reaction อย่างไรกับวิดีโอนี้ ทำให้เทคโนโลยี VR มีลักษณะเป็นโซเชียลมีเดียมากขึ้น ฟีเจอร์ใหม่นี้เป็นสัญญาณว่า Facebook จะรุกหนักด้าน VR มากขึ้น ทางบริษัทเองบอกอยู่เสมอว่า VR เป็นส่วนสำคัญในโรดแมพ อนาคตเราจะได้เห็นสิ่งใหม่จากการผสานกันระหว่าง Facebook และ VR  ภาพจาก Facebook Oculus ที่มา - Techcrunch   ", 
  "Date": "23/June/2016", 
  "Image-Link": [
    "https://www.blognone.com/sites/default/files/styles/thumbnail/public/topics-images/oculus.png?itok=Aknc-ywY", 
    "http://i.imgur.com/pHHTU9d.jpg", 
    "/sites/all/themes/blognone42/images/linebutton.png"
  ], 
  "Link": "https://www.blognone.com/node/82587", 
  "News": "ผู้ใช้  Oculus สามารถกดปุ่ม Facebook reaction ในวิดีโอ 360 องศาได้แล้ว ", 
  "Tags": [
    "Oculus", 
    "Facebook 360", 
    "Emoji"
  ], 
  "Time": "15:07"
}