{
  "By": "mk", 
  "Contents": "
Overwatch เพิ่งประกาศผู้เล่น 7 ล้านคนไปไม่นาน ล่าสุด Blizzard ออกมาประกาศตัวเลขเพิ่มเป็น 10 ล้านคนแล้ว
Overwatch ถือเป็นเกมที่มีผู้เล่นเติบโตเร็วมาก นับจากวันวางขาย 24 พฤษภาคมมาถึงวันนี้ก็ประมาณ 3 สัปดาห์เท่านั้น (ส่วนจะเป็นเกมที่มีอัตราการเติบโตสูงสุดเป็นประวัติการณ์หรือไม่ ยังไม่มีคนทำสถิติออกมา)
ใครเป็นหนึ่งใน 10 ล้านคนก็มาแสดงตัวกันได้ครับ
Ten million Overwatch agents activated and counting! Thank you for daring to see the world for what it could be. pic.twitter.com/5nCe4e32XT
— Overwatch (@PlayOverwatch) June 14, 2016

 ", 
  "Date": "15/June/2016", 
  "Image-Link": "https://www.blognone.com/sites/default/files/badges/badge-founder.png", 
  "Link": "https://www.blognone.com/node/82261", 
  "News": "Overwatch มีผู้เล่นทะลุ 10 ล้านคนแล้ว", 
  "Tags": [
    "Overwatch", 
    "Blizzard", 
    "Games"
  ], 
  "Time": "07:46"
}