{
  "By": "nismod", 
  "Contents": "
Kik Messenger แอพแชตยอดนิยมอีกตัวในฝั่งสหรัฐ ประกาศผลการสำรวจข้อมูลที่เก็บผ่าน Attention Metric ที่ติดตามพฤติกรรมการใช้งานแอพพลิเคชันของผู้ใช้ โดยระบุว่า Kik จะถูกใช้งานเฉลี่ย 1 ชั่วโมงต่อวัน
ข้อมูลจาก metadata ที่ Kik รวบรวมมาพอสรุปได้ว่า ผู้ใช้กว่า 300 ล้านคนใช้เวลาแชทประมาณ 12.7 นาทีต่อครั้งและหยิบโทรศัพท์ขึ้นมาแชทเฉลี่ย 6 ครั้งต่อวัน โดยวัยรุ่นผู้หญิงเป็นกลุ่มที่ใช้งานเยอะกว่าวัยรุ่นผู้ชายอยู่ราว 35% โดยกลุ่ม Super Users ที่ใช้งานเฉลี่ยวันละ 2 ชั่วโมงครึ่งมีอยู่ราว 10% เท่านั้น
Joel Cumming หัวหน้าฝ่ายข้อมูลของ Kik ระบุว่าการสำรวจตรงนี้ จะช่วยให้กลุ่มนักโฆษณาเข้าใจพฤติกรรมผู้ใช้ Kik มากขึ้น รวมถึงทำให้บริษัทสามารถพัฒนาแพลตฟอร์มให้ตอบรับการใช้งานของผู้ใช้มากขึ้นด้วย
ที่มา - AdWeek

 ", 
  "Date": "15/June/2016", 
  "Image-Link": "https://www.blognone.com/sites/default/files/badges/badge-trainee-shadow.png", 
  "Link": "https://www.blognone.com/node/82296", 
  "News": "Kik Messenger ระบุเวลาเฉลี่ยที่ผู้ใช้แชทคือ 1 ชั่วโมงต่อวัน", 
  "Tags": [
    "Kik", 
    "Social Media", 
    "Instant Messenger"
  ], 
  "Time": "15:49"
}