{
  "By": "arjin", 
  "Contents": " บริษัท ทรู คอร์ปอเรชั่น จำกัด (มหาชน) ได้แจ้งมติที่ประชุมคณะกรรมการของบริษัทฯ ครั้งที่ 4/2559 ต่อตลาดหลักทรัพย์ฯ ว่าจะไม่เข้าร่วมการประมูลคลื่นความถี่ 900 MHz อีกหนึ่งสลอตที่กำหนดจัดประมูลวันที่ 27 พฤษภาคม 2559 นี้ ถึงแม้ทรูจะมีสิทธิ์เข้าร่วมการประมูลก็ตาม ทรูให้เหตุผลว่าปัจจุบันมีคลื่นความถี่ครบถ้วนและเพียงพอที่จะให้บริการได้อย่างมีประสิทธิภาพอยู่แล้ว ทั้งคลื่นความถี่สูงและคลื่นความถี่ต่ำรวม 55 MHz ซึ่งครอบคลุมการให้บริการได้ในทุกมิติ ที่มา: ทรู    ", 
  "Date": "17/May/2016", 
  "Image-Link": [
    "https://www.blognone.com/sites/default/files/styles/thumbnail/public/topics-images/logo_true.png?itok=6z4c-ujy", 
    "http://i.imgur.com/orX7W1K.jpg", 
    "/sites/all/themes/blognone42/images/linebutton.png"
  ], 
  "Link": "https://www.blognone.com/node/81045", 
  "News": "ทรูแจ้งมติที่ประชุมคณะกรรมการบริษัทฯ ไม่เข้าร่วมประมูลคลื่น 900 MHz รอบสอง", 
  "Tags": [
    "True", 
    "TrueMove H", 
    "Auction", 
    "NBTC"
  ], 
  "Time": "00:01"
}