{
  "By": "trinakub", 
  "Contents": " เป็นที่ทราบกันดีว่าทาง Ubisoft ฉลองครบรอบ 30 ปี ด้วยการแจกเกมฟรีเดือนละหนึ่งเกมไปจนถึงสิ้นปีนี้ ของเดือนที่แล้วเป็นเกม Prince of Persia: The Sands of Time สำหรับเดือนนี้จะเป็นเกม Tom Clancy’s Splinter Cell ฉบับดั้งเดิมจากปี 2002 บนแพลตฟอร์ม PC ซึ่งจะเปิดให้ดาวน์โหลดตั้งแต่วันพุธที่ 13 กรกฎาคมนี้ เป็นต้นไป ตัวเกมจะเปิดฟรีเป็นเวลา 30 วัน และหลังจากดาวน์โหลดครั้งแรกไปแล้ว เกมจะเป็นของเราอย่างถาวร สามารถกดรับเกมได้ที่เว็บไซต์ Ubisoft Club การกดรับเกมได้ต้องสมัครเป็นสมาชิกของ Uplay เสียก่อน ซึ่งสมัครได้ฟรี Tom Clancy’s Splinter Cell (2002) เป็นเกมแรกสุดของซีรี่ส์ Splinter Cell ที่มีจุดเด่นคือลักษณะการเล่นแบบ Stealth Action หลังจากที่เปิดตัวภาคแรกออกมา เกมก็ได้รับความนิยมอย่างล้นหลามและมีกระแสตอบรับที่ดีเยี่ยมจนมียอดขายสูงถึง 3 ล้านกว่าแผ่น และมีการทำภาคต่อออกมาจำนวนมาก โดยภาคล่าสุดคือภาค Tom Clancy’s Splinter Cell: Black list (2013) ซีรี่ส์ Splinter Cell จัดได้ว่าเป็นหนึ่งในซีรี่ส์หลักของทาง Ubisoft และเป็นซีรี่ส์ที่ประสบความสำเร็จมากที่สุดซีรี่ส์หนึ่ง ที่มา – Gamespot    ", 
  "Date": "7/July/2016", 
  "Image-Link": [
    "https://www.blognone.com/sites/default/files/styles/thumbnail/public/news-thumbnails/Splinter%20Cell%20Logo.png?itok=cE7vwp3k", 
    "http://i.imgur.com/KxZsN23.jpg", 
    "/sites/all/themes/blognone42/images/linebutton.png"
  ], 
  "Link": "https://www.blognone.com/node/83141", 
  "News": "เกมฟรีฉลองครบรอบ 30 ปี Ubisoft ประจำเดือนนี้คือ Splinter Cell", 
  "Tags": [
    "Splinter Cell", 
    "Tom Clancy", 
    "Games", 
    "Ubisoft"
  ], 
  "Time": "20:43"
}