{
  "By": "nrad6949", 
  "Contents": " John S. and James L. Knight Foundation มูลนิธิการกุศลเพื่อปกป้องสิทธิเสรีภาพของสื่อในสหรัฐอเมริกา ประกาศมอบทุนกว่า 60 ล้านดอลลาร์สหรัฐ (ประมาณ 2.1 พันล้านบาท) ให้ Columbia University เพื่อจัดตั้ง Knight First Amendment Institute สถาบันภายในกำกับของมหาวิทยาลัย เพื่อปกป้องเสรีภาพการแสดงความเห็นบนโลกดิจิทัล สถาบันดังกล่าวนี้จะมีส่วนในการสนับสนุนสื่อมวลชนในสามด้าน คือกิจกรรมด้านการศึกษาและการวิจัย (เช่น การประชุมประจำปี Sunshine Week), เป็นเครือข่ายร่วมกับมูลนิธิหรือองค์กรการกุศลด้านสิทธิเสรีภาพบนโลกดิจิทัลอย่าง EFF และเป็นกองทุนให้กับการส่งเสริม (advocates) สิทธิเสรีภาพสื่อบนโลกออนไลน์ ประธานมูลนิธิ John S. and James L. Knight Foundation ระบุว่าอินเทอร์เน็ตกำลังมีส่วนสำคัญในชีวิตประจำวันของผู้คนมากขึ้นเรื่อยๆ และภัยที่มีต่อสิทธิเสรีภาพในการแสดงความเห็นบนโลกออนไลน์ก็เพิ่มมากขึ้น การตั้งสถาบันดังกล่าวจะช่วยให้การปกป้องการใช้เสรีภาพ (ในสหรัฐฯ เป็นไปตาม First Amendment หรือการแก้ไขรัฐธรรมนูญครั้งแรก) บนโลกออนไลน์ดำรงอยู่ต่อไปสำหรับคนรุ่นหลัง ที่มา - Engadget   ", 
  "Date": "18/May/2016", 
  "Image-Link": [
    "https://www.blognone.com/sites/default/files/styles/thumbnail/public/topics-images/internet.png?itok=AUrTaUgF", 
    "/sites/all/themes/blognone42/images/linebutton.png"
  ], 
  "Link": "https://www.blognone.com/node/81120", 
  "News": "Knight Foundation มอบทุนให้ Columbia University ตั้งสถาบันปกป้องเสรีภาพในโลกดิจิทัล", 
  "Tags": [
    "Freedom of Speech", 
    "Internet", 
    "Education"
  ], 
  "Time": "08:56"
}