{
  "By": "nismod", 
  "Contents": " เว็บไซต์ TechCrunch รายงานว่า Rich Miner หนึ่งในผู้ร่วมก่อตั้งแอนดรอยด์กับ Andy Rubin ซึ่งก่อนหน้านี้ทำงานอยู่ใน Google Ventures หรือหน่วยลงทุนของ Google ได้ย้ายไปดูแลโปรเจ็คด้านการศึกษาให้กับบริษัทแทน อย่างไรก็ตามยังไม่มีรายละเอียดว่าโปรเจ็คที่ว่านี้คือโปรเจ็คอะไร ขณะที่ตัว Rich Miner เองก็ยังไม่ได้ออกมาให้ข้อมูลใดๆ ทั้งสิ้น ทั้งนี้ Google เป็นหนึ่งในบริษัทที่พัฒนาและลงทุนด้านเทคโนโลยีการศึกษาเองทั้งหมด โดยตัวเลขจากการวิจัยและการประเมินการควบรวมและเข้าซื้อกิจการ (M&A) ชี้ว่าในตลาดเทคโนโลยีด้านการศึกษาช่วงปี 2010 - 2015 ปรากฎชื่อของ Google ในฐานะผู้ควบรวมและซื้อกิจการน้อยกว่า 1% จากจำนวนทั้งหมดด้วยซ้ำไป ที่มา - TechCrunch   ", 
  "Date": "11/July/2016", 
  "Image-Link": [
    "https://www.blognone.com/sites/default/files/styles/thumbnail/public/topics-images/Google_2015_logo.svg_.png?itok=bd4RvVLK", 
    "/sites/all/themes/blognone42/images/linebutton.png"
  ], 
  "Link": "https://www.blognone.com/node/83249", 
  "News": "Rich Miner หนึ่งในผู้ร่วมก่อตั้งแอนดรอยด์ย้ายมาดูแลโปรเจ็คด้านการศึกษาให้ Google", 
  "Tags": [
    "Google", 
    "Education"
  ], 
  "Time": "10:34"
}