{
  "By": "lew", 
  "Contents": " กูเกิลเปิดตัว Project Bloks แพลตฟอร์มสร้างเล่นเด็กสำหรับสอนเขียนโปรแกรม  โดยตัวแพลตฟอร์มสร้างจาก Raspberry Pi Zero และเชื่อมต่อกับโลกภายนอกผ่าน Wi-Fi หรือ Bluetooth ตัว Project Bloks เองจะมีบอร์ดสามชุด ได้แก่ Brain Board เป็นบอร์ดหลักสำหรับการประมวลผล, Base Board เป็นบอร์ดอ่านคำสั่ง บนบอร์ดเป็นเซ็นเซอร์แบบ capacitive, Puck เป็นคำสั่งสำหรับวางลงบน Base Board ให้อ่านคำสั่งในโปรแกรม ผู้ออกแบบสามารถออกแบบคำสั่ง เช่น ทิศทางหุ่นยนต์ หรือคำสั่งอื่นๆ ตัว Project Bloks สามารถนำไปสร้างของเล่นได้อีกที เช่น ชุดเซ็นเซอร์ที่เด็กๆ จะสามารถเขียนโปรแกรมควบคุมอุปกรณ์ในบ้านจากเซ็นเซอร์ได้เอง, หรือสร้างเครื่องสังเคราะห์เสียงแบบโปรแกรมได้ โครงการอยู่ระหว่างการวิจัย และกูเกิลเปิดรับโรงเรียนที่สนใจร่วมโครงการ ที่มา - Project Bloks    ", 
  "Date": "28/June/2016", 
  "Image-Link": [
    "https://www.blognone.com/sites/default/files/styles/thumbnail/public/topics-images/Google_2015_logo.svg_.png?itok=bd4RvVLK", 
    "//upic.me/i/xu/connectedplatform.jpg", 
    "/sites/all/themes/blognone42/images/linebutton.png"
  ], 
  "Link": "https://www.blognone.com/node/82752", 
  "News": "กูเกิลเปิดตัว Project Bloks สอนเด็กเขียนโปรแกรมด้วยของเล่น", 
  "Tags": [
    "Google", 
    "Education", 
    "Programming", 
    "Raspberry Pi"
  ], 
  "Time": "13:21"
}