{
  "By": "mk", 
  "Contents": " กูเกิลโชว์ฟีเจอร์ใหม่ของ Android Studio 2.2 (ตอนนี้สถานะยังเป็นพรีวิว) แบ่งออกเป็น 3 เรื่องคือ ความเร็ว ความฉลาด และการทำงานร่วมกับแพลตฟอร์มของ Android  ส่วนของความเร็ว มีทั้งประสิทธิภาพที่ดีขึ้นกว่าของเดิม, รองรับการเขียนชุดทดสอบอัตโนมัติ ช่วยประหยัดเวลาของนักพัฒนา และฟีเจอร์สำคัญคือ Layout Designer ตัวใหม่ ออกแบบ UI ได้ง่ายและเร็วขึ้น มีตัวช่วยกำหนดกรอบการจัดวาง อีกทั้งตัว UI ที่ได้ยังทำงานเร็วขึ้นด้วย  ส่วนของความฉลาด เน้นไปที่เครื่องมือวิเคราะห์แอพ เช่น วิเคราะห์ขนาดของไฟล์ APK, ตรวจสอบและวิเคราะห์โค้ด รวมถึงเปลี่ยนฐาน IDE มาเป็น IntelliJ 2016.1 รุ่นล่าสุดด้วย  สุดท้ายคือการรองรับฟีเจอร์ของแพลตฟอร์ม Android มีสองส่วนหลักคือ รองรับคอมไพเลอร์ตัวใหม่ Jack (Android Java Compiler Kit) เรียกใช้ฟีเจอร์ของภาษา Java 8 ได้, ปรับปรุงการทำงานกับภาษา C++ รองรับ CMake และ NDK-Build  ตอนนี้ Android Studio 2.2 ออกรุ่น Preview 1 แล้ว ใครสนใจลองเล่น ดาวน์โหลดได้ที่ Android Studio 2.2 Preview 1   ", 
  "Date": "19/May/2016", 
  "Image-Link": [
    "https://www.blognone.com/sites/default/files/styles/thumbnail/public/topics-images/android-studio.png?itok=uYAyLTTl", 
    "https://i.imgur.com/ioBdpoo.png", 
    "http://i.imgur.com/zKXJpJT.png", 
    "http://i.imgur.com/vhAjgWc.png", 
    "http://i.imgur.com/ZZ5UWHV.png", 
    "/sites/all/themes/blognone42/images/linebutton.png"
  ], 
  "Link": "https://www.blognone.com/node/81171", 
  "News": "Android Studio 2.2 ออกรุ่นพรีวิว มาพร้อม Layout Designer ตัวใหม่ที่ฉลาดกว่าเดิม", 
  "Tags": [
    "Android Studio", 
    "IDE", 
    "Android", 
    "Development", 
    "Google", 
    "Google I/O"
  ], 
  "Time": "02:20"
}