{
  "By": "tekkasit", 
  "Contents": " พบกันเป็นประจำทุกต้นเดือน สำหรับอัพเดตรอบเดือนกรกฎาคม 2016 (2016-07-05) มีการแก้ช่องโหว่รวม 54 จุด และเป็นระดับร้ายแรง (critical) ถึง 8 จุด ในบรรดาช่องโหว่เหล่านั้นก็ยังมีปัญหาของ Mediaserver เจ้าเก่า (StageFright เดิม) และรวมถึงช่องโหว่บนไดรเวอร์ของผู้ผลิตฮาร์ดแวร์อย่าง Qualcomm, MediaTek และ NVIDIA ผลิตภัณฑ์ในกลุ่ม Nexus ที่ได้รับแพตช์ Security Patch Level of July 5, 2016 จะมีดังนี้  Nexus 5 (MOB30P) Nexus 5X (MTC19Z) Nexus 6 (MMB30K/MOB30O) Nexus 6P (MTC19X) Nexus 9 (MOB30P) Nexus 7 2013 (MOB30P/MMB30M) Nexus Player (MOB30P)  ใครรอไม่ไหวก็สามารถดาวน์โหลด factory image หรือ OTA image กันก่อนได้ กูเกิลบอกว่าส่งแพตช์เหล่านี้ให้พาร์ทเนอร์ฮาร์ดแวร์มาแล้วตั้งแต่วันที่ 6 หรือก่อนหน้า แหล่งข่าวว่า OnePlus One กับ Samsung เริ่มปล่อยแพตช์ฉบับเดือนกรกฎาคม 2016 กันแล้ว ส่วนพาร์ทเนอร์รายไหนอัพเดตกันช้าก็ต้องไปไล่บี้กันเอาเองครับ ที่มา: Phandroid, Android Security, GSMArena.com   ", 
  "Date": "7/July/2016", 
  "Image-Link": [
    "https://www.blognone.com/sites/default/files/styles/thumbnail/public/topics-images/nexus.png?itok=aS4M8JEF", 
    "/sites/all/themes/blognone42/images/linebutton.png"
  ], 
  "Link": "https://www.blognone.com/node/83101", 
  "News": "กูเกิลออกแพตช์ความปลอดภัย Nexus รอบเดือนกรกฎาคม 2016", 
  "Tags": [
    "Security", 
    "Android", 
    "Google Nexus"
  ], 
  "Time": "05:07"
}