{
  "By": "nrad6949", 
  "Contents": " หลังจากเผลอยืนยันว่า Chrome OS จะมี Play store และอนุญาตให้แอพ Android ขึ้นมารันบนระบบปฏิบัติการได้เต็มที่ ล่าสุด Google ก็แถลงเปิดตัวคุณสมบัตินี้อย่างเป็นทางการ พร้อมกับรายละเอียดเพิ่มเติมที่เกี่ยวข้อง กล่าวโดยสรุปคือแอพ Android บน Chrome OS จะมีสถานะเป็น first-class citizen หรือใช้งานได้เต็มที่ โดยเข้าถึงคุณสมบัติต่างๆ ของเครื่องได้ ทั้งการแจ้งเตือน, การรองรับการป้อนข้อมูลผ่านคีย์บอร์ดและเมาส์, แสดงผลในสถานะที่เป็นหน้าต่างได้ 3 ขนาด, เข้าถึงไฟล์ในเครื่องได้ และสามารถเข้าถึง Wi-Fi หรือ Bluetooth ได้ หากได้รับอนุญาตจากผู้ใช้หรือผู้ดูแลระบบ ส่วนตัว Chrome OS ก็จะมาพร้อมกับ Play store เปิดโอกาสให้โหลดแอพ Android มาติดตั้งบน Chrome OS เปิดให้ใช้ก่อนใคร (ผ่าน dev-channel ของ Chrome OS) ในต้นเดือนหน้า สำหรับ ASUS Chromebook Flip, Chromebook Pixel (2015) และ Acer Chromebook R11 ก่อนจะขยายไปรุ่นอื่นๆ ภายในสิ้นปีนี้ ข่าวร้ายสักเล็กน้อยก็คืออุปกรณ์สาย Chrome OS บางตัวจะไม่รองรับความสามารถนี้ (เช่น Acer C7 Chromebook, Cr-48) และ API ของ Android ในช่วงแรกที่จะมีใน Chrome OS จะเป็น Marshmallow ก่อน จากนั้นภายหลังทางบริษัทจะอัพเดต API ของ Android N เพิ่มเข้าไป นักพัฒนาที่ต้องการปรับแต่งแอพให้รองรับ Chrome OS (เท่าที่เห็นคือแก้ manifest และปรับแต่ง layout บางส่วน) สามารถดูรายละเอียดเพิ่มเติมได้จากเว็บไซต์ของ Chromium Projects ครับ ที่มา - Google ผ่าน Ausdroid, Chromium Projects, รายชื่อรุ่นอุปกรณ์ที่รองรับ     ", 
  "Date": "20/May/2016", 
  "Image-Link": [
    "https://www.blognone.com/sites/default/files/styles/thumbnail/public/topics-images/android.png?itok=utCl_oOE", 
    "https://farm8.staticflickr.com/7224/26847200790_2cc65641e6_z.jpg", 
    "https://farm8.staticflickr.com/7720/26848596580_c95f1b2118_z.jpg", 
    "/sites/all/themes/blognone42/images/linebutton.png"
  ], 
  "Link": "https://www.blognone.com/node/81220", 
  "News": "รายละเอียดเพิ่มเติมแอพ Android บน Chrome OS: ทำงานได้เต็มที่, มีเฉพาะบางรุ่น, มาปลายปีนี้", 
  "Tags": [
    "Chrome OS", 
    "Android", 
    "App", 
    "Google", 
    "Google Play", 
    "Chromebook"
  ], 
  "Time": "08:27"
}