{
  "By": "nismod", 
  "Contents": " John McAfee ผู้ก่อตั้งและอดีตผู้บริหาร McAfee ประกาศว่าทีมงานด้านความปลอดภัยไซเบอร์ของเขา สามารถอ่านข้อความ WhatsApp ที่ถูกเข้ารหัสไว้ได้ โดยอาศัยเพียงช่องโหว่ของคีย์บอร์ดบนแอนดรอยด์และแอพสปายแวร์ที่ถูกติดตั้งลงไป โดยที่แอนดรอยด์ไม่ได้ถูกรูทด้วยซ้ำไป McAfee ระบุว่าปัญหานี้เป็นความผิดพลาดของ Google มากกว่า WhatsApp พร้อมทั้งแจ้งเรื่องนี้ไปยัง 2 บริษัทแล้ว และนอกจาก WhatsApp แล้ว McAfee เผยว่ายังสามารถอ่านข้อความใน SnapChat จากช่องโหว่นี้ด้วยเช่นกัน ที่มา - Cybersecurity Ventures via Engadget   ", 
  "Date": "16/May/2016", 
  "Image-Link": [
    "https://www.blognone.com/sites/default/files/styles/thumbnail/public/topics-images/john-mcafee.png?itok=242ClKxJ", 
    "/sites/all/themes/blognone42/images/linebutton.png"
  ], 
  "Link": "https://www.blognone.com/node/81003", 
  "News": "John McAfee เผยสามารถอ่านข้อความ WhatsApp ที่เข้ารหัสได้ จากช่องโหว่แอนดรอยด์", 
  "Tags": [
    "John McAfee", 
    "Security", 
    "Android", 
    "WhatsApp"
  ], 
  "Time": "09:08"
}