{
  "By": "nuntawat", 
  "Contents": " เว็บไซต์ SamMobile พบเอกสารการรับรองด้าน Wi-Fi ของ Galaxy A5 (2016) และ Galaxy A7 (2016) ซึ่งระบุว่ารัน Android 6.0 Marshmallow SamMobile กล่าวว่า นี่เป็นหลักฐานเชิงประจักษ์ครั้งแรกของการอัพเดตมือถือทั้งสอง และจากประสบการณ์นั้น บางครั้งจะมีการปล่อยอัพเดตในอีกหลายสัปดาห์หลังการต่ออายุใบรับรอง Wi-Fi ใครที่ใช้มือถือทั้งสองอยู่ก็อดใจรอได้เลยครับ ที่มา: Wi-Fi Alliance (PDF) (1, 2) ผ่าน SamMobile   ", 
  "Date": "7/May/2016", 
  "Image-Link": [
    "https://www.blognone.com/sites/default/files/styles/thumbnail/public/topics-images/j8u2rhG1.jpg?itok=CJuE6qSo", 
    "/sites/all/themes/blognone42/images/linebutton.png"
  ], 
  "Link": "https://www.blognone.com/node/80709", 
  "News": "ข้อมูลจาก Wi-Fi Alliance เผย Galaxy A5/A7 (2016) รัน Android 6.0 Marshmallow ผ่านการรับรองแล้ว", 
  "Tags": [
    "Galaxy A", 
    "Samsung", 
    "Android", 
    "Marshmallow", 
    "Mobile"
  ], 
  "Time": "11:50"
}