{
  "By": "magnamonkun", 
  "Contents": " หลังจากมีข่าวว่าอดีตยักษ์ใหญ่ได้พันธมิตรทำสมาร์ทโฟนและแท็บเล็ตเป็น Foxconn ล่าสุดก็มีภาพและรายละเอียดของสมาร์ทโฟนแอนดรอยด์รุ่นแรกหลุดออกมาเป็นที่เรียบร้อยแล้ว สมาร์ทโฟนตัวนี้มีนามว่า Nokia P1 เป็นผลงานการพัฒนาของ InFocus และ Sharp ซึ่งรูปลักษณ์การออกแบบก็จะเหมือนกับ Sharp Aquos P1 ที่เพิ่งจะเปิดตัวไปที่ไต้หวันเมื่อเร็วๆ นี้ทุกกระเบียดนิ้ว จึงทำให้เกิดข้อสงสัยว่า Foxconn น่าจะเอา Sharp Aquos P1 ไปปะแบรนด์ Nokia แล้วนำไปทำตลาดทั่วโลกในชื่อ Nokia P1 แทน เพราะเมื่อนำข่าวดีล Foxconn-Sharp มาประกอบด้วย ความเป็นไปได้ในเรื่องนี้จึงสูงมากเลยทีเดียว ต้องไม่ลืมว่าโนเกียมีสัญญา Exclusive Brand กับไมโครซอฟท์ ที่ห้ามให้โนเกียผลิตอุปกรณ์สื่อสารภายใต้แบรนด์ตัวเองจนถึงไตรมาสที่ 3 ของปีนี้ และเวลานั้นก็ใกล้มาถึงแล้ว ดังนั้นการหลุดของ Nokia P1 ในรอบนี้จึงเป็นเรื่องสมเหตุสมผล และเป็นเรื่องที่น่าจับตามองอย่างต่อเนื่องครับ ที่มา - PhoneArena  วิดีโอเปิดตัว Sharp Aquos P1 รุ่นต้นแบบ   ", 
  "Date": "8/July/2016", 
  "Image-Link": [
    "https://www.blognone.com/sites/default/files/styles/thumbnail/public/topics-images/nokia.png?itok=b6obgyXg", 
    "//upic.me/i/6d/3pone.png", 
    "/sites/all/themes/blognone42/images/linebutton.png"
  ], 
  "Link": "https://www.blognone.com/node/83170", 
  "News": "หลุดภาพและรายละเอียด Nokia P1 มือถือแอนดรอยด์รุ่นแรกภายใต้แบรนด์โนเกีย", 
  "Tags": [
    "Nokia", 
    "Android", 
    "Leak"
  ], 
  "Time": "14:04"
}