{
  "By": "sunnywalker", 
  "Contents": " ตอกย้ำตลาดขาลงแทบเล็ตเมื่อ Dell ออกมาบอกว่า จะไม่ทำแท็บเล็ตแอนดรอยด์ซีรี่ส์ Venue แล้ว โดยตอนนี้จะโฟกัสที่ผลิตภัณฑ์  2-in-1 เท่านั้น โฆษกบริษัท Dell บอกว่า ตลาดแท็บเล็ตตอนนี้มันเกินคำว่าอิ่มตัวไปแล้ว เราจึงตัดสินใจไม่ทำต่อ โดยเราจะโฟกัสที่ผลิตภัณฑ์  2-in-1 ซึ่งสามารถเรียกความสนใจจากลูกค้าที่ต้องการฟังก์ชั่นแบบ PC ในแท็บเล็ต Kirk Schell รองประธานฝ่ายโซลูชั่นของ Dell ยังเขียนบล็อกลงในเว็บไซต์ว่า เหตุใดแท็บเล็ตจะไม่ใช่สิ่งสำคัญอีกต่อไป เขาบอกว่า 2-in-1 มีขนาดหน้าจอใหญ่กว่า ให้ประสบการณ์แบบ laptop-first ในขณะเดียวกันก็มีความสะดวกสบายแบบแท็บเล็ตด้วย  ที่มา - The Verge   ", 
  "Date": "1/July/2016", 
  "Image-Link": [
    "https://www.blognone.com/sites/default/files/styles/thumbnail/public/topics-images/dell.png?itok=HgIBw4M6", 
    "http://i.imgur.com/N433MXu.png", 
    "/sites/all/themes/blognone42/images/linebutton.png"
  ], 
  "Link": "https://www.blognone.com/node/82896", 
  "News": "Dell จะไม่สานต่อแทบเล็ตแอนดรอยด์ซีรี่ส์ Venue หันไปเน้นอุปกรณ์ 2-in-1 แทน", 
  "Tags": [
    "Dell", 
    "Tablet", 
    "Android", 
    "Venue"
  ], 
  "Time": "15:42"
}