{
  "By": "mk", 
  "Contents": " ต่อจากข่าว พบช่องโหว่เจาะคีย์เข้ารหัสดิสก์ของ Android ที่ใช้ชิปของ Qualcomm บริษัทความปลอดภัย Duo Security ที่มีแอพบน Android สำหรับใช้ทำ two-factor authentication ก็ออกมาเผยสถิติความปลอดภัยของมือถือ Android ที่ตัวเองมีข้อมูล Duo พบว่ามือถือ Android จากกลุ่มตัวอย่างที่ติดตั้งแอพของ Duo สัดส่วนประมาณ 57% ไม่ได้รับแพตช์ความปลอดภัยที่กูเกิลออกในเดือนพฤษภาคม 2016 ส่วนมือถือที่มีอัตราการได้รับแพตช์สูงสุดคือ Galaxy S6 ที่ได้รับแพตช์ในเดือนพฤษภาคมเรียบร้อยแล้ว โดยมีอัตราได้รับแพตช์ 75% ของอุปกรณ์ตัวอย่างทั้งหมด ส่วน Nexus ของกูเกิลก็อยู่ระดับเดียวกันคือ 75% Duo แนะนำให้เลือกซื้อมือถือ Android ที่ได้รับแพตช์ความปลอดภัยอย่างสม่ำเสมอ ซึ่งตอนนี้มีเพียง 2 ยี่ห้อคือ Nexus และ Samsung ที่มา - Duo    ", 
  "Date": "5/July/2016", 
  "Image-Link": [
    "https://www.blognone.com/sites/default/files/styles/thumbnail/public/topics-images/android.png?itok=utCl_oOE", 
    "https://i.imgur.com/vXlVZOa.jpg", 
    "/sites/all/themes/blognone42/images/linebutton.png"
  ], 
  "Link": "https://www.blognone.com/node/83037", 
  "News": "มือถือ Android เกือบ 60% ไม่ได้แพตช์ความปลอดภัย, Nexus/Samsung ได้แพตช์เยอะที่สุด", 
  "Tags": [
    "Android", 
    "Security", 
    "Google Nexus", 
    "Samsung"
  ], 
  "Time": "19:36"
}