{
  "By": "mk", 
  "Contents": " บริษัทวิจัยตลาด Kantar Worldpanel ComTech เผยสถิติส่วนแบ่งตลาดสมาร์ทโฟน ประจำไตรมาสแรกของปี 2016 ในประเทศใหญ่ๆ หลายประเทศ ผลคือ Android ชิงส่วนแบ่งตลาดจาก iOS ได้ในเกือบทุกประเทศ (ยกเว้นญี่ปุ่น) และส่วนแบ่งตลาดของ Windows Phone ลดลงแบบฮวบฮาบ  ยุโรปตะวันตก 5 ประเทศ (EU5 ได้แก่ สหราชอาณาจักร ฝรั่งเศส สเปน เยอรมนี อิตาลี) Android มีส่วนแบ่งตลาดเพิ่มเป็น 75.6% ส่วน iOS ลดลงเหลือ 18.9% สเปน ซึ่ง Android มีส่วนแบ่งตลาดสูงมาโดยตลอด ส่วนแบ่งขยับขึ้นไปสูงถึง 92.9% แล้ว ฝรั่งเศส เป็นประเทศที่มีผู้ใช้ Windows Phone สูงถึง 14.1% ในช่วงเดียวกันของปีที่แล้ว แต่ปีนี้ ส่วนแบ่งตลาดตกหนักเหลือ 5% เท่านั้น สหรัฐอเมริกา Android ชิงส่วนแบ่งตลาดเพิ่มเป็น 65.5%, iOS ลดลงเหลือ 31.6% จีน Android ส่วนแบ่งตลาดเพิ่มเป็น 77.7%, iOS ลดเหลือ 21.1% ออสเตรเลีย Android ส่วนแบ่งตลาดเพิ่มเป็น 60.1%, iOS ลดเหลือ 35.3% ญี่ปุ่น เป็นประเทศเดียวที่ Android ลดลงเหลือ 51.7%, iOS เพิ่มเป็น 46.8%  Kantar บอกว่า Android ชิงส่วนแบ่งตลาดในยุโรปได้เยอะมากที่สุดในรอบ 2 ปี ปัจจัยผลักดันไม่ได้มาจากแบรนด์เดียว แต่มาจากพลังของหลายแบรนด์ร่วมกัน ส่วนในตลาดสหรัฐอเมริกา ฝรั่งเศส อิตาลี ผู้ใช้ Windows Phone ที่หายไป หันมาใช้ Android มากกว่า iOS แบรนด์ Android ที่ Kantar มองว่ามาแรงคือ Huawei, Wiko, ASUS ซึ่งออกสมาร์ทโฟนระดับกลางคุ้มราคา ส่วนในตลาดสหรัฐ Samsung, Motorola, LG คือแบรนด์ที่ทำยอดขายได้ดี อย่างไรก็ตาม Kantar ประเมินว่ายอดขายในไตรมาสที่สองของปี iPhone SE น่าจะมีผลช่วยดันส่วนแบ่งตลาด iOS ให้กลับมาเติบโต โดยเฉพาะในประเทศจีน ที่มือถือระดับกลางมีผลมากต่อส่วนแบ่งตลาดรวม ที่มา - Kantar Worldpanel    ", 
  "Date": "12/May/2016", 
  "Image-Link": [
    "https://www.blognone.com/sites/default/files/styles/thumbnail/public/topics-images/kantar.jpeg?itok=39QxAkms", 
    "https://i.imgur.com/yjWgH8P.jpg", 
    "/sites/all/themes/blognone42/images/linebutton.png"
  ], 
  "Link": "https://www.blognone.com/node/80910", 
  "News": "[Kantar] ยอดขาย Android เติบโต ชิงส่วนแบ่งตลาดจาก iOS ได้ในหลายประเทศ", 
  "Tags": [
    "Kantar Worldpanel", 
    "Market Share", 
    "Smartphone", 
    "Android"
  ], 
  "Time": "22:17"
}