{
  "By": "BlackMiracle", 
  "Contents": " เรียกได้ว่าโดนหลอกกันมาตลอดว่าชื่ออย่างเป็นทางการของ Android N จะเป็น Nutella แต่ล่าสุดกูเกิลได้ประกาศทางทวิตเตอร์แล้วว่า Nougat เป็นชื่อจริงๆ ของ Android N ต่างหาก Nougat (อ่านว่า นูกัต) เป็นขนมหวานที่ทำจากน้ำตาลหรือน้ำผึ้ง ผสมไข่ขาวและถั่วชนิดต่างๆ มาในรูปแท่งเคี้ยวหนึบ โดยถ้าเป็นสูตรเยอรมันจะผสมช็อคโกแลตและถั่วฮาเซลนัทเข้าไปด้วย ที่มา - @Android Introducing #AndroidNougat. Thank you, world, for all your sweet name ideas! #AndroidNReveal pic.twitter.com/7lIfDBwyBE — Android (@Android) June 30, 2016 The time has arrived! #AndroidNReveal pic.twitter.com/vtbSOjQvWh — Android (@Android) June 30, 2016   ", 
  "Date": "30/June/2016", 
  "Image-Link": [
    "https://www.blognone.com/sites/default/files/styles/thumbnail/public/news-thumbnails/nougat.png?itok=B2Xa_jfY", 
    "/sites/all/themes/blognone42/images/linebutton.png"
  ], 
  "Link": "https://www.blognone.com/node/82881", 
  "News": "กูเกิลประกาศชื่ออย่างเป็นทางการของ Android N แล้ว ได้ชื่อว่า Nougat", 
  "Tags": [
    "Nougat", 
    "Android", 
    "Google"
  ], 
  "Time": "23:31"
}