{
  "By": "nismod", 
  "Contents": " Disney Research ร่วมกับนักวิจัยจากมหาวิทยาลัย Carnegie Mellon ได้พัฒนาแท็ก RFID ที่มีราคาถูก ไม่ต้องใช้แบตเตอรี่และสามารถตรวจจับการเคลื่อนไหวได้ภายใน 200 มิลลิวินาที หรือเรียกได้ว่าแทบจะจับการเคลื่อนได้แบบเรียลไทม์ ขณะที่แท็ก RFID ทั่วไปต้องใช้เวลาประมาณ 2 วินาที ทีมวิจัยเรียกระบบนี้ว่า RapID พร้อมทั้งโชว์ความสามารถเบื้องต้น ผ่านเกมอย่าง tic-tac-toe (หรือที่เรียกกันว่า XO) หรือกิจกรรมอื่นๆ ที่แสดงให้เห็นถึงการโต้ตอบของคอมพิวเตอร์ผ่านทางระบบ RapID นี้ ซึ่งนอกจากจะสามารถตรวจจับวัตถุได้เร็วแล้ว ยังสามารถบอกความเร็วที่วัตถุเดินทางผ่านแท็กได้อีกด้วย ที่มา - Engadget   ", 
  "Date": "13/May/2016", 
  "Image-Link": [
    "https://www.blognone.com/sites/default/files/styles/thumbnail/public/topics-images/Disney_Logo.png?itok=hkMW23-M", 
    "/sites/all/themes/blognone42/images/linebutton.png"
  ], 
  "Link": "https://www.blognone.com/node/80941", 
  "News": "Disney Research พัฒนาแท็ก RFID ที่สามารถอ่านการเคลื่อนไหวได้ภายในเสี้ยววินาที", 
  "Tags": [
    "Disney", 
    "Research", 
    "RFID"
  ], 
  "Time": "13:27"
}