{
  "By": "Lamicrosz", 
  "Contents": " กลับมาอีกครั้งกับช่วงมรสุมทางการเงิน Steam Summer Picnic Sale ที่ทาง Steam จะนำเกมต่างๆ มาลดราคา ให้พวกเราซื้อไปดองเล่นกันในราคาที่จับต้องได้มากกว่าเดิม ตัวอย่างเกมที่ลดราคา  Grand Theft Auto V ลด 40% เหลือ 899.40 บาท Metal Gear Solid V: The Phantom Pain ลด 30% เหลือ 1,540 บาท Stardew Valley ลด 20% เหลือ 252 บาท Tom Clancy's The Division ลด 25% เหลือ 1,342 บาท แฟรนไชส์ Call of Duty ลดสูงสุด 67% แฟรนไชส์ Assassin's Creed ลดสูงสุด 75% ARMA 3 ลด 50% เหลือ 749.50 บาท ARK: Survival Evolved ลด 45% เหลือ 307.45 บาท DOOM ลด 40% เหลือ 1,188 บาท Dark Souls 3 ลด 25% เหลือ 1,125 บาท Rise of the Tomb Raider ลด 35% เหลือ 1,234.35 บาท Fallout 4 ลด 50% เหลือ 990 บาท  เกมอื่นๆ สามารถตรวจสอบได้ที่หน้าเว็บไซต์ Steam ที่มา - Steam    ", 
  "Date": "24/June/2016", 
  "Image-Link": [
    "https://www.blognone.com/sites/default/files/styles/thumbnail/public/topics-images/steam.png?itok=APMuxEYH", 
    "http://i.imgur.com/kW7rCoe.png", 
    "/sites/all/themes/blognone42/images/linebutton.png"
  ], 
  "Link": "https://www.blognone.com/node/82606", 
  "News": "เทศกาลลดราคา Steam Summer Sale 2016 มาแล้ว", 
  "Tags": [
    "Steam", 
    "Games"
  ], 
  "Time": "00:49"
}