{
  "By": "nismod", 
  "Contents": " หลังเทศกาลดูดเงินและดองเกมครั้งใหญ่อย่าง Steam Summer Sale จบไปเมื่อต้นสัปดาห์ที่ผ่านมา Steam Spy ผู้ให้บริการฐานข้อมูลของ Steam รายงานว่าเทศกาลครั้งนี้มียอดขายเพิ่มขึ้นจากปีที่แล้วถึง 50% Steam Spy ระบุว่าเทศกาลนี้สามารถทำงานไปได้ราว 236 ล้านเหรียญสหรัฐ จากเกมทั้งหมดกว่า 37 ล้านเกมที่ขายได้  ซึ่งตัวเลขรายได้นี้เพิ่มขึ้นมากว่า 50% จากปีที่แล้วที่อยู่ที่ 160 ล้านเหรียญสหรัฐ รายได้ตรงนี้เว็บไซต์ Gamasutra เผยว่าสอดคล้องกับข้อมูลที่ทางเว็บได้มาจากนักพัฒนา ที่ระบุว่ายอดขายเกมของตนเพิ่มขึ้น ที่มา - Gamasutra   ", 
  "Date": "9/July/2016", 
  "Image-Link": [
    "https://www.blognone.com/sites/default/files/styles/thumbnail/public/topics-images/steam.png?itok=APMuxEYH", 
    "/sites/all/themes/blognone42/images/linebutton.png"
  ], 
  "Link": "https://www.blognone.com/node/83209", 
  "News": "Steam Spy เผย ซัมเมอร์เซลส์มียอดขายเพิ่มขึ้นจากปีที่แล้วถึง 50%", 
  "Tags": [
    "Steam"
  ], 
  "Time": "12:02"
}