{
  "By": "magnamonkun", 
  "Contents": " ถ้าจำกันได้ สถาปัตยกรรมของคอนโซลปัจจุบันทั้ง PS4 และ Xbox One คือสถาปัตยกรรมแบบ x86 นอกจากความหวังในการพัฒนาเกมอย่างรวดเร็วแล้ว ฝั่งแฮกเกอร์เองก็มีความหวังในการเจาะระบบเพิ่มมากขึ้นเช่นกัน และกรณีนี้ก็เกิดขึ้นแล้วกับ PS4 เมื่อแฮกเกอร์นามว่า OsirisX สามารถ Jailbreak ตัวระบบปฏิบัติการ Orbis OS เพื่อเอาเกมส์บน Linux ไปเล่นบน PS4 ได้แล้ว OsirisX ระบุว่าเครื่องมือที่ใช้ในการ Jailbreak ประกอบไปด้วยตัว Arch Linux และไบนารีบางส่วนของตัว Orbis OS จาก Fail0verFlow ผลก็คือ PS4 สามารถรันตัว Arch Linux แบบ Command Line ขึ้นมาใช้งานได้ และสามารถสั่งรัน Steam for Linux เพื่อเล่นเกมส์ของ Linux บน PS4 ได้เลย อย่างไรเสียระบบปฏิบัติการที่สามารถ Jailbreak ได้สำเร็จ กลับเป็นเวอร์ชัน 1.76 ซึ่งเป็นเวอร์ชันที่ปล่อยออกมาเมื่อเดือนสิงหาคม 2014 เลยทำให้เกิดคำถามว่าแล้วเวอร์ชันปัจจุบัน (3.50) จะยังคงสามารถ Jailbreak ได้ด้วยวิธีข้างต้นได้หรือไม่ และโซนี่เองได้แก้ไขช่องโหว่นี้ไปแล้วหรือไม่ครับ ที่มา - Engadget   ", 
  "Date": "24/May/2016", 
  "Image-Link": [
    "https://www.blognone.com/sites/default/files/styles/thumbnail/public/topics-images/ps4-logo.png?itok=b1ktDHre", 
    "/sites/all/themes/blognone42/images/linebutton.png"
  ], 
  "Link": "https://www.blognone.com/node/81332", 
  "News": "แฮกเกอร์สามารถ Jailbreak Orbis OS ของ PS4 เอา Steam for Linux ไปรันได้", 
  "Tags": [
    "PS4", 
    "PlayStation", 
    "Steam", 
    "Linux", 
    "Jailbreak"
  ], 
  "Time": "13:20"
}