{
  "By": "trinakub", 
  "Contents": " หลังจากที่พัฒนามาเป็นเวลาถึง 5 ปี กับติดอยู่ในสถานะ Early Access บน Steam อีก 3 ปี ในที่สุดวันนี้ก็มาถึง วันที่เกม Starbound จะได้หลุดพ้นจากสถานะ Early Access เสียที เกมจะเปิดตัวอย่างเป็นทางการในวันที่ 22 กรกฎาคม ที่จะถึงนี้ เกม Starbound เป็นเกมที่มีลักษณะเหมือนเกม Minecraft ในรูปแบบของ 2D ที่จะออกผจญภัยสำรวจอวกาศ ไปตามดวงดาวต่าง ๆ เก็บเกี่ยววัตถุดิบมาสร้างอุปกรณ์และยานอวกาศที่มีประสิทธิภาพสูงขึ้นเรื่อย ๆ เกมเปิดตัวในสถานะ Early Access ไปเมื่อเดือนธันวาคม ปี 2013 และได้รับกระแสตอบรับที่ดีจากชาว Steam Starbound เองก็ได้รับการพัฒนามาเรื่อย ๆ ตั้งแต่เปิดตัว Early Access จนถึงปัจจุบัน มีระบบใหม่ ๆ เพิ่มเข้ามามากมาย และการเปิดตัวอย่างเป็นทางการในเวอร์ชัน 1.0 ครั้งนี้ก็จะมีอัปเดตครั้งใหญ่เช่นกัน เช่น การปรับปรุงระบบเควสให้ดีขึ้น การเพิ่มความสามารถในการชักชวน NPC มาเป็นสมาชิกยานอวกาศ เป็นต้น ทางทีมพัฒนา Chucklefish เองก็จะยังคงพัฒนาเกมต่อไป ถึงแม้ว่าจะหลุดจากสถานะ Early Access แล้วก็ตาม “ถึงเกม Starbound กำลังจะเสร็จสมบูรณ์ในอีก 2 อาทิตย์ก็ตาม แต่นี่ก็ยังไม่ใช่จุดสิ้นสุด” “พวกเราจะคอยอัปเดตและให้ความช่วยเหลือเกม Starbound ให้มากที่สุดเท่าที่เราจะทำได้” “พวกเรามีไอเดียเจ๋ง ๆ อีกมากที่เราไม่สามารถใส่ในเวอร์ชัน 1.0 ได้ ซึ่งทางเราเองก็หวังว่าจะได้นำไอเดียเหล่านั้นเพิ่มเข้ามาในภายหลัง” ปัจจุบันเกม Starbound ขายใน 2 รูปแบบ ได้แก่ ตัวเกมเดี่ยว ๆ ราคา 315 บาท กับขายเป็นแพค 4 เกม ราคา 819 บาท (เฉลี่ยเกมละ 204.75 บาท) ผู้ที่สนใจสามารถซื้อได้มาเล่นได้จาก Steam ที่มา – GameSpot   ", 
  "Date": "9/July/2016", 
  "Image-Link": [
    "https://www.blognone.com/sites/default/files/styles/thumbnail/public/news-thumbnails/Starbound%20Logo.jpg?itok=bKVOlZga", 
    "/sites/all/themes/blognone42/images/linebutton.png"
  ], 
  "Link": "https://www.blognone.com/node/83218", 
  "News": "ผ่านมา 3 ปี ในที่สุดเกม Starbound ก็หลุดจากสถานะ Steam Early Access แล้ว", 
  "Tags": [
    "Starbound", 
    "Games", 
    "Steam"
  ], 
  "Time": "17:01"
}