{
  "By": "magnamonkun", 
  "Contents": " หลังเปิดบริการได้เพียง 15 วัน ทาง IMC Games ผู้พัฒนาเกม Tree of Savior ประกาศปิดรับผู้เล่นใหม่ของเกม Tree of Savior ชั่วคราว หลังจากเซิร์ฟเวอร์มีปัญหาอย่างหนักจนยอดผู้เล่นจริงลดลงอย่างต่อเนื่อง ผลจากประกาศนี้ทำให้ผู้เล่นใหม่ไม่สามารถค้นหา Tree of Savior บน Steam เพื่อดาวน์โหลดมาเล่นได้ชั่วคราว ยกเว้นผู้เล่นเดิมจะสามารถดาวน์โหลดเกมกลับมาได้อีกผ่าน Steam Library รวมถึงยังสามารถเล่นเกมต่อไปได้ตามปกติ IMC Games จะใช้เวลานี้แก้ไขปัญหาเซิร์ฟเวอร์ทุกอย่าง เช่น กรณีแล็กและหน่วง ความเสถียรของเซิร์ฟเวอร์ และปัญหาโปรแกรมช่วยเล่น เพื่อให้เซิร์ฟเวอร์กลับมาทำงานได้ตามปกติ ที่มา - Tree of Savior    ", 
  "Date": "25/May/2016", 
  "Image-Link": [
    "https://www.blognone.com/sites/default/files/styles/thumbnail/public/topics-images/tos_logo.png?itok=GpZrBcL9", 
    "//upic.me/i/aa/tree-of-savior-screenshot.jpg", 
    "/sites/all/themes/blognone42/images/linebutton.png"
  ], 
  "Link": "https://www.blognone.com/node/81412", 
  "News": "IMC Games ประกาศปิดรับผู้เล่นใหม่ของเกม Tree of Savior ชั่วคราว หลังเซิร์ฟเวอร์มีปัญหา", 
  "Tags": [
    "Tree of Savior", 
    "Games", 
    "Steam"
  ], 
  "Time": "22:43"
}