{
  "By": "nismod", 
  "Contents": " CTIA หรือสมาคมผู้ประกอบการธุรกิจเครือข่ายไร้สายของสหรัฐได้เปิดเผยรายงานข้อมูลการใช้ดาต้าของชาวอเมริกันเมื่อปีที่แล้ว ปรากฎว่ามีการใช้งานโมบายล์ดาต้าสูงถึงเกือบ 1 หมื่นล้านกิกะไบต์ ซึ่งเพิ่มขึ้นมากกว่าปีก่อนหน้าถึง 137% ซึ่งส่วนหนึ่งมาจากการที่ชาวอเมริกันยกเลิกการติดตั้งอินเทอร์เน็ตในบ้าน และใช้ผ่านสมาร์ทโฟนเป็นหลัก ขณะที่ YouTube และ Netflix เป็นสองผู้ให้บริการที่มีอินเทอร์เน็ตทราฟฟิครวมกันมากกว่าครึ่งในช่วง peak hours ของทวีปอเมริกาเหนือ และหากรวมบริการอย่างบริการเพลงสตรีมมิงและพ็อดคาสท์ ทราฟฟิคส่วนนี้ยิ่งเพิ่มขึ้นถึงเกือบ 70% เลยทีเดียว ที่มา - Washington Post    ", 
  "Date": "24/May/2016", 
  "Image-Link": [
    "https://www.blognone.com/sites/default/files/styles/thumbnail/public/topics-images/Flag_of_the_United_States.svg_.png?itok=D_Hwf4EE", 
    "https://c5.staticflickr.com/8/7554/27177431356_4884fcda30_z.jpg", 
    "/sites/all/themes/blognone42/images/linebutton.png"
  ], 
  "Link": "https://www.blognone.com/node/81333", 
  "News": "ชาวอเมริกันใช้โมบายล์ดาต้าเพิ่มขึ้นกว่า 137%, ใช้ดู YouTube และ Netflix กว่าครึ่ง", 
  "Tags": [
    "USA", 
    "Data", 
    "YouTube", 
    "Netflix", 
    "CTIA"
  ], 
  "Time": "13:53"
}