{
  "By": "nrad6949", 
  "Contents": " วันนี้ JAS บริษัทแม่ของ แจส โมบาย บรอดแบนด์ (JASMBB) ได้มีหนังสือแจ้งต่อผู้ถือหุ้นและตลาดหลักทรัพย์แห่งประเทศไทย (ตลท.) ว่าได้รับหนังสือแจ้งตัวเลขค่าปรับจากการไม่ชำระค่าใบอนุญาตคลื่น 900 MHz ที่ประมูลมาได้ จากสำนักงานคณะกรรมการกิจการกระจายเสียง กิจการโทรทัศน์ และกิจการโทรคมนาคมแห่งชาติ (กสทช.) แล้ว มียอดปรับเป็นจำนวนเงิน 199,423,991.16 บาท โดยระบุว่าเป็น \"ชำระค่าใช้จ่ายในการประมูลใหม่และอื่นๆ\" และต้องชำระภายใน 15 วัน (ผิดไปจากตัวเลขที่เคยเป็นข่าวลือไปพอสมควร) ด้าน JAS โดยนายพิชญ์ โพธารามิก ประธานเจ้าหน้าที่บริหารของ JAS ระบุในจดหมายชี้แจงว่าจะดำเนินการชำระเงินค่าปรับจำนวนดังกล่าวตามหนังสือของ กสทช. และระบุว่าใบอนุญาตประกอบกิจการโทรคมนาคมและอินเทอร์เน็ตใบอื่นๆ ของ JAS ที่เป็นบริษัทแม่ ยังคงมีผลบังคับใช้ต่อไป ที่มา - ตลาดหลักทรัพย์แห่งประเทศไทย   ", 
  "Date": "2/June/2016", 
  "Image-Link": [
    "https://www.blognone.com/sites/default/files/styles/thumbnail/public/topics-images/jas-logo.png?itok=s5aFS_id", 
    "/sites/all/themes/blognone42/images/linebutton.png"
  ], 
  "Link": "https://www.blognone.com/node/81757", 
  "News": "JAS แจ้งต่อผู้ถือหุ้นและตลท. ระบุโดนปรับ 199.42 ล้านบาท จะจ่ายให้ตามกำหนด", 
  "Tags": [
    "Jasmine", 
    "Telecom", 
    "NBTC", 
    "Auction"
  ], 
  "Time": "15:52"
}