{
  "By": "mk", 
  "Contents": " OnePlus เคยประกาศไว้ตั้งแต่ปลายปีว่า จะออกรอม Android 6.0 ให้กับ OnePlus 2 ในไตรมาสแรกของปี 2016 ผลคือแผนงานล่าช้ามาอีกเกือบไตรมาส (ถ้าพ้นเดือนนี้ไปก็หลุดเป็นไตรมาสสามแล้ว) แต่มาช้ายังดีกว่าไม่มา วันนี้ OnePlus ประกาศออกรอม OxygenOS 3.0.2 ที่พัฒนาบน Android 6.0.1 Marshmallow ให้กับมือถือรุ่น OnePlus 2 แล้ว การอัพเดตจะทยอยปล่อยให้ผู้ใช้ทั่วโลก และจะครบทุกคนภายใน 48 ชั่วโมง ของใหม่นอกจากฟีเจอร์ของ Android 6.0.1 แล้ว OnePlus ยังปรับปรุง Doze Mode ให้แบตเตอรี่อึดทนนานขึ้น, ถอดแอพ MaxxAudio/Tuner ออก เพราะผนวกระบบเสียง Dirac HD Sound เข้ากับตัวระบบปฏิบัติการ, ปรับปรุงประสิทธิภาพของตัวอ่านลายนิ้วมือ, ปรับปรุง UI และออโต้โฟกัสของแอพกล้อง OnePlus Camera ที่มา - OnePlus, Android Central    ", 
  "Date": "5/June/2016", 
  "Image-Link": [
    "https://www.blognone.com/sites/default/files/styles/thumbnail/public/topics-images/oneplus.png?itok=H0sXSvFM", 
    "https://i.imgur.com/LSDHD6G.png", 
    "/sites/all/themes/blognone42/images/linebutton.png"
  ], 
  "Link": "https://www.blognone.com/node/81873", 
  "News": "มาช้ายังดีกว่าไม่มา OnePlus 2 ได้อัพเดต Android 6.0 Marshmallow แล้ว", 
  "Tags": [
    "OnePlus", 
    "Android", 
    "Marshmallow"
  ], 
  "Time": "21:27"
}