{
  "By": "mk", 
  "Contents": " ซัมซุงเปิดตัวมือถือใหม่ 2 รุ่นในประเทศอินเดีย ได้แก่ Galaxy J2 รุ่นปี 2016 และ Galaxy J Max มือถือจอใหญ่ 7 นิ้ว Galaxy J2 (2016) เป็นตัวต่อของ Galaxy J2 มือถือราคาถูกที่ได้รับความนิยมอย่างสูงในอินเดีย ฟีเจอร์ใหม่ที่สำคัญคือ Smart Glow หรือวงแหวนรอบเลนส์กล้องหลัง สามารถเรืองแสงเป็นสีต่างๆ ได้ตามการแจ้งเตือนแอพที่ตั้งไว้ ฟีเจอร์อื่นที่น่าสนใจคือ Turbo Speed Technology (TST) ปรับปรุงประสิทธิภาพโดยรวมของเครื่องให้ดีขึ้น ปรับแต่งแอพของระบบให้กินแรมน้อยลง และโหมด S Bike สำหรับการใช้งานบนมอเตอร์ไซค์ สเปกคร่าวๆ คือหน้าจอ 5\" 720p Super AMOLED, กล้อง 8MP/5MP, ซีพียู Spreadtrum ควอดคอร์, แรม 1.5GB, ความจุ 8GB + microSD, รองรับสองซิม, Android 6.0 ขายราคาตัวละ 9,750 รูปี หรือประมาณ 5,000 บาท  Galaxy J Max ที่เปิดตัวพร้อมกันเป็นมือถือจอยักษ์ 7 นิ้ว (1280x800) พร้อมแบตเตอรี่ใหญ่ 4,000 mAh สเปกคร่าวๆ ใช้ซีพียูควอดคอร์, แรม 1.5GB, ความจุ 8GB + microSD, กล้อง 8MP/2MP, รองรับสองซิม, Android 5.1, รองรับ 4G และ VoLTE ในตัว ในชุดมาพร้อมกับหูฟัง Bluetooth ทั้งหมดขายราคา 13,400 รูปี หรือประมาณ 7,000 บาท  ที่มา - SamMobile (J2), Fonearena (J Max)   ", 
  "Date": "10/July/2016", 
  "Image-Link": [
    "https://www.blognone.com/sites/default/files/styles/thumbnail/public/topics-images/galaxy.png?itok=UdEQNKp-", 
    "http://i.imgur.com/b4UirGP.jpg", 
    "http://i.imgur.com/2J0PZBV.jpg", 
    "/sites/all/themes/blognone42/images/linebutton.png"
  ], 
  "Link": "https://www.blognone.com/node/83232", 
  "News": "ซัมซุงออก Galaxy J2 รุ่นปี 2016 และ Galaxy J Max มือถือจอใหญ่ 7 นิ้วในอินเดีย", 
  "Tags": [
    "Samsung Galaxy", 
    "Samsung", 
    "Mobile", 
    "India", 
    "Phablet"
  ], 
  "Time": "10:02"
}