{
  "By": "nutmos", 
  "Contents": " Apple ประกาศว่าทางบริษัทได้เปิดสำนักงานแห่งใหม่ในเมือง Hyderabad ประเทศอินเดีย ซึ่งสำนักงานแห่งนี้จะเน้นการพัฒนาแผนที่ Apple Maps ซึ่งจะมีการสร้างงานกว่า 4 พันตำแหน่งในท้องถิ่น ออฟฟิศแห่งใหม่ของ Apple นี้ จะช่วยเร่งการพัฒนาแผนที่ Apple Maps ของ Apple เพื่อป้อนให้เป็นผลิตภัณฑ์บริษัท โดยก่อนหน้านี้ Apple ก็เพิ่งเปิดศูนย์บ่มเพาะนักพัฒนา iOS ในอินเดีย สำนักงานแห่งใหม่ของ Apple นี้จอยู่ใน Waverock campus โดยจะเป็นอาคารระดับโลกและได้รับมาตรฐานอาคารประหยัดพลังงาน LEED ด้วย ที่มา - Apple Press   ", 
  "Date": "19/May/2016", 
  "Image-Link": [
    "https://www.blognone.com/sites/default/files/styles/thumbnail/public/topics-images/apple-maps.png?itok=jNMBB9cL", 
    "/sites/all/themes/blognone42/images/linebutton.png"
  ], 
  "Link": "https://www.blognone.com/node/81205", 
  "News": "Apple เปิดออฟฟิศพัฒนา Apple Maps ในประเทศอินเดีย", 
  "Tags": [
    "Apple Maps", 
    "Apple", 
    "India"
  ], 
  "Time": "19:34"
}