{
  "By": "mk", 
  "Contents": " กูเกิลเปิดตัวโครงการ Android Skilling Program ในอินเดีย ตั้งเป้าสร้างนักพัฒนา Androdi จำนวน 2 ล้านคนให้ได้ภายใน 3 ปี โครงการประกอบด้วย 3 ส่วนคือ  คอร์ส Android Developer Fundamentals สอนสดแบบออฟไลน์ในมหาวิทยาลัยและสถาบันการศึกษาทั่วอินเดีย (เบื้องต้น 8 แห่งในเทอมที่จะถึงนี้) และคอร์สออนไลน์ Mobile Computing ร่วมกับสถาบันการศึกษาออนไลน์ NPTEL กูเกิลจับมือเป็นพันธมิตรกับสถาบันอบรมภาคเอกชนหลายรายในอินเดีย เช่น Edureka, Koenig, Manipal Global, Simplilearn, Udacity, UpGrad เพื่ออบรมอาจารย์ของสถาบันเหล่านี้ให้ผ่านหลักสูตร Authorized Android Training Partners สามารถออกไปสอนวิชา Android ต่อได้ ใบรับรองคุณวุฒิ Associate Android Developer Certification นำไปใช้สมัครงานได้ทั่วโลก ค่าสอบ 6,500 รูปี หรือประมาณ 3,500 บาท  ที่มา - Google India Blog    ", 
  "Date": "11/July/2016", 
  "Image-Link": [
    "https://www.blognone.com/sites/default/files/styles/thumbnail/public/topics-images/android.png?itok=utCl_oOE", 
    "http://i.imgur.com/9CYk9xs.png", 
    "/sites/all/themes/blognone42/images/linebutton.png"
  ], 
  "Link": "https://www.blognone.com/node/83287", 
  "News": "กูเกิลประกาศ อบรมนักพัฒนา Android ในอินเดียให้ได้ 2 ล้านคนภายใน 3 ปี", 
  "Tags": [
    "Android", 
    "India", 
    "Google", 
    "Education"
  ], 
  "Time": "22:02"
}