{
  "By": "nrad6949", 
  "Contents": " เมื่อปีที่แล้ว Google ประกาศความร่วมมือกับ Levi's ในการสร้างเสื้ออัจฉริยะภายใต้โครงการ Project Jacquard ที่งาน Google I/O มาปีนี้ที่งานเดียวกัน Google โดยแผนก ATAP ก็ประกาศเปิดตัวเสื้อจากโครงการดังกล่าวแล้ว โดยมีชื่อว่า Levi's Commuter x Jacquard by Google Trucker jacket (ชื่อยาวมาก) เสื้อดังกล่าวเป็นเสื้อชั้นนอกแบบ jacket ที่ผสานผ้าพิเศษซึ่งมีคุณสมบัติในการส่งสัญญาณไปยังตัวส่งสัญญาณ Bluetooth ที่อยู่ตรงข้อมือ (cuff) ด้านซ้ายของเสื้อ ทำให้เมื่อเวลาต้องการควบคุมการทำงานของสมาร์ทโฟนบางอย่าง เช่น การเล่นเพลง การโทรศัพท์ หรือคุณสมบัติอื่นๆ สามารถทำได้เพียงแค่แตะตรงเสื้อเท่านั้น (ลองดูวิดีโอด้านใน) Levi's ระบุว่าเสื้อตัวนี้ผลิตเหมือนกับเสื้อตามปกติและสามารถซักได้ โดยแค่ขอให้ถอดตัวส่งสัญญาณ bluetooth ก่อนเท่านั้น ยังไม่ระบุราคา แต่จะเริ่มมีการทดสอบในวงจำกัดภายในถดูใบไม้ร่วงนี้ของสหรัฐฯ ก่อนจะวางขายจริงในฤดูใบไม้ผลิของปีหน้าครับ ที่มา - Project Jacquard ผ่าน Engadget     ", 
  "Date": "21/May/2016", 
  "Image-Link": [
    "https://www.blognone.com/sites/default/files/styles/thumbnail/public/topics-images/Google_2015_logo.svg_.png?itok=bd4RvVLK", 
    "https://i.imgur.com/rAGPmFJ.jpg", 
    "https://i.imgur.com/8BH0lBA.png", 
    "/sites/all/themes/blognone42/images/linebutton.png"
  ], 
  "Link": "https://www.blognone.com/node/81243", 
  "News": "Google จับมือ Levi's เปิดตัว Levi's Commuter x Jacquard เสื้ออัจฉริยะ ควบคุมมือถือด้วย gesture จากเสื้อ", 
  "Tags": [
    "Levi's", 
    "Google", 
    "Wearable Computing", 
    "Fashion"
  ], 
  "Time": "09:48"
}