{
  "By": "nrad6949", 
  "Contents": " เมื่อวันศุกร์ที่ผ่านมา Samsung ประกาศเปิดตัว Charm by Samsung (เรียกสั้นๆ ว่า Charm) โดยเป็นสายรัดข้อมือเพื่อสุขภาพและมีการออกแบบที่เน้นแฟชั่นโดยเฉพาะ ถูกวางตำแหน่งในฐานะเครื่องประดับ (smart jewelry) ตัวสายรัดข้อมือแบ่งออกเป็นสองส่วน คือตัวเครื่องกับสาย โดยตัวเครื่องนั้นเป็นลักษณะสี่เหลี่ยมมน (เหมือนไอคอนของ Touchwiz UI) มีคุณสมบัติในการตรวจจับกิจกรรมต่างๆ ของร่างกาย (ไม่ระบุว่ามีการวัดการนอนด้วยหรือไม่) และสามารถส่งต่อการแจ้งเตือนบางอย่างจากโทรศัพท์มือถือ เช่น สายเรียกเข้า มาที่ตัวเครื่องได้ ซึ่งจะสั่งและแสดงสีของไฟ LED ตามที่กำหนดเอาไว้ แบตเตอรี่ความจุ 17 mAh ใช้ได้นาน 14 วันต่อการชาร์จ 1 ครั้ง ใช้ร่วมกับแอพ Charm และ S Health ส่วนตัวสายสามารถถอดออกมาและเปลี่ยนได้ตามใจชอบ มี 3 สีหลักคือ ทอง ดำ และ ควอตซ์กุหลาบ ตอนนี้ยังรองรับเฉพาะ Android 4.4 ขึ้นไปเท่านั้น ส่วนราคายังไม่ประกาศ แต่ระบุว่าจะวางจำหน่ายที่เกาหลี อิตาลี ฝรั่งเศส และรัสเซีย ก่อนขยายไปยังประเทศอื่นๆ ที่มา - Samsung      ", 
  "Date": "15/May/2016", 
  "Image-Link": [
    "https://www.blognone.com/sites/default/files/styles/thumbnail/public/news-thumbnails/00_EI-AN920_set_pink_Standard_Online_Sq.jpg?itok=aWxg5GC6", 
    "https://i.imgur.com/0BSlX9p.jpg", 
    "https://i.imgur.com/RzTQWJn.jpg", 
    "https://i.imgur.com/PKoW4EZ.jpg", 
    "/sites/all/themes/blognone42/images/linebutton.png"
  ], 
  "Link": "https://www.blognone.com/node/80989", 
  "News": "Samsung เปิดตัว Charm by Samsung สายรัดข้อมือเพื่อสุขภาพผสานแฟชั่น", 
  "Tags": [
    "Samsung", 
    "Wearable Computing", 
    "Fitness Tracker", 
    "Fashion"
  ], 
  "Time": "09:43"
}