{
  "By": "trinakub", 
  "Contents": " ล่าสุดที่งาน Anime Expo 2016 ทาง Aksys Games ประกาศนำเกม JRPG Tokyo Xanadu เข้าสู่ตลาดอเมริกาเหนือบนแพลตฟอร์ม PlayStation Vita และ PC (แพลตฟอร์ม PlayStation Vita จะมีทั้งรูปแบบ Physical และ Digital ในขณะที่บน PC จะมีแต่แบบ Digital บน Steam เท่านั้น) Tokyo Xanadu นำเสนอเรื่องราวการผจญภัยในยุคสมัยปัจจุบันของตัวละครหลัก 2 คน Koh และ Asuka ภายในเมืองที่สมมติ Morimiya อยู่แถบชานเมือง Tokyo ตัวเกมจะมีลักษณะการเล่นที่คล้ายกับเกมซีรี่ส์ Persona หลายอย่าง เช่น การไขปริศนาตอนกลางคืน การเสริมสร้างความสัมพันธ์ในตอนกลางวัน รูปแบบการเล่น Dungeon Crawler เป็นต้น ตัวเกมมีกำหนดการวางจำหน่ายภายในครึ่งปีแรกของปี 2017 และสำหรับเกม Tokyo Xanadu Ex+ ที่เป็นเวอร์ชัน HD สำหรับ PlayStation 4 ทาง Aksys ยังไม่มีแผนการที่จะนำเข้าเกมดังกล่าว ที่มา – Destructoid   ", 
  "Date": "5/July/2016", 
  "Image-Link": [
    "https://www.blognone.com/sites/default/files/styles/thumbnail/public/news-thumbnails/Tokyo%20Xanadu%20Logo.png?itok=ywly2iHF", 
    "/sites/all/themes/blognone42/images/linebutton.png"
  ], 
  "Link": "https://www.blognone.com/node/82995", 
  "News": "เกม Tokyo Xanadu เตรียมเข้าตลาดอเมริกาเหนือ โดย Aksys Games", 
  "Tags": [
    "Tokyo Xanadu", 
    "Games", 
    "PlayStation Vita", 
    "PC"
  ], 
  "Time": "02:32"
}