{
  "By": "lew", 
  "Contents": " Olimex ผู้ผลิตบอร์ดคอมพิวเตอร์ขนาดเล็กอีกราย หันมาทำบอร์ด FPGA ที่ใช้ชิป iCE40 จาก Lattice เป็นบอร์ดโอเพนซอร์สเต็มรูปแบบ ตัวบอร์ดหลักคือ iCE40HX1K-EVB มีแรมในตัว 512KB ตัว FPGA สามารถใช้ชุดเครื่องมือ ICESTORM FOSS ซึ่งเป็นซอฟต์แวร์โอเพนซอร์สทั้งชุดได้ด้วย นอกจากบอร์ดหลักแล้ว ยังมีบอร์ดเสริมอีกสี่แบบ iCE40-ADC สำหรับการอ่านสัญญาณอนาล็อกความเร็วสูงระดับ 100MHz เพียงพอสำหรับการทำ Oscilloscope, iCE40-DAC สำหรับการสร้างคลื่นระดับ 100MHz, iCE40-DIO สำหรับการอ่านสัญญาณดิจิตอลความเร็วสูง ใช้ทำ logic analyzer ใช้เองได้, และ iCE40-IO สำหรับการต่อจอ VGA และคีย์บอร์ด PS2 สำหรับการสร้างคอมพิวเตอร์ทั้งเครื่องขึ้นมาใช้งาน ราคาบอร์ดหลัก 22 ยูโรส่วนบอร์ดเสริมยังไม่แจ้งราคา เริ่มส่งมอบ 1 มิถุนายนนี้ ที่มา - Olimex    ", 
  "Date": "10/May/2016", 
  "Image-Link": [
    "//upic.me/i/co/ice40-1.jpg", 
    "/sites/all/themes/blognone42/images/linebutton.png"
  ], 
  "Link": "https://www.blognone.com/node/80773", 
  "News": "Olimex ออกบอร์ด FPGA โอเพนซอร์ส ราคา 22 ยูโร", 
  "Tags": [
    "Olimex", 
    "FPGA", 
    "Electronics"
  ], 
  "Time": "01:03"
}