{
    "By": "Blltz", 
    "Contents": "\nกูเกิลยังคงมุ่งมั่นเปิดคอร์สให้เรียนรู้ผ่าน Udacity อย่างต่อเนื่อง ให้หลังการสอนเขียนแอพ และออกแบบแอพ ล่าสุดกูเกิลเพิ่มหลักสูตรเรียนรู้เกี่ยวกับ deep learning เข้ามาแล้ว โดยเรียนฟรีเหมือนกับสองหลักสูตรแรก\nตัวคอร์สนี้มีชื่อว่า Deep Learning - Taking machine learning to the next level ซึ่งรวบรวมทั้งการใช้เครื่องมือต่างๆ คำเฉพาะทางของฝั่ง deep learning รวมถึงได้ฝึกใช้งาน TensorFlow ซึ่งเป็นไลบรารีโอเพนซอร์สสำหรับงาน deep learning อีกด้วย โดยตัวหลักสูตรจะแบ่งเป็นสี่ช่วงเริ่มต้นจากพื้นฐาน ก่อนจะยากขึ้นเรื่อยๆ\nหลักสูตรนี้ใช้เวลาในการเรียนประมาณ 3 เดือน (สัปดาห์ละ 6 ชั่วโมง) โดยผู้ที่สนใจควรจะมีความรู้ด้านการเขียนโปรแกรมมาไม่ต่ำกว่า 2 ปี และใช้งาน Git/GitHub ได้ รวมถึงมีความรู้ด้านการคำนวณ และความรู้พื้นฐานในการเรียนรู้ deep learning มาก่อน สำหรับคนที่สนใจสามารถดูรายละเอียดเพิ่มเติมได้จาก Udacity\nที่มา - Google Research\n\n", 
    "Date": "23/01/16", 
    "Image-Link": "https://www.blognone.com/sites/default/files/imagecache/news-thumbnail/category_pictures/google-2015.png", 
    "Link": "https://www.blognone.com/node/77035", 
    "News": "กูเกิลเปิดคอร์สเรียนฟรี deep learning ผ่าน Udacity", 
    "Tags": "Deep Learning\nGoogle\nUdacity\n", 
    "Time": "0:27"
}