{
    "By": "mk", 
    "Contents": "\nเราเห็นข่าวว่าไมโครซอฟท์จะออก Windows 10 Mobile ตัวจริงในปลายปี 2015 จากนั้นเลื่อนเป็นเดือนมกราคมนี้ แต่สุดท้ายก็ยังไม่มีอะไรเกิดขึ้น\nข่าวล่าสุดจากเว็บไซต์ VentureBeat บอกว่าไมโครซอฟท์ต้องเลื่อนอีกรอบเป็นเดือนกุมภาพันธ์แทน (ช่วงต้นเดือนถึงกลางเดือน) ด้วยเหตุผลสั้นๆ ว่า \"ยังไม่พร้อม\"\nตามข่าวบอกว่าไมโครซอฟท์จะปล่อยอัพเดตให้กับทั้งสมาร์ทโฟน Windows Phone 8.x และมือถือรุ่นใหม่อย่าง Lumia 950/950XL ที่เป็น Windows 10 Mobile อยู่แล้ว แต่ยังไม่ใช่ซอฟต์แวร์รุ่นสมบูรณ์\nที่มา - VentureBeat\n\n", 
    "Date": "23/01/16", 
    "Image-Link": "https://www.blognone.com/sites/default/files/imagecache/news-thumbnail/category_pictures/w10m.png", 
    "Link": "https://www.blognone.com/node/77043", 
    "News": "เลื่อนแล้วเลื่อนอีก ข่าวล่าสุดบอก Windows 10 Mobile ตัวจริงออกเดือน ก.พ. 2016", 
    "Tags": "Microsoft\nRumor\nWindows 10 Mobile\n", 
    "Time": "11:15"
}