แพลตฟอร์ม
แพลตฟอร์ม
ซีรีส์
AMD
ตัว
APU
รุ่น
เจ็ด
FXA
12
A
10
รหัส
BristolRidge
วันนี้
AMD
ตัว
ผลิตภัณฑ์
ชุด
ใหญ่
ฝั่ง
หน่วย
ประมวลผล
รหัส
A
รุ่น
เจ็ด
สอง
สาย
ตลาด
ล่าง
A
9
A
6
E
2
รหัส
StoneyRidge
ตลาด
บน
FXA
12
A
10
รหัส
BristolRidge
BristolRidge
ใช้
คอร์
Excavator
เดียวกับ
Carrizo
รุ่น
ก่อนหน้า
ตัว
ซีพียู
ทั้งหมด
6
รุ่น
ย่อย
ละ
2
รุ่น
ย่อย
แบ่ง
ระดับ
TDP
ได้แก่
AMDFX
9830
P
รุ่น
ท็อป
ถี่
สูงสุด
3.7
GHzTDP
35
W
จี
พี
ยู
R
7
AMDFX
9800
P
ถี่
สูงสุด
3.6
GHzTDP
15
W
จี
พี
ยู
R
7
AMDA
129730
P
ถี่
สูงสุด
3.5
GHzTDP
35
W
จี
พี
ยู
R
7
AMDA
129700
P
ถี่
สูงสุด
3.4
GHZTDP
15
W
จี
พี
ยู
R
7
AMDA
109630
P
ถี่
สูงสุด
3.3
GHzTDP
35
W
จี
พี
ยู
R
5
AMDA
109600
P
ถี่
สูงสุด
3.3
GHzTDP
15
W
จี
พี
ยู
R
5
ตัว
A
10
ด้อย
รุ่น
พี่
ตรง
กราฟิก
ระดับ
R
5
เท่า
ตัว
A
9
คน
ละ
สถาปัตยกรรม
ย่อย
ขณะที่
กราฟิก
R
7
FXA
12
ฟีเจอร์
ระดับ
สูง
DualGraphic
Eyefinity
ที่มา
AMDAnandTech

