{
  "By": "nismod", 
  "Contents": " ความวัวยังไม่ทันหาย ความควายก็เข้ามาแทรก เสียแล้วสำหรับ Tesla Motors หลังมีรายงานระบบ Autopilot บน Model S ก่อให้เกิดอุบัติเหตุจนมีผู้เสียชีวิต เมื่อสัปดาห์ที่แล้ว ล่าสุดระบบ Autopilot บน Model X ก็ก่อให้เกิดอุบัติเหตุในเพนซิลเวเนียขึ้นมาอีกครั้ง อุบัติเหตุครั้งนี้เกิดขึ้นกับนาย Albert Scaglione หลังจากเจ้าตัวเปิดโหมด Autopilot ก่อนที่ตัวรถจะชนเข้ากับที่กั้นริมทางด้านขวา แล้วหักซ้ายข้ามเลนไปชนเข้ากับแผงกั้นคอนกรีตกลางถนนและพลิกคว่ำ โชคดีที่ไม่มีผู้เสียชีวิต แต่ก็ไม่มีรายงานว่าผู้โดยสารบาดเจ็บมากน้อยแค่ไหน เบื้องต้นเจ้าหน้าที่ตำรวจรัฐเพนซิลเวเนียกำลังสอบสวนและจะเปิดเผยรายละเอียดของอุบัติเหตุหลังการสอบสวนเสร็จสิ้น โดยทางเว็บไซต์ Gizmodo ได้ติดต่อไปยัง Tesla เพื่อขอความเห็นเกี่ยวกับคดีนี้ ซึ่งได้รับการตอบกลับมาว่า \"เรายังไม่ได้รับรายงานที่ชี้ว่าระบบ Autopilot ถูกเปิดใช้ขณะเกิดอุบัติเหตุ โดยทาง Tesla จะได้การแจ้งเตือนทุกครั้งที่เกิดอุบัติเหตุขึ้นและรีบติดต่อไปยังลูกค้าทันทีเพื่อยืนยันว่าพวกเขาปลอดภัย แต่ขณะนี้เนื่องจากยังไม่สามารถติดต่อลูกค้าได้ เราจึงไม่สามารถสอบสวนและให้ข้อมูลอะไรได้มาก\" ที่มา - Detroit Free Press via Gizmodo    ", 
  "Date": "7/July/2016", 
  "Image-Link": [
    "https://www.blognone.com/sites/default/files/styles/thumbnail/public/topics-images/tesla.png?itok=J6-e8z4s", 
    "https://c7.staticflickr.com/8/7358/28040203582_94c0201105_z.jpg", 
    "/sites/all/themes/blognone42/images/linebutton.png"
  ], 
  "Link": "https://www.blognone.com/node/83116", 
  "News": "โหมด Autopilot บน Tesla Model X เกิดอุบัติเหตุซ้ำรอย Model S โชคดีไม่มีผู้เสียชีวิต", 
  "Tags": [
    "Tesla Motors", 
    "Automobile", 
    "Self-Driving Car", 
    "Electric Car"
  ], 
  "Time": "12:16"
}