{
  "By": "mk", 
  "Contents": " NXP Semiconductors ผู้ผลิตชิปรายใหญ่ของโลก ประกาศลุยตลาดชิปสำหรับรถยนต์ขับเคลื่อนอัตโนมัติ โดยเปิดตัวแพลตฟอร์มชื่อ BlueBox Engine เพื่อให้บริษัทรถยนต์นำไปใช้งาน BlueBox ประกอบด้วย  หน่วยประมวลผลภาพสำหรับรถยนต์ NXP S32V ผนวกเอาจีพียู หน่วยประมวลผลภาพ หน่วยประมวลผลเซ็นเซอร์ไว้ด้วยกัน หน่วยประมวลผลฝังตัว LS2088A เป็น ARM Cortex-A72 8 คอร์ 64 บิต ความถี่ 2GHz แรม DDR4 การพัฒนาเป็นระบบที่อิงจากลินุกซ์ และใช้ภาษา C  ผู้ผลิตรถยนต์สามารถนำ BlueBox ไปเชื่อมกับระบบเรดาร์ ไลดาร์ (lidar) เซ็นเซอร์ภาพ เพื่อรวมเป็นโซลูชันฮาร์ดแวร์สำหรับรถยนต์ไร้คนขับได้เลย ทาง NXP คุยว่าตอนนี้มีผู้ผลิตรถยนต์รายใหญ่ของโลก 4 จาก 5 รายกำลังใช้งานระบบ BlueBox แล้ว ที่มา - NXP หน้าตาของกล่อง BlueBox จากเว็บไซต์ NXP    ", 
  "Date": "17/May/2016", 
  "Image-Link": [
    "https://www.blognone.com/sites/default/files/styles/thumbnail/public/topics-images/nxp.png?itok=qKAZ_5zt", 
    "https://i.imgur.com/SHA2N7d.jpg", 
    "/sites/all/themes/blognone42/images/linebutton.png"
  ], 
  "Link": "https://www.blognone.com/node/81085", 
  "News": "NXP เปิดตัว BlueBox Engine แพลตฟอร์มคอมพิวเตอร์สำหรับรถยนต์ไร้คนขับ", 
  "Tags": [
    "NXP Semiconductors", 
    "Hardware", 
    "Self-Driving Car"
  ], 
  "Time": "15:05"
}