{
  "By": "nrad6949", 
  "Contents": " เมื่อวันอังคารที่ผ่านมา John Sculley อดีตซีอีโอของ Apple ให้สัมภาษณ์กับเว็บไซต์ข่าว TheStreet ของสหรัฐอเมริกา โดยระบุว่าตัวเขาเองนั้นไม่มี Apple Watch อยู่ในความครอบครองแม้แต่เรือนเดียว เพราะเขามองไม่เห็นประโยชน์ถึงการมีมันในเวลานี้ เขาระบุว่า Apple Watch ไม่สามารถทำงานได้อย่างอิสระแยกจาก iPhone ได้ ทำให้เวลาต้องการใช้งานในบางสถานการณ์อย่างการออกกำลังกายกลางแจ้ง เขาต้องพกโทรศัพท์ไปด้วย ซึ่งไม่ได้เพิ่มความสะดวก นอกจากนั้นแล้วยังไม่สามารถทำงานได้อย่างเต็มที่ ซึ่งคำแนะนำของเขาคือการให้ Apple Watch ทำหน้าที่เป็นผู้ช่วยส่วนตัวแบบ Facebook M ที่จะช่วยเราทำงานบางอย่างได้ จะเหมาะสมกว่า ทั้งนี้ Sculley เองมีผลิตภัณฑ์ของ Apple อยู่เยอะมาก และตัวเขาเองมีทั้ง iPhone และ iPad Pro โดยระบุว่าผู้ที่ชื่นชอบ Apple ไม่จำเป็นต้องมีผลิตภัณฑ์ทุกอย่างของบริษัท โดยสำหรับเขามีเฉพาะอันที่ชอบและใช้จริง ที่มา - TheStreet ผ่าน Gizmodo Australia    ", 
  "Date": "12/May/2016", 
  "Image-Link": [
    "https://www.blognone.com/sites/default/files/styles/thumbnail/public/topics-images/apple-watch.png?itok=OViyBycH", 
    "https://farm6.staticflickr.com/5689/21276754642_4dccd49314_z.jpg", 
    "/sites/all/themes/blognone42/images/linebutton.png"
  ], 
  "Link": "https://www.blognone.com/node/80909", 
  "News": "อดีตซีอีโอ Apple ระบุ Apple Watch ไม่มีประโยชน์พอที่จะทำให้เขามีมันไว้", 
  "Tags": [
    "Apple Watch", 
    "Apple", 
    "Wearable Computing", 
    "John Sculley"
  ], 
  "Time": "22:16"
}