{
  "By": "nutmos", 
  "Contents": " ในการแถลงข่าวของ Xiaomi นั้น Lei Jun ผู้ก่อตั้ง Xiaomi ได้อธิบายว่าทำไมทางบริษัทจึงไม่ทำให้มือถือของตัวเองกันน้ำ เนื่องจากมีผู้ใช้หลายคนที่เรียกร้องให้ปล่อยฟีเจอร์นี้มา อย่างน้อยรุ่นเรือธงก็ยังดี Lei Jun อธิบายว่า ข้อแรก การทำให้อุปกรณ์กันน้ำ จะทำให้อุปกรณ์เสื่อมโทรมได้ง่าย แม้ว่าตัวอุปกรณ์จะเกิดความเสียหายเพียงเล็กน้อยเท่านั้น ข้อสอง การมีฟีเจอร์กันน้ำ ค่าใช้จ่ายในการผลิตของสินค้าจะเพิ่มขึ้นอีก ทั้งนี้ เขาบอกว่าถ้าผู้ใช้ยอมจ่ายเพิ่มขึ้นอีก 20-30% ของราคามือถือในปัจจุบัน Xiaomi ก็อาจจะพิจารณาทำมือถือกันน้ำในอนาคต ที่มา - PLAYfuldroid!   ", 
  "Date": "20/June/2016", 
  "Image-Link": [
    "https://www.blognone.com/sites/default/files/styles/thumbnail/public/topics-images/xiaomi.png?itok=W_8-Phci", 
    "/sites/all/themes/blognone42/images/linebutton.png"
  ], 
  "Link": "https://www.blognone.com/node/82439", 
  "News": "Xiaomi อธิบายเหตุผลทำไมไม่ทำให้มือถือของตัวเองกันน้ำ", 
  "Tags": [
    "Xiaomi"
  ], 
  "Time": "06:45"
}