{
  "By": "lew", 
  "Contents": "
ไอบีเอ็มปล่อยฟีเจอร์เสริมสำหรับระบบไฟล์ Spectrum Scale ให้รองรับการเชื่อมต่อกับพื้นที่บนคลาวด์ได้ และสามารถกำหนดนโยบายการจัดเก็บไฟล์ได้จากที่เดียวกัน
cloud tiering จะช่วยประหยัดพื้นที่สำหรับการเก็บข้อมูล
อินเทอร์เฟซ เลือกได้ระหว่าง Cleversafe, Softlayer, และ AWS S3
ไอบีเอ็มประกาศฟีเจอร์นี้มาตั้งแต่สองสัปดาห์ที่แล้ว แต่ตอนนี้เพิ่งปล่อยไฟล์ให้ดาวน์โหลด ใครอยากทดสอบก็เข้าไปทดสอบกันได้
ที่มา - The Register


", 
  "Date": "03/02/16", 
  "Image-Link": "https://www.blognone.com/sites/default/files/imagecache/news-thumbnail/category_pictures/ibm.png", 
  "Link": "https://www.blognone.com/node/77424", 
  "News": "IBM ปล่อยฟีเจอร์ Spectrum Scale transparent cloud tiering รองรับการรวมพื้นที่จากคลาวด์", 
  "Tags": "Cloud Storage
Enterprise
IBM
Storage
", 
  "Time": "0:31"
}