{
  "By": "Blltz", 
  "Contents": "
ในขณะที่เทคโนโลยี 4G เริ่มกระจายตัวไปทั่วโลก ฝั่งทวีปยุโรปก็เริ่มขยับไปสู่อนาคตอีกครั้ง ล่าสุดคณะกรรมาธิการยุโรป (EC) ยื่นข้อเสนอใหม่เพื่อรับการมาของ 5G แล้ว
ร่างข้อเสนอของคณะกรรมาธิการยุโรปว่าด้วยการโยกใช้งานคลื่นความถี่สำหรับใช้กระจายสัญญาณโทรทัศน์ซึ่งปัจจุบันใช้ย่านความถี่ 700MHz UHF เพื่อเปิดทางให้กับการเชื่อมต่อแบบ 5G ที่จะใช้กับอุปกรณ์พกพา และอุปกรณ์ประเภท Internet of Things โดยตั้งเป้าว่าประเทศใน EU จะให้ความร่วมมือภายในปี 2020 นี้
สำหรับการเตรียมพร้อมเพื่อรับกับเทคโนโลยี 5G ประเทศแถบสแกนดิเนเวียอย่างเดนมาร์ก ฟินแลนด์ และสวีเดนต่างก็ออกแผนว่าจะเริ่มอนุญาตให้อุปกรณ์พกพาใช้งานคลื่นความถี่ย่าน 700MHz ได้ในอีกไม่กี่ปีข้างหน้านี้ เช่นเดียวกับอังกฤษ ส่วนยักษ์ใหญ่อย่างเยอรมนี และฝรั่งเศสได้ประกาศให้เริ่มใช้ได้ซักพักแล้ว
ที่มา - European Commision

", 
  "Date": "03/02/16", 
  "Image-Link": "https://www.blognone.com/sites/default/files/imagecache/news-thumbnail/category_pictures/eu.png", 
  "Link": "https://www.blognone.com/node/77444", 
  "News": "คณะกรรมาธิการยุโรปยื่นข้อเสนอโยกคลื่นโทรทัศน์ฯ เบิกทางให้ 5G ภายในปี 2020", 
  "Tags": "5G
Europe
European Commission
TV
", 
  "Time": "10:02"
}