{
  "By": "shelling", 
  "Contents": "
หน้าเว็บ Twitter มีการเปลี่ยนแปลงเกี่ยวกับการแสดงผลอีกครั้ง จากเดิมที่เมื่อเราคลิกไปที่ทวีตใดๆ ในหน้าแรกและหน้า Timeline ของแต่ละคนเพื่อดูบทสนทนาที่เกี่ยวข้อง ทวีตที่เราคลิกพร้อมทั้งบทสนทนาที่เกี่ยวข้องจะปรากฏขึ้น พร้อมดันทวีตอื่นๆ ให้ตกลงไป (ในลักษณะ Accordion) วันนี้ Twitter ได้เปลี่ยนมาใช้การวางบทสนทนาไว้บนเลเยอร์เหนือ Timeline ลักษณะเดียวกับการแสดงรูปภาพหรือวิดีโอของ Facebook (ต้นทางใช้คำว่า pop out) รวมทั้งเมื่อเข้าไปที่หน้าของทวีตก็จะแสดงผลในลักษณะเดียวกันบน Timeline ของเจ้าของทวีต พร้อมทั้งยกเลิกหน้าดูทวีตแบบเก่า (ที่ผู้ใช้สามารถใส่ภาพพื้นหลังได้) ออกไปแล้ว
ที่มา: @Support
New on https://t.co/zDdcbPvEwm: entire Tweet conversations pop out with a single click––no more losing your place! pic.twitter.com/RJq8dZIMKh
— Twitter Support (@Support) February 2, 2016
", 
  "Date": "03/02/16", 
  "Image-Link": "https://www.blognone.com/sites/default/files/imagecache/news-thumbnail/category_pictures/twitter-bird-light-bgs.png", 
  "Link": "https://www.blognone.com/node/77448", 
  "News": "Twitter เปลี่ยนท่าแสดงทวีตและบทสนทนาในหน้าแรกเป็นแบบ pop out", 
  "Tags": "Twitter
User Experience
", 
  "Time": "10:45"
}