{
  "By": "nutmos", 
  "Contents": "
Sony เปิดตัวกล้องรุ่นใหม่ Alpha A6300 โดยรอบนี้มาพร้อมกับระบบโฟกัสใหม่ที่ชื่อว่า 4D FOCUS ซึ่ง Sony เคลมว่าเป็นระบบโฟกัสอัตโนมัติที่เร็วที่สุดในโลก สามารถโฟกัสวัตถุได้ในเวลาเพียง 0.05 วินาทีเท่านั้น และมาพร้อมจุดโฟกัสแบบ phase detection อีก 425 จุด ซึ่งมากที่สุดในกล้องเปลี่ยนเลนส์ได้
ส่วนรายละเอียดอื่นๆ ของ​ Sony Alpha A6300 มีดังนี้

เซนเซอร์ Exmor CMOS ขนาด APS-C ความละเอียด 24.2 ล้านพิกเซล
ถ่ายวิดีโอ 4K โดย Sony บอกว่ากล้อง A6300 อ่านข้อมูลจากพิกเซลทุกตัว รวมแล้วประมาณ 6K แล้วนำพิกเซลเหล่านั้นมาทำการ oversamples อีกที จึงได้วิดีโอที่สมจริงและมีมิติ
ชิพประมวลผล BIONZ X
ISO สามารถเร่งได้ตั้งแต่ 100-51200
ถ่ายรูปรัวได้สูงสุด 11 ภาพต่อวินาทีในขณะเปิด continuous autofocus และ exposure tracking
รองรับการถ่ายต่อเนื่องในโหมด live-view บนหน้าจอ LCD ได้ถึง 8 ภาพต่อวินาที

Sony Alpha A6300 จะเริ่มวางจำหน่ายเดือนมีนาคมนี้ในราคา

บอดี้อย่างเดียวราคา 1,000 ดอลลาร์
บอดี้พร้อมเลนส์คิท 16-50mm F3.5 - F5.6 ราคา 1,150 ดอลลาร์

ที่มา - Sony, dpreview





", 
  "Date": "03/02/16", 
  "Image-Link": "https://www.blognone.com/sites/default/files/imagecache/news-thumbnail/news-thumbnails/8958059195.jpg", 
  "Link": "https://www.blognone.com/node/77478", 
  "News": "Sony เปิดตัว Alpha A6300 พร้อมระบบโฟกัสอัตโนมัติที่เร็วที่สุด", 
  "Tags": "Mirrorless
Sony
Sony Alpha
", 
  "Time": "23:06"
}