{
  "By": "Blltz", 
  "Contents": "
รายงานจาก Financial Times เผยไมโครซอฟท์เตรียมเข้าซื้อบริษัทซอฟต์แวร์รอบใหม่อีกระลอก โดยบริษัทล่าสุดที่ถูกเล็งไว้คือ SwiftKey ผู้พัฒนาซอฟต์แวร์คีย์บอร์ดชื่อดังบนแอนดรอยด์ที่มียอดดาวน์โหลดมากกว่า 10 ล้านครั้งด้วยกัน
ตามข่าวที่ออกมาระบุว่าไมโครซอฟท์จะทุ่มเงินกว่า 250 ล้านเหรียญเพื่อเข้าซื้อ SwiftKey โดยคาดกันว่าเป้าหมายหลักคือการเข้าครอบครองเทคโนโลยีปัญญาประดิษฐ์เบื้องหลังฟีเจอร์เดาคำระหว่างพิมพ์ซึ่งได้รับคำชมมาเนิ่นนาน รวมถึงนักพัฒนาเบื้องหลังระบบนี้ด้วย
หลังรายงานออกมา มีนักข่าวสอบถามไปยังไมโครซอฟท์ และ SwiftKey โดยตรง แต่ทั้งคู่ปฏิเสธจะออกความเห็นกับประเด็นดังกล่าว
ที่มา - Android Police
อัพเดต ข่าวอย่างเป็นทางการมาแล้วครับ Microsoft สรุปคือ SwiftKey บน iOS/Android จะยังพัฒนาต่อ แต่เทคโนโลยี Word Flow จะถูกใช้กับ Windows ด้วย

", 
  "Date": "03/02/16", 
  "Image-Link": "https://www.blognone.com/sites/default/files/imagecache/news-thumbnail/category_pictures/swiftkey.png", 
  "Link": "https://www.blognone.com/node/77432", 
  "News": "ไมโครซอฟท์ซื้อ SwiftKey ผู้พัฒนาแอพคีย์บอร์ดบนสมาร์ทโฟน", 
  "Tags": "Acquisition
Microsoft
Rumor
SwiftKey
", 
  "Time": "9:00"
}