{
  "By": "lew", 
  "Contents": "
ทรูเตรียมส่งหนังสือขอความชัดเจนกับกสทช. ในกรณีที่ต้องมีการจัดประมูลคลื่น 900 ใหม่อีกครั้ง โดยนายนพปฎล เดชอุดม หัวหน้าคณะผู้บริหารด้านการเงิน ระบุว่าทางทรูจะยื่นหนังสือภายในสัปดาห์นี้สอบถามถึงเงื่อนไขการประมูลใหม่ก่อนที่จะจ่ายค่าใบอนุญาต โดยหวังว่าแนวทางจะเป็นธรรมกับทางทรูเอง
อย่างไรก็ดี ทางทรูหวังว่าทางกลุ่มจัสมินจะสามารถจ่ายค่าใบอนุญาตได้ เพื่อไม่ให้เกิดความวุ่นวายในอุตสาหกรรมโทรคมนาคม
แนวทางนี้ออกมาจากการประชุมทางไกลระหว่างผู้บริหารร่วมกับผู้ถือหุ้น, ธนาคารเพื่อการลงทุน, และนักวิเคราะห์ โดยทางทรูระบุว่าได้รับอนุมัติหนังสือค้ำประกันจากธนาคาร 4-5 ธนาคารแล้ว และพร้อมจะจ่ายค่าใบอนุญาตหากมีความชัดเจน
ที่มา - Bangkok Post

", 
  "Date": "03/02/16", 
  "Image-Link": "https://www.blognone.com/sites/default/files/imagecache/news-thumbnail/category_pictures/nbtc.png", 
  "Link": "https://www.blognone.com/node/77433", 
  "News": "ทรูหยุดการจ่ายค่าใบอนุญาตคลื่น 900 จนกว่าจะมีความชัดเจนหากต้องประมูลใหม่", 
  "Tags": "Auction
NBTC
Telecom
Thailand
True
", 
  "Time": "9:04"
}