{
  "By": "Blltz", 
  "Contents": "
ในระหว่างงานประกาศผลประกอบการไตรมาสสุดท้ายของปี 2015 ของนินเทนโด Tatsumi Kimishima ซีอีโอได้ออกมาเผยทิศทางของบริษัทในปี 2016 ซึ่งครอบคลุมประเด็นน่าสนใจทั้งตัวเกม เครื่องเกม และเทคโนโลยียุคใหม่ไว้ดังนี้
สำหรับประเด็นแรก Kimishima พูดถึงเกมบนอุปกรณ์พกพาว่านินเทนโดวางแผนเปิดตัวแอพที่สองต่อจาก Miitomo เอาไว้แล้ว โดยคราวนี้จะเน้นพัฒนาตัวเกมจริงๆ และใช้ตัวละครชื่อดังที่หลายคนรู้จักมากขึ้น ต่างกับ Miitomo ที่ใกล้เคียงกับแอพสำหรับสื่อสารมากกว่าเกม และให้สร้างตัวละครได้เอง ด้านเครื่องเกมปริศนา NX นั้น Kimishima เผยว่าแผนการพัฒนาเป็นไปตามที่วางไว้ ถ้าอิงจากรายงานที่เคยหลุดออกมา น่าจะได้เห็น NX เปิดตัวภายในสิ้นปี 2016 นี้
ด้านอนาคตของแพลตฟอร์มเกมนินเทนโด Kimishima มองว่าบริษัทกำลังมุ่งหาโอกาสใหม่ๆ รวมถึงการเข้าไปมีส่วนร่วมในตลาด Virtual Reality ที่กำลังได้รับความสนใจอย่างมากในปัจจุบัน ซึ่งตรงข้ามกับที่ Reggie Fils-Aime ประธานนินเทนโดอเมริกาเหนือเคยออกมาให้สัมภาษณ์ว่าไม่สนใจ VR แต่อย่างใด ทั้งนี้ทั้งนั้นนินเทนโดยังไม่มีแผนว่าจะเริ่มพัฒนา VR เมื่อใด
ที่มา - Digital Trends

Virtual Boy พ่อทุกสถาบัน VR ตั้งแต่ปี 1995 จากนินเทนโด
", 
  "Date": "03/02/16", 
  "Image-Link": "https://www.blognone.com/sites/default/files/imagecache/news-thumbnail/category_pictures/nintendo-new.png", 
  "Link": "https://www.blognone.com/node/77438", 
  "News": "ทิศทางนินเทนโดปี 2016: แอพมือถือตัวต่อไปจะมีตัวละครดังนำทีม, สนใจร่วมวง VR ด้วย", 
  "Tags": "Games
Mobile App
Nintendo
Virtual Reality
", 
  "Time": "9:31"
}