{
  "By": "Blltz", 
  "Contents": "
แม้จะมีปัญหาขลุกขลักไปบ้าง แต่เมื่อไม่นานมานี้ไมโครซอฟท์ก็ประสบความสำเร็จในการนำ Surface เข้าไปเป็นส่วนหนึ่งของการแข่งขันอเมริกันฟุตบอล NFL ได้แล้ว และดูเหมือนว่าไมโครซอฟท์จะยังไม่หยุดแค่แท็บเล็ต ล่าสุดเพิ่งโชว์วิดีโอขายฝันที่ว่าด้วยการนำ HoloLens แว่น AR ของตัวเองไปใช้กับการรับชม NFL บ้างแล้ว
ในวิดีโอที่ไมโครซอฟท์ปล่อยมา แสดงให้เห็นถึงการนำ HoloLens ไปใช้เพื่อขยายประสบการณ์รับชม NFL ได้จากที่บ้าน ซึ่งสามารถทำได้ตั้งแต่การแสดงข้อมูลจากในสนาม ไปจนถึงการแสดงโมเดลสามมิติพร้อมข้อมูลสดๆ จากในสนามกันเลยทีเดียว
แม้จะดูน่าสนใจมาก แต่วิดีโอตัวนี้ก็ยังเป็นแค่แนวคิดเท่านั้น ส่วนจะออกมาสู่โลกความจริงได้เมื่อไรคงต้องติดตามกันต่อไปครับ
ที่มา - Engadget

", 
  "Date": "03/02/16", 
  "Image-Link": "https://www.blognone.com/sites/default/files/imagecache/news-thumbnail/category_pictures/hololens.png", 
  "Link": "https://www.blognone.com/node/77442", 
  "News": "ไมโครซอฟท์ขายฝัน HoloLens สู่ประสบการณ์รับชม NFL สดๆ ส่งตรงถึงบ้านคุณ", 
  "Tags": "Augmented Reality
HoloLens
Microsoft
NFL
", 
  "Time": "9:49"
}