{
  "By": "mk", 
  "Contents": " Atlassian บริษัทซอฟต์แวร์เพื่อนักพัฒนา เจ้าของ Jira และ Bitbucket ซื้อกิจการ StatusPage ซอฟต์แวร์สำหรับบอกสถานะว่าบริการหรือ API ของบริษัทยังออนไลน์และใช้งานได้หรือไม่ StatusPage เพิ่งก่อตั้งในปี 2013 แต่มีลูกค้าเป็นบริษัทไอทีหลายราย เช่น Vimeo, Citrix, Cloudflare รวมถึง Atlassian ด้วย (ตัวอย่างหน้า Status ของ Bitbucket) ปกติแล้ว StatusPage คิดราคาใช้งานต่อเดือน 99 ดอลลาร์ และมีรุ่นสำหรับลูกค้าธุรกิจเดือนละ 399 ดอลลาร์ Atlassian ระบุว่าบริษัทซอฟต์แวร์ยุคนี้กลายเป็นบริษัทที่ให้ \"บริการ\" ไปหมดแล้ว การมีหน้าบอกสถานะของบริการ และสื่อสารถ้าบริการใช้งานไม่ได้จึงเป็นเรื่องจำเป็น นี่จึงเป็นเหตุผลของการซื้อ StatusPage นั่นเอง ที่มา - Atlassian    ", 
  "Date": "15/July/2016", 
  "Image-Link": [
    "https://www.blognone.com/sites/default/files/styles/thumbnail/public/topics-images/atlassian.png?itok=2r99FN7Z", 
    "https://i.imgur.com/lkOTMEL.jpg", 
    "/sites/all/themes/blognone42/images/linebutton.png"
  ], 
  "Link": "https://www.blognone.com/node/83476", 
  "News": "Atlassian ซื้อ StatusPage หน้าบอกสถานะบริการและ API ว่ายังใช้งานได้หรือไม่", 
  "Tags": [
    "Atlassian", 
    "Acquisition"
  ], 
  "Time": "14:37"
}