{
  "By": "nismod", 
  "Contents": " หลังเป็นประเด็นที่สังคมตั้งคำถามมาซักพัก ล่าสุดองค์การ Human Rights Watch ได้สอบถามไปยัง Facebook สำนักงานใหญ่ในประเด็นความปลอดภัยและการให้ความร่วมมือกับรัฐบาลไทยในการให้ข้อมูลส่วนตัวของผู้ใช้ ซึ่งได้รับคำยืนยันว่า Facebook ไม่เคยให้ข้อมูลใดๆ และไม่เคยให้ความร่วมมือกับรัฐบาลไทยแต่อย่างใด สอดคล้องกับที่ Facebook ในกรุงลอนดอนออกมาให้ข้อมูลก่อนหน้านี้ “เฟซบุ๊กยืนยันว่าไม่เคยมอบข้อมูลเกี่ยวกับบัญชีผู้ใช้หรือเนื้อหาใดๆ ของผู้ใช้งานเฟซบุ๊ก รวมถึงไม่มีการให้ความร่วมมือในด้านระบบใดๆ กับรัฐบาลไทย เฟซบุ๊กย้ำว่ามีการใช้ระบบที่ก้าวหน้าเพื่อรักษาความปลอดภัยและไม่ได้ถูกเจาะระบบ รวมทั้งมีกระบวนการทางกฎหมายที่เข้มงวดในการพิจารณาคำขอของรัฐบาลที่ต้องการเข้าถึงข้อมูลหรือปิดกั้นเนื้อหาต่างๆ” อย่างไรก็ตามคงต้องรอ Facebook Government Report ในช่วงครึ่งแรกของปี 2016 อีกครั้งว่ารัฐบาลไทยได้ยื่นคำร้องไปยัง Facebook กี่ครั้ง ที่มา - BBC Thai   ", 
  "Date": "10/May/2016", 
  "Image-Link": [
    "https://www.blognone.com/sites/default/files/styles/thumbnail/public/topics-images/fb-500.png?itok=7KEmyKx1", 
    "/sites/all/themes/blognone42/images/linebutton.png"
  ], 
  "Link": "https://www.blognone.com/node/80791", 
  "News": "เฟซบุ๊กสำนักงานใหญ่ยืนยันกับ HRW ไม่เคยให้ข้อมูลใดๆ กับรัฐบาลไทย", 
  "Tags": [
    "Facebook", 
    "Thailand", 
    "Privacy"
  ], 
  "Time": "12:12"
}