{
  "By": "mk", 
  "Contents": " ที่ผ่านมา Chrome รองรับการส่งภาพขึ้นจอผ่านส่วนขยาย Google Cast ที่ต้องติดตั้งเพิ่มเอง แต่ใน Chrome 51 เป็นต้นไป ฟีเจอร์นี้จะถูกผนวกเข้ามาเป็นส่วนหนึ่งของ Chrome แล้ว เดิมทีส่วนขยาย Google Cast จะมีปุ่ม Cast ที่ทูลบาร์ แต่ฟีเจอร์ของ Chrome ตัวหลักจะไม่มีปุ่มนี้ ต้องสั่งผ่านเมนูแทน (อย่างไรก็ตาม ถ้าผู้ใช้ยังอยากให้มีปุ่มบนทูลบาร์ก็สามารถติดตั้งส่วนขยายได้เช่นกัน) นอกจากนี้ ฟีเจอร์ Cast ของ Chrome 51 ยังสามารถแสดงเนื้อหาในแท็บปัจจุบันไปยังห้องประชุมใน Google Hangout ได้ด้วย ช่วยอำนวยความสะดวกให้คนที่อยากประชุมทีมผ่าน Hangout แล้วแชร์หน้าจอให้เห็นภาพตรงกัน ที่มา - Chrome Support via 9to5google    ", 
  "Date": "2/July/2016", 
  "Image-Link": [
    "https://www.blognone.com/sites/default/files/styles/thumbnail/public/topics-images/google-cast.png?itok=LxtSnhZu", 
    "http://i.imgur.com/rgugNRd.png", 
    "/sites/all/themes/blognone42/images/linebutton.png"
  ], 
  "Link": "https://www.blognone.com/node/82940", 
  "News": "Chrome 51 รองรับ Google Cast ในตัว ไม่ต้องติดตั้งส่วนขยายเพิ่มอีกต่อไป", 
  "Tags": [
    "Google Cast", 
    "Chrome", 
    "Hangout", 
    "Google"
  ], 
  "Time": "21:18"
}