{
  "By": "mk", 
  "Contents": " HPE โชว์เทคโนโลยีส่งข้อมูลด้วยแสงในงาน HPE Discover 2016 เมื่อต้นเดือนนี้ อุปกรณ์ต้นแบบใช้ชื่อว่า X1 เป็นชิปสำหรับเสียบลงเมนบอร์ด สามารถส่งข้อมูลได้สูงถึง 1.2Tbps (Thunderbolt 3 ในปัจจุบันทำได้ 40Gbps) อุปกรณ์ตัวนี้ยังอยู่ในขั้นทดสอบ สามารถส่งข้อมูลได้ไกล 30-50 เมตร นอกจากนี้ HP ยังมีเทคโนโลยีส่งข้อมูลด้วยแสงตัวอื่น ที่ส่งได้ไกลถึง 50 กิโลเมตร โดยลดอัตราการส่งข้อมูลลงมาเหลือ 200Gbps เป้าหมายหลักของ HPE คือนำเทคโนโลยีนี้ไปใช้กับเครื่องเซิร์ฟเวอร์ที่มีปัญหาคอขวดในการส่งข้อมูล ในอนาคตเราอาจเห็นระบบเซิร์ฟเวอร์ที่แยกกันระหว่างซีพียู หน่วยความจำ สตอเรจ โดยมีเทคโนโลยีส่งข้อมูลด้วยแสงเป็นตัวเชื่อม ที่มา - Computerworld, ภาพประกอบจาก HPE    ", 
  "Date": "21/June/2016", 
  "Image-Link": [
    "https://www.blognone.com/sites/default/files/styles/thumbnail/public/topics-images/hpesm_pri_grn_pos_rgb.png?itok=ABt7iJLe", 
    "https://farm8.staticflickr.com/7208/27478435971_194ff18a2a_b.jpg", 
    "/sites/all/themes/blognone42/images/linebutton.png"
  ], 
  "Link": "https://www.blognone.com/node/82500", 
  "News": "HPE โชว์เทคโนโลยีส่งข้อมูลด้วยแสงที่อัตราเร็ว 1.2Tbps", 
  "Tags": [
    "Hewlett Packard Enterprise", 
    "Hardware", 
    "Network"
  ], 
  "Time": "11:25"
}