{
  "By": "sunnywalker", 
  "Contents": " ฝรั่งเศสยังคงมีความเสี่ยงสูงที่จะเกิดเหตุก่อการร้าย และในช่วงฟุตบอลยูโร 2016 ก็คาดว่าจะมีคนเข้ามาดูกว่า 2 ล้านคน รัฐบาลฝรั่งเศสจึงสร้างแอพพลิเคชั่นเตือนการก่อการร้ายชื่อแอพฯว่า SAIP ย่อมาจาก 'system to alert and inform populations' การทำงานของ SAIP จะใช้ข้อมูลทางภูมิศาสตร์ในการแจ้งเตือนเมื่อเกิดเหตุการณ์พิเศษ เช่น มีวัตถุนิวเคลียร์ วัสดุที่ก่อให้เกิดอันตราย เป็นต้น ผู้ใช้ยังสามารถป้อนข้อมูลด้วยตัวเอง เช่น ข้อมูลรหัสไปรษณีย์ในพื้นที่ที่เพื่อนหรือญาติอาศัย เพื่อจะรับการแจ้งเตือนจากพื้นที่นั้นด้วย แอพฯยังเสนอวิธีการเอาตัวรอดจากเหตุการณ์เช่น หาที่ซ่อน อย่าเปิดเผยตัว รัฐบาลกำลังมองหาช่องทางที่จะให้ประชาชนเข้าถึงเฉพาะข้อมูลที่รัฐบาลอนุมัติอย่างเป็นทางการ เพื่อป้องกันการแพร่ข่าวลวง ในอนาคตจะอัพเดตแอพฯให้ครอบคลุมเหตุการณ์ธรรมชาติด้วย ซึ่งน่าจะดีกับฝรั่งเศสที่ประสบภาวะน้ำท่วมอยู่ในขณะนี้ SAIP ดาวน์โหลดได้ฟรีทั้งระบบ iOS และ Android  ที่มา - Venture Beat   ", 
  "Date": "9/June/2016", 
  "Image-Link": [
    "https://www.blognone.com/sites/default/files/styles/thumbnail/public/news-thumbnails/Untitled_12.png?itok=NF10pt2N", 
    "http://i.imgur.com/NUCl3uj.png", 
    "/sites/all/themes/blognone42/images/linebutton.png"
  ], 
  "Link": "https://www.blognone.com/node/82059", 
  "News": "รัฐบาลฝรั่งเศส ออกแอพเตือนภัยก่อการร้าย ช่วงฟุตบอลยูโร 2016", 
  "Tags": [
    "France", 
    "Terrorism", 
    "Football", 
    "Euro 2016"
  ], 
  "Time": "13:30"
}