{
  "By": "nismod", 
  "Contents": "
ปัญหาเรื่องประกันภัยรถยนต์ก็เป็นอีกหนึ่งประเด็นสำคัญที่สร้างความปวดเศียรให้กับบริษัทประกัน หากรถยนต์ไร้คนขับออกมาวิ่งบนถนนได้จริง แต่ล่าสุด Adrian Flux บริษัทประกันจากอังกฤษเข้าเกียร์เดินหน้าเป็นตัวอย่างในเรื่องนี้แล้ว จากการออกประกันรถที่ครอบคลุมฟีเจอร์ไร้คนขับ ซึ่งหมายรวมถึงระบบเบรคอัตโนมัติที่มีอยู่ในรถยนต์หลายรุ่นในปัจจุบันด้วย
ประกันนี้จะครอบคลุมตั้งแต่ความผิดพลาดทุกอย่างที่อาจส่งผลต่อซอฟต์แวร์ไร้คนขับ, ความผิดพลาดที่เกิดจากการขาดการติดต่อกับระบบ GPS หรือดาวเทียม, กรณีถูกแฮกเกอร์เข้าควบคุมรถ หรือแม้แต่กรณีที่เกี่ยวเนื่องกับความผิดพลาดของมนุษย์อย่างการลืมอัพเดตซอฟต์แวร์ และไม่สามารถเข้าควบคุมรถแทนในสถานการณ์ฉุกเฉินได้ก็ตาม
ทั้งนี้ Adrian Flux เป็นประกันภัยรถยนต์ที่มีกรมธรรม์ครอบคลุมเงื่อนไขที่บริษัทประกันเจ้าอื่นไม่มีอยู่แล้ว อย่างการคุ้มครองคนขับที่เป็นคนพิการ เป็นต้น
ที่มา - IEEE Spectrum
 ", 
  "Date": "14/June/2016", 
  "Image-Link": "https://www.blognone.com/sites/default/files/badges/badge-trainee-shadow.png", 
  "Link": "https://www.blognone.com/node/82250", 
  "News": "บริษัทประกันรถอังกฤษมีประกันครอบคลุมฟีเจอร์ไร้คนขับแล้ว", 
  "Tags": [
    "United Kingdom", 
    "Automobile", 
    "Self-Driving Car"
  ], 
  "Time": "20:06"
}