{
  "By": "mk", 
  "Contents": " Quake ถือเป็นเกม FPS อมตะอีกเกมที่สร้างโดย id Software วางขายครั้งแรกเมื่อวันที่ 22 มิถุนายน 1996 หรือเมื่อ 20 ปีที่แล้ว John Romero บิดาผู้ให้กำเนิดเกม Quake ฉลองโอกาสครบรอบ 20 ปีด้วยการเปิดเผยเอกสารเกี่ยวกับเกม Quake ที่เขียนขึ้นเมื่อปี 1995 (ช่วงก่อนเกมออก) เพื่อให้เห็นพัฒนาการของเกมระหว่างการพัฒนา รวมถึงภาพหน้าจอของเกมในช่วงนั้นด้วย (ความละเอียดเพียง 320x200 แต่ถือเป็นเกม FPS กราฟิก 3D เกมแรก) ส่วน John Carmack ผู้ให้กำเนิดเกม Quake อีกคน แม้ไม่ได้ออกมาฉลองอะไรเป็นพิเศษ แต่เขาก็ retweet ข้อความของคนอื่นที่มาร่วมฉลองด้วยเช่นกัน นอกจากนี้ ค่าย MachineGames ผู้พัฒนาเกม Wolfenstein: The New Order ก็ร่วมสนุกกับโอกาสนี้ โดยสร้างฉากใหม่ของเกม Quake ภาคแรกให้แฟนๆ ดาวน์โหลดไปเล่นกันฟรีๆ (ถ้ายังมีตัวเกมเก็บไว้ หรือถ้าไม่มีก็ซื้อได้บนร้านออนไลน์แบบ Steam) ที่มา - John Romero, Kotaku  Happy 20th to Quake @idsoftware! As a gift to the fans, we created a new episode of the game https://t.co/BTgju8tLuI pic.twitter.com/gHlxBgjcBU — machinegames (@machinegames) June 24, 2016   ", 
  "Date": "25/June/2016", 
  "Image-Link": [
    "https://www.blognone.com/sites/default/files/styles/thumbnail/public/news-thumbnails/Quake-icon.png?itok=FrsFEaEg", 
    "https://i.imgur.com/UblfNu7.jpg", 
    "/sites/all/themes/blognone42/images/linebutton.png"
  ], 
  "Link": "https://www.blognone.com/node/82656", 
  "News": "ฉลองครบ 20 ปี Quake เกมยิง FPS ที่ใช้กราฟิก 3D เกมแรก", 
  "Tags": [
    "Quake", 
    "Games", 
    "id Software"
  ], 
  "Time": "10:59"
}