{
  "By": "trinakub", 
  "Contents": " เกม Street Fighter V กำลังจะมีอัปเดตใหม่วันที่ 1 กรกฎาคม 2559 นี้ ซึ่งจะมีตัวละครใหม่เพิ่มเข้ามาด้วย นั่นคือ ยอดนักมวย Balrog โดยจะมาพร้อมกับ Ibuki นินจาสาว ที่ถูกเลื่อนมาจากเดือนพฤษภาคม และนอกจากตัวละครใหม่แล้วจะมีการอัปเดตโหมดใหม่เพิ่มเติมด้วย นั่นก็คือ Story Mode ที่แฟน ๆ รอคอย Balrog เป็นตัวละคร DLC ตัวที่ 4 แล้วจากบรรดา 6 ตัวละครด้วยกัน โดยตัวละครที่ปรากฏออกมาก่อนหน้าได้แก่ Alex, Guile และ Ibuki ส่วนตัวละครที่เหลืออยู่คือ Juri และ Urien ตัวละคร DLC ทั้งหมดจะสามารถปลดล็อกได้ด้วยการเล่นธรรมดา แต่ผู้เล่นเองก็สามารถเลือกที่จะใช้เงินจริงเพื่อปลดล็อกตัวละครได้เช่นกัน ที่มา – GameSpot   ", 
  "Date": "27/June/2016", 
  "Image-Link": [
    "https://www.blognone.com/sites/default/files/styles/thumbnail/public/topics-images/street-fighter-v.png?itok=0QMU6mcU", 
    "/sites/all/themes/blognone42/images/linebutton.png"
  ], 
  "Link": "https://www.blognone.com/node/82725", 
  "News": "Street Fighter V อัปเดตตัวละครใหม่ Balrog ยอดนักมวย", 
  "Tags": [
    "Street Fighter", 
    "Games", 
    "Capcom"
  ], 
  "Time": "22:46"
}