{
  "By": "trinakub", 
  "Contents": " หลังจากที่เคยมีข่าวออกมาว่า Konami จะทำซีรี่ส์เกม Metal Gear Solid ต่อ แต่เป็นแบบตู้ปาจิงโกะแทน วันที่ 1 มิถุนายน 2559 ทาง Konami ได้ปล่อยเทรลเลอร์เกมดังกล่าวออกมาแล้ว โดยนำเกม Metal Gear Solid 3: Snake Eater มา Remaster ใหม่ทั้งหมดโดยใช้ Fox Engine ซึ่งเป็นเอนจินเดียวกับที่ใช้สร้างเกม Metal Gear Solid V Trailer แสดงฉากเผชิญหน้าครั้งสุดท้ายระหว่าง Big Boss และ The Boss หลังจากข่าวลือที่ว่าทาง Konami พยายามไล่ผู้สร้างเกมซีรี่ส์ Metal Gear นาย Hideo Kojima ออกจากบริษัท ทำให้เกิดกระแสต่อต้านและมีเสียงวิพากษ์วิจารณ์จากแฟน ๆ ต่อการกระทำของบริษัท Konami เป็นจำนวนมาก และการนำซีรี่ส์เกมโปรดของเหล่าแฟน ๆ มาทำเป็นตู้ปาจิงโกะ ยิ่งส่งผลให้เกิดกระแสต่อต้านหนักขึ้นจนเป็นผลทำให้เกิดยอด dislike ดังที่เห็นในปัจจุบัน แต่การได้เห็นเกม Metal Gear ในแบบ Remaster แบบนี้แล้ว แฟน ๆ ยังพอมีความหวังอยู่บ้าง ว่าทาง Konami อาจจะนำเกมภาคเก่า ๆ มา Remaster ใหม่ด้วย Fox Engine และวางขายในรูปแบบตัวเกมธรรมดา ที่ไม่ใช่ตู้ปาจิงโกะ ที่มา - gamespot   ", 
  "Date": "3/June/2016", 
  "Image-Link": [
    "https://www.blognone.com/sites/default/files/styles/thumbnail/public/topics-images/metal-gear.png?itok=AlZNfZAG", 
    "/sites/all/themes/blognone42/images/linebutton.png"
  ], 
  "Link": "https://www.blognone.com/node/81833", 
  "News": "Konami ทำจริง! Metal Gear Solid 3 แบบ Remaster กลับมาอีกครั้งในรูปตู้ปาจิงโกะ", 
  "Tags": [
    "Metal Gear", 
    "Games", 
    "Pachinko", 
    "Konami"
  ], 
  "Time": "18:52"
}