{
  "By": "nismod", 
  "Contents": " จีนประกาศแผนการสร้างซูเปอร์คอมพิวเตอร์ระดับเอ็กซะฟลอป (10^18 FLOPS) โดยจะใช้เชื่อว่า Tienhe-3 ภายในปี 2020 ซึ่งเร็วกว่าแผนของสหรัฐที่ตั้งใจจะสร้างซูเปอร์คอมพิวเตอร์ระดับนี้ในปี 2023 อย่างไรก็ตาม Steve Conway ผู้เชี่ยวชาญจาก IDC ระบุถึงแม้ด้วยเทคโนโลยีในปัจจุบัน การสร้างซูเปอร์คอมพิวเตอร์ระดับเอ็กซะฟลอปอาจได้ แต่อุปสรรคยังคงเป็นเรื่องของพลังงานที่อาจต้องใช้ถึง 20-30 เมกะวัตต์ รวมไปถึงความสามารถของซูเปอร์คอมพิวเตอร์ในการใช้งานจริง ที่ต้องประมวลผลระดับเอ็กซะฟลอปอย่างต่อเนื่อง ที่น่าจะทำได้จริงในช่วงปี 2022-2024 ซึ่งเป็นช่วงเวลาที่สหรัฐตั้งไว้มากกว่า ที่มา - ComputerWorld   ", 
  "Date": "17/June/2016", 
  "Image-Link": [
    "https://www.blognone.com/sites/default/files/styles/thumbnail/public/topics-images/china.png?itok=DbpIQN62", 
    "/sites/all/themes/blognone42/images/linebutton.png"
  ], 
  "Link": "https://www.blognone.com/node/82369", 
  "News": "จีนประกาศสร้าง Tienhe-3 ซูเปอร์คอมพิวเตอร์ระดับเอ็กซะฟลอปภายในปี 2020", 
  "Tags": [
    "China", 
    "High Performance Computing", 
    "Supercomputer"
  ], 
  "Time": "11:41"
}