{
  "By": "nrad6949", 
  "Contents": " เมื่อวันพฤหัสที่ผ่านมา IBM และ Bausch + Lomb บริษัทด้านสุขภาพสายตา ประกาศร่วมกันสร้างแอพสำหรับจักษุแพทย์เพื่อใช้งานในการผ่าตัดต้อกระจกโดยเฉพาะ แอพดังกล่าวนี้จะทำให้ข้อมูลอาการป่วยของคนไข้ ขึ้นมาอยู่บนระบบอิเล็กทรอนิกส์และสามารถแสดงผลจากหน้าจอและแอพที่แพทย์ใช้ระหว่างการผ่าตัด จากเดิมที่ใช้การเขียนหรือพิมพ์ลงกระดาษ ทำให้ไม่สะดวก รวมไปถึงให้คำแนะนำและวางแผนการผ่าตัดต้อกระจกด้วย แอพจะเก็บข้อมูลบน Bluemix ระบบคลาวด์ของ IBM และใช้ทีม MobileFirst for iOS จาก IBM ในการพัฒนา (ดังนั้นใช้ได้เฉพาะ iOS) โดยจะเริ่มทดลองใช้งานจริงในช่วงปลายปีนี้ ที่มา - IBM    ", 
  "Date": "7/May/2016", 
  "Image-Link": [
    "https://www.blognone.com/sites/default/files/styles/thumbnail/public/topics-images/ibm300.png?itok=QToF6k8H", 
    "https://i.imgur.com/4LHF9dn.jpg", 
    "/sites/all/themes/blognone42/images/linebutton.png"
  ], 
  "Link": "https://www.blognone.com/node/80712", 
  "News": "IBM และ Bausch + Lomb ประกาศสร้างแอพสำหรับจักษุแพทย์ เพื่อการผ่าตัดต้อกระจก", 
  "Tags": [
    "IBM", 
    "Health", 
    "Medical", 
    "iOS"
  ], 
  "Time": "14:20"
}