{
  "By": "nrad6949", 
  "Contents": " เมื่อวานนี้ IBM แถลงเปิดตัว Watson for Cyber Security บริการใหม่ล่าสุดที่เป็นความร่วมมือระหว่างทีมงาน Watson และ IBM Security สำหรับด้านการวิเคราะห์แนวโน้มและความปลอดภัยทางไซเบอร์อย่างเป็นทางการ IBM ระบุว่า Watson for Cyber Security จะทำการวิเคราะห์ข้อมูลที่หลากหลายเพื่อวิเคราะห์หาแนวโน้มความปลอดภัยด้านไซเบอร์ที่กำลังเกิดขึ้นใหม่ รวมถึงให้คำแนะนำว่าจะมีแนวทางในการป้องกันอะไรได้บ้างสำหรับองค์กรต่างๆ ฐานข้อมูลหลักจะมาจาก X-Force ที่เป็นระบบด้านความปลอดภัยของทีม IBM Security ผสานเข้ากับข้อมูลจากแหล่งอื่น เช่น รายงานข่าว การแจ้งเตือนจากองค์การต่างๆ ซึ่งทำให้การวิเคราะห์ หาแนวโน้ม และการป้องกันภัยทางไซเบอร์แบบใหม่ๆ ทำได้ง่ายขึ้นกว่าเดิม บริษัทยังระบุเพิ่มเติมว่าบริการนี้จะร่วมมือกับสถานศึกษาชั้นนำอีก 8 แห่ง ของสหรัฐอเมริกาและแคนาดา ในการพัฒนาระบบนี้ด้วยตั้งแต่ช่วงฤดูใบไม้ร่วงของปีนี้ และจะมีศูนย์ความร่วมมือด้านนี้ที่เรียกว่า Accelerated Cognitive Cybersecurity Laboratory (ACCL) ตั้งอยู่ที่ University of Maryland, Baltimore County เป็นการเฉพาะ ที่มา - IBM (1,2)    ", 
  "Date": "11/May/2016", 
  "Image-Link": [
    "https://www.blognone.com/sites/default/files/styles/thumbnail/public/topics-images/IBM_Watson.png?itok=w2Xdmzx7", 
    "https://farm4.staticflickr.com/3943/15471480085_5b4b8a6d8e_z.jpg", 
    "/sites/all/themes/blognone42/images/linebutton.png"
  ], 
  "Link": "https://www.blognone.com/node/80859", 
  "News": "IBM เปิดตัว Watson for Cyber Security ช่วยวิเคราะห์แนวโน้มภัยทางไซเบอร์", 
  "Tags": [
    "Watson", 
    "IBM", 
    "Cybersecurity"
  ], 
  "Time": "22:44"
}