{
  "By": "vvkungx", 
  "Contents": " แอพแต่งภาพบนมือถือ Snapseed อัพเดตฟีเจอร์ใหม่ ผู้ใช้สามารถนำการปรับแต่งภาพก่อนหน้ามาใช้กับภาพอื่นๆ ได้แล้ว การใช้งานคือเมื่อเราปรับแต่งและบันทึกภาพนั้นๆ ลงมือถือแล้ว เมื่อต้องการใช้การปรับแต่งนี้กับภาพอื่น ให้เปิดภาพใหม่ขึ้นมา จากนั้นแตะปุ่มเมนู เลือก \"Apply Last Edits\" แอพจะนำเอฟเฟกต์การปรับแต่งภาพก่อนหน้าทั้งหมดมาใช้กับภาพปัจจุบันให้ทันที และผู้ใช้สามารถเลือกปรับแต่งหรือลบเอฟเฟกต์ที่ต้องการเพิ่มเติมได้ สามารถใช้งานฟีเจอร์ใหม่นี้ได้แล้ววันนี้โดยอัพเดตแอพ Snapseed ผ่านทาง Play Store และ App Store ครับ ที่มา : AndroidHeadlines   ", 
  "Date": "26/May/2016", 
  "Image-Link": [
    "https://www.blognone.com/sites/default/files/styles/thumbnail/public/topics-images/snapseed.png?itok=vk4Z0D7G", 
    "/sites/all/themes/blognone42/images/linebutton.png"
  ], 
  "Link": "https://www.blognone.com/node/81477", 
  "News": "แอพ Snapseed เพิ่มฟีเจอร์เลือกการปรับแต่งภาพตามการปรับแต่งของภาพก่อนหน้าได้", 
  "Tags": [
    "Snapseed", 
    "Google", 
    "Image Editing"
  ], 
  "Time": "23:53"
}