{
  "By": "twometre", 
  "Contents": " แค่มีแต่เสียงก็จินตนาการบรรยากาศได้ เว็บไซต์หนังผู้ใหญ่อย่าง Pornhub เปิดหมวดหนังใหม่ชื่อ \"described video\" ที่มีแต่เสียงบรรยายฉากแต่ละฉากจากนักพากย์เสียงมืออาชีพ สำหรับผู้ใช้ที่มีความบกพร่องทางการมองเห็นครับ มีหนังทุกแบบตอบรสนิยมทางเพศแบบครอบคลุม ระบุหมดว่าตัวเอกในเรื่องแต่งกายอย่างไร อยู่ในฉากแบบไหน พากย์คลอไปกับเสียงประกอบในหนัง Pornhub มีตัวเลขระบุว่า มีผู้เข้าใช้กว่าวันละ 60 ล้านคน และเคยมีแคมเปญรณรงค์ยับยั้งโรคมะเร็งเต้านมด้วย เป็นประเด็นเสริมในข่าวครับ ที่มา - The Guardian   ", 
  "Date": "22/June/2016", 
  "Image-Link": [
    "https://www.blognone.com/sites/default/files/styles/thumbnail/public/topics-images/pornhub.png?itok=O-cDze6r", 
    "/sites/all/themes/blognone42/images/linebutton.png"
  ], 
  "Link": "https://www.blognone.com/node/82528", 
  "News": "Pornhub เปิดหมวดหนังผู้ใหญ่แบบ \"เล่นเฉพาะเสียง\" สำหรับผู้บกพร่องทางสายตา", 
  "Tags": [
    "Pornhub", 
    "Porn"
  ], 
  "Time": "06:42"
}