{
  "By": "ตะโร่งโต้ง", 
  "Contents": "
Elizabeth Holmes ซีอีโอสาวผู้ก่อตั้ง Theranos หนึ่งใน unicorn (ซึ่งหมายถึงบริษัทที่ระดมเงินทุนได้ในระดับ 1 พันล้านดอลลาร์) ที่กำลังตกที่นั่งลำบากในขณะนี้ ผู้ที่ครั้งหนึ่งเคยได้รับการประเมินจาก Forbes ว่ามีสินทรัพย์มากถึง 4.5 พันล้านดอลลาร์ มาตอนนี้ Forbes คิดว่าเธอมีแค่ 0 ดอลลาร์เท่านั้น
Forbes ที่ว่านี้ก็คือสื่อสายการเงินจากสหรัฐอเมริกาที่หลายคนรู้จักและคุ้นหูกันดี โดยเฉพาะในบ้านเราที่มักจะได้ยินข่าวการจัดอันดับมหาเศรษฐีจาก Forbes ให้ได้ยินอยู่บ่อยครั้ง และในครั้งนี้ Forbes ได้พูดคุยกับนักลงทุนและผู้เชี่ยวชาญในอุตสาหกรรมวงการเดียวกันกับ Theranos หลายรายด้วยกันจนนำไปสู่ข้อสรุปที่ว่าแท้จริงแล้วมูลค่าสินทรัพย์ของซีอีโอสาวแห่ง Theranos นั้นก็คือไม่มีมูลค่าเลย
การประเมินมูลค่าในตัวซีอีโอสาวนั้น Forbes เริ่มจากการประเมินมูลค่าของ Theranos ก่อน ถึงแม้ว่าหลังการระดมทุนสำเร็จได้เงินไป 400 ล้านดอลลาร์เมื่อเกือบ 2 ปีก่อนจะทำให้ Theranos ได้รับการประเมินว่ามีมูลค่าสูงถึง 9 พันล้านดอลลาร์ แต่ Forbes คิดว่าโดยแท้จริงแล้ว Theranos น่าจะมีมูลค่าเพียงแค่ 800 ล้านดอลลาร์เท่านั้น หาใช่ 9 พันล้านดอลลาร์ไม่ (แปลง่ายๆ คือ Forbes คิดว่าถ้า Theranos เจ๊งแล้วมีคนจะซื้อกิจการต่อก็คงซื้อต่อในราคาประมาณนี้)
ตัวเลข 800 ล้านดอลลาร์ของ Forbes นั้นมาจากการตีมูลค่าทรัพย์สินทางปัญญาและเงินที่ระดมทุนได้ 724 ล้านดอลลาร์ (อ้างอิงจากการประเมินของ VC Experts บริษัทลงทุนในธุรกิจงานวิจัย) รวมกับมูลค่าของบริษัทอีกส่วนหนึ่งที่ได้จากยอดขายผลิตภัณฑ์ต่างๆ ซึ่งเป็นข้อมูลที่ Forbes ได้รับมาจากคนวงในอีกต่อหนึ่ง
เนื่องจากตัว Holmes เองนั้นถือหุ้นทุนอยู่ครึ่งหนึ่งของมูลค่า Theranos หากกิจการเกิดล่มจมจนต้องขายต่อกันจริงที่ราคา 800 ล้านดอลลาร์ตามที่มีการประเมิน เงิน 800 ล้านดอลลาร์นั้นจะถูกแบ่งชำระให้แก่นักลงทุนผู้ถือหุ้นบุริมสิทธิ์ก่อน นั่นย่อมหมายความว่าในตัวเงิน 800 ล้านดอลลาร์ที่ว่านี้ Holmes จะไม่ได้ส่วนแบ่งเลยแม้แต่แดงเดียว
ที่มาที่ไปของการที่ Forbes ประเมินมูลค่าของ Theranos เปลี่ยนแปลงไปในทางดำดิ่งจนหัวทิ่มจาก 9 พันล้านดอลลาร์สู่ 800 ล้านดอลลาร์นั้น มีดังนี้

หลายอย่างดูคลุมเครือและเป็นความลับ ไม่มีหลักฐานที่หนักแน่นชวนให้เชื่อได้เลยว่าระบบและเทคโนโลยีนั้นคือของจริง ตัวจริง นั่นทำให้เป็นเรื่องยากที่จะทำให้คนมั่นใจยอมจ่ายเงินเพื่อใช้ Edison เครื่องตรวจเลือดของ Theranos
คำมั่นที่เลื่อนลอย Theranos แถลงว่าได้รับเอกสารอนุมัติเรื่องการตรวจหาไวรัสโรคเริมจาก FDA แล้ว และกำลังจะได้รับเอกสารอนุมัติการใช้เครื่องตรวจสำหรับการตรวจเลือดเพื่อผลอื่นอีกกว่า 100 รายการ แต่ทว่าสิ่งที่เกิดขึ้นคือ Theranos ไม่อาจทำได้อย่างที่อ้าง แถมยังถูก FDA ตรวจประเมินและสั่งห้ามใช้เครื่องเก็บเลือดเพื่อทดสอบจากปลายนิ้วด้วย ด้วยสภาพเช่นนี้ย่อมทำให้สถานภาพบริษัทดูสั่นคลอน
ตลาดของ Theranos อาจไม่เหลืออีกแล้ว เพราะไม่อาจสร้างความเชื่อมั่นให้แก่กลุ่มผู้ใช้ ทำให้คู่แข่งอย่าง Quest Diagnostics หรือ Laboratory Corp. แย่งลูกค้าสำหรับบริการตรวจเลือดไปเรื่อยๆ นั่นหมายถึงต่อให้ Theranos ผ่านวิบากกรรมการตรวจสอบรอบด้านจากหน่วยงานรัฐและทำธุรกิจต่อไปได้ ก็อาจดึงลูกค้ากลับมาไม่ทันเสียแล้ว

เรื่องนี้คงต้องตามดูกันอีกยาว อย่างช้าที่สุดในเดือนสิงหาคมนี้ Holmes จะต้องปรากฎตัวอีกครั้งในงานประชุมประจำปีของ AACC (สมาพันธ์อุตสาหกรรมเคมีเพื่อการแพทย์แห่งอเมริกา)
ที่มา - Forbes

 ", 
  "Date": "1/June/2016", 
  "Image-Link": "https://www.blognone.com/sites/default/files/badges/badge-writer.png", 
  "Link": "https://www.blognone.com/node/81718", 
  "News": "Forbes ประเมินซีอีโอ Theranos มีสินทรัพย์แค่ 0 ดอลลาร์", 
  "Tags": [
    "Theranos", 
    "Forbes"
  ], 
  "Time": "22:15"
}