{
  "By": "nutmos", 
  "Contents": " บริการ Samsung Pay ซึ่งเป็นบริการจ่ายเงินของ Samsung นั้นยังคงต้องสู้กับคู่แข่งอย่าง Apple Pay และ Android Pay ต่อไป โดยล่าสุดทาง Samsung ได้ประกาศว่าทางบริษัทจะไม่เก็บเงินจากการจ่ายเงินของลูกค้าผ่านคู่ค้าด้านการเงิน ปัจจุบัน Apple Pay นั้นเก็บค่าบริการ 15 เซนต์ต่อ 100 ดอลลาร์ในการใช้จ่ายผ่านบริการ ซึ่งฝั่ง Samsung นั้นเลือกที่จะไม่เก็บเลย โดย Samsung คาดหวังว่าจะใช้บริการ Samsung Pay เป็นหนึ่งในตัวช่วยดันยอดขายอุปกรณ์พกพาของตัวเอง (แม้ว่าปัจจุบัน Samsung Pay จะใช้ได้บนมือถือและแท็บเล็ต Samsung Galaxy รุ่นท็อปเพียงไม่กี่รุ่นเท่านั้น) ฉะนั้น Samsung จึงต้องการให้ผู้ใช้ได้ประสบการณ์ที่ดีกับมือถือที่ผู้ใช้มีให้ได้มากที่สุด จึงเลือกที่จะไม่เก็บเงินจากบริการ Samsung Pay เพื่อให้บริการได้รับความนิยมและแพร่หลายมากขึ้น ที่มา - Android Community, Reuters    ", 
  "Date": "24/June/2016", 
  "Image-Link": [
    "https://www.blognone.com/sites/default/files/styles/thumbnail/public/topics-images/samsung-pay.png?itok=dKJ-cnrN", 
    "http://i.cubeupload.com/TwgsI0.jpg", 
    "/sites/all/themes/blognone42/images/linebutton.png"
  ], 
  "Link": "https://www.blognone.com/node/82612", 
  "News": "Samsung จะไม่เก็บเงินจากการใช้จ่ายผ่าน Samsung Pay ผ่านผู้ให้บริการ", 
  "Tags": [
    "Samsung Pay", 
    "Mobile Payment"
  ], 
  "Time": "08:24"
}