{
  "By": "tanersirakorn", 
  "Contents": " หลังจากบริการถ่ายทอดสดผ่านสังคมออนไลน์บนโทรศัพท์มือถือได้รับความนิยมอย่างรวดเร็ว (เช่น Facebook Live และ Periscope ของ Twitter ที่เพิ่งถูกใช้ถ่ายทอดสดการประชุมสภาของสหรัฐฯ) ล่าสุด YouTube ประกาศเตรียมเปิดให้ถ่ายทอดสดขึ้น YouTube ผ่านแอปพลิเคชั่นบนโทรศัพท์มือถือของ YouTube เอง YouTube กล่าวว่าการเปิดให้ถ่ายทอดสดผ่านแอปบนโทรศัพท์มือถือของ YouTube จะช่วยให้การถ่ายทอดสดทำได้ง่ายขึ้น เพียงเปิดแอป เลือกถ่ายทอดสด เลือกภาพประกอบวิดีโอ (Thumbnail) ก็พร้อมถ่ายทอดสดได้เลย ในเบื้องต้น YouTube Live บนโทรศัพท์มือถือเปิดให้ใช้บริการกับ Channel บางรายแล้ว ได้แก่ The Young Turks, AIB, Platica Polinesa, SacconeJolys และ Alex Wassabi ที่มา: YouTube Creator Blog    ", 
  "Date": "24/June/2016", 
  "Image-Link": [
    "https://www.blognone.com/sites/default/files/styles/thumbnail/public/topics-images/youtube300.png?itok=YF7mGiqj", 
    "https://i.imgur.com/ytVwwfX.jpg", 
    "/sites/all/themes/blognone42/images/linebutton.png"
  ], 
  "Link": "https://www.blognone.com/node/82615", 
  "News": "YouTube เตรียมเปิดให้ถ่ายทอดสดผ่านแอปมือถือ", 
  "Tags": [
    "YouTube", 
    "Live Streaming"
  ], 
  "Time": "09:09"
}