{
  "By": "nrad6949", 
  "Contents": " เว็บไซต์ข่าว WinBeta รายงานข่าวโดยอ้างอิงทวิต @LumiaSoporte ซึ่งเป็นทวิตสนับสนุนผู้ใช้ Lumia เป็นภาษาสเปนของ Microsoft ระบุว่าบริษัทกำลังทำงานกับ Snapchat เพื่อนำแอพลง Windows 10 Mobile อยู่ในตอนนี้ ทวิตดังกล่าว (ดูได้ท้ายข่าว) เป็นทวิตที่ตอบคำถามผู้ใช้ที่เขียนเข้าไปถามว่าทำไมถึงไม่สามารถหา Snapchat บน Windows 10 Mobile ได้ ซึ่ง @LumiaSoporte ตอบกลับว่ากำลังทำงานร่วมกับทาง Snapchat อยู่ และตัวแอพจะขึ้น Store ในเร็วๆ นี้ หลังจากทวิตนั้นก็มีผู้ใช้อีกรายส่งข้อความตรงไปถาม ก็ได้คำตอบเดียวกัน อย่างไรก็ตาม ข่าวนี้ยังไม่ได้รับการยืนยันจากฝ่ายบริหารทั้งสองบริษัทแต่อย่างใด ที่มา - WinBeta @GalnRodolfo ¡Pronto llegara a tu Windows Phone! Ya estamos trabajando con nuestros amigos de SnapChat para traerla lo antes posible. ^_^ — Lumia Soporte (@LumiaSoporte) June 23, 2016   ", 
  "Date": "27/June/2016", 
  "Image-Link": [
    "https://www.blognone.com/sites/default/files/styles/thumbnail/public/topics-images/snapchat.png?itok=JyM_TIkc", 
    "/sites/all/themes/blognone42/images/linebutton.png"
  ], 
  "Link": "https://www.blognone.com/node/82691", 
  "News": "[ไม่ยืนยัน] Microsoft ระบุกำลังทำงานร่วมกับ Snapchat ทำแอพลง Windows 10 Mobile", 
  "Tags": [
    "Snapchat", 
    "Microsoft", 
    "Windows 10 Mobile"
  ], 
  "Time": "09:20"
}