{
  "By": "mk", 
  "Contents": " Dell ตกลงขายธุรกิจฝั่งซอฟต์แวร์ Dell Software Group ให้กับบริษัทลงทุนสองรายคือ Francisco Partners และ Elliott Management โดยยังไม่เปิดเผยมูลค่า (ข่าววงในบอกว่าประมาณ 2 พันล้านดอลลาร์) หนึ่งในบริษัทลูกของ Dell ที่ขายออกไปคือ Quest Software และ SonicWall ที่ Dell ซื้อมาในปี 2012 แต่ก็ยังมีซอฟต์แวร์อื่นๆ อีกเป็นจำนวนมาก ที่เน้นการให้บริการกับลูกค้าองค์กรเป็นหลัก ตอนนี้ยังไม่มีข้อมูลว่า Dell Software จะใช้ชื่อเดิมหรือเปลี่ยนเป็นชื่อใหม่ครับ เหตุผลที่ Dell ขายธุรกิจ Dell Software Group ออกไป ก็เพราะต้องการระดมเงินสดเพื่อซื้อกิจการครั้งประวัติศาสตร์ EMC มูลค่า 67 พันล้านดอลลาร์ ก่อนหน้านี้ Dell เพิ่งขายธุรกิจบริการไอทีให้ NTT ของญี่ปุ่น ได้เงินมา 3 พันล้านดอลลาร์ ที่มา - Francisco Partners, Data Center Knowledge, ภาพจาก Dell    ", 
  "Date": "21/June/2016", 
  "Image-Link": [
    "https://www.blognone.com/sites/default/files/styles/thumbnail/public/topics-images/dell.png?itok=HgIBw4M6", 
    "https://c5.staticflickr.com/8/7775/26308492444_cbbb269426_z.jpg", 
    "/sites/all/themes/blognone42/images/linebutton.png"
  ], 
  "Link": "https://www.blognone.com/node/82497", 
  "News": "ระดมเงินสด Dell ขายธุรกิจซอฟต์แวร์ให้บริษัทลงทุน Francisco Partners และ Elliott Management", 
  "Tags": [
    "Dell", 
    "Acquisition"
  ], 
  "Time": "10:57"
}