{
  "By": "sunnywalker", 
  "Contents": " ในงาน Apple Summer Camp ที่จะมีขึ้นในเดือนกรกฎาคมนี้ Apple บรรจุ 2 หลักสูตรเข้ามาใหม่คือ การเขียนโค้ด และการเขียนโปรแกรมควบคุมหุ่นยนต์ เด็กๆ จะได้เล่นกับหุ่นยนต์ Sphero ด้วย เพิ่มเติมจากหลักสูตรเดิมที่มีอยู่แล้ว 2 หลักสูตร คือ การใช้ iMovie เรียนรู้การทำหนัง และ iBooks เรียนการทำหนังสือในรูปแบบ interactive แต่ครั้งนี้จะไม่ได้ใช้โปรแกรม Swift Playgrounds แอพสอนเขียนโปรแกรมภาษา Swift บน iPad ที่เปิดตัวในงาน WWDC เพราะเหมาะกับเด็กอายุ 12 ปีขึ้นไป ในขณะที่เด็กๆ ที่มาร่วมมีอายุระหว่าง 8 - 12 ปี Apple Summer Camp เป็นโครงการให้เด็กๆ มาเรียนรู้เทคโนโลยีโดยใช้โปรแกรม ซอฟต์แวร์ ฮาร์ดแวร์ของ Apple เข้าร่วมฟรี จัด 3 วัน ในสหรัฐฯ อังกฤษ แคนาดา และจีน  ภาพจาก Apple ที่มา - CNET   ", 
  "Date": "22/June/2016", 
  "Image-Link": [
    "https://www.blognone.com/sites/default/files/styles/thumbnail/public/topics-images/apple.png?itok=dltl_31c", 
    "http://i.imgur.com/88rYMOO.png", 
    "/sites/all/themes/blognone42/images/linebutton.png"
  ], 
  "Link": "https://www.blognone.com/node/82553", 
  "News": "Apple Summer Camp เพิ่มหลักสูตรเขียนโค้ด และเขียนโปรแกรมบังคับหุ่นยนต์", 
  "Tags": [
    "Apple", 
    "Education", 
    "Robotics"
  ], 
  "Time": "16:35"
}