{
  "By": "sunnywalker", 
  "Contents": " Tencent เจ้าของ Wechat และผู้ผลิตด้านไอทีรายใหญ่ของจีน ซื้อบริษัท Supercell เจ้าของเกมดังอย่าง Clash of Clan และ Hay Day  มูลค่าดีลอาจแตะ 10.2 พันล้านดอลลาร์ มูลค่าดีลจะปิดยอดภายในเดือนกันยายนนี้ Tencent  จะได้รับส่วนแบ่ง 73% จาก SoftBank บริษัทไอทีญี่ปุ่นซึ่งเป็นผู้ถือหุ้นรายใหญ่ของ Supercell Tencent จะไม่ควบรวมกิจการมาเป็นหนึ่งเดียว ทำให้ Supercell ยังคงมีอิสระในหารบริหารจัดการตัวเอง แนวทางการผลิตยังคงขึ้นอยู่กับสำนักงานใหญ่ที่ฟินแลนด์ ในขณะเดียวกัน Supercell ยังสามารถเข้าถึงเทคโนโลยี ความเชียวชาญของ Tencent ได้ และระหว่างการดำเนินการทั้งคู่จะเดินหน้าขับเคลื่อนเขย่าตลาดเกมในจีน  ภาพจาก Facebook Clash of Clan ที่มา - Bussiness Wire   ", 
  "Date": "21/June/2016", 
  "Image-Link": [
    "https://www.blognone.com/sites/default/files/styles/thumbnail/public/topics-images/tencent.png?itok=yAFj26PS", 
    "http://i.imgur.com/5kWA0AL.jpg", 
    "/sites/all/themes/blognone42/images/linebutton.png"
  ], 
  "Link": "https://www.blognone.com/node/82522", 
  "News": "Tencent ซื้อบริษัท Supercell ผู้ผลิต Clash of Clan มูลค่าอาจสูงถึง 10.2 พันล้านดอลลาร์", 
  "Tags": [
    "Tencent", 
    "Supercell", 
    "SoftBank", 
    "Games", 
    "Acquisition"
  ], 
  "Time": "19:47"
}