{
  "By": "trinakub", 
  "Contents": " ณ งาน E3 เมื่อปี 2014 ทาง Criterion Games (ผลงานที่โด่งดังคือซีรี่ส์เกม Burnout และ Need for Speed) ประกาศโปรเจคเกมที่อาจเรียกได้ว่าเป็นภาคต่อของเกมขับรถชนแหลกลาญซี่รี่ส์ Burnout เลยก็ว่าได้ นั้นก็คือเกม Beyond Cars ที่นำเสนอรูปแบบการเล่นในลักษณะเดียวกับเกม Burnout แต่ต่างกันตรงที่จะไม่ได้มียานพาหนะแค่รถอีกต่อไป แต่จะมีเฮลิคอปเตอร์ เจ็ทสกี เรือยนต์ และยานพาหนะอื่น ๆ เพิ่มเข้ามาให้เราได้ขับด้วย แต่ล่าสุดนี้ทาง EA ในฐานะผู้จัดจำหน่าย ประกาศข่าวร้าย ว่ายกเลิกโปรเจคเกม Beyond Cars ซะแล้ว โดยทีมงาน Criterion Games จะถูกโยกย้ายไปช่วยพัฒนาเกม Star Wars Battlefront: X-Wing VR Mission สำหรับเครื่อง PlayStation VR ร่วมกับ EA DICE แทน ถือว่าเป็นเรื่องที่น่าเสียดายอย่างยิ่ง เพราะว่าเกม Beyond Cars เอง ก็เป็นหนึ่งในที่จับตาของแฟน ๆ ของเกม Burnout และ Extreme Sport จำนวนมากเกมหนึ่ง ที่มา – GameSpot   ", 
  "Date": "22/June/2016", 
  "Image-Link": [
    "https://www.blognone.com/sites/default/files/styles/thumbnail/public/news-thumbnails/Criterion%20games%20Logo.png?itok=1YkiLSV5", 
    "/sites/all/themes/blognone42/images/linebutton.png"
  ], 
  "Link": "https://www.blognone.com/node/82558", 
  "News": "Criterion Games ประกาศยกเลิกโปรเจคเกม Beyond Cars", 
  "Tags": [
    "Criterion Games", 
    "Beyond Cars", 
    "Games"
  ], 
  "Time": "19:48"
}