{
  "By": "nutmos", 
  "Contents": " Apple ได้ปล่อย Safari 10 เวอร์ชันทดสอบสำหรับนักพัฒนาบน OS X Yosemite และ OS X El Capitan แล้ว โดยสามารถดาวน์โหลดได้จาก Apple Developer Center สำหรับ Safari 10 บน Yosemite และ El Capitan นี้จะไม่ได้มีฟีเจอร์ทั้งหมดเหมือน Safari 10 บน macOS Sierra อย่าง Apple Pay บนเว็บ, Picture in Picture แต่ก็มีฟีเจอร์หลัก ๆ บางอย่าง เช่น  Bookmarks และ History แบบใหม่ Bookmark sidebar ใหม่ เพิ่มระบบดับเบิ้ลคลิกเพื่อเปิดเฉพาะโฟลเดอร์นั้น ซูมเฉพาะไซต์ ปรับปรุง Reader ฟีเจอร์เกี่ยวกับ HTML5 และปลั๊กอินเก่า เปิดแท็บที่เพิ่งปิดได้ Web Inspector Timelines Tab ดีบั๊กโดยใช้ Web Inspector ได้  ซึ่งนอกจากนี้ถ้าผู้ใช้ติดตั้ง Safari 10 บน El Capitan จะรองรับส่วนขยายของนักพัฒนาภายนอกและสามารถดาวน์โหลดผ่าน Mac App Store ได้, Spotlight suggestions สำหรับ Top Hits ฯลฯ ซึ่งฟีเจอร์เหล่านี้จะไม่สามารถใช้ได้บน Yosemite ที่มา - MacRumors   ", 
  "Date": "24/June/2016", 
  "Image-Link": [
    "https://www.blognone.com/sites/default/files/styles/thumbnail/public/topics-images/safari.png?itok=xg_a7YpI", 
    "/sites/all/themes/blognone42/images/linebutton.png"
  ], 
  "Link": "https://www.blognone.com/node/82644", 
  "News": "Apple ออก Safari 10 เบต้าสำหรับ OS X Yosemite และ El Capitan แล้ว", 
  "Tags": [
    "Safari", 
    "Apple", 
    "macOS"
  ], 
  "Time": "22:09"
}