{
  "By": "mk", 
  "Contents": " เราเห็นหนังที่ดัดแปลงจากเกมกันมาเยอะ แต่เกมยอดฮิตที่คงไม่มีใครนึกถึงว่าจะกลายเป็นหนังได้คือ Tetris ซึ่งกำลังจะเป็นหนังแบบไตรภาคซะด้วย โครงการ Tetris เวอร์ชันภาพยนตร์ ริเริ่มโดย Lawrence Kasanoff โปรดิวเซอร์หนังเรื่อง Mortal Kombat เจ้าของบริษัท Threshold Entertainment Group โดยมี Paul W.S. Anderson ผู้กำกับหนังซีรีส์ Resident Evil หลายภาคมาร่วมทีม สถานะของหนังตอนนี้กำลังคัดเลือกนักแสดงอยู่ และอาจมีบางฉากถ่ายทำในจีนเพื่อเจาะตลาดแฟนหนังชาวจีนด้วย เนื้อเรื่องของ Tetris ยังไม่เปิดเผย บอกเพียงว่าเป็นหนังแนวไซไฟ มีธีมหลักของเรื่องคือการสร้าง \"ระเบียบ\" ขึ้นมาจากความโกลาหล (creating order out of chaos) และมีเนื้อเรื่องยิ่งใหญ่มากจนต้องแบ่งทำเป็นหนังถึง 3 ภาค ที่มา - Empire    ", 
  "Date": "28/June/2016", 
  "Image-Link": [
    "https://www.blognone.com/sites/default/files/styles/thumbnail/public/topics-images/tetris.png?itok=cVp8D_P-", 
    "https://i.imgur.com/CNy1kUo.jpg", 
    "/sites/all/themes/blognone42/images/linebutton.png"
  ], 
  "Link": "https://www.blognone.com/node/82781", 
  "News": "เกม Tetris กำลังถูกดัดแปลงเป็นหนัง แถมทำ 3 ภาครวด", 
  "Tags": [
    "Tetris", 
    "Games", 
    "Movie"
  ], 
  "Time": "22:45"
}