{
  "By": "vvkungx", 
  "Contents": " Twitter อนุญาตให้ผู้ใช้สามารถอัปโหลดคลิปความยาวไม่เกิน 140 วินาที (จากแต่เดิม 30 วินาที) แนบกับทวีตหรืออัปโหลดลงแอพ Vine ได้แล้วและยังเพิ่มฟีเจอร์แนะนำคลิปอื่นๆ ที่เกี่ยวข้องบนแอพ Twitter อีกด้วย ก่อนหน้านี้ผู้ใช้สามารถอัปโหลดคลิปลง Twitter ได้ไม่เกิน 30 วินาทีเท่านั้น ล่าสุดได้อนุญาตให้ผู้ใช้ทั่วไปสามารถอัปโหลดคลิปได้ไม่เกิน 140 วินาทีด้วยกัน สามารถใช้งานได้แล้วผ่านแอพ Twitter for iOS, Twitter for Android, และ twitter.com ส่วน Twitter for Mac และ Twitter for Windows รอการอัพเดตในไม่ช้า และ Twitter ยังอนุญาตให้ผู้ใช้งานแอพ Vine บางกลุ่ม อัปโหลดคลิปความยาวไม่เกิน 140 วินาทีลงไปใน Vine ได้เช่นกัน โดยยังแสดงคลิปวนต่อเนื่อง 6 วินาทีบน Feed ของผู้ใช้อยู่เช่นเดิม แต่ผู้ใช้สามารถดูคลิปนั้นๆ ที่ความยาวมากกว่าเดิมได้นั่นเอง Now, everyone can post videos up to 140 seconds long! We can’t wait to see the amazing videos you create and share.https://t.co/DFsuvnXkuL — Twitter Video (@video) June 21, 2016 นอกจากนี้ Twitter ยังเพิ่มฟีเจอร์แนะนำคลิปอื่นๆ เมื่อผู้ใช้เปิดดูคลิปบนแอพ Twitter แบบเต็มจอ โดยจะแสดงคลิปแนะนำต่างๆ ให้ผู้ใช้สามารถเลือกดูได้อย่างต่อเนื่องอีกด้วย Explore more videos and Vines that are lighting up Twitter. Our new viewing mode will let you watch more with a tap. pic.twitter.com/XyBaes37T7 — Twitter Video (@video) June 21, 2016 ที่มา : Twitter Blog    ", 
  "Date": "21/June/2016", 
  "Image-Link": [
    "https://www.blognone.com/sites/default/files/styles/thumbnail/public/topics-images/twitter300.png?itok=DkxsrWCR", 
    "//upic.me/i/hp/ss2559-06-2123.18.03.jpg", 
    "/sites/all/themes/blognone42/images/linebutton.png"
  ], 
  "Link": "https://www.blognone.com/node/82526", 
  "News": "Twitter อนุญาตให้อัปโหลดคลิปวิดีโอได้ยาวขึ้น จาก 30 เป็น 140 วินาที", 
  "Tags": [
    "Twitter", 
    "Vine", 
    "Online Video"
  ], 
  "Time": "23:27"
}