{
  "By": "lew", 
  "Contents": " เว็บไอทีชื่อดังในต่างประเทศอย่าง Engadget ประกาศปรับเว็บมาเป็น HTTPS เต็มรูปแบบแล้วพร้อมกับขึ้นต้นประกาศยอมรับว่าไม่น่าจะปล่อยให้ผู้ใช้ไม่มีทางเลือกเข้าเว็บที่ปลอดภัยไว้นานขนาดนี้ Engadget ระบุว่าการเปิด HTTPS กลายเป็นเรื่องพื้นฐานของความปลอดภัยอินเทอร์เน็ต แนวทางการเข้ารหัสเว็บทั้งหมด เริ่มขึ้นอย่างรวดเร็วหลักจาก Edward Snowden เปิดเผยโครงการ PRISM สู่สาธารณะ ทำให้เว็บเครือข่ายสังคมออนไลน์หลักๆ เช่น เฟซบุ๊ก, ทวิตเตอร์ ต้องปรับการเข้าถึงเว็บเป็น HTTPS ทั้งหมด แม้แต่แอพแชตในช่วงหลังๆ เองก็ปรับการเข้ารหัสให้รองรับการเข้ารหัสแบบ end-to-end ตอนนี้เว็บสื่อที่เคยถูกมองว่าไม่จำเป็นต้องเข้ารหัสนัก (เพราะส่วนใหญ่เข้ามาอ่านอย่างเดียว) ก็เริ่มปรับเป็นเว็บเข้ารหัสกันมากขึ้นเรื่อยๆ ที่มา - Engadget    ", 
  "Date": "11/June/2016", 
  "Image-Link": [
    "https://www.blognone.com/sites/default/files/styles/thumbnail/public/topics-images/security-icon.png?itok=JZKobGMz", 
    "//upic.me/i/pp/screenshot_2016-06-11_17-00-49.png", 
    "/sites/all/themes/blognone42/images/linebutton.png"
  ], 
  "Link": "https://www.blognone.com/node/82148", 
  "News": "Engadget ปรับเว็บเป็น HTTPS แล้ว, ยอมรับว่าไม่ควรใช้เวลานานขนาดนี้", 
  "Tags": [
    "Engadget", 
    "HTTPS", 
    "Security"
  ], 
  "Time": "17:02"
}