{
  "By": "ตะโร่งโต้ง", 
  "Contents": " ผ่านไปกว่า 3 สัปดาห์นับตั้งแต่มีการขโมยเงินโดยใช้บัตรปลอมกดเงินจากตู้ ATM หลายแห่งในญี่ปุ่นจนเกิดความเสียหายสูงถึง 1.8 พันล้านเยน ตอนนี้ธนาคารบางแห่งเริ่มขยับตัวปรับเปลี่ยนเงื่อนไขการใช้ตู้ ATM โดยลดวงเงินสูงสุดที่สามารถกดเงินสำหรับบัตรต่างประเทศ ธนาคาร Seven Bank ซึ่งให้บริการตู้ ATM ในร้าน 7-Eleven จำกัดวงเงินสูงสุดสำหรับการใช้บัตร ATM ที่มาจากต่างประเทศเหลือ 50,000 เยน จากแต่เดิมที่อนุญาตให้ถอนเงินได้ 100,000 เยน (ผู้ถือบัตร China Union Card ที่เคยกดเงินจากตู้ของ Seven Bank ได้สูงสุด 200,000 เยน ก็ถูกลดลงมาจำกัดแค่ 50,000 เยน เช่นเดียวกัน) ส่วน E-net ซึ่งเป็นกลุ่มธนาคารที่ร่วมให้บริการกันทั้งธนาคารระดับประเทศและธนาคารท้องถิ่นของญี่ปุ่นก็ลดเพดานเงินที่อนุญาตให้ใช้บัตร ATM จากต่างประเทศกดได้เพียง 40,000 เยน จากแต่เดิมที่เคยตั้งไว้ 200,000 เยน ด้าน Japan Post Bank อีกหนึ่งธนาคารของญี่ปุ่นยังไม่ปรับเปลี่ยนยอดเงินสูงสุดสำหรับการกดเงินด้วยบัตร ATM ต่างชาติ แต่ก็ให้ข้อมูลว่ากำลังดำเนินการรับมือกับปัญหาบัตรปลอมเช่นกัน โดยยืนยันว่าจะไม่ใช้วิธีลดวงเงินที่อนุญาตให้ถอนจากตู้ และเน้นย้ำว่าผู้ที่ใช้บัตร ATM ซึ่งออกในญี่ปุ่นจะไม่ได้รับผลกระทบจากมาตรการใหม่แน่นอน สำหรับการติดตามตัวผู้กระทำความผิดนั้น ตอนนี้ทางตำรวจได้ควบคุมตัวผู้ต้องหาไว้แล้ว 3 คน โดยได้ตัวจาก Tokyo 1 คน ส่วนอีก 2 คนนั้นควบคุมตัวได้จาก Aichi ทั้งนี้มีรายงานข่าวว่าขณะเข้าจับกุมผู้ต้องหาได้พบเอกสารคู่มือการใช้บัตรปลอมเพื่อกดเงินจากตู้ ATM ด้วย ที่มา - Japan Times   ", 
  "Date": "8/June/2016", 
  "Image-Link": [
    "https://www.blognone.com/sites/default/files/styles/thumbnail/public/topics-images/flag-of-japan.png?itok=E37979Qt", 
    "/sites/all/themes/blognone42/images/linebutton.png"
  ], 
  "Link": "https://www.blognone.com/node/82018", 
  "News": "หลังการขโมยเงินครั้งใหญ่ ธนาคารในญี่ปุ่นเริ่มปรับเงื่อนไขการใช้ตู้ ATM", 
  "Tags": [
    "Japan", 
    "Banking"
  ], 
  "Time": "20:23"
}