{
  "By": "mk", 
  "Contents": " เก็บตกข่าวสินค้าใหม่ MSI ในงาน Computex ตัวที่น่าสนใจคือ \"พีซีสะพายหลัง\" MSI Backpack PC ครับ (ก่อนหน้านี้ Blognone เคยลงข่าว พีซีสะพายหลังของ HP แต่จริงๆ แล้ว MSI ออกตัดหน้ามาก่อนหนึ่งวัน) Backpack PC ตัวนี้ก็มีคอนเซปต์แบบเดียวกันคือเป็นเกมมิ่งพีซีสเปกแรง ใช้ Core i7, GeForce GTX980 ในเคสที่สามารถสะพายหลังได้ จุดมุ่งหมายของมันคือเอาไว้ต่อแว่น VR (ค่ายใดก็ได้ที่ซัพพอร์ต) เพื่อให้เล่นเกม VR ได้อย่างอิสระไม่ต้องห่วงเรื่องสายไฟ น้ำหนักของมันคือ 11 ปอนด์หรือประมาณ 5 กิโลกรัม ราคาและวันวางจำหน่ายยังไม่เปิดเผย ที่มา - MSI, Microsoft     ", 
  "Date": "2/June/2016", 
  "Image-Link": [
    "https://www.blognone.com/sites/default/files/styles/thumbnail/public/topics-images/msi.png?itok=vTa7Ugzq", 
    "http://i.imgur.com/kVM6XJu.jpg", 
    "http://i.imgur.com/GGQ1HV3.jpg", 
    "/sites/all/themes/blognone42/images/linebutton.png"
  ], 
  "Link": "https://www.blognone.com/node/81771", 
  "News": "MSI เปิดตัว Backpack PC พีซีสะพายหลังสำหรับเล่นเกม VR", 
  "Tags": [
    "MSI", 
    "Hardware", 
    "Virtual Reality"
  ], 
  "Time": "22:10"
}