{
  "By": "nismod", 
  "Contents": " Tumblr ประกาศเปิดตัวโปรแกรม Tumblr Labs ซึ่งเป็นโครงการทีเปิดโอกาสให้ผู้ใช้ที่สนใจ ได้ทดลองใช้ฟีเจอร์ใหม่บนเว็บ ก่อนที่จะเปิดให้ใช้งานทั่วไป โดยผุ้ใช้ที่สมัครเข้าโครงการ Tumblr Labs จะสามารถเปิดหรือปิดฟีเจอร์ใหม่ที่ถูกปล่อยออกมาให้ทดลองใช้ได้โดยอิสระ ฟีเจอร์ใหม่ 4 ฟีเจอร์ที่มาพร้อมกับการเปิดตัว Tumblr Labs คือ Themed Posts, Reblog Graphs, Queue+ และ Inside Tumblrs ซึ่งทาง Tumblr ได้แจ้งเตือนผู้ใช้ด้วยว่า เป็นเพียงฟีเจอร์ทดลอง และผู้ใช้อาจเจอบั๊คหรืออาจใช้งานฟีเจอร์นั้นไม่ได้ในบางครั้ง ที่มา - TechCrunch   ", 
  "Date": "11/May/2016", 
  "Image-Link": [
    "https://www.blognone.com/sites/default/files/styles/thumbnail/public/topics-images/tumblr_0.png?itok=sTzY1upg", 
    "/sites/all/themes/blognone42/images/linebutton.png"
  ], 
  "Link": "https://www.blognone.com/node/80841", 
  "News": "Tumblr เปิดตัวโครงการ Tumblr Labs สำหรับผู้ใช้เข้ามาทดสอบฟีเจอร์ใหม่", 
  "Tags": [
    "Tumblr"
  ], 
  "Time": "12:57"
}