{
  "By": "nuntawat", 
  "Contents": " มีรายงานว่าซัมซุงปล่อย Android 6.0 Marshmallow ให้ Galaxy A5 (2016) และ Galaxy A7 ในรัสเซีย และให้ Galaxy A5 (2016) ในเซอร์เบียและตุรกีแล้ว เฟิร์มแวร์ใหม่นี้ยังมากับอัพเดตความปลอดภัยรอบมิถุนายนในตัว ใครที่ใช้มือถือรุ่นดังกล่าวลองเช็คอัพเดตกันได้เลยครับ ที่มา: Samsung Updates (1, 2) ผ่าน GSM Arena   ", 
  "Date": "24/June/2016", 
  "Image-Link": [
    "https://www.blognone.com/sites/default/files/styles/thumbnail/public/topics-images/marshmallow.png?itok=LP7RGQaD", 
    "/sites/all/themes/blognone42/images/linebutton.png"
  ], 
  "Link": "https://www.blognone.com/node/82641", 
  "News": "ซัมซุงปล่อย Android Marshmallow ให้ Galaxy A5 (2016) และ Galaxy A7 แล้ว", 
  "Tags": [
    "Galaxy A", 
    "Marshmallow", 
    "Samsung", 
    "Android"
  ], 
  "Time": "17:21"
}