{
  "By": "lew", 
  "Contents": " รายงานตลาดเซิร์ฟเวอร์ทั่วโลกจากทั้ง IDC และ Gartner แสดงข้อมูลตรงกันว่าตลาดนี้กำลังหยุดชะงักลงจากรอบการอัพเกรดที่หยุดไปแล้ว ในแง่รายได้ IDC ระบุว่ารายได้รวมลดลง 3.6% ขณะที่ Gartner ระบุว่าลดลง 2.3% ในแง่ยอดส่งมอบ IDC ละบุว่าลดลง 3% แต่ Gartner ระบุว่าเพิ่มขึ้น 1.7% ผู้ผลิตสี่อันดับแรกจากรายงานทั้งสองแห่ง ได้แก่ HPE อันดับหนึ่ง, Dell อันดับสอง, IBM อันดับสาม ส่วนที่สี่และห้านั้น Lenovo และ Cisco ใกล้เคียงกัน ในจำนวนนี้ IBM มีรายได้ลดลงอย่างหนักเพราะขายกิจการ x86 ให้กับ Lenovo ไป ขณะที่ปีที่แล้วมีเมนเฟรม z13 เพิ่งเปิดตัว รายงานของ IDC ระบุว่าตลาดเซิร์ฟเวอร์ที่ไม่ใช่ x86 รวมเซิร์ฟเวอร์ Unix และ ARM กำลังหดตัวอย่างหนัก รายได้รวมลดลงถึง 28.7% ขณะที่เซิร์ฟเวอร์ x86 รายได้รวมเพิ่มขึ้น 2.6% แม้ว่ายอดส่งมอบจะลดลง 2.9% ก็ตาม ที่มา - eWeek   ", 
  "Date": "3/June/2016", 
  "Image-Link": [
    "https://www.blognone.com/sites/default/files/styles/thumbnail/public/topics-images/logo-idc.png?itok=Xd-1G05W", 
    "/sites/all/themes/blognone42/images/linebutton.png"
  ], 
  "Link": "https://www.blognone.com/node/81837", 
  "News": "ตลาดเซิร์ฟเวอร์ไตรมาสแรกชะงัก รายได้รวมลดลง", 
  "Tags": [
    "Market Research", 
    "Server", 
    "IDC", 
    "Gartner"
  ], 
  "Time": "23:58"
}