{
  "By": "lew", 
  "Contents": " ปัญหาข้อกำหนดการปรับแก้เฟิร์มแวร์เราท์เตอร์จาก FCC ทำให้ผู้ผลิตหลายรายที่เคยเปิดเราท์เตอร์ให้ติดตั้งเฟิร์มแวร์โอเพนซอร์สได้ กลับล็อกเราท์เตอร์ของตัวเองเสีย ตอนนี้ Imagination ผู้พัฒนาชิป MIPS ที่ได้รับความนิยมสูงในเราท์เตอร์ก็ออกมาสาธิตเฟรมเวิร์ค prplSecurity ที่แยก virtual machine ของตัวระบบปฎิบัติการหลัก ออกจากไดรเวอร์ Wi-Fi ทำให้ตัวระบบปฎิบัติการไม่สามารถเข้าไปแก้ไขดัดแปลงความแรงหรือช่องสัญญาณของ Wi-Fi ได้ ตัวซอฟต์แวร์ hypervisor ใช้ L4re ที่เป็นโอเพนซอร์สเช่นกัน ผลที่ได้นอกจากจะสามารถรัน OpenWRT แยกจากไดรเวอร์ Wi-Fi ได้แล้ว ยังสามารถแยกแอพพลิเคชั่นอื่นออกจากระบบปฏิบัติการได้อีกด้วยเพิ่มความปลอดภัยไปอีกระดับ ระบบนี้จะใช้ได้กับ MIP Warrior รุ่นล่าสุดเท่านั้น (ที่ใช้สาธิตคือ P5600) ต้องรอดูว่าผู้ผลิตจะเอาด้วยและหันมาใช้ชิปรุ่นนี้และพัฒนารอมตามแนวทางของ Imagination กันหรือไม่ ที่มา - Imagination    ", 
  "Date": "10/June/2016", 
  "Image-Link": [
    "https://www.blognone.com/sites/default/files/styles/thumbnail/public/topics-images/imagination.png?itok=BGJL04io", 
    "//upic.me/i/cs/better-security-for-openwrt-routers-mips-fcc-demo-setup.jpg", 
    "/sites/all/themes/blognone42/images/linebutton.png"
  ], 
  "Link": "https://www.blognone.com/node/82081", 
  "News": "Imagination เปิดตัวระบบ Virtualization บนชิป MIPS ทำให้ OpenWRT รันคู่เฟิร์มแวร์วิทยุได้", 
  "Tags": [
    "Imagination", 
    "MIPS", 
    "OpenWRT", 
    "FCC", 
    "Open Source"
  ], 
  "Time": "00:11"
}