{
    "By": "Blltz", 
    "Contents": "\nหลังจากเพิ่งมีภาพท่อสำหรับใช้กับ Hyperloop แนวคิดระบบขนส่งความเร็วสูงออกมาได้ไม่กี่วัน เว็บไซต์ Engadget ก็ไปคว้าตัว Rob Lloyd ซีอีโอของ Hyperloop Technologies ที่เริ่มเดินหน้าทำแนวคิดนี้ให้เป็นจริงมาสัมภาษณ์เกี่ยวกับความคืบหน้าจนได้\nในระหว่างสัมภาษณ์ Lloyd เปิดเผยว่าบริษัทกำลังอยู่ในระหว่างสร้าง Hyperloop ที่สามารถใช้งานได้จริง ซึ่งถ้าหากเป็นไปตามแผนที่วางไว้คาดว่าจะได้เห็น Hyperloop ที่ใช้งานได้จริงเป็นระยะทางราว 3.2 กิโลเมตรในช่วงหยุดยาวปลายปีนี้กันแล้ว\nสำหรับความคืบหน้าของการพัฒนาเทคโนโลยี Hyperloop นอกจากฝั่งของ Hyperloop Technologies แล้ว SpaceX หนึ่งในบริษัทของ Elon Musk คนต้นคิดเรื่องนี้ก็เคยจัดโครงการแข่งขันออกแบบ Hyperloop ซึ่งจะได้ทดสอบกันในช่วงกลางปีนี้ แต่ไม่มีรายงานว่าจะเกี่ยวข้องกับการทดสอบช่วงปลายปีของ Hyperloop Technologies หรือไม่\nที่มา - Engadget\n\n", 
    "Date": "14/01/16", 
    "Image-Link": "https://www.blognone.com/sites/default/files/imagecache/news-thumbnail/category_pictures/hyperloop-logo.png", 
    "Link": "https://www.blognone.com/node/76736", 
    "News": "ซีอีโอ Hyperloop ให้สัมภาษณ์ Engadget บอกเตรียมทดสอบจริงปลายปีนี้", 
    "Tags": "Hyperloop\nTransportation\n", 
    "Time": "19:46"
}