{
    "By": "lew", 
    "Contents": "\nTSMC รายงานผลประกอบการไตรมาสที่ 4 ของปี 2015 กำไรสุทธิ 9,670 ล้านดอลลาร์สหรัฐฯ เพิ่มขึ้น 16.2% สูงสุดเป็นประวัติการณ์ ขณะที่รายได้รวม 26,606 ล้านดอลลาร์สหรัฐฯ แม้ว่ารายได้ในไตรมาสที่สี่จะลดลงเมื่อเทียบกับไตรมาสก่อนหน้าและปีก่อนหน้า แต่โดยรวมทั้งปีก็ยังเกินกว่าคาดการณ์\nรายได้ฝั่งอุปกรณ์สื่อสารเช่นโทรศัพท์มือถือ และสินค้ากลุ่มอุตสาหกรรมยังคงเติบโต ขณะที่สินค้ากลุ่มคอมพิวเตอร์ และเครื่องใช้ตามบ้านกลับลดลง ในแง่เทคโนโลยีชิปเทคโนโลยีขั้นสูง เช่น 16 นาโนเมตร และ 20 นาโนเมตร ทำรายได้ถึง 24% ในไตรมาสที่สี่\nประเด็นน่ากังวลอย่างหนึ่งคืองบลงทุนของ TSMC ในปี 2015 กลับลดลงเหลือ 8,120 ล้านดอลลาร์ ต่ำสุดในรอบสี่ปี น่าจะเป็นเพราะตลาดสมาร์ตโฟนในจีนที่ชะลอตัวลง ส่วนปี 2016 คาดว่าจะเพิ่มการลงทุนไปอยู่ระหว่าง 9,000-10,000 ล้านดอลลาร์\nลูกค้ารายใหญ่ของ TSMC ในตอนนี้คือแอปเปิลที่หันมาใช้สองโรงงานพร้อมกัน\nที่มา - Reuters, Rappler\n\n", 
    "Date": "14/01/16", 
    "Image-Link": "https://www.blognone.com/sites/default/files/imagecache/news-thumbnail/category_pictures/tsmc.png", 
    "Link": "https://www.blognone.com/node/76740", 
    "News": "TSMC กำไรปี 2015 สูงสุดเป็นประวัติการณ์ เงินลงทุนลดลง", 
    "Tags": "Financial Report\nSemiconductor\nTSMC\n", 
    "Time": "22:27"
}