{
    "By": "mk", 
    "Contents": "\nGoPro อีกหนึ่งบริษัทไอทีดาวรุ่งระดับที่สามารถขายหุ้น IPO เมื่อปี 2014 ประกาศผลประกอบการเบื้องต้นของไตรมาสล่าสุด (ไตรมาส 4/2015) คาดว่ามีรายได้ 435 ล้านดอลลาร์ น้อยกว่าเป้าหมายที่คาดไว้ ส่วนรายได้ทั้งปี 2015 จะอยู่ประมาณ 1.6 พันล้านดอลลาร์\nประเด็นสำคัญคือ GoPro ยังประกาศลดพนักงานลง 7% ของพนักงานทั้งหมดประมาณ 1,500 คน ส่งผลให้หุ้น GoPro ตกลงเพราะนักลงทุนคาดว่าบริษัทเริ่มไม่ร้อนแรงอย่างที่คิด ปัญหาของ GoPro ส่วนหนึ่งมาจากกล้องรุ่นล่าสุด GoPro Hero4 Session ไม่ร้อนแรงอย่างที่หวัง จนต้องลดราคาลงมา และในระยะยาวยังเริ่มมีข้อจำกัดว่า GoPro จะสามารถขายกล้องให้คนทั่วไป ที่ไม่ใช่กลุ่มเล่นกีฬาได้มากน้อยแค่ไหน\nที่มา - GoPro, Business Insider\n\n", 
    "Date": "14/01/16", 
    "Image-Link": "https://www.blognone.com/sites/default/files/imagecache/news-thumbnail/category_pictures/gopro.png", 
    "Link": "https://www.blognone.com/node/76732", 
    "News": "GoPro ปลดพนักงานออก 7% หลังยอดขายไม่เข้าเป้า", 
    "Tags": "GoPro\n", 
    "Time": "19:07"
}