{
    "By": "mk", 
    "Contents": "\nSeagate Technology เปิดตัวฮาร์ดดิสก์เกรดองค์กรความจุ 10TB รุ่นแรกของบริษัท ออกมาเจาะตลาดศูนย์ข้อมูลที่จำเป็นต้องเก็บข้อมูลจำนวนมากๆ\nฮาร์ดดิสก์รุ่นนี้ชื่อมีชื่อเต็มๆ ว่า Seagate Enterprise Capacity 3.5 HDD 10TB มีทั้งอินเทอร์เฟซแบบ SATA 6Gb/s และ SAS 12GB/s, ตัวเทคโนโลยีใช้จานหมุน 7 จานและหัวอ่าน 12 หัว ภายในบรรจุก๊าซฮีเลียมเพื่อลดแรงเสียดทาน ส่วนราคาไม่ได้ระบุว่าเท่าไร\nช่วงปลายปีที่แล้ว ความจุสูงสุดของฮาร์ดดิสก์ซีรีส์นี้ของ Seagate อยู่ที่ 8TB\nที่มา - Seagate\n\n", 
    "Date": "14/01/16", 
    "Image-Link": "https://www.blognone.com/sites/default/files/imagecache/news-thumbnail/category_pictures/seagate.png", 
    "Link": "https://www.blognone.com/node/76715", 
    "News": "Seagate เปิดตัวฮาร์ดดิสก์ระดับองค์กร ความจุ 10TB ภายในบรรจุก๊าซฮีเลียม", 
    "Tags": "Enterprise\nHarddisk\nSeagate\nStorage\n", 
    "Time": "11:26"
}