{
    "By": "mk", 
    "Contents": "\nต่อเนื่องจากข่าว ไมโครซอฟท์เปิดซอร์ส Chakra เอนจินจาวาสคริปต์ของ Edge วันนี้ซอร์สโค้ดถูกอัพโหลดขึ้น GitHub เรียบร้อย ภายใต้ชื่อโครงการ ChakraCore และใช้สัญญาอนุญาตแบบ MIT\nหลังจากนี้ ไมโครซอฟท์จะพัฒนา ChakraCore โดยเปิดรับแพตช์จากนักพัฒนาภายนอก ตัว ChakraCore เป็นเอนจินจาวาสคริปต์ที่ทำงานได้แบบสแตนด์อโลน ไม่ต้องรันผ่าน Edge/IE เสมอไป และไมโครซอฟท์ก็เตรียมพัฒนาให้มันทำงานบนลินุกซ์ได้ในเร็วๆ นี้ (ดิสโทรทดสอบจะเป็น Ubuntu 15.10)\nที่มา - Microsoft Edge Dev Blog\n\n\n", 
    "Date": "14/01/16", 
    "Image-Link": "https://www.blognone.com/sites/default/files/imagecache/news-thumbnail/news-thumbnails/Jpx4c7yW.png", 
    "Link": "https://www.blognone.com/node/76704", 
    "News": "ไมโครซอฟท์เปิดโค้ด ChakraCore ขึ้น GitHub แล้ว, เตรียมพัฒนาให้ทำงานบนลินุกซ์ได้ด้วย", 
    "Tags": "JavaScript\nMicrosoft\nMicrosoft Edge\nOpen Source\n", 
    "Time": "9:10"
}