{
  "By": "nrad6949", 
  "Contents": " เมื่อวานนี้ SIRIN LABS บริษัทสตาร์ทอัพด้านมือถือที่เคยออกมาประกาศว่าจะเปิดตัวสมาร์ทโฟนที่จับตลาดผู้บริหารและเศรษฐีที่เน้นความปลอดภัย ล่าสุดได้เปิดตัวสมาร์ทโฟนรุ่นดังกล่าวโดยมีชื่อว่า \"Solarin\" SIRIN LABS ระบุว่าสมาร์ทโฟนตัวนี้เน้นไปที่ความปลอดภัย โดยร่วมมือกับระบบรักษาความปลอดภัยจาก Zimperium และใช้การเข้ารหัสในระดับ chip-to-chip แบบ 256-bit AES ของ KoolSpan ซึ่งใช้ในงานทางทหารเข้ามาใส่ในสมาร์ทโฟนเครื่องนี้ โดยมีสวิทช์อยู่ด้านหลังเครื่องที่สามารถเปิดการใช้งานได้ ทำให้ทั้งการสนทนาและข้อความต่างๆ ถูกเข้ารหัส ส่วนสเปกถือว่าไม่ได้เก่ามาก ใช้หน่วยประมวลผลกลางเป็น Qualcomm Snapdragon 810 พร้อมแรม 4 GB พื้นที่เก็บข้อมูล 128 GB และมาพร้อม Android 5.1.1 (สเปกเต็มดูได้ท้ายข่าว) มีด้วยกันทั้งหมด 4 รุ่นย่อยคือ Fire Black Carbon Titanium, Fire Black Carbon DLC, Fire Black Carbon Yellow Gold และ Crystal White Carbon DLC ส่วนราคาเริ่มต้นที่ 9,500 ปอนด์ (ประมาณ 4.9 แสนบาท) ไม่รวมภาษีมูลค่าเพิ่ม (ถ้ารวมแล้วก็ครึ่งล้านบาทไทยพอดี) เริ่มต้นจำหน่ายตั้งแต่วันนี้ที่ห้าง Mayfair กรุงลอนดอนของประเทศอังกฤษ และที่ห้าง Harrods ภายในสิ้นเดือนนี้ ที่มา - Sirin Labs, VentureBeat, สเปก SIRIN LABS Solarin  กว้าง 7.8 ซม, ยาว 15.98 ซม., หนา 11.1 มม., หนัก 250 กรัม หน่วยประมวลผลกลาง Qualcomm Snapdragon 810 แบบ 8 แกน ความถี่ 2 GHz รองรับ 64 บิต หน่วยประมวลผลกราฟิก Adreno 430 GPU Hexagon V56 DSP แรม LPDDR 4 GB, พื้นที่เก็บข้อมูล 128 GB หน้าขนาด 5.5 นิ้ว ที่ความละเอียด WQHD (2K) ครอบด้วยกระจก Corning Gorilla Glass 4 กล้องหลัง 24 เมกะพิกเซล f/2.0 พร้อมโฟกัสอัตโนมัติด้วยเลเซอร์และแฟลช 4 สี, OIS กล้องหน้า 8 เมกะพิกเซลแบบมุมกว้าง f/2.4 พร้อม EIS (Eletrical Image Stabilization) ESS sabre 32bit DAC รองรับทั้ง 2G (EDGE Class 12, 850/900/1800/1900)/3G (UMTS: 1/2/4/5/8/9/11; TD-SCDMA: 34/39)/4G Cat. 9 (FDD: 1-5/ 7-9/11-13/17-21/25/26/29/30; TDD: 38-41) WiGig, Wi-Fi 802.11a/b/g/n/ac MIMO, Bluetooth 4.1 USB Type-C 3.0 Nano-SIM พร้อมคุณสมบัติ Hot-swap แบตเตอรี่ขนาด 4,040 mAh Li-ion พร้อมคุณสมบัติชาร์จเร็ว Qualcomm Quick Charge 2.0 มาพร้อมสารพัดเซนเซอร์ รวมถึงสแกนลายนิ้วมือ, ระบบนำทางทั้ง A-GPS, GLONASS, Beidou Android 5.1.1 บริการเลขาส่วนตัว SIRIN LABS Assist           ", 
  "Date": "1/June/2016", 
  "Image-Link": [
    "https://www.blognone.com/sites/default/files/styles/thumbnail/public/news-thumbnails/13083114_1595703057412686_8429492717628252623_n_0.jpg?itok=-3ncDdEE", 
    "https://i.imgur.com/5W5IJwl.jpg", 
    "https://i.imgur.com/JdkZMQA.jpg", 
    "https://i.imgur.com/NZ3WwM3.jpg", 
    "https://i.imgur.com/vntv0Od.jpg", 
    "https://i.imgur.com/y5uto8z.jpg", 
    "https://i.imgur.com/8cmIdKI.jpg", 
    "https://i.imgur.com/auOhlpo.jpg", 
    "/sites/all/themes/blognone42/images/linebutton.png"
  ], 
  "Link": "https://www.blognone.com/node/81677", 
  "News": "SIRIN LABS เปิดตัว Solarin สมาร์ทโฟนสุดหรู เน้นความปลอดภัย ราคาครึ่งล้านบาท", 
  "Tags": [
    "Sirin Labs", 
    "Luxury", 
    "Mobile", 
    "Android"
  ], 
  "Time": "08:17"
}