{
  "By": "nrad6949", 
  "Contents": " ที่งาน Computex 2016 ณ ไต้หวัน Microsoft ได้จัดงานแสดงอุปกรณ์ในกลุ่ม Windows ใหม่ และถือโอกาสเผยโฉมโน้ตบุ๊ก 2-in-1 สุดหรูจาก Porsche Design บริษัทลูกของ Porsche AG บริษัทผู้ผลิตรถยนต์หรูจากเยอรมนีที่ผลิตสินค้าหรู (อย่างเช่น สมาร์ทโฟนที่ร่วมกับ BlackBerry อย่าง P'9982) ในครั้งนี้ ข้อมูลอย่างเป็นทางการสำหรับโน้ตบุ๊กตัวนี้ยังมีไม่มากนัก แต่มีภาพมาแล้ว (ดูได้ท้ายข่าว) โดยระบุว่า Porsche Design พัฒนาร่วมกับ OEM (ไม่ระบุผู้ผลิต) โดยมีหน้าจอขนาด 13.3 นิ้ว และรองรับการใช้งานร่วมกับปากกา, มีหน่วยประมวลผลและอุปกรณ์อื่นๆ ที่เกี่ยวข้องจาก Intel (ไม่ระบุว่ารุ่นไหนและอย่างไร) โดยจะรองรับความสามารถของ Windows 10 Anniversary Update อย่าง Windows Hello 2.0, Cortana และคุณสมบัติด้านหมึก (Inking) อย่างเต็มที่ ส่วนเว็บไซต์อย่าง Softpedia รายงานว่าเครื่องจะมีแรมอย่างน้อย 8 GB ข้อมูลทางการระบุว่าโน้ตบุ๊ก 2-in-1 ของ Porsche Design จะวางจำหน่ายในฤดูหนาวของปีนี้ พร้อม Windows 10 Anniversary Update ส่วนราคายังไม่ระบุครับ (ไม่น่าจะถูกแน่นอน) ที่มา - Microsoft ผ่าน The Verge, Softpedia    ", 
  "Date": "1/June/2016", 
  "Image-Link": [
    "https://www.blognone.com/sites/default/files/styles/thumbnail/public/topics-images/porsche.png?itok=WeHvhjpF", 
    "https://i.imgur.com/o8JrzW7.jpg", 
    "/sites/all/themes/blognone42/images/linebutton.png"
  ], 
  "Link": "https://www.blognone.com/node/81711", 
  "News": "Microsoft เผยโฉมโน้ตบุ๊ก 2-in-1 สุดหรูจาก Porsche Design วางขายในปีนี้", 
  "Tags": [
    "Porsche Design", 
    "Luxury", 
    "Microsoft", 
    "Laptop"
  ], 
  "Time": "17:41"
}