{
  "By": "lew", 
  "Contents": " Andrew Ng หนึ่งในผู้บุกเบิกสายวิชา Deep Learning ที่ปัจจุบันทำงานอยู่ Baidu Research ประกาศเขียนหนังสือเล่มใหม่ Machine Learning Yearning ที่ระบุว่าจะช่วยลดเวลาในการทำความเข้าใจการสร้างระบบคอมพิวเตอร์เรียนรู้ด้วยตัวเอง ลำพัง Ng เขียนหนังสือเล่มใหม่ก็คงเป็นข่าวอยู่แล้ว แต่เขากลับเปิดตัวหนังสือเล่มนี้ด้วยการเปิดลงทะเบียนรับร่างหนังสือฟรี โดยจะได้รับทีละบทเมื่อเขาเขียนเสร็จไปเรื่อยๆ เขาระบุว่าหนังสือจะหนาเพียงประมาณ 100 หน้า และแต่ละบทจะสั้นๆ เพียง 1-2 หน้าเท่านั้น ลงทะเบียนรับหนังสือได้ที่เว็บ mlyearning.org ที่มา - Facebook: Andrew Ng   ", 
  "Date": "20/June/2016", 
  "Image-Link": [
    "https://www.blognone.com/sites/default/files/styles/thumbnail/public/news-thumbnails/dc4875_5917fae9edee48349cc8e95f6f9ac348-mv2.png?itok=uWplY2LP", 
    "/sites/all/themes/blognone42/images/linebutton.png"
  ], 
  "Link": "https://www.blognone.com/node/82474", 
  "News": "Andrew Ng แจกร่างหนังสือ Machine Learning Yearning ฟรี", 
  "Tags": [
    "Andrew Ng", 
    "Deep Learning", 
    "Machine Learning"
  ], 
  "Time": "21:29"
}