{
  "By": "mk", 
  "Contents": " หลังจากดีล Foxconn ซื้อ Sharp ได้ข้อยุติว่า Foxconn ซื้อหุ้น 66% แทนการซือยกบริษัท ล่าสุด Sharp ออกมาให้ข่าวว่าเจ้าของใหม่ Foxconn เตรียมเปลี่ยนบอร์ดและผู้บริหารของ Sharp เกือบยกชุด (เรียกว่าแทบจะล้างบางกันทีเดียว) ปัจจุบัน Sharp มีบอร์ดทั้งหมด 13 คน ในจำนวนนี้มี 12 คนจะต้องลงจากตำแหน่ง บอร์ดชุดใหม่จะลดเหลือแค่ 9 คน และมี 6 คนที่แต่งตั้งโดย Foxconn ส่วนซีอีโอ Kozo Takahashi จะต้องลงจากตำแหน่งเช่นกัน และ Foxconn จะตั้งผู้บริหารสูงสุดลำดับสองขององค์กร Tai Jeng-Wu มานั่งเก้าอี้ซีอีโอแทน การเปลี่ยนแปลงจะมีผลในเดือนมิถุนายนนี้ Sharp เพิ่งประกาศผลประกอบการของปีงบประมาณล่าสุด (นับถึงสิ้นเดือนมีนาคม 2016) ซึ่งขาดทุนถึง 256 พันล้านเยน (2.36 พันล้านดอลลาร์) ที่มา - Wall Street Journal, ภาพจาก Sharp  จากซ้าย: Jeng-we Tai เบอร์สองของ Foxconn และซีอีโอคนใหม่ของ Sharp, Terry Gou ประธาน Foxconn, Kozo Takahashi ซีอีโอคนปัจจุบันของ Sharp   ", 
  "Date": "13/May/2016", 
  "Image-Link": [
    "https://www.blognone.com/sites/default/files/styles/thumbnail/public/topics-images/sharp.png?itok=A_96daeH", 
    "https://i.imgur.com/2JLAJ4n.jpg", 
    "/sites/all/themes/blognone42/images/linebutton.png"
  ], 
  "Link": "https://www.blognone.com/node/80960", 
  "News": "ล้างบาง Foxconn เตรียมเปลี่ยนบอร์ดและซีอีโอของ Sharp หลังซื้อกิจการเสร็จสิ้น", 
  "Tags": [
    "Sharp", 
    "Foxconn", 
    "CEO"
  ], 
  "Time": "22:53"
}