{
  "By": "nutmos", 
  "Contents": " Slack ได้เปิดระบบ call หรือระบบโทรของ Slack ให้ผู้ใช้ทั่วไปได้ใช้กันทุกคนแล้ว หลังจากที่ทดสอบกันมาสักพัก สำหรับการโทรผ่าน Slack จะมีสองแบบ คือโทรแบบตัวต่อตัวระหว่างผู้ใช้ สามารถใช้งานได้ทุกคน ส่วนการโทรใน channel หรือ DM แบบกลุ่มจะใช้ได้เฉพาะผู้ใช้แบบเสียเงินเท่านั้น วิธีการเริ่มต้นโทร แอพบน Windows หรือ Mac หรือ Slack บน Google Chrome จะเห็นไอคอนรูปโทรศัพท์ขึ้นมาด้านบนขวา สามารถกดเพื่อโทรได้ทันที ส่วนแอพบน iOS และ Android ผู้ใช้สามารถกดปุ่ม Start a call เพื่อโทรได้ทันที และเมื่อใครสักคนเริ่มโทรมาแล้วจะมีข้อความแจ้งเพื่อชวนให้เข้าร่วมการโทร นอกจากนี้ ฟีเจอร์การโทรของ Slack ยังมีการตอบโต้ผ่าน emoji โดยเมื่อคลิกบน emoji ที่เลือกไว้ให้จะแสดงพร้อมเสียงดังเล็กน้อยชั่วคราว เพื่อให้ผู้สามารถแสดงการเห็นด้วย, ไม่เห็นด้วย หรือยกมือถามคำถามโดยไม่ต้องรบกวนการพูดของผู้พูด ที่มา - Slack    ", 
  "Date": "8/June/2016", 
  "Image-Link": [
    "https://www.blognone.com/sites/default/files/styles/thumbnail/public/topics-images/slack300.png?itok=OVmaZ12O", 
    "http://i.cubeupload.com/FEAk0p.png", 
    "/sites/all/themes/blognone42/images/linebutton.png"
  ], 
  "Link": "https://www.blognone.com/node/82015", 
  "News": "Slack เปิดระบบโทรผ่านแอพให้ผู้ใช้ทุกคนใช้งานแล้ว", 
  "Tags": [
    "Slack"
  ], 
  "Time": "17:29"
}