{
  "By": "mk", 
  "Contents": " Bloomberg รายงานข่าววงในว่า กูเกิลเตรียมแก้ปัญหาสำคัญระดับโลก \"ผู้ผลิต Android ไม่ยอมอัพเดต\" โดยใช้มาตรการหลายอย่างร่วมกัน ตั้งแต่เบาๆ อย่างการเข้าไปคุยกับผู้ผลิตฮาร์ดแวร์และโอเปอเรเตอร์ เร่งให้อัพเดตซอฟต์แวร์เร็วขึ้น และขอให้โอเปอเรเตอร์ข้ามกระบวนการทดสอบเฟิร์มแวร์แบบชุดใหญ่ ในกรณีที่เป็นการอัพเดตแพตช์ความปลอดภัยเพียงอย่างเดียว แต่วิธีการที่น่าสนใจคือ กูเกิลเริ่มจัดอันดับผู้ผลิตฮาร์ดแวร์ตามระยะเวลาการอัพเดต และส่งลิสต์รายชื่อนี้ให้ผู้ผลิตฮาร์ดแวร์ดูเพื่อเปรียบเทียบตัวเองกับคู่แข่ง แถมกูเกิลยังอาจเปิดเผยลิสต์รายชื่อนี้ต่อสาธารณะ เพื่อให้ผู้บริโภครับทราบว่าผู้ผลิตรายใดมีปัญหาเรื่องนี้ มาตรการอื่นๆ เราอาจรู้จักกันแล้ว เช่น Instant Apps ที่ใช้ได้กับ Android รุ่นเก่าๆ หรือ การออก Android N ให้เร็วกว่ารอบปกติ เพื่อให้เวลากับผู้ผลิตฮาร์ดแวร์มากขึ้น ที่มา - Bloomberg    ", 
  "Date": "26/May/2016", 
  "Image-Link": [
    "https://www.blognone.com/sites/default/files/styles/thumbnail/public/topics-images/android.png?itok=utCl_oOE", 
    "https://i.imgur.com/qCRXG0u.png", 
    "/sites/all/themes/blognone42/images/linebutton.png"
  ], 
  "Link": "https://www.blognone.com/node/81417", 
  "News": "[ไม่ยืนยัน] กูเกิลจัดอันดับแบรนด์ Android ใครอัพเดตช้า กดดันผู้ผลิตให้อัพเดตเร็วขึ้น", 
  "Tags": [
    "Android", 
    "Google", 
    "Rumor"
  ], 
  "Time": "07:06"
}