{
  "By": "nrad6949", 
  "Contents": " เว็บไซต์ VentureBeat รายงานข่าวโดยอ้างว่าได้เห็นเอกสารภายในของ Lenovo ที่จะมีการเปลี่ยนชื่อทำตลาดสำหรับสมาร์ทโฟนเรือธงภายใต้แบรนด์ Moto จากเดิมที่เป็น Moto X เป็น Moto Z โดยถือว่าเป็นแบรนด์ที่ 3 ที่เปลี่ยนชื่อผลิตภัณฑ์เรือธงของตัวเอง ต่อจาก HTC ที่เลิกใช้ชื่อ One และ Sony ที่เลิกใช้ชื่อรุ่น Z นอกจากนี้ VentureBeat ยังยืนยันว่า Moto Z จะมีสองรุ่นคือ Z Style ที่เป็นรุ่นราคาแพง และ Z Play ที่เป็นรุ่นราคารองลงมาเล็กน้อย รวมถึงจะออก Droid Edition และมาพร้อมกับคุณสมบัติการเปลี่ยนฝาหลังเป็นโมดูลเพิ่มความสามารถแบบต่างๆ ที่เรียกว่า MotoMods เช่น โปรเจคเตอร์ขนาดเล็ก, ลำโพง, กล้อง เป็นต้น VentureBeat ระบุว่า Moto Z จะเปิดตัวที่งาน Lenovo Tech World ที่ San Francisco ในวันที่ 9 มิถุนายนนี้ ที่มา - VentureBeat   ", 
  "Date": "18/May/2016", 
  "Image-Link": [
    "https://www.blognone.com/sites/default/files/styles/thumbnail/public/topics-images/motorola.png?itok=Pff47JHy", 
    "/sites/all/themes/blognone42/images/linebutton.png"
  ], 
  "Link": "https://www.blognone.com/node/81117", 
  "News": "[ไม่ยืนยัน] Lenovo ตัดสินใจเลิกใช้ชื่อ X สำหรับเรือธงของ Moto เปลี่ยนเป็น Z", 
  "Tags": [
    "Motorola", 
    "Moto X", 
    "Rumor", 
    "Mobile", 
    "Lenovo"
  ], 
  "Time": "08:19"
}