{
  "By": "magnamonkun", 
  "Contents": " เว็บไซต์ SamMobile เผยรูปภาพบัตรเชิญเข้าร่วมงานแถลงข่าว Unpacked 2016 ที่ยังไม่ได้มีการส่งออกไปหาสื่อมวลชน ซึ่งคาดว่าน่าจะเป็นบัตรเชิญตัวจริงที่ซัมซุงจะจัดส่งหาสื่อมวลชนเพื่อเชิญร่วมงานแถลงข่าวในเร็ว ๆ นี้ ภาพดังกล่าวระบุวันที่จัดงานเป็นวันที่ 2 สิงหาคม 2016 สถานที่คือ หอประชุม Alice Tully Hall อาคาร Lincoln Center ในนิวยอร์ค จุดเด่นของบัตรเชิญนี้คือซัมซุงเล่นลายเส้นเป็นเลข 7 ซ้อนกัน 4 ตัวก่อนปิดท้ายด้วยเส้นเลข 7 คว่ำ ทำให้ดูเหมือนตัวอักษร \"Z\" เลยทำให้คาดกันว่าในงานดังกล่าว ซัมซุงน่าจะเปิดตัว Galaxy Note 7 เป็นกิจกรรมหลัก และจากข้อความ \"The next edge is just around the corner\" ทำให้คาดเดาได้อีกอย่างว่า น่าจะมีการเปิดตัว Galaxy Note 7 edge เพิ่มเติมอีกหนึ่งรุ่นด้วย ก่อนหน้านี้เคยมีข่าวว่าซัมซุงจะเปิดตัว Note 7 ในช่วงปลายเดือนกรกฎาคม วางขายที่สหรัฐอเมริกาในสัปดาห์ของวันที่ 15 สิงหาคม จากบัตรเชิญที่หลุดออกมาถือว่ายังอยู่ในกำหนดการที่ไล่ๆ เลี่ยกันครับ ที่มา - SamMobile    ", 
  "Date": "14/June/2016", 
  "Image-Link": [
    "https://www.blognone.com/sites/default/files/styles/thumbnail/public/topics-images/galaxy.png?itok=UdEQNKp-", 
    "//upic.me/i/yy/samsung-galaxy-note-7-edge-august-2-announcement-sammobile-720x405.jpg", 
    "/sites/all/themes/blognone42/images/linebutton.png"
  ], 
  "Link": "https://www.blognone.com/node/82246", 
  "News": "[ไม่ยืนยัน] ซัมซุงจัดงานเปิดตัว Galaxy Note รุ่นใหม่ 2 สิงหาคมนี้", 
  "Tags": [
    "Samsung Galaxy", 
    "Samsung", 
    "Mobile", 
    "Galaxy Note"
  ], 
  "Time": "15:50"
}