{
  "By": "mk", 
  "Contents": " ผลกระทบแรกจากกรณี Brexit หรือสหราชอาณาจักรถอนตัวออกจากสหภาพยุโรปคือ ค่าเงินปอนด์อ่อนตัวลงทันทีเมื่อเทียบกับสกุลเงินอื่นๆ และส่งผลให้เงินสกุลอื่นแข็งขึ้น ซึ่งรวมถึง Bitcoin ด้วย อัตราแลกเปลี่ยน Bitcoin สูงขึ้นทันทีหลังสรุปผลโหวต โดยขึ้นไปสูงสุดที่ 691.48 ดอลลาร์ต่อ Bitcoin แม้จะปรับตัวลดลงมาบ้างหลังจากนั้นแล้วก็ตาม (ขณะที่เขียนข่าวอยู่ที่ 680.92 ดอลลาร์) อัตราแลกเปลี่ยนล่าสุดสามารถดูได้จาก CoinDesk ที่มา - TechCrunch    ", 
  "Date": "25/June/2016", 
  "Image-Link": [
    "https://www.blognone.com/sites/default/files/styles/thumbnail/public/topics-images/bitcoin.png?itok=gZ3OHhsT", 
    "https://i.imgur.com/TZVqBuv.png", 
    "/sites/all/themes/blognone42/images/linebutton.png"
  ], 
  "Link": "https://www.blognone.com/node/82666", 
  "News": "ผลกระทบจาก Brexit ค่าเงินปอนด์ร่วง ราคา Bitcoin พุ่ง", 
  "Tags": [
    "Bitcoin", 
    "Virtual Currency", 
    "United Kingdom"
  ], 
  "Time": "15:55"
}