{
  "By": "twometre", 
  "Contents": " วันนี้ Lisa Lu ซีอีโอของ AMD ใช้เวทีงาน E3 เปิดตัวจีพียูตระกูลใหม่ของค่ายในชื่อ Radeon RX 460 และ 470 แบบ pre-launch ด้วยรายละเอียดที่ขอสรุปดังนี้ครับ  Radeon RX จะออกการ์ดวางตัวให้ผู้ใช้ในกลุ่มงบประมาณ 100 ถึง 300 เหรียญสหรัฐฯ (ประมาณ 3,500 - 10,500 บาท)  ซึ่งไม่นานนี้ AMD ได้เปิดตัว Radeon RX 480 ที่เคลมว่ารันเกมละเอียด 1440p ระดับกราฟิก AAA ได้ลื่นไหล ในรุ่นแรม 4GB ราคา 199 เหรียญสหรัฐฯ (ประมาณ 7,000 บาท) โอกาสนี้จึงเปิดตัว RX 460 และ RX 470 ตามออกมา ตัวการ์ดโชว์ในมือของซีอีโอเป็นแบบการ์ดใบกะทัดรัด ฮีตซิงค์บางๆ เท่านั้น  ยังไร้เงาสเปคการ์ดสองรุ่นนี้ ในหมายข่าวยังไม่ได้บอกมา บอกแค่ว่ารองรับ Direct X 12, Vulkan และรองรับจอแสดงผล HDMI 2.0b, DisplayPort 1.3/1.4, เข้าและถอดรหัสไฟล์ H.265 ได้เอง และเล่นไฟล์ 4K 10-bit ได้ที่ 60 เฟรมต่อวินาที  ที่มา - AMD  ภาพประกอบ   ", 
  "Date": "14/June/2016", 
  "Image-Link": [
    "https://www.blognone.com/sites/default/files/styles/thumbnail/public/topics-images/amd.png?itok=6OE1UWFO", 
    "//upic.me/i/ho/3122a.jpg", 
    "/sites/all/themes/blognone42/images/linebutton.png"
  ], 
  "Link": "https://www.blognone.com/node/82229", 
  "News": "AMD โชว์จีพียู Radeon RX 460, 470 ในงาน E3", 
  "Tags": [
    "AMD", 
    "Radeon", 
    "GPU"
  ], 
  "Time": "11:29"
}