#
 
อัพ
เดท
แก้ไข
ปัญหา
ผู้ผลิต
มัลแวร์
ติดตั้ง
เฟิร์มแวร์
มือ
ถือ
รุ่น
บริษัท
ยืนยัน
ปัญหา
Truemove
 
H
 
#
แอพ
แอป
แอป
แอป
แอป
แอป
แอป
เว็บบอร์ด
ผู้ใช้
งาน
แจ้ง
ปัญหา
บน
เกี่ยวกับ
ติดตั้ง
เครื่อง
แจ้ง
มัลแวร์
วันที่
กุมภาพันธ์
ต่อมา
ผู้
แจ้ง
วันที่
พฤษภาคม
มิถุนายน
แจ้ง
ปัญหา
สาม
กรณี
บน
สำรวจ
ข้อมูล
สาม
สอง
เครื่อง
ซื้อ
ศ
.
ประเทศ
ไทย
ชื่อ
รุ่น
เฟิร์มแวร์
เอา
ไว้
นอกจากนี้
แจ้ง
ผู้
แจ้ง
ปัญหา
ดังกล่าว
วันที่
เมษายน
พฤษภาคม
มิถุนายน
ปัญหา
ดูเหมือน
เกิด
เครื่อง
เท่านั้น
เครื่อง
กระทู้
วันที่
มิถุนายน
กรณี
เกิด
ตัว
ชื่อ
แทน
สอง
พฤติกรรม
คล้าย
พฤติกรรม
มัลแวร์
สอง
ตัว
แสดง
โฆษณา
ใช้
งาน
รูป
โป๊
โฆษณา
ทั่วไป
พยายาม
ติดตั้ง
เพิ่มเติม
เครื่อง
คน
รายงาน
เสียเงิน
โหลด
คำ
ยินยอม
ซื้อ
สมัคร
ใช้
บริการ
สามารถ
สมัคร
ข่าวสาร
ผู้ใช้
งาน
ได้ยิน
ยอม
ปัญหา
ผู้ใช้
แจ้ง
เจ้าของ
เครื่องใช้
ตรวจสอบ
มัลแวร์
สำหรับ
มือ
ถือ
ตรวจสอบ
มัลแวร์
ทั้งหมด
สามารถ
ลบ
มัลแวร์
เครื่อง
แม้ว่า
ทำ
ขณะนี้
ทีม
งาน
บริการ
ตอบ
คำถาม
ทราบ
เรื่อง
ประสานงา
น
หน่วยงาน
เกี่ยวข้อง
แล้วแต่
คำตอบ
แน่ชัด
มาตรการ
แก้ไข
ปัญหา
คำแนะนำ
ผู้เขียน
ข่าว
แนะนำ
หยุด
ใช้
งาน
มือ
ถือ
รุ่น
ดังกล่าว
มัลแวร์
ดังกล่าว
เครื่อง
พร้อมทั้ง
แจ้ง
เรื่อง
เพื่อให้
ทราบ
จำนวน
ผู้
ผลกระทบ
เพื่อให้
ปัญหา
ดังกล่าว
แก้ไข
ต่อไป
อัพ
เดท
สำหรับ
ตอบ
กลับ
แจ้ง
อัพ
เดท
เฟิร์มแวร์
ล่าสุด
ภายใน
วันที่
มิถุนายน
เอกสาร
ล่าง
ที่มา
เตือน
ภัย
รุ่น
เครื่อง
ของแถม
ปลอดภัย
ที่ไหน
ทำไม
ทำ
ฉัน
มือ
ถือ
ฟรี
แถม
ไวรัส
มัลแวร์
ติดตั้ง
หัก
เงิน
อัตโนมัติ
ผู้บริโภค
ปฎิ
เส
ธ
เครื่อง
น่าจะ
มัลแวร์
ติด
รอ
ม
ครับ
ผู้ใช้
เจอ
ที่อยู่
มือ
ถือ
ปัญหา
ช่วย
ที
ครับ
com
.
google
.
camera
.
fun
 
Lenovo
 
Vibe
 
P
1
M
 
com
.
google
.
camera
.
fun
 
on
 
Vibe
 
p
1
m
 
Lenovo
 
P
1
m
 
P
1
ma
40
 
Permanent
 
Malware
 
com
.
google
.
camera
.
fun
.
apk
 
PORN
 
on
 
my
 
Lenovo
 
P
1
m
 
P
1
ma
40
 
Lenovo
 
Official
 
Forum
 
True
 
P
1
ma
40
_
USR
_
S
006
_
1510201530
_
MP
3
V
2
_
16
G
_
TRUE
_
TH
 
Pantip
 
True
 
Lenovo
 
Vibe
 
P
1
M
 
True
 
Smart
 
Max
 
plus
 
Pantip
 
True
 
Smart
 
Max
 
plus
 
Cooee
 
Launcher
 
SMS
 
SMS
 
Malwarebytes
 
Kasperksy
 
AVG
 
Android
 
factory
 
reset
 
Intelligence
 
Truemove
 
H
 
Pantip
 
Truemove
 
H
 
Lenovo
 
Truemove
 
H
 
True
 
Lenovo
 
VIBE
 
P
1
m
 
Lenovo
 
com
.
google
.
camera
.
fun
 
on
 
Vibe
 
p
1
m
 
Lenovo
 
P
1
m
 
P
1
ma
40
 
Permanent
 
Malware
 
com
.
google
.
camera
.
fun
.
apk
 
PORN
 
on
 
my
 
Lenovo
 
P
1
m
 
P
1
ma
40
 
True
 
Lenovo
 
Vibe
 
P
1
M
 
Malware
 
TrueMoveH
 
True
 
Lenovo
 
VIBE
 
P
1
m
 
True
 
Lenovo
 
vibe
 
p
1
m
 
Malware
 
Rom
 
