{
  "By": "sunnywalker", 
  "Contents": " เพียง 4 วัน หลังจาก  GrabBike และ UberMoto จำต้องหยุดให้บริการเมื่อสัปดาห์ที่ผ่านมา GoBike แอพพลิเคชั่นใหม่ที่สมาคมผู้ขับขี่รถจักรยานยนต์รับจ้างแห่งประเทศไทยและกรมขนส่งทางบกร่วมกันสร้างก็เกิดขึ้น สามารถดาวน์โหลดได้แล้วใน Apple Store เรียกได้ว่าเป็นแอพพลิเคชั่นเรียกรถจักรยานยนต์รับจ้างที่ถูกกฎหมายที่แรกในกรุงเทพฯ การทำงานเหมือน GrabBike และ UberMoto ผู้ใช้เลือกสถานที่ต้นทางและปลายทางผ่านแอพพลิเคชั่น จากนั้นแอพฯจะคำนวณเงินค่าโดยสารตามระยะทาง ราคาเริ่มต้นคือ 20 บาท ผู้ขับขี่ต้องเป็นผู้ขับขี่รถรับจ้างที่ลงทะเบียนผ่านกรมขนส่งทางบกแล้วเท่านั้น ทางผู้ก่อตั้งกล่าวกับสำนักข่าว Coconuts Bangkok ว่า ยังสามารถใช้งานได้ในบางพื้นที่แต่จะขยายให้ครอบคลุมพื้นที่อื่นๆต่อไป วิดีโอแถลงเปิดตัว GoBike โดยคุณเฉลิม ชั่งทองมะดัน นายกสมาคมผู้ขับขี่รถจักรยานยนต์รับจ้างแห่งประเทศไทย  ที่มา - Coconuts Bangkok   ", 
  "Date": "23/May/2016", 
  "Image-Link": [
    "https://www.blognone.com/sites/default/files/styles/thumbnail/public/news-thumbnails/Untitled_9.png?itok=qj43lXxO", 
    "http://i.imgur.com/Zil4fxq.png", 
    "/sites/all/themes/blognone42/images/linebutton.png"
  ], 
  "Link": "https://www.blognone.com/node/81305", 
  "News": "GrabBike และ UberMoto หยุดให้บริการไม่เป็นไร เพราะ GoBike มาแล้ว ", 
  "Tags": [
    "GoBike"
  ], 
  "Time": "23:26"
}