{
  "By": "nismod", 
  "Contents": " NeoEs.MRR ทีมจากประเทศไทยคว้าแชมป์จากการแข่งขัน HoNTour World Final 2016 ที่จัดขึ้นโดย Garena Online ประเทศไทย จากการเอาชนะทีม Complexity แชมป์เก่าจากสหรัฐไป 3-0 เกม ได้เงินรางวัลไป 2 ล้านบาท ขณะที่ทีมจากประเทศไทยอีกทีมคือ MiTH.Mixs ได้อันดับ 3 ในรายการนี้ รับเงินรางวัลไป 550,000 บาท HoNTour World Final เป็นทัวร์นาเมนที่ใหญ่ที่ของของเกม Heroes of Newerth โดยปีนี้การแข่งขันรอบสุดท้ายจัดขึ้นที่ประเทศไทย มีทีมที่ผ่านเข้ารอบมาทั้งหมด 8 ทีมเป็นทีมจากประเทศไทยทั้งหมด 4 ทีม การแข่งขันแบ่งเป็น 2 กลุ่มกลุ่มละ 4 ทีม รอบแรกแข่งแบบเจอกันเองหมด (round-robin) และหาทีมที่ดีที่สุดแต่ละกลุ่มมาแข่งรอบไฟนอล    ", 
  "Date": "28/June/2016", 
  "Image-Link": [
    "https://www.blognone.com/sites/default/files/styles/thumbnail/public/news-thumbnails/hon-logo.png?itok=83jgdr4J", 
    "https://c3.staticflickr.com/8/7328/27340248394_4ee0eb7c80_z.jpg", 
    "/sites/all/themes/blognone42/images/linebutton.png"
  ], 
  "Link": "https://www.blognone.com/node/82745", 
  "News": "ทีมไทยคว้าแชมป์ HoNTour World Final 2016 คว้าเงินรางวัลกว่า 2 ล้านบาท", 
  "Tags": [
    "Heroes of Newerth", 
    "Games", 
    "Garena", 
    "Thailand"
  ], 
  "Time": "12:22"
}