{
  "By": "mk", 
  "Contents": "
หลังจากปล่อยให้แฟนๆ รอกันมานานแสนนาน ซัมซุงก็เริ่มปล่อยอัพเดต Android 6.0.1 Marshmallow ให้กับผู้ใช้ Galaxy S6 และ s6 edge ในเกาหลีใต้แล้ว โดยมือถือรุ่นที่ยืนยันว่าได้อัพเดตคือ Galaxy S6 (SM-G920S) และ Galaxy S6 edge (SM-G925S) ที่ขายกับเครือข่าย SK Telecom ของเกาหลีใต้
คาดว่าอีกไม่นาน ผู้ใช้ Galaxy S6 edge+ และ Galaxy Note 5 ในเกาหลีใต้น่าจะได้อัพเดต 6.0.1 ตามมา ส่วนผู้ใช้ในประเทศอื่นๆ นอกเกาหลีใต้ก็อดทนรอกันต่อไปสักนิดครับ
ที่มา - SamMobile

", 
  "Date": "31/01/16", 
  "Image-Link": "https://www.blognone.com/sites/default/files/imagecache/news-thumbnail/category_pictures/s6.png", 
  "Link": "https://www.blognone.com/node/77297", 
  "News": "วันนี้ที่รอคอย ซัมซุงเริ่มอัพเดต Android 6.0 ให้ Galaxy S6/S6 edge ในเกาหลีใต้", 
  "Tags": "Galaxy S6
Marshmallow
Samsung
South Korea
", 
  "Time": "0:31"
}