{
  "By": "neizod", 
  "Contents": "
นักแชทสมัย IRC น่าจะคุ้นเคยกับคำสั่งสแลช (slash command) เช่น /me กันเป็นอย่างดี วัฒนธรรมนี้ได้ตกทอดและพัฒนาต่อมาจน Google Hangouts สามารถส่งหน้า ¯\_(ツ)_/¯ ได้ผ่านคำสั่ง /shruggie แล้วครับ
การมาถึงของคำสั่งนี้ เกิดขึ้นจากพนักงาน Google นามว่า Sage LaTorra ชื่นชอบอีโมจิข้างต้นมาก จนสร้างคำสั่งดังกล่าวใส่ไว้เป็น Easter Egg ในแอพ Hangouts เสียเลย เพื่อที่จะได้ประหยัดเวลาคัดลอกอีโมจิมาวางในแชท (ตัวอักษรบางตัวในอีโมจิดังกล่าวมาจากภาษาญี่ปุ่น ซึ่งไม่สามารถหาได้โดยง่ายในคีย์บอร์ดทั่วไป)
ต่อไปนี้ถ้าใครอยากยักไหล่แล้วไงใครแคร์ ก็แค่เปิด Google Hangouts บนเดสก์ท็อปขึ้นมาพิมพ์ /shruggie เป็นคำสั่งแรก แล้วกดส่งได้เลยครับ
ที่มา: 9to5Google
", 
  "Date": "31/01/16", 
  "Image-Link": "https://www.blognone.com/sites/default/files/imagecache/news-thumbnail/category_pictures/hangouts.png", 
  "Link": "https://www.blognone.com/node/77298", 
  "News": "แล้วไงใครแคร์? ส่งหน้า ¯\_(ツ)_/¯ ผ่าน Google Hangouts ได้ง่ายๆ ด้วยคำสั่งสแลช", 
  "Tags": "Chat
Emoticon
Google
Hangouts
", 
  "Time": "1:36"
}