{
  "By": "mk", 
  "Contents": "
ไมโครซอฟท์แก้ปัญหาของ Surface Book/Pro 4 ด้วยการออกเฟิร์มแวร์ตัวใหม่ล่าสุด ที่แก้บั๊กบางจุด เช่น แบตเตอรี่ การถอดคีย์บอร์ด และ Wi-Fi อย่างไรก็ตาม ปัญหาเรื่องการจัดการพลังงาน (เครื่องหลับไม่ลึกพอ แบตไหล) ยังไม่ถูกแก้ไขในเฟิร์มแวร์ตัวนี้
ทีมงานไมโครซอฟท์ออกมาสื่อสารกับลูกค้ามากขึ้น โดยบอกว่าได้รับความเห็นและปัญหาอย่างชัดเจน ขอโทษที่เกิดปัญหาดังกล่าว และบริษัทกำลังเร่งแก้ปัญหาที่เหลือให้เร็วที่สุดเท่าที่จะทำได้
ที่มา - Microsoft Community via Microsoft News

", 
  "Date": "31/01/16", 
  "Image-Link": "https://www.blognone.com/sites/default/files/imagecache/news-thumbnail/category_pictures/sf-book.png", 
  "Link": "https://www.blognone.com/node/77299", 
  "News": "ขอเวลาอีกไม่นาน ไมโครซอฟท์สัญญา จะรีบแก้บั๊ก Surface Book/Pro 4 ที่เหลือ", 
  "Tags": "Microsoft
Surface Book
Surface Pro 4
", 
  "Time": "8:46"
}