{
  "By": "nismod", 
  "Contents": " ถึงแม้จะปิดบริการและสำนักงานทั้งในเอเชียตะวันออกเฉียงใต้และอีกหลายประเทศในยุโรป แต่ล่าสุดดูเหมือน Rakuten ผู้ให้บริการอีคอมเมิร์ซจากญี่ปุ่นกำลังเตรียมจะกระโดดเข้าไปทำตลาดในประเทศอินเดีย The Economic Times รายงานว่า Rakuten ได้จากอดีตผู้บริหารของบริษัทอีคอมเมิร์ซท้องถิ่นของอินเดียไว้แล้ว รวมถึงกำลังมองหาที่ตั้งของโกดังเก็บสินค้า บริเวณตอนเหนือของประเทศ อินเดียนับเป็นหนึ่งในตลาดอีคอมเมิร์ซขนาดใหญ่ของโลก โดยนอกจาก Amazon แล้วมีผู้ให้บริการยักษ์ใหญ่ท้องถิ่นอีกหลายเจ้าอย่าง Flipkart และ Snapdeal ที่จะเป็นคู่แข่งสำคัญของ Rakuten ทั้งนี้สมาคมผู้ประกอบการอีคอมเมิร์ซของอินเดีย (ASSOCHAM) ประเมิณว่าปลายปี 2016 ตลาดอีคอมเมิร์ซของอินเดียน่าจะมีมูลค่าอยู่ที่ราว 3 หมื่น 8 พันล้านเหรียญสหรัฐ ที่มา - Tech in Asia   ", 
  "Date": "9/June/2016", 
  "Image-Link": [
    "https://www.blognone.com/sites/default/files/styles/thumbnail/public/topics-images/rakuten.png?itok=19rA4pgQ", 
    "/sites/all/themes/blognone42/images/linebutton.png"
  ], 
  "Link": "https://www.blognone.com/node/82058", 
  "News": "Rakuten เตรียมเข้าไปเปิดตลาดในอินเดีย", 
  "Tags": [
    "Rakuten", 
    "E-commerce", 
    "India"
  ], 
  "Time": "13:14"
}