{
  "By": "nismod", 
  "Contents": " Rakuten บริษัทอีคอมเมิร์ซจากญี่ปุ่นที่ประกาศปิดเว็บไซต์ในเอเชียตะวันออกเฉียงใต้ไปเมื่อต้นปี ได้ประกาศระงับการขายและปิดเว็บไซต์ในสหราชอาณาจักรรวมถึงสำนักงานในเมืองแคมบริดจ์ในช่วงสิ้นเดือนสิงหาคมนี้ อย่างไรก็ตามทาง Rakuten ได้ส่งจดหมายไปยังผู้ค้าว่าบริการหลังบ้านสำหรับผู้ค้า (backend) บนเว็บไซต์จะยังคงให้บริการต่อไปจนถึงสิ้นปีนี้ เผื่อกรณีลูกค้าต้องการขอคืนเงินหรือค้นหารายการสินค้าที่เคยซื้อย้อนหลัง รวมถึงแจ้งเตือนผู้ค้าให้ระงับการเปิดพรีออเดอร์บนเว็บไซต์ตั้งแต่นี้เป็นต้นไป นอกจากในสหราชอาณาจักรแล้ว Rakuten ยังประกาศปิดบริการในสเปน รวมถึงสำนักงานในเมืองบาร์เซโลนาด้วย ที่มา - MCVUK via Engadget   ", 
  "Date": "8/June/2016", 
  "Image-Link": [
    "https://www.blognone.com/sites/default/files/styles/thumbnail/public/topics-images/rakuten.png?itok=19rA4pgQ", 
    "/sites/all/themes/blognone42/images/linebutton.png"
  ], 
  "Link": "https://www.blognone.com/node/82021", 
  "News": "Rakuten ประกาศปิดเว็บไซต์และสำนักงานในสหราชอาณาจักร", 
  "Tags": [
    "Rakuten", 
    "United Kingdom", 
    "E-commerce"
  ], 
  "Time": "22:28"
}