{
  "By": "ตะโร่งโต้ง", 
  "Contents": " Atari บริษัทที่ก่อตั้งขึ้นมาเมื่อ 40 กว่าปีก่อน และโด่งดังเป็นที่รู้จักกันในฐานะผู้ผลิตผลิตภัณฑ์ทั้งฮาร์ดแวร์และซอฟต์แวร์เกมมากมาย ได้ผ่านช่วงตกต่ำจนถึงขั้นต้องประกาศยื่นขอล้มละลายเมื่อปี 2013 ซึ่งหลังจากนั้นก็พยายามพลิกฟื้นกิจการด้วยการทำเกมลงมือถือและทำตู้เครื่องเล่นสำหรับบ่อนคาสิโน ล่าสุดได้ประกาศทำสินค้าสำหรับบ้านอัจฉริยะ โดยร่วมมือกับ Sigfox ซึ่งเป็นบริษัทจากฝรั่งเศสที่มีความเชี่ยวชาญด้านเทคโนโลยี Internet of Things Atari ไม่ได้บอกรายละเอียดว่าจะทำผลิตภัณฑ์อะไรกันแน่ เพียงแต่บรรยายว่าสินค้าในกลุ่มนี้จะมีทั้งของพื้นๆ ไปจนถึงของผลิตภัณฑ์ที่มีความซับซ้อน ซึ่งจะมีทั้งสินค้าสำหรับใช้ในบ้าน, สัตว์เลี้ยง, เสริมรูปแบบการใช้ชีวิต ตลอดจนสินค้าด้านระบบความปลอดภัย โดยจะได้เทคโนโลยีของ Sigfox มาช่วยในเรื่องระบบการเชื่อมต่ออุปกรณ์ต่างๆ รวมทั้งพัฒนาเรื่องแบตเตอรี่ให้ผลิตภัณฑ์สามารถใช้งานได้นาน ที่มา - Engadget   ", 
  "Date": "6/June/2016", 
  "Image-Link": [
    "https://www.blognone.com/sites/default/files/styles/thumbnail/public/topics-images/atari.png?itok=0njDGzX_", 
    "/sites/all/themes/blognone42/images/linebutton.png"
  ], 
  "Link": "https://www.blognone.com/node/81877", 
  "News": "Atari หวนทำฮาร์ดแวร์จำหน่าย ไม่ใช่เครื่องเกมแต่เป็นสินค้าสำหรับบ้านอัจฉริยะ", 
  "Tags": [
    "Atari", 
    "Smart Home", 
    "Internet of Things"
  ], 
  "Time": "01:05"
}