{
  "By": "nrad6949", 
  "Contents": " เมื่อสัปดาห์ที่แล้ว Microsoft ได้ประกาศเปิดให้ดาวน์โหลดแอพตัวใหม่สำหรับ Windows 10 IoT Core ที่มีชื่อว่า \"Network 3D Printer\" สำหรับ Raspberry Pi ที่ใช้ระบบปฏิบัติการเป็น Windows 10 IoT Core ซึ่งจะแปลง Raspberry Pi ให้กลายเป็น Print server สำหรับเครื่องพิมพ์ 3 มิติ และสั่งพิมพ์ได้จากอุปกรณ์อื่นในเครือข่ายเหมือนเครื่องพิมพ์ตามปกติทั่วไปได้ทันที สำหรับรุ่นแรกนี้ ตัวแอพจะรองรับเครื่องพิมพ์สามมิติทั้งหมด 13 รุ่น จากผู้ผลิตเช่น Ultimaker, Lulzbot, Makergame, Printrbot และ Prusa โดยทางบริษัทยังเปิดรับคำขอให้ผู้ใช้ส่งเข้าไปยังบริษัทได้ด้วยว่าต้องการให้รองรับเครื่องพิมพ์รุ่นใดเพิ่มขึ้นบ้าง ที่มา - Microsoft ผ่าน Engadget    ", 
  "Date": "23/May/2016", 
  "Image-Link": [
    "https://www.blognone.com/sites/default/files/styles/thumbnail/public/topics-images/Windows_logo_Cyan_rgb_D.png?itok=bKOyx4bD", 
    "https://i.imgur.com/GXKx3BL.png", 
    "/sites/all/themes/blognone42/images/linebutton.png"
  ], 
  "Link": "https://www.blognone.com/node/81294", 
  "News": "Microsoft ออกแอพสำหรับ Windows 10 IoT แปลง Raspberry Pi เป็น Print server สำหรับเครื่องพิมพ์สามมิติ", 
  "Tags": [
    "Windows 10", 
    "Microsoft", 
    "Raspberry Pi", 
    "Internet of Things"
  ], 
  "Time": "17:00"
}