{
  "By": "mk", 
  "Contents": " นโยบายของซอฟต์แวร์ฝั่งเซิร์ฟเวอร์ของไมโครซอฟท์ คือซอฟต์แวร์เวอร์ชันคลาวด์ (cloud) กับเวอร์ชันบนเซิร์ฟเวอร์ (on-premise) ต้องมีฟีเจอร์เท่ากัน สามารถนำแอพพลิเคชันรันข้ามกันได้โดยไม่ต้องแก้ไขอะไร ปัจจุบันซอฟต์แวร์เกือบทุกตัวไม่ว่าจะเป็น SharePoint, Exchange, Skype for Business ต่างก็พัฒนาบนแนวทางนี้ อย่างไรก็ตาม ซอฟต์แวร์บางตัวของไมโครซอฟท์กลับเกิดมาจากฝั่งคลาวด์ ในกรณีนี้คือ Office Online หรือ Microsoft Office เวอร์ชันเว็บแอพที่ทำงานผ่านเบราว์เซอร์ (ชื่อเดิมคือ Office Web Apps) ไมโครซอฟท์จึงออก Office Online Server (OOS) เผื่อกรณีที่ลูกค้าต้องการรัน Office ผ่านเว็บบนเซิร์ฟเวอร์ของตัวเองด้วย ตัวเซิร์ฟเวอร์ OOS สามารถดาวน์โหลดได้ฟรีสำหรับลูกค้าที่มีบัญชี Volume Licensing ถ้าใช้งานแบบอ่านเอกสารอย่างเดียว แต่ถ้าอยากแก้ไขเอกสารด้วย จำเป็นต้องมีไลเซนส์ Microsoft Office หรือ Office 365 ProPlus ด้วย ที่มา - Office Blogs    ", 
  "Date": "5/May/2016", 
  "Image-Link": [
    "https://www.blognone.com/sites/default/files/styles/thumbnail/public/topics-images/Ofc_rgb_Orng166_D.png?itok=lEJctquv", 
    "https://i.imgur.com/YRuEY1W.png", 
    "/sites/all/themes/blognone42/images/linebutton.png"
  ], 
  "Link": "https://www.blognone.com/node/80641", 
  "News": "ไมโครซอฟท์ออก Office Online Server (OOS) สำหรับองค์กรที่ต้องการ Office เวอร์ชันเว็บ", 
  "Tags": [
    "Microsoft Office", 
    "Enterprise", 
    "Server"
  ], 
  "Time": "11:39"
}