{
  "By": "mk", 
  "Contents": " Nutanix ผู้ผลิตเซิร์ฟเวอร์แนวคิดใหม่ hyperconverged (อ่านบทสัมภาษณ์ของ Blognone) เปิดตัวเซิร์ฟเวอร์รุ่นใหม่ Nutanix Xpress ที่ราคาถูกลง (ราคาทั้งชุด ฮาร์ดแวร์ 3-4 โหนดพร้อมซัพพอร์ต 3 ปี จะต่ำกว่า 25,000 ดอลลาร์) เหมาะสำหรับธุรกิจ SME มากขึ้น จุดขายนอกจากราคายังเป็นความง่ายในการติดตั้ง ที่ใช้เวลาน้อยกว่า 60 นาทีก็รันงานได้แล้ว ฮาร์ดแวร์ Nutanix Xpress รหัส SX-1065 ใช้ซีพียู Intel Xeon E5 v4 (Broadwell) เลือกรุ่นย่อยเองได้, หน่วยความจำสูงสุด 512GB, ใส่สตอเรจได้สูงสุด 6TB ต่อโหนด (สเปกละเอียด) ฝั่งของซอฟต์แวร์ใช้ซอฟต์แวร์เวอร์ชัน Xpress ที่ปรับลดความสามารถบางอย่างออก แต่ก็ออกแบบให้เหมาะกับ SME, รองรับ virtualization/hypervisor หลายยี่ห้อ ทั้ง AHV ของ Nutanix เอง, VMware ESXi และ Hyper-V สินค้าจะเริ่มขายในเดือนกรกฎาคม 2016 ที่มา - Nutanix, Data Center Knowledge    ", 
  "Date": "26/May/2016", 
  "Image-Link": [
    "https://www.blognone.com/sites/default/files/styles/thumbnail/public/topics-images/nutanix.png?itok=ZlpeEPo7", 
    "https://i.imgur.com/UmyDw3T.jpg", 
    "/sites/all/themes/blognone42/images/linebutton.png"
  ], 
  "Link": "https://www.blognone.com/node/81452", 
  "News": "Nutanix เปิดตัว Xpress เซิร์ฟเวอร์ Hyperconverged รุ่นราคาถูกสำหรับธุรกิจขนาดกลาง", 
  "Tags": [
    "Nutanix", 
    "Server", 
    "Enterprise"
  ], 
  "Time": "13:57"
}