{
  "By": "nrad6949", 
  "Contents": " Skagen แบรนด์ลูกของ Fossil ผูัผลิตสินค้าแฟชั่นของสหรัฐอเมริกา ประกาศเปิดตัวนาฬิกา Hagen Connected นาฬิกาแฟชั่นของตัวเองรุ่นแรกที่สามารถตรวจวัดการออกกำลังกายได้ ในเชิงคุณสมบัติแทบจะไม่ต่างจากนาฬิกาอย่าง Fossil Q Grant เพียงแต่มีการปรับปรุงการออกแบบให้เหมาะสมกับแบรนด์ รวมถึงเพิ่มความสามารถบางอย่างเพิ่ม เช่น ควบคุมสมาร์ทโฟนให้ถ่ายรูปได้ หรือควบคุมการเล่นเพลงและสามารถตามหาโทรศัพท์ได้ และปรับเวลาให้อัตโนมัติในกรณีเดินทางไปต่างเขตเวลา รวมถึงตั้งปลุกได้ด้วย (คุณสมบัติไม่ต่างจากนาฬิกา Fossil ชุดใหม่ที่จะออกในปีนี้) มาใน 4 รูปแบบ พร้อมกับใช้ถ่านแบบกระดุมที่หาได้ง่าย ไม่ต้องใช้การชาร์จแต่อย่างใด จะเริ่มวางจำหน่ายในเดือนกันยายนนี้ที่ราคา 195 ดอลลาร์สหรัฐ ส่วนถ้าใครไม่ต้องการนาฬิกา ก็มีสายรัดข้อมือออกมาพร้อมกันด้วยในราคา 95 ดอลลาร์สหรัฐ วางจำหน่ายเดือนตุลาคมนี้ ตามหลังตัวนาฬิกาอยู่ 1 เดือน ที่มา - Wearable    ", 
  "Date": "1/July/2016", 
  "Image-Link": [
    "https://www.blognone.com/sites/default/files/styles/thumbnail/public/news-thumbnails/4fOLPUwn_400x400.jpg?itok=otIHcERA", 
    "https://i.imgur.com/fO6z15D.jpg", 
    "/sites/all/themes/blognone42/images/linebutton.png"
  ], 
  "Link": "https://www.blognone.com/node/82902", 
  "News": "Skagen เปิดตัว Hagen Connected นาฬิกาแฟชั่น ตรวจวัดการออกกำลังกาย", 
  "Tags": [
    "Fossil", 
    "Skagen", 
    "Fashion", 
    "Wearable Computing"
  ], 
  "Time": "14:25"
}