{
  "By": "mk", 
  "Contents": " แอพอ่านข่าว Pocket ยังเดินหน้าเพิ่มฟีเจอร์ด้านโซเชียลต่อไป เมื่อปีที่แล้ว Pocket เพิ่มฟีเจอร์แนะนำบทความ Recommended และการแชร์บทความแนะนำบนโพรไฟล์ วันนี้ ฟีเจอร์ใหม่ที่เพิ่มเข้ามาคือ Like และ Repost รูปแบบการใช้งาน Like และ Repost ของ Pocket จะคล้ายกับ Tumblr หรือ Twitter เมื่อรวมกับการที่ Pocket สามารถติดตาม (follow) บทความที่เพื่อนหรือคนดังแชร์มาได้ อีกทั้งยังแจ้งเตือนในแท็บ Notifications ก็ทำให้ Pocket เริ่มมีสถานะคล้ายกับโซเชียลเน็ตเวิร์คมากขึ้น การใช้งานตอนนี้ยังใช้ได้เฉพาะในแอพ Pocket บน iOS และ Android เท่านั้น ที่มา - Pocket Blog    ", 
  "Date": "8/May/2016", 
  "Image-Link": [
    "https://www.blognone.com/sites/default/files/styles/thumbnail/public/topics-images/pocket.png?itok=qS3TAmDB", 
    "https://i.imgur.com/Dk9muWB.png", 
    "/sites/all/themes/blognone42/images/linebutton.png"
  ], 
  "Link": "https://www.blognone.com/node/80732", 
  "News": "Pocket เพิ่มฟีเจอร์ Like และ Repost บทความแนะนำให้เพื่อนอ่าน", 
  "Tags": [
    "Pocket", 
    "Social Network"
  ], 
  "Time": "10:36"
}