{
  "By": "nrad6949", 
  "Contents": " เว็บไซต์ Liliputing รายงานว่า Nvidia กำลังทำแท็บเล็ตตัวใหม่ที่อาจเป็นรุ่นต่อของแท็บเล็ต SHIELD จากข้อมูลที่บริษัทส่งให้กับ FCC เพื่อขออนุมัติในการทำตลาด โดยมีรหัสรุ่นว่า P2290W ข้อมูลสเปกจากเอกสารที่ Nvidia ส่งให้กับทาง FCC นั้นมีน้อยมาก นอกจากระบุว่าแท็บเล็ตตัวนี้จะรองรับ Wi-Fi ที่ความถี่ 2.4 และ 5 GHz, ใช้ micro USB, รองรับ Bluetooth และ Bluetooth LE, มีขนาดที่ 8.6 x 4.8 x 0.3 นิ้ว และหนัก 12.3 ออนซ์ (ประมาณ 300 กรัม) ยังไม่มีข้อมูลว่าแท็บเล็ตตัวนี้จะเปิดตัวเมื่อใดและใช้ชื่อในการทำตลาดว่าอะไร ทั้งนี้ในอดีต Nvidia มีแท็บเล็ตในตระกูล SHIELD ออกมาตั้งแต่ปี 2014 ที่มา - FCC ผ่าน Liliputing    ", 
  "Date": "14/May/2016", 
  "Image-Link": [
    "https://www.blognone.com/sites/default/files/styles/thumbnail/public/topics-images/nvidia.png?itok=4a7uUr5h", 
    "https://i.imgur.com/JgUeizb.jpg", 
    "/sites/all/themes/blognone42/images/linebutton.png"
  ], 
  "Link": "https://www.blognone.com/node/80972", 
  "News": "[ไม่ยืนยัน] ข้อมูลจาก FCC ระบุ Nvidia กำลังทำแท็บเล็ตตัวใหม่", 
  "Tags": [
    "NVIDIA", 
    "Tablet", 
    "SHIELD"
  ], 
  "Time": "09:51"
}