{
  "By": "nutmos", 
  "Contents": " มีรายงานจาก Wall Street Journal ถึงผลสำรวจของ Snapchat ว่าตอนนี้มีผู้ใช้สมาร์ทโฟนในสหรัฐที่อายุ 35 ขึ้นไปจำนวน 14% ได้ใช้งาน Snapchat แล้ว เพิ่มขึ้นจาก 2% เมื่อ 3 ปีก่อน และในผลสำรวจยังบอกอีกว่า 70% ของผู้ใช้สมาร์ทโฟนทุกวันนี้ได้ใช้ Snapchat แล้ว การที่ Snapchat จะเริ่มนิยมในหมู่ผู้ใหญ่และคนวัยทำงานมากขึ้นนั้นก็คงจะไม่ใช่เรื่องแปลกนัก เพราะก่อนหน้านี้ Facebook ก็เคยเป็นที่นิยมเฉพาะหมู่วัยรุ่น ก่อนที่จะขยายความนิยมมาสู่ผู้ใหญ่ จากรายงานยังบอกเพิ่มเติมว่า แม้จำนวนผู้ใช้ที่เป็นผู้ใหญ่จะเยอะขึ้น แต่ Snapchat ก็ยังคงเป็นที่นิยมในหมู่วัยรุ่น เนื่องจากมีระบบคอนเทนต์ทำลายตัวเอง ทำให้ลดความยุ่งยากในเรื่องความเป็นส่วนตัวไปได้เยอะ ไม่ต้องคิดมากว่าจะตั้งค่าอย่างไรเหมือน social media อื่น ๆ รวมถึงไม่มีระบบไลค์หรือคอมเม้นท์แบบสาธารณะที่ทำให้ต้องกังวล ที่มา - Wall Street Journal, The Next Web   ", 
  "Date": "6/July/2016", 
  "Image-Link": [
    "https://www.blognone.com/sites/default/files/styles/thumbnail/public/topics-images/snapchat.png?itok=JyM_TIkc", 
    "/sites/all/themes/blognone42/images/linebutton.png"
  ], 
  "Link": "https://www.blognone.com/node/83050", 
  "News": "ผลสำรวจพบ Snapchat เริ่มนิยมในหมู่ผู้ใหญ่มากขึ้น", 
  "Tags": [
    "Snapchat"
  ], 
  "Time": "08:34"
}