{
  "By": "nutmos", 
  "Contents": " ก่อนหน้านี้เคยมีข่าวลือว่า Apple จะเปิดตัว Apple Pay สำหรับใช้งานบนเว็บภายในปีนี้ และล่าสุดก็มีรายงานข่าวจาก DigitalTrends ว่า Apple Pay สำหรับเว็บจะเปิดตัวในงาน WWDC 2016 ที่จะจัดขึ้นในวันจันทร์นี้เลย Apple Pay สำหรับใช้งานบนเว็บนี้ ถ้าอ้างอิงจากข่าวเก่าคือจะมีลักษณะคล้าย PayPal ที่มีปุ่ม Pay with PayPal อยู่บนเว็บในขั้นตอนจ่ายเงินเพื่อให้ลูกค้าเลือกใช้งาน เพื่อลูกค้าจะได้ไม่ต้องใส่เลขบัตรเครดิตลงในหน้าเว็บโดยตรง โดยจากรายงานบอกว่า Apple ตั้งใจทำ Apple Pay เพื่อเป็นคู่แข่งกับ PayPal โดยตรง นอกจากนี้ ข้อมูลยังไม่แน่นอนว่า Apple ตั้งใจจะทำให้ Apple Pay สามารถใช้งานกับอุปกรณ์อื่นนอกเหนือจากที่เปิดให้ใช้งานปัจจุบันได้หรือไม่ โดยถ้ายึดจากข่าวเก่าคือฟีเจอร์นี้จะใช้ได้สำหรับอุปกรณ์ iOS ที่มี Touch ID ทุกเครื่อง และอาจจะใส่มาบน Mac ด้วย ที่มา - DigitalTrends   ", 
  "Date": "12/June/2016", 
  "Image-Link": [
    "https://www.blognone.com/sites/default/files/styles/thumbnail/public/topics-images/Apple_Pay_logo.svg_.png?itok=7PsSORZo", 
    "/sites/all/themes/blognone42/images/linebutton.png"
  ], 
  "Link": "https://www.blognone.com/node/82156", 
  "News": "[ไม่ยืนยัน] Apple จะเปิดตัว Apple Pay สำหรับใช้บนเว็บในงาน WWDC ปีนี้", 
  "Tags": [
    "Apple Pay", 
    "Apple", 
    "Rumor", 
    "Mobile Payment"
  ], 
  "Time": "09:03"
}