{
  "By": "mk", 
  "Contents": " ปีที่แล้ว Blogger รองรับการเชื่อมต่อผ่าน HTTPS แต่ยังต้องให้เจ้าของบล็อกเปิดใช้กันเองก่อน มาวันนี้กูเกิลประกาศเพิ่ม HTTPS ให้กับบล็อกทุกรายที่โฮสต์อยู่บนโดเมน blogspot.com ของกูเกิลเองแล้ว การเปิดใช้ HTTPS ครั้งนี้จะทำให้บล็อกบน Blogspot มีสองเวอร์ชันคือ http:// และ https:// ซึ่งในทางปฏิบัติแล้วมองว่าเป็นคนละเว็บกัน อย่างไรก็ตาม กูเกิลยังเปิดให้เจ้าของบล็อกสามารถสั่ง redirect หน้าเพจที่เป็น http:// ให้เป็น https:// ทั้งหมดได้ด้วย (อาจมีปัญหาตรงเนื้อหาบางอย่าง เช่น ภาพหรือวิดีโอ ที่ฝังเป็น http อาจไม่แสดงผลบน https) ที่มา - Google Security Blog    ", 
  "Date": "5/May/2016", 
  "Image-Link": [
    "https://www.blognone.com/sites/default/files/styles/thumbnail/public/topics-images/blogger.png?itok=hTeGoFhK", 
    "https://i.imgur.com/kvVf9u4.png", 
    "/sites/all/themes/blognone42/images/linebutton.png"
  ], 
  "Link": "https://www.blognone.com/node/80640", 
  "News": "ทุกบล็อกบน Blogger/Blogspot เปิดใช้งาน HTTPS แล้ว", 
  "Tags": [
    "Blogger", 
    "Google", 
    "HTTPS"
  ], 
  "Time": "10:49"
}