{
  "By": "nismod", 
  "Contents": " ถึงแม้ยอดขาย iPhone ไตรมาสล่าสุดของแอปเปิลจะลดลง จนมีการวิเคราะห์กันว่าอาจเป็นขาลงของแอปเปิล แต่ดูเหมือนว่าแอปเปิลยังคงมีไพ่เด็ดสำหรับ iPhone รุ่นถัดไปในการดึงดูดเงินของเราๆ ท่านๆ อยู่ Tim Cook ซีอีโอของแอปเปิลไปให้สัมภาษณ์กับสถานีโทรทัศน์ CNBC ของสหรัฐฯ ระบุ iPhone รุ่นใหม่จะเป็นการปรับปรุงครั้งใหญ่ เราจะมอบสิ่งที่คุณไม่รู้ว่าคุณต้องการในวันนี้ และคุณจะขาดมันไม่ได้ จนคุณต้องหันกลับไปมองว่า ที่ผ่านมาเราอยู่มาได้อย่างไรโดยไม่มีมัน  \"We are going to give you things that you can't live without, that you just don't even know you need today. You will look back and wonder 'how did I live without this? \"  ซีอีโอของแอปเปิลเปิดเผยยุทธศาสตร์ของบริษัทด้วยว่า โดยเฉลี่ยแล้ว แอปเปิลจะเข้าซื้อบริษัทอื่นเดือนละอย่างน้อย 1 บริษัท เพื่อนำเทคโนโลยีและบุคลากรเก่งๆ มาร่วมงาน นอกจากนี้ Cook ยังพูดถึงการที่ยอดขาย iPhone และรายได้ตกลงด้วยว่า บริษัทก็ยังคงเดินหน้าต่อไปได้ราบรื่น บริษัทมองว่าสามารถทำกำไรได้เท่าไหร่ มากกว่าที่จะนำตัวเลขมาเปรียบเทียบว่าเพิ่มขึ้นหรือลดลง เขากล่าวยอมรับด้วยว่าตลาดสมาร์ทโฟนอาจถึงจุดอิ่มตัวแล้ว แต่บริษัทก็ยังมองว่าตลาดเกิดใหม่จะเข้ามาช่วยเหลือและทดแทนตลาดเดิมๆ อยู่ดี ที่มา - Tech Insider, Gizmodo   ", 
  "Date": "3/May/2016", 
  "Image-Link": [
    "https://www.blognone.com/sites/default/files/styles/thumbnail/public/topics-images/tim-cook.jpeg?itok=g62IDVyD", 
    "/sites/all/themes/blognone42/images/linebutton.png"
  ], 
  "Link": "https://www.blognone.com/node/80553", 
  "News": "Tim Cook เผย iPhone รุ่นใหม่จะมอบสิ่งที่คุณไม่คิดว่าจำเป็นต้องมี และจะขาดมันไม่ได้", 
  "Tags": [
    "Tim Cook", 
    "Apple", 
    "iPhone"
  ], 
  "Time": "11:41"
}