{
  "By": "mk", 
  "Contents": "
ค่าย OnePlus ออกมาประกาศนโยบายการวางขาย OnePlus 3 ที่จะเปิดตัววันที่ 14 มิถุนายนนี้ (แถลงผ่านแว่น VR) ว่าจะเลิกใช้ระบบ invite แบบเดิมๆ ที่เคยทำมาแล้ว และเปิดให้ลูกค้าสามารถสั่งซื้อสินค้าได้โดยตรงผ่านเว็บไซต์ นับตั้งแต่วันแรกที่เปิดตัว
OnePlus บอกว่าสมัยก่อตั้งบริษัทใหม่ๆ ขนาดยังเล็ก และประเมินความต้องการของตลาดไม่ถูก จึงคิดระบบ invite ขึ้นมาเพื่อให้บริหารจัดการสต๊อกได้ แต่ปัจจุบันบริษัทเติบใหญ่พอแล้ว และมั่นใจว่าสามารถเปิดขาย OnePlus 3 ได้เต็มที่มากขึ้น
ที่มา - OnePlus
วิดีโอชวนชมงานเปิดตัว OnePlus 3
 ", 
  "Date": "2/June/2016", 
  "Image-Link": "https://www.blognone.com/sites/default/files/badges/badge-founder.png", 
  "Link": "https://www.blognone.com/node/81728", 
  "News": "OnePlus 3 เลิกใช้ระบบ Invite เพื่อซื้อ พร้อมขายทันทีตั้งแต่วันเปิดตัว", 
  "Tags": [
    "OnePlus", 
    "Mobile", 
    "OnePlus 3"
  ], 
  "Time": "09:22"
}