{
  "By": "nrad6949", 
  "Contents": " หลายๆ คนอาจจะรู้จักกระแสของการกินคลีน ซึ่งก็คือการกินอาหารที่ดีต่อสุขภาพและผ่านกระบวนการ (process) ให้น้อยที่สุด ซึ่งถ้าหากปฏิบัติจนมากเกินไป อาจทำให้มีอาการทางจิตที่เรียกว่า orthorexia ซึ่งก็คือการควบคุมการกินอาหารมากเกินไปจนมีผลต่อสุขภาพ (malnutrition) ซึ่งกำลังเป็นปัญหาในสังคมตะวันตก โดยนักวิชาการและจิตแพทย์บางส่วน ระบุว่าสื่อสังคมออนไลน์ (social media) มีผลที่ทำให้เกิดเหตุการณ์เช่นนี้ Natalia Fidyka จิตแพทย์จากเขต Cottesloe นครเพิร์ธ ออสเตรเลีย ระบุว่าเธอต้องให้การรักษาผู้ป่วยเหล่านี้ ซึ่งมักจะได้รับอิทธิพลจากสื่อสังคมออนไลน์ที่พยายามนำเสนอการเปรียบเทียบภาพลักษณ์ทางสุขภาพจำนวนมาก แต่ไม่มีความเข้าใจด้านโภชนาการที่ดี หรือให้ข้อมูลด้านโภชนาหรือความเชื่อที่ผิดไปจากข้อเท็จจริง ทำให้คนเหล่านี้พยายามทำตามด้วยความเชื่อผิดๆ จนทำให้มีผลต่อสุขภาพในท้ายที่สุด ด้าน Tama Leaver อาจารย์ประจำภาควิชาอินเทอร์เน็ตศึกษา มหาวิทยาลัยเคอร์ทิน ระบุว่าในโลกของอินเทอร์เน็ต โดยเฉพาะสื่อสังคมออนไลน์ มีสภาพที่เอื้อให้เกิดการสร้าง \"ดาราขนาดย่อม\" (micro-celebrities) บนอินเทอร์เน็ต ซึ่งคนเหล่านี้ก็พร้อมที่จะทำตามและเชื่อถือสิ่งที่ดาราขนาดย่อมพูดหรือแสดงออกในสื่อสังคมออนไลน์ ทั้งที่จริงแล้วสื่อสังคมออนไลน์มีลักษณะของการ \"คัดสรร\" (curate) บางส่วนของชีวิตที่เราอยากให้คนอื่นเห็น และบางส่วนที่ถูกปิดเอาไว้ไม่ให้คนอื่นเห็น โดยเขาระบุว่าแม้สื่อออนไลน์จะไม่ใช่ปัจจัยทั้งหมดที่นำมาสู่สภาวะทางจิตนี้ แต่ก็มีส่วนทำให้พฤติกรรมเหล่านี้รุนแรงขึ้น ที่มา - PerthNow    ", 
  "Date": "2/May/2016", 
  "Image-Link": [
    "https://www.blognone.com/sites/default/files/styles/thumbnail/public/topics-images/health.png?itok=Ii1bRrE2", 
    "http://i.imgur.com/pRHDhEU.jpg", 
    "/sites/all/themes/blognone42/images/linebutton.png"
  ], 
  "Link": "https://www.blognone.com/node/80530", 
  "News": "นักวิชาการระบุ สื่อสังคมออนไลน์มีส่วนทำให้พฤติกรรมกินคลีน รุนแรงจนเป็นอาการทางจิต", 
  "Tags": [
    "Psychology", 
    "Health", 
    "Social Network", 
    "Food"
  ], 
  "Time": "20:41"
}