{
  "By": "mk", 
  "Contents": " จากข่าว Windows 10 Anniversary Update มีระบบ Bash ของ Ubuntu ผ่านความร่วมมือกับ Canonical โดยเทคโนโลยีเบื้องหลังคือฝังระบบ system call ของลินุกซ์ลงไปในวินโดวส์เลย (ชื่ออย่างเป็นทางการคือ Windows Linux Subsystem หรือ WLS) การที่ Windows 10 มีระบบ WLS ฝังมาด้วย จึงเป็นไปได้ที่จะติดตั้งและรันแอพพลิเคชันจากโลกลินุกซ์บนวินโดวส์โดยตรง ไม่ต้องใช้เทคนิคการรัน virtual machine เข้าช่วย ล่าสุดมีนักพัฒนารายหนึ่งชื่อ Guerra24 สามารถติดตั้งและรันระบบเดสก์ท็อป Ubuntu Unity และ xfce บน Windows 10 ได้แล้ว ถึงแม้การทำงานจะยังไม่สมบูรณ์นัก เช่น รันแอพพลิเคชันอื่นๆ โดยตรงไม่ได้ แต่ก็เป็นสัญญาณอันดีของความคืบหน้าในการรันแอพพลิเคชันฝั่งลินุกซ์บนวินโดวส์ครับ ที่มา - GitHub, OMG Ubuntu    ", 
  "Date": "11/July/2016", 
  "Image-Link": [
    "https://www.blognone.com/sites/default/files/styles/thumbnail/public/topics-images/ubuntu.png?itok=gAATZaZR", 
    "https://i.imgur.com/U7Aarg2.png", 
    "/sites/all/themes/blognone42/images/linebutton.png"
  ], 
  "Link": "https://www.blognone.com/node/83262", 
  "News": "ระบบเดสก์ท็อป Ubuntu Unity รันบน Windows 10 ได้แล้ว ไม่ต้องผ่าน VM", 
  "Tags": [
    "Ubuntu", 
    "Unity", 
    "Windows 10", 
    "Linux"
  ], 
  "Time": "15:05"
}