{
  "By": "nutmos", 
  "Contents": " Netflix ได้เปิดตัวเว็บทดสอบความเร็วอินเทอร์เน็ต fast.com โดยสามารถทดสอบได้ทั้งอินเทอร์เน็ตมือถือและ broadband โดย fast.com จะมีดีไซน์ที่เรียบง่าย และไม่มีโฆษณา fast.com จะใช้เซิร์ฟเวอร์ของ Netflix ในการทดสอบ ฉะนั้นหากผู้ใช้พบปัญหาด้านการสตรีมมิ่งก็สามารถใช้ fast.com ทดสอบความเร็วอินเทอร์เน็ตได้เลย โดย fast.com จะสามารถใช้งานได้ทุกประเทศ และใช้ฟรี ไม่ว่าจะเป็นสมาชิก Netflix หรือไม่ก็ตาม ผู้ใช้ที่สนใจสามารถเข้าไปทดสอบได้ที่ fast.com ที่มา - Netflix   ", 
  "Date": "18/May/2016", 
  "Image-Link": [
    "https://www.blognone.com/sites/default/files/styles/thumbnail/public/topics-images/netflix300.png?itok=u9NKdk4d", 
    "/sites/all/themes/blognone42/images/linebutton.png"
  ], 
  "Link": "https://www.blognone.com/node/81164", 
  "News": "Netflix เปิดตัวเว็บทดสอบความเร็วอินเทอร์เน็ต fast.com", 
  "Tags": [
    "Netflix"
  ], 
  "Time": "23:48"
}