{
  "By": "nismod", 
  "Contents": " สำนักข่าว Los Angeles Times รายงานว่าตำรวจแอลเอ สามารถปลดล็อค iPhone 5s ของ April Jace เหยื่อผู้เสียชีวิตรายหนึ่งตามคำสั่งศาล ในช่วงเวลาที่ไล่เลี่ยกับการที่ FBI สามารถปลดล็อค iPhone 5c ที่เป็นของกลางจากเหตุกราดยิงในเมือง San Bernardino คดีนี้เกิดขึ้นตั้งแต่ช่วงปี 2014 โดยสามีของนาง April Jace ตกเป็นผู้ต้องสงสัยฆาตกรรมภรรยาตัวเอง แต่ทว่า iPhone ของผู้เสียชีวิต ที่ตำรวจคาดว่าจะมีเบาะแสและหลักฐานในการเอาผิดกลับถูกล็อคด้วยรหัส ทำให้ในเดือนมิถุนายน 2014 ศาลได้ออกคำสั่งให้แอปเปิลช่วยตำรวจปลดล็อคเครื่อง และดึงข้อมูลออกมา ซึ่งก็ไม่สำเร็จ ก่อนที่ผู้เชี่ยวชาญของเจ้าหน้าที่จะสามารถปลดล็อคเครื่องได้สำเร็จ อย่างไรก็ตามไม่มีรายงานว่าการปลดล็อคครั้งนี้ มีความเกี่ยวข้องกับการปลดล็อค iPhone 5c ในเคสกราดยิงเมือง San Bernardino หรือไม่ รวมไปถึงไม่มีการระบุว่า iPhone 5s ในเคสนี้ใช้ iOS เวอร์ชันเก่าหรือใหม่ด้วย ที่มา - LA Times   ", 
  "Date": "6/May/2016", 
  "Image-Link": [
    "https://www.blognone.com/sites/default/files/styles/thumbnail/public/topics-images/Flag_of_the_United_States.svg_.png?itok=D_Hwf4EE", 
    "/sites/all/themes/blognone42/images/linebutton.png"
  ], 
  "Link": "https://www.blognone.com/node/80675", 
  "News": "ตำรวจลอสแอนเจลิสสามารถปลดล็อค iPhone 5s ของเหยื่อผู้เสียชีวิต", 
  "Tags": [
    "iPhone 5s", 
    "USA", 
    "Security"
  ], 
  "Time": "10:48"
}