{
  "By": "nismod", 
  "Contents": " หลังจากที่มีการแซวกันมาตลอดเรื่องของการเกิดแก๊งร็อคเก็ต (กลุ่มอาชญากรรมในโลกโปเกมอน) เมื่อเกม Pokemon Go ถูกปล่อยออกมาให้เล่นจริง ล่าสุดเกมนี้ถูกใช้กลายเป็นเครื่องมือของการก่ออาชญากรรมเข้าจริงแล้ว เมื่อตำรวจในรัฐมิสซูรีสามารถจับคนร้ายได้ 4 คน จากการใช้ Pokemon Go หาเหยื่อปล้น คนร้ายทั้ง 4 คนมีอายุระหว่าง 16-18 ปีสารภาพว่าจะตระเวนหาเหยื่อบริเวณที่เป็นจุด PokeStop บน Pokemon Go ก่อนจะใช้อาวุธปืนจี้เอาทรัพย์สินไป โดยมีเหยื่อที่ถูกจี้แล้ว 8-9 ราย ทั้ง 4 ถูกตั้งข้อหาชิงทรัพย์และก่ออาชญากรรมโดยมีอาวุธปืนในครอบครอง และทางตำรวจตั้งจำนวนเงินประกันตัวไว้ที่ 100,000 เหรียญสหรัฐ ที่มา - Gizmodo    ", 
  "Date": "11/July/2016", 
  "Image-Link": [
    "https://www.blognone.com/sites/default/files/styles/thumbnail/public/topics-images/pokemon.png?itok=7HuOXT6S", 
    "https://i.imgur.com/l5P9KWa.png", 
    "/sites/all/themes/blognone42/images/linebutton.png"
  ], 
  "Link": "https://www.blognone.com/node/83251", 
  "News": "แก๊งร็อคเก็ตก็มา!? คนร้าย 4 คนโดนจับ หลังใช้ Pokemon Go หาเหยื่อปล้น", 
  "Tags": [
    "Pokemon", 
    "Crime", 
    "USA"
  ], 
  "Time": "11:00"
}