{
  "By": "nismod", 
  "Contents": " สืบเนื่องจากถ้อยแถลงของศาลอนุญาโตตุลาการถาวร (Permanent Court of Arbitration - PCA) ในกรุงเฮก ประเทศเนเธอร์แลนด์ ที่ระบุว่าจีนไม่มีความชอบธรรมในการอ้างสิทธิเหนือพื้นที่ในทะเลจีนใต้ จากการอ้างเพียงหลักฐานทางประวัติศาสตร์นั้น ชาวจีนจำนวนหนึ่งจึงออกมาแสดงความไม่พอใจต่อแถลงการณ์ดังกล่าว ด้วยการทุบและทำลาย iPhone ก่อนจะโพสต์ภาพลงบนโซเชียลมีเดีย พร้อมข้อความเรียกร้องให้แบนสินค้าจากสหรัฐ เนื่องจากมองว่าสหรัฐอยู่เบื้องหลัง เพราะความเป็นพันธมิตรใกล้ชิดกับฟิลิปปินส์ซึ่งเป็นคู่กรณีของจีนในประเด็นพื้นที่ในทะเลจีนใต้นี้ ก็ไม่ทราบเหมือนกันว่าจากทั้งปัญหาการฟ้องร้อง มาจนประเด็นทางการเมืองนี้ จะส่งผลต่อยอดขาย iPhone ที่ตกลงเมื่อเดือนที่แล้ว มากน้อยแค่ไหน ที่มา - Asian Correspondent   ", 
  "Date": "13/July/2016", 
  "Image-Link": [
    "https://www.blognone.com/sites/default/files/styles/thumbnail/public/topics-images/china.png?itok=DbpIQN62", 
    "/sites/all/themes/blognone42/images/linebutton.png"
  ], 
  "Link": "https://www.blognone.com/node/83371", 
  "News": "ชาวจีนทุบ iPhone เรียกร้องแบนสินค้าสหรัฐ ตอบโต้กรณีกรรมสิทธิ์เหนือทะเลจีนใต้", 
  "Tags": [
    "China", 
    "iPhone"
  ], 
  "Time": "11:25"
}