{
  "By": "nrad6949", 
  "Contents": " ตั้งแต่เมื่อวานนี้ เริ่มมีการรายงานจากผู้ใช้บางคนบน Facebook และเว็บไซต์ Pantip.com (รวมไปถึงโพสต์ในส่วน forum ของที่นี่) ว่า Microsoft Office for Mac เริ่มสามารถตัดคำไทยได้แล้ว จากโพสต์บน Facebook ของผู้ใช้ที่มีชื่อว่า Kan Yuenyong ระบุว่าคนที่ต้องการทดสอบความสามารถในการตัดคำภาษาไทยนี้ จะต้องเป็นผู้ทดสอบตามโครงการ Office Insider โดยจะได้รับอัพเดต สำหรับ Microsoft Word เป็นรุ่น 15.23.0 ซึ่งจะสามารถตัดคำไทยได้แล้ว ส่วนกระทู้จากเว็บไซต์ Pantip.com ระบุว่าเมื่อได้รับอัพเดตเป็น 15.24.0 ก็จะสามารถตัดคำไทยได้ และมีการตรวจการสะกดคำผิดภาษาไทยมาด้วย อย่างไรก็ตาม อัพเดตนี้ยังไม่ลงมาถึงผู้ใช้ตามปกติที่ไม่ใช่ผู้ใช้ซึ่งอยู่ในโปรแกรม Office Insider ดังนั้นอาจจะต้องรออีกสักเล็กน้อยครับ ที่มา - Facebook ของคุณ Kan Yuenyong, กระทู้จาก Pantip.com ผ่าน กระทู้ของคุณ HudchewMan  ภาพจาก Facebook ของคุณ Kan Yuenyong   ", 
  "Date": "10/June/2016", 
  "Image-Link": [
    "https://www.blognone.com/sites/default/files/styles/thumbnail/public/topics-images/Ofc_rgb_Orng166_D.png?itok=lEJctquv", 
    "https://i.imgur.com/eVtbCJS.jpg", 
    "/sites/all/themes/blognone42/images/linebutton.png"
  ], 
  "Link": "https://www.blognone.com/node/82128", 
  "News": "Microsoft Office for Mac เริ่มตัดคำไทยได้แล้ว ยังมีเฉพาะ Word, สำหรับ Office Insider", 
  "Tags": [
    "Microsoft Office", 
    "Mac", 
    "Microsoft", 
    "Thai"
  ], 
  "Time": "20:20"
}