{
  "By": "lew", 
  "Contents": " การลงมือขโมยเงินด้วยการใช้ข้อมูลบัตรเครดิตที่ถูกขโมยมาในญี่ปุ่นครั้งใหญ่ มีข้อมูลเพิ่มเติมเข้ามาแล้วในวันนี้ โดยบัตรทั้งหมดเป็นบัตรเครดิตที่ออกโดย Standard Bank ในแอฟริกาใต้ ทางธนาคารระบุว่าความเสียหายรวม 19 ล้านดอลลาร์สหรัฐฯ สูงกว่ายอดที่มีการกดเงินออกไปจากญี่ปุ่น โดยทางธนาคารระบุว่าลูกค้าจะไม่ต้องจ่ายเงินเหล่านี้แต่อย่างใด จนตอนนี้ก็ยังไม่แน่ชัดว่าข้อมูลบัตรเหล่านี้ได้มาจากแหล่งใด อาจจะเป็นการแฮกเซิร์ฟเวอร์ที่เก็บข้อมูลบัตรหรือใช้ skimmer รวบรวมข้อมูลมา กลุ่มอาชญากรเลือกกดเงินตั้งแต่ตีห้าในวันอาทิตย์ที่ 15 พฤษภาคมตามเวลาญี่ปุ่น ไปจนถึงแปดโมงเช้า ขณะที่เป็นเวลาสี่ทุ่มวันเสาร์ของแอฟริกาใต้ ทำให้กระบวนการตรวจสอบความผิดปกติทำได้ล่าช้า โดยสุดท้ายธนาคารแห่งหนึ่งของญี่ปุ่นเป็นผู้รายงานความผิดปกตินี้ ตู้เอทีเอ็มที่ถูกกด กระจายตัวไปในโตเกียว, คานากาว่า, ไอจิ, โอซาก้า, ฟุกุโอกะ, นางาซากิ และเขตอื่นๆ รวม 16 เขต ญี่ปุ่นเป็นหนึ่งในห้าชาติที่ VISA ให้เวลากำหนดเงื่อนไขความรับผิดชอบต่อการฉ้อโกงบัตรเครดิตในกรณีที่ไม่รับบัตรชิป (liability shift) เป็นกลุ่มสุดท้ายไปจนถึงเดือนตุลาคม 2017 ในกลุ่มนี้ได้แก่ ไทย, ญี่ปุ่น, จีน, อินเดีย, และสหรัฐฯ ที่มา - ArsTechnica  ภาพจาก Pixabay   ", 
  "Date": "24/May/2016", 
  "Image-Link": [
    "https://www.blognone.com/sites/default/files/styles/thumbnail/public/topics-images/flag-of-japan.png?itok=E37979Qt", 
    "http://i.imgur.com/V4v9GZX.jpg", 
    "/sites/all/themes/blognone42/images/linebutton.png"
  ], 
  "Link": "https://www.blognone.com/node/81327", 
  "News": "การขโมยเงินผ่าน ATM ครั้งใหญ่ในญี่ปุ่น: บัตรจาก Standard Bank, เลือกเวลาลงมือมาอย่างดี", 
  "Tags": [
    "Banking", 
    "South Africa", 
    "Japan"
  ], 
  "Time": "11:43"
}