{
  "By": "nrad6949", 
  "Contents": "
เว็บไซต์ข่าวไอที Tech Insider รายงานข่าวลือว่า Toyota โดยแผนก Toyota Research Institute กำลังอยู่ในระหว่างการเจรจาขั้นตอนสุดท้ายกับ Google เพื่อเข้าซื้อ Boston Dynamics แผนกทำหุ่นยนต์ของตัวเองที่เข้าซื้อกิจการมาเมื่อปี 2013 (ปัจจุบันอยู่ภายใต้การดูแลของ Alphabets) และเคยมีข่าวลือเมื่อเดือนมีนาคมว่าเตรียมจะขายออกไป
Tech Insider อ้างแหล่งข่าวของตนเองที่ไม่เปิดเผยชื่อ โดยระบุว่าตัวเลขของมูลค่าการเข้าซื้อยังไม่สิ้นสุด แต่อยู่ในขั้นตอนใกล้จะเสร็จสิ้นแล้ว (ink is nearly dry) ซึ่งเมื่อทาง Tech Insider สอบถามไปยัง Google ก็ได้รับการปฏิเสธที่จะแสดงความเห็นถึงข่าวดังกล่าว
ทั้งนี้ Gill Pratt ซีอีโอของ Toyota Research Institute เคยทำงานร่วมกับ Marc Raibert ซีอีโอและผู้ก่อตั้ง Boston Dynamics ที่ MIT leg lab ด้วยกันมาก่อน และรับตำแหน่งดูแลต่อหลังจากที่ Raibert ลาออกไปสร้าง Boston Dynamics
ที่มา - Tech Insider

 ", 
  "Date": "29/May/2016", 
  "Image-Link": "https://www.blognone.com/sites/default/files/badges/badge-writer.png", 
  "Link": "https://www.blognone.com/node/81559", 
  "News": "[ลือ] Toyota กำลังอยู่ในขั้นตอนสุดท้าย เจรจาซื้อ Boston Dynamics จาก Google", 
  "Tags": [
    "Toyota", 
    "Alphabet", 
    "Robotics", 
    "Google", 
    "Rumor"
  ], 
  "Time": "09:48"
}