{
  "By": "nrad6949", 
  "Contents": "
CNN Money รายงานเมื่อวันศุกร์ที่ผ่านมาว่า ทางการเกาหลีเหนือเปิดตัวเว็บไซต์สื่อสังคมออนไลน์ (social network) ตัวใหม่ ซึ่งทำเลียนแบบ Facebook ทุกประการ และสามารถเข้าใช้งานได้จากต่างประเทศ
เว็บดังกล่าวถูกค้นพบโดย Doug Madory ผู้จัดการฝ่ายวิเคราะห์อินเทอร์เน็ตของ Dyn บริษัทผู้ให้บริการ Dynamic DNS ชื่อดัง โดยระบุว่าเป็นเรื่องน่าแปลกที่เว็บไซต์สามารถเข้าถึงได้จากต่างประเทศ ตัวเว็บไซต์ใช้ระบบของ phpDolphin (ไม่แจกฟรี) ในการทำงาน และมีหน้าตาเหมือน Facebook ทุกประการ โดยมีคนเริ่มไปตั้งบัญชีผู้ใช้บ้างแล้ว บางบัญชีถึงกับล้อ (parody) ว่าเป็น Kim Jong Un ผู้นำสูงสุดของเกาหลีเหนือด้วย
Martyn Williams ผู้สื่อข่าวของเว็บไซต์ North Korea Tech ที่รายงานข่าวไอทีในเกาหลีเหนือเป็นประจำ ระบุว่าเว็บไซต์นี้อาจจะถูกเอาลงไม่ให้เข้าถึงจากอินเทอร์เน็ตเมื่อใดก็ได้ ซึ่งหลังจากมีข่าว ผมพยายามลองเข้าแล้ว แต่ก็ไม่สามารถเข้าได้ กลับถูก redirect ไปยังคลิปวิดีโอ YouTube อันหนึ่งแทนครับ (แปลว่าน่าจะเอาลงไปแล้ว)
ที่มา - North Korea Tech, CNN Money
 ", 
  "Date": "29/May/2016", 
  "Image-Link": "https://www.blognone.com/sites/default/files/badges/badge-writer.png", 
  "Link": "https://www.blognone.com/node/81561", 
  "News": "เกาหลีเหนือเปิดตัวสื่อสังคมออนไลน์ เลียนแบบ Facebook", 
  "Tags": [
    "North Korea", 
    "Social Network"
  ], 
  "Time": "10:17"
}