{
  "By": "ตะโร่งโต้ง", 
  "Contents": "
Google ประกาศข่าวเมื่อวันพุธที่ผ่านมาว่ากำลังจะตั้งศูนย์พัฒนาเทคโนโลยีรถยนต์ไร้คนขับแห่งใหม่ในเขตเมือง Novi ห่างจากเมือง Detroit ออกไปราว 50 กิโลเมตร
ช่วง 2-3 ปีหลังมานี้ มีวิศวกรของ Google หลายคนที่ทำงานจากระยะไกลจาก Detroit เพื่อร่วมพัฒนารถยนต์ไร้คนขับกับทีมที่สำนักงานใหญ่ใน California ด้วยเหตุนี้ Google จึงตัดสินใจจัดตั้งศูนย์พัฒนาเทคโนโลยีรถยนต์ไร้คนขับที่เมือง Novi นี้เพื่อให้ทีมงานทำงานกันได้สะดวกมีประสิทธิภาพยิ่งขึ้น การตั้งศูนย์ในละแวก Detroit เช่นนี้ ทำให้ Google มีโอกาสหาความร่วมมือจากคนเก่งๆ ในวงการรถยนต์จากอดีตเมืองหลวงแห่งอุตสาหกรรมรถยนต์ได้ง่ายยิ่งขึ้น
ศูนย์พัฒนาเทคโนโลยีรถยนต์ไร้คนขับของ Google นี้จะมีพื้นที่ใช้งานขนาด 53,000 ตารางฟุต โดยจะเปิดใช้งานได้ภายในปีนี้ และงานแรกที่จะทำกันที่นี่คือการพัฒนารถยนต์ไร้คนขับโดยการดัดแปลงรถตู้ไฮบริด Chrysler Pacifica ซึ่งเป็นส่วนหนึ่งของแผนงานจากความร่วมมือระหว่าง Google และ Fiat Chrysler
ที่มา - +SelfDrivingCar

 ", 
  "Date": "29/May/2016", 
  "Image-Link": "https://www.blognone.com/sites/default/files/badges/badge-writer.png", 
  "Link": "https://www.blognone.com/node/81581", 
  "News": "Google เตรียมเปิดศูนย์เทคโนโลยีรถยนต์ไร้คนขับใกล้ Detroit", 
  "Tags": [
    "Self-Driving Car", 
    "Google Self-Driving Car", 
    "Google"
  ], 
  "Time": "22:00"
}