{
  "By": "twometre", 
  "Contents": "
ชีวิตของ early adopters ใช่ว่าจะสำราญสุขเสมอไป เมื่อมีเรื่องของปัญหารอบพัดลมของกราฟิกการ์ด NVIDIA GeForce GTX 1080 รุ่น Founders Edition มีปัญหาเสียงของพัดลมที่อยู่ดีๆ ก็เร่งรอบหมุนจาก 2,000 เป็น 3,000 รอบต่อนาทีเองโดยไม่มีเหตุจำเป็น แล้วก็ค่อยลดรอบลงไป ไม่เกี่ยวกับการดึงโหลดหรืออุณหภูมิจีพียูสูงขึ้นแต่อย่างใด ผลคือเกิดเสียงดังน่ารำคาญทั้งที่ไม่เล่นเกม มีผู้ใช้หลายรายพบปัญหาเดียวกัน ใช้โปรแกรมปรับรอบจากภายนอก (อาทิ EVGA Precision) ก็ไม่ได้ หากมีความคืบหน้าเรื่องการแก้ไขจะมาอัพเดตอีกครั้งครับ
ที่มา - TechPowerUp


 ", 
  "Date": "29/May/2016", 
  "Image-Link": "https://www.blognone.com/sites/default/files/badges/badge-writer.png", 
  "Link": "https://www.blognone.com/node/81582", 
  "News": "ผู้ใช้ GeForce GTX 1080 Founders Edition ครวญ เจอปัญหาพัดลมเร่งรอบเอง", 
  "Tags": [
    "GeForce", 
    "NVIDIA Pascal", 
    "Hardware"
  ], 
  "Time": "22:12"
}