{
  "By": "Job_The_Gamer", 
  "Contents": "
Humble Bundle จัดโปรโมชั่นรวมเกมจากค่าย Ubisoft เพื่อการกุศลอีกครั้ง โดยผู้ซื้อสามารถตั้งราคาได้ตามศรัทธาคือจ่ายให้เท่าไหร่ก็ได้ตั้งแต่ 1 ดอลลาร์สหรัฐขึ้นไป
รายได้จากการขายเกมจะนำไปบริจาคเข้ามูลนิธิและองค์กรไม่แสวงหาผลกำไรอย่าง Extra Life / Children's Miracle Network Hospitals, Stack-Up และ Girls Who Code โดยที่ผู้ซื้อสามารถเลือกสัดส่วนเงินที่จะบริจาคได้เองหรือจะเลือกให้ทิปกับโครงการ Humble Bundle หรือเลือกจ่ายเงินให้ทางค่ายเกมก็ทำได้เช่นกัน
และในครั้งนี้เกมในชุด Humble Ubisoft Bundle Encore ประกอบไปด้วย
เกมที่ได้รับเมื่อจ่ายขั้นต่ำ 1 ดอลลาร์สหรัฐ

Call of Juarez: Gunslinger (Steam)
Grow Home (Steam)
Raymans Origins (Uplay)

เกมที่ได้รับเมื่อจ่ายเกินค่าเฉลี่ยที่คิดจากเงินที่ได้จากการขายทุกๆ ครั้ง (ขณะที่เขียนข่าวอยู่ที่ 6.85 ดอลลาร์สหรัฐ)

Far Cry 3 (Uplay)
Tom Clancy's Splinter Cell Blacklist (Uplay)
Assassin's Creed Chronicles: China (Uplay)
และเกมที่ยังไม่ได้เปิดเผย

เกมที่ได้รับเมื่อจ่ายขั้นต่ำ 15 ดอลลาร์สหรัฐ

Assassin's Creed Rouge (Uplay)
The Crew (Uplay)

เมื่อจ่ายขั้นต่ำ 75 ดอลลาร์สหรัฐจะได้รับ

Tom Clancy's The Division (Uplay)
เสื้อยืด Tom Clancy's The Division

ตัวเกมจะมาในรูปแบบของคีย์ให้ไปลงทะเบียนกับสโตร์ที่ระบุไว้ข้างต้น โปรโมชั่นนี้จัดขึ้นเป็นเวลา 2 อาทิตย์ตอนนี้ผ่านไปแล้ว 5 วันยังเหลือเวลาให้คิดอีก 9 วันครับ
ที่มา - Humble Bundle blog

 ", 
  "Date": "29/May/2016", 
  "Image-Link": "https://www.blognone.com/sites/default/files/badges/badge-writer.png", 
  "Link": "https://www.blognone.com/node/81584", 
  "News": "กลับมาอีกครังกับ Humble Ubisoft Bundle โปรโมชั่นรวมเกมดังเพื่อการกุศล เริ่มต้นที่ 1 ดอลลาร์", 
  "Tags": [
    "Ubisoft", 
    "Games", 
    "Humble Bundle"
  ], 
  "Time": "22:16"
}