{
  "By": "nrad6949", 
  "Contents": " Gearbest เว็บไซต์ด้านพาณิชยกรรมอิเล็กทรอนิกส์จากจีน ประกาศเปิดให้สั่งจอง Xiaomi Yi 2 4K Action Camera รุ่นปรับปรุงจาก Xiaomi ที่เปิดตัวไปเมื่อปีที่แล้ว คุณสมบัติที่เปลี่ยนแปลงไปจากเดิมของ Yi 2 คือการปรับสเปคให้ทัดเทียมกับคู่แข่งอย่าง GoPro Hero4 โดยใช้ชิป Ambarella A9 เป็นหน่วยประมวลผล, จอสัมผัส 2.19 นิ้วที่ความละเอียด 330 PPI และขยายความกว้างของเครื่องเพิ่มขึ้นแต่ก็ยังเล็กกว่า GoPro Hero4 และสามารถบันทึกภาพที่ความละเอียด 4K ได้ยาวนานต่อเนื่อง 110 นาทีที่ 30 เฟรมต่อวินาที ราคาอยู่ที่ 249.99 ดอลลาร์สหรัฐ (ประมาณ 8,800 บาท) และทาง Gearbest ระบุว่าจะเริ่มส่งมอบให้ภายในสิ้นเดือนหน้า ที่มา - Gearbest ผ่าน The Verge    ", 
  "Date": "16/May/2016", 
  "Image-Link": [
    "https://www.blognone.com/sites/default/files/styles/thumbnail/public/topics-images/xiaomi.png?itok=W_8-Phci", 
    "https://i.imgur.com/p2yydmS.jpg", 
    "/sites/all/themes/blognone42/images/linebutton.png"
  ], 
  "Link": "https://www.blognone.com/node/81001", 
  "News": "Gearbest เปิดให้สั่งจอง Xiaomi Yi 2 4K เพิ่มความสามารถเทียบเท่าคู่แข่ง", 
  "Tags": [
    "Xiaomi", 
    "YiCamera", 
    "Camera", 
    "China"
  ], 
  "Time": "08:52"
}