{
  "By": "nismod", 
  "Contents": " LG ได้เปิดตัวกล้องแอคชันที่ทาง LG เคลมว่าเป็นกล้องตัวแรกที่รองรับ LTE ได้ทั่วโลก โดยกล้องของ LG รองรับการถ่ายวิดีโอที่ความละเอียด UHD 30fps, FullHD 60fps และ HD 120fps ขณะที่การถ่ายทอดสดรองรับที่ความละเอียด HD 30fps ส่วนความละเอียดของภาพถ่ายอยู่ที่ 12.3 ล้านพิกเซล ตัวกล้องรองรับ micro SD ได้สูงสุดถึง 2TB แรม 2GB และรองรับการเชื่อมต่อผ่าน LTE, 3G, Wi-Fi 802.11 b,g,n, Bluetooth 4.1 และ USB Type-C น้ำหนักอยู่ที่ 95 กรัม พร้อมมาตรฐานกันน้ำกันฝุ่น IP67 อยู่ใต้น้ำได้ลึกสุด 1 เมตรนาน 30 นาที ขณะที่แบตเตอรี่อยู่ที่ 1,400 mAh ซึ่งสามารถถ่ายวิดีโอที่ความละเอียด HD ได้สูงสุด 4 ชั่วโมง ส่วนราคาและวันวางจำหน่ายจะมีการประกาศอีกครั้งครับ ที่มา - LG Newsroom     ", 
  "Date": "13/May/2016", 
  "Image-Link": [
    "https://www.blognone.com/sites/default/files/styles/thumbnail/public/topics-images/lg.png?itok=fjh-dS4q", 
    "https://farm8.staticflickr.com/7687/26375681894_1dd0656ac8_z.jpg", 
    "https://farm8.staticflickr.com/7285/26376943853_97ee9711e2_z.jpg", 
    "/sites/all/themes/blognone42/images/linebutton.png"
  ], 
  "Link": "https://www.blognone.com/node/80922", 
  "News": "LG เปิดตัวกล้องแอคชัน รองรับ LTE ถ่ายทอดขึ้น YouTube Live ได้ในตัว", 
  "Tags": [
    "LG", 
    "Camera"
  ], 
  "Time": "10:06"
}