{
  "By": "lew", 
  "Contents": " เมื่อเดือนเมษายนทาง Allwinner เคยโชว์โน้ตบุ๊กเครื่องต้นแบบที่ระบุว่าจะมีราคาเพียง 79 ดอลลาร์ แต่ตอนนี้เครื่อง Hybrx ก็เปิดระดมทุนจริงแล้วโดยมีราคาเริ่มต้นเพียง 69 ดอลลาร์เท่านั้น เครื่องรุ่นเริ่มต้นใช้ชิป Allwinner A64 ภายในเป็นคอร์ A53 สี่คอร์ รุ่นเริ่มต้นแรม 1GB พร้อมหน่วยความจำแฟลช 16GB รุ่นอัพเกรดแรม 2GB หน่วยความจำแฟลช 32GB ราคาเพิ่มเป็น 89 ดอลลาร์ ซอฟต์แวร์เป็น Remix OS 2.0 โดยสัญญาว่าจะได้รับ 3.0 ผ่าน OTA เริ่มส่งมอบสินค้าเดือนกันยายนนี้ ที่มา - Kickstarter     ", 
  "Date": "4/July/2016", 
  "Image-Link": [
    "https://www.blognone.com/sites/default/files/styles/thumbnail/public/topics-images/remixos.png?itok=iTWYCotj", 
    "//upic.me/i/cg/d1fab8a6978ded4668fafe22d30ed9c3_original.jpg", 
    "//upic.me/i/n1/8c8ade88847ee9f7e79c4853f9cbe935_original.jpg", 
    "/sites/all/themes/blognone42/images/linebutton.png"
  ], 
  "Link": "https://www.blognone.com/node/82971", 
  "News": "โน้ตบุ๊ก Remix OS เปิดระดมทุนแล้ว ราคาเริ่มต้น 69 ดอลลาร์", 
  "Tags": [
    "Remix OS", 
    "AllWinner"
  ], 
  "Time": "13:56"
}