{
  "By": "trinakub", 
  "Contents": "
ทีม Fnatic Dota2 แกร่งจริงเอาชนะอย่างขาวสะอาด Tournament รอบคัดเลือกของ Starladder i-League ครั้งที่ 2 โดยเอาชนะทีม MvP.phx ยอดฝีมือจากเกาหลีในรอบรองชนะเลิศ และ Mineski.Dota2 มือหนึ่งจากฟิลิปปินส์ 2-0 เกมรวดคว้าแชมป์รายการนี้ พร้อมทั้งได้รับเชิญไปแข่งในรอบ Lan Final ที่ประเทศสหรัฐอเมริกาในช่วงวันที่ 21 - 24 กรกฎาคม (แต่สถานที่แข่งขันยังไม่เปิดเผย)

หลังจากที่ทีม Fnatic ต้องผิดหวังจากรายการใหญ่อย่าง EPICENTER มา ขณะนี้ก็คืนฟอร์มชนะรวดกลับมาเป็นทีมอันดับ 1 แห่ง SEA อีกครั้ง

ใครเป็นแฟนบอยทีมนี้ก็คอยเตรียมเอาใจเชียพวกเค้าได้เลย ในรายการ Starladder i-League#2 รอบ Lan Event ได้เลยครับ
ที่มา - Fnatic facebook Page
 ", 
  "Date": "27/May/2016", 
  "Image-Link": "https://www.blognone.com/sites/default/files/badges/badge-contributer.png", 
  "Link": "https://www.blognone.com/node/81483", 
  "News": "ทีม Fnatic Dota2 โชว์แกร่ง คว้าตั๋วสู่รอบ Lan Event ของ Starladder i-League ครั้งที่ 2", 
  "Tags": [
    "DotA", 
    "Games", 
    "eSport"
  ], 
  "Time": "04:29"
}