{
  "By": "nutmos", 
  "Contents": "
ฟีเจอร์ Facebook Live จำกัดให้ใช้ได้เฉพาะมือถือเท่านั้น แต่ตอนนี้ Facebook ได้เปิดฟีเจอร์นี้ให้ใช้สำหรับ PC หรือแท็บเล็ตแล้ว ผ่านแอพบน Windows 10 ซึ่งเป็นแอพแบบ universal
ผู้ที่ใช้แอพ Facebook บน Windows 10 ทั้งบน PC และแท็บเล็ต สามารถอัพเดตแอพได้เลย จากนั้นจะพบกับปุ่ม Facebook Live ขึ้นมา เมื่อกดแล้วก็สามารถเริ่มใช้งานได้ทันที โดยฟีเจอร์ Facebook Live นี้เป็นการพอร์ตฟีเจอร์มาจากแอพบน iOS
ที่มา - WinBeta, VentureBeat
 ", 
  "Date": "27/May/2016", 
  "Image-Link": "https://www.blognone.com/sites/default/files/badges/badge-writer.png", 
  "Link": "https://www.blognone.com/node/81491", 
  "News": "Facebook Live เริ่มเปิดให้ใช้งานผ่านแอพบน Windows 10 แล้ว", 
  "Tags": [
    "Facebook", 
    "Windows 10"
  ], 
  "Time": "08:54"
}