{
  "By": "trinakub", 
  "Contents": "
นาทีนี้คงไม่มีใครไม่รู้จัก FPS ตัวใหม่ล่าสุดจากค่าย Blizzard นั้นก็คือเกม Overwatch ที่เพิ่งเปิดตัวไปเมื่อวันที่ 24 พฤษภาคม เปิดตัวแค่วันแรกยอด Views ใน Twitch ขึ้นเป็นอันดับ 1 ได้ภายในเวลาไม่กี่ชมเท่านั้น

เกมแบ่งคลาสให้เราเล่นออกเป็น 4 คลาส มี Offensive, Defensive, Tank, Support แต่ละคลาสมีตัวละครให้เลือกเล่นได้หลากหลายตัว แต่ละตัวมีความสามารถที่แตกต่างกันออกไป ผู้เล่นสามารถเปลี่ยนตัวได้ตลอดเวลา
เสน่ห์ของเกมนี้คือแต่ละตัวละครมีสกิล 3 สกิล และแต่ละตัวจะมี 'อัลติ' ทำให้เกมนี้มีรูปแบบการเล่นที่แตกต่างจาก FPS เกมอื่นอย่างสิ้นเชิง เรียกได้ว่า เป็น FPS ผสม MOBA เลยทีเดียวครับ

รูปแบบของเกมนี้เป็น 6 vs 6 และมีจุดประสงค์หลักที่ไม่เหมือนกันอย่างเช่น การดันรถไปจุดพื้นที่เป้าหมาย, การยึดพื้นที่ในแต่ละจุด ถึงเราจะคิลอีกฝั่งได้เยอะแค่ไหนแต่ถ้าเราไม่สามารถทำภารกิจของ Map ให้สำเร็จก็แพ้ได้เช่นกัน
เกมนี้จะเป็นรูปแบบการซื้อ Key เพื่อเข้าเล่น สามารถหาซื้อเกม Overwatch จากตัวแทนจำหน่ายทั่วประเทศในรูปแบบ Normal, Origin และ แบบ Collection ครับ
ที่มา - Overwatch
 ", 
  "Date": "27/May/2016", 
  "Image-Link": "https://www.blognone.com/sites/default/files/badges/badge-contributer.png", 
  "Link": "https://www.blognone.com/node/81524", 
  "News": "แนะนำเกม Overwatch เกม FPS ที่ไม่ได้มีดีแค่ยิง", 
  "Tags": [
    "Overwatch", 
    "Games", 
    "Blizzard"
  ], 
  "Time": "23:42"
}