{
  "By": "mk", 
  "Contents": " การเปิดตัว Moto Z เมื่อวานนี้ สร้างคำถามตามมาว่าอนาคตของ Moto X จะเป็นอย่างไรต่อไป เพราะก่อนหน้านี้เพิ่งมีข่าวลือว่า Lenovo จะทิ้ง Moto X เปลี่ยนมาเป็น Moto Z เพียงอย่างเดียว เรื่องนี้เว็บไซต์ Android Police สอบถามไปยัง Lenovo และได้รับคำตอบว่า Moto X จะยังคงอยู่ (ในแถลงการณ์ใช้คำว่า \"Moto X is alive and wel\") บริษัทมองว่า X และ Z จับกลุ่มเป้าหมายคนละกลุ่ม โดย Moto Z จะเน้นลูกค้ากลุ่มที่ชื่นชอบเทคโนโลยี โดยชูจุดขายเรื่อง Moto Mods ที่สามารถปรับเปลี่ยนอุปกรณ์ได้ ข้อมูลนี้อาจพอให้เราคาดเดาได้ว่า Moto Z จะกลายเป็นมือถือเรือธงของแบรนด์ Motorola ส่วน Moto X น่าจะกลายเป็นมือถือระดับกลางบนแทนครับ ที่มา - Android Police    ", 
  "Date": "11/June/2016", 
  "Image-Link": [
    "https://www.blognone.com/sites/default/files/styles/thumbnail/public/topics-images/motorola.png?itok=Pff47JHy", 
    "https://upic.me/i/cd/moto-z-droid-gallery-4-1.jpg", 
    "/sites/all/themes/blognone42/images/linebutton.png"
  ], 
  "Link": "https://www.blognone.com/node/82142", 
  "News": "Lenovo ยืนยัน ยังไม่ทิ้ง Moto X แม้จะออก Moto Z มาเป็นเรือธงแทนแล้ว", 
  "Tags": [
    "Motorola", 
    "Moto Z", 
    "Moto X", 
    "Lenovo"
  ], 
  "Time": "10:47"
}