{
  "By": "Ford AntiTrust", 
  "Contents": " จากข่าว ผู้ใช้งานแจ้งปัญหาเกี่ยวกับมัลแวร์ ถูกติดตั้งมาพร้อมเครื่อง Lenovo Vibe P1m แม้จะ factory reset ก็ไม่สามารถแก้ไขปัญหาได้ ทาง Lenovo Thailand ได้ออกจดหมายอย่างเป็นทาง เพื่อยืนยันการส่งมอบเฟิร์มแวร์รุ่นแก้ไขปัญหา โดยมีกำหนดส่งมอบภายในวันที่ 21 มิถุนายน 2559 นี้ ตามเวลาประเทศไทย    ", 
  "Date": "20/June/2016", 
  "Image-Link": [
    "https://www.blognone.com/sites/default/files/styles/thumbnail/public/topics-images/lenovo.png?itok=fPVji8qa", 
    "https://i.imgur.com/TSz9xco.png", 
    "/sites/all/themes/blognone42/images/linebutton.png"
  ], 
  "Link": "https://www.blognone.com/node/82460", 
  "News": "Lenovo Thailand ออกอัพเดต True Lenovo VIBE P1m แก้ปัญหามัลแวร์", 
  "Tags": [
    "Lenovo", 
    "Security", 
    "Mobile", 
    "Android"
  ], 
  "Time": "15:23"
}