{
  "By": "nismod", 
  "Contents": " หลังกำลังเตรียมวางขาย ROG GX 700 ล่าสุด ASUS ได้โชว์ GX 800 ในงาน Computex ที่ไต้หวัน โดยรูปลักษณ์ยังคงเหมือนกับ GX 700 ที่มาพร้อมระบบระบายความร้อนด้วยของเหลวด้านหลัง สเปคของ GX 800 คาดว่าส่วนใหญ่จะยังคงเหมือนกับ GX 700 ยกเว้นเปลี่ยนมาใช้ซีพียู Core i7 แบบปลดล็อค (ระบุเพียงว่าเป็นรหัส K) ที่สัญญาณนาฬิกา 4.4GHz จีพียูใช้ของ NVIDIA รุ่นล่าสุดพร้อมต่อ SLI สองใบ พร้อมพาวเวอร์ซัพพลายขนาด 330W สองตัว (ไม่ได้ระบุรายละเอียดอื่นๆ) ที่มา - ASUS     ", 
  "Date": "31/May/2016", 
  "Image-Link": [
    "https://www.blognone.com/sites/default/files/styles/thumbnail/public/topics-images/rog.png?itok=HxAMl0LC", 
    "https://c6.staticflickr.com/8/7428/27367877525_538fbb38b2_o.jpg", 
    "https://c2.staticflickr.com/8/7302/27367877505_780fabb280_o.jpg", 
    "/sites/all/themes/blognone42/images/linebutton.png"
  ], 
  "Link": "https://www.blognone.com/node/81647", 
  "News": "ASUS เปิดตัว ROG GX800 เกมมิ่งโน้ตบุ๊คระบายความร้อนด้วยของเหลว รุ่นอัพเกรด", 
  "Tags": [
    "ROG", 
    "ASUS", 
    "Games", 
    "Notebook"
  ], 
  "Time": "12:49"
}