{
  "By": "BlackMiracle", 
  "Contents": " ก่อนหน้านี้เรามีข่าวสเปกของสมาร์ทโฟนตระกูล Nexus รุ่นใหม่ทั้งสองรุ่นหลุดออกมา (Sailfish, Merlin) โดยแบ่งเป็นรุ่นจอเล็กและจอใหญ่ตามลำดับ ล่าสุดเว็บไซต์ Android Police เจ้าเก่าเผยรูปเรนเดอร์ของสมาร์ทโฟนรุ่นใหม่นี้แล้ว เว็บไซต์ต้นทางบอกว่าพวกเขาเรนเดอร์ภาพมือถือขึ้นมาเองโดยอิงจากข้อมูลที่ได้รับมาจากแหล่งข่าวที่เชื่อถือได้ โดยออกแบบเอาเองในบางจุดที่ไม่มีข้อมูล ซึ่งมีความเป็นไปได้ที่ภาพนี้จะต่างจากสินค้าจริง แต่ Android Police ให้คะแนนความน่าเชื่อถือถึง 8 จาก 10 เลยทีเดียว  มีประเด็นน่าสนใจดังนี้  ฝาหลังเป็นอะลูมิเนียม โดยพื้นที่เกือบครึ่งด้านบนเป็นพลาสติกมันเงา ให้อารมณ์สีทูโทน กล้องไม่นูน เปลี่ยน Navigation Bar ใหม่เป็นปุ่มสีขาวทึบ แต่ยังไม่แน่ชัดว่าปุ่มโฮมจะมีสีๆ หรือไม่ โลโก้ \"G\" ด้านหลังอาจมีหรือไม่มีก็ได้ ยังไม่แน่ชัดว่าจะมีโลโก้ HTC หรือไม่ ยังไม่ทราบขนาดกว้างคูณยาวของเครื่อง ตัวสแกนลายนิ้วมืออยู่ตำแหน่งเดิม มีรูสามรูข้างๆ กล้อง อาจเกี่ยวข้องกับระบบโฟกัส และรูไมโครโฟน อาจมีสีขาว/เงิน และสีฟ้า \"Electric Blue\" ด้วย ทั้ง Sailfish และ Merlin จะมีดีไซน์แบบเดียวกัน ต่างกันแค่ขนาดเท่านั้น  ที่มา - Android Police   ", 
  "Date": "6/July/2016", 
  "Image-Link": [
    "https://www.blognone.com/sites/default/files/styles/thumbnail/public/topics-images/htc.png?itok=5TBfl4iq", 
    "https://i.imgur.com/s8j4nxz.png", 
    "/sites/all/themes/blognone42/images/linebutton.png"
  ], 
  "Link": "https://www.blognone.com/node/83073", 
  "News": "หลุดภาพมือถือ Nexus Sailfish และ Marlin รุ่นใหม่ ฝาหลังผสมระหว่างอะลูมิเนียมและพลาสติก", 
  "Tags": [
    "HTC", 
    "Google Nexus", 
    "Mobile", 
    "Rumors"
  ], 
  "Time": "13:54"
}