{
  "By": "nismod", 
  "Contents": " Google เตรียมปล่อยอัพเดต Google Keyboard เป็นเวอร์ชัน 5.0 โดยมีความเปลี่ยนแปลงดังนี้  รองรับการพิมพ์แบบมือเดียว ปรับได้ทั้งมือซ้ายและขวา ลบคำที่คีย์บอร์ดคาดว่าผู้ใช้กำลังจะพิมพ์ (predicted words) บนแถบแนะนำได้แล้ว สามารถปรับความสูงของคีย์บอร์ด เพิ่มตัวเลือกสัญลักษณ์ (symbol) หากกดตัวหนังสือค้างเอาไว้ สามารถลบทีเดียวได้ทั้งคำ โดยการสไลด์ปุ่ม backspace ไปด้านซ้าย  Google กำลังทยอยอัพเดตให้อยู่ แต่หากใครใจร้อนก็สามารถโหลดไฟล์ APK ไปติดตั้งกันก่อนได้ ที่มา - Android Police, คลิปจากผุ้ใช้ YouTube Michael Heller   ", 
  "Date": "3/May/2016", 
  "Image-Link": [
    "https://www.blognone.com/sites/default/files/styles/thumbnail/public/topics-images/google-kbd.png?itok=7Asv5Rgv", 
    "/sites/all/themes/blognone42/images/linebutton.png"
  ], 
  "Link": "https://www.blognone.com/node/80549", 
  "News": "Google Keyboard อัพเดตเวอร์ชัน 5.0 เพิ่มโหมดใช้งานมือเดียว", 
  "Tags": [
    "Google Keyboard", 
    "Google", 
    "Keyboard"
  ], 
  "Time": "11:17"
}