{
  "By": "nrad6949", 
  "Contents": " เว็บไซต์ข่าว Engadget รายงานว่า Samsung ได้จดทะเบียนสิทธิบัตรชิ้นใหม่ที่ทำให้นาฬิกาอัจฉริยะสามารถฉายรายละเอียดเพิ่มเติมจากหน้าจอแสดงของ smart watch ไปยังที่มือหรือพื้นผิวอื่นๆ เพื่อแสดงข้อมูลเพิ่มเติมได้ จากภาพที่ปรากฏในข้อมูลยื่นขอสิทธิบัตร (ดูภาพได้ท้ายข่าว) หน้าจอดังกล่าวจะฉายออกมาจากด้านข้างของ smart watch โดยจะมีตัวตรวจจับปฏิสัมพันธ์กับบริเวณที่ฉายภาพดังกล่าว หรือแม้กระทั่งตรวจจับลักษณะของมือที่เราสวมใส่อยู่ หากมีพื้นที่มากพอก็สามารถแสดงปุ่มสั่งทำงานต่างๆ ได้ด้วย อย่างไรก็ตามสิทธิบัตรนี้เป็นเพียงแค่แนวคิดเท่านั้น ส่วนจะเป็นผลิตภัณฑ์จริงได้เมื่อใดนั้นขึ้นอยู่กับว่า Samsung จะตัดสินใจเอาสิทธิบัตรนี้ไปใช้จริงหรือไม่ด้วย ที่มา - Engadget    ", 
  "Date": "17/May/2016", 
  "Image-Link": [
    "https://www.blognone.com/sites/default/files/styles/thumbnail/public/topics-images/j8u2rhG1.jpg?itok=CJuE6qSo", 
    "https://i.imgur.com/kEez0M7.jpg", 
    "/sites/all/themes/blognone42/images/linebutton.png"
  ], 
  "Link": "https://www.blognone.com/node/81053", 
  "News": "Samsung จดสิทธิบัตรอันใหม่ ฉายรายละเอียดจากจอ smart watch ไปที่มือและพื้นผิวอื่นๆ", 
  "Tags": [
    "Samsung", 
    "Wearable Computing", 
    "Patent"
  ], 
  "Time": "09:01"
}