{
  "By": "nutmos", 
  "Contents": " Immersion ได้ฟ้องร้อง Apple เรื่องการละเมิดสิทธิบัตร haptic feedback ในอุปกรณ์ MacBook, MacBook Pro และ iPhone 6s โดยเป็นการฟ้องร้องเพิ่มเติมจากการฟ้องร้องครั้งที่แล้ว Immersion รายงานว่า ฟีเจอร์ 3D Touch และ Force Touch นั้นได้ละเมิดสิทธิบัตรของบริษัท 4 สิทธิบัตร ได้แก่  สิทธิบัตรหมายเลข 8,749,507: \"Systems and Methods for Adaptive Interpretation of Input from a Touch-Sensitive Input Device\"  สิทธิบัตรหมายเลข 7,808,488: \"Method and Apparatus for Providing Tactile Sensations\"  สิทธิบัตรหมายเลข 8,581,710: \"Systems and Methods for Haptic Confirmation of Commands\"  สิทธิบัตรหมายเลข 7,336,260: \"Method and Apparatus for Providing Tactile Sensations\"   การฟ้องครั้งนี้เป็นการเพิ่มเติมจากคำฟ้องที่ยื่นไปเมื่อเดือนกุมภาพันธ์ โดยนอกจาก Apple ก็มี AT&T ที่โดนด้วย โดย Immersion ให้เหตุผลว่า AT&T ขายสินค้า Apple และมีส่วนประกอบซึ่งสนับสนุนการละเมิดสิทธิบัตร ที่มา - MacRumors   ", 
  "Date": "6/May/2016", 
  "Image-Link": [
    "https://www.blognone.com/sites/default/files/styles/thumbnail/public/topics-images/apple.png?itok=dltl_31c", 
    "/sites/all/themes/blognone42/images/linebutton.png"
  ], 
  "Link": "https://www.blognone.com/node/80697", 
  "News": "Immersion ยื่นฟ้อง Apple ละเมิดสิทธิบัตร haptic feedback เพิ่มเติม", 
  "Tags": [
    "Apple", 
    "Patent", 
    "Lawsuit"
  ], 
  "Time": "20:11"
}