{
  "By": "nutmos", 
  "Contents": " Android Police ได้รายงานข่าวว่าตอนนี้ Google กำลังพัฒนาอุปกรณ์ Android Wear ซึ่งคาดว่าน่าจะใช้แบรนด์ Nexus ด้วย โดยแหล่งข่าวของ Android Police เผยว่าจะมีสองรุ่น คือรุ่นใหญ่ที่จัดเต็มฟีเจอร์ กับรุ่นเล็กราคาประหยัด รุ่นใหญ่ตอนนี้ใช้โค้ดเนมว่า Angelfish จะเป็นรุ่นที่ดูมีความสปอร์ตและมีฟีเจอร์เยอะกว่า เช่น LTE, GPS, วัดอัตราการเต้นหัวใจ มีเส้นผ่านศูนย์กลาง 43.5 มิลลิเมตร และหนา 14 มิลลิเมตร และไม่รองรับมาตรฐานสายรัดข้อมือ MODE ส่วนอีกรุ่นซึ่งใช้โค้ดเนมว่า Swordfish จะเป็นรุ่นเล็ก มีเส้นผ่านศูนย์กลางตัวเครื่อง 42 มิลลิเมตร และความหนา 10.6 มิลลิเมตร และมี 3 สีให้เลือก คือ silver, titanium และ rose gold รวมถึงจะไม่มีฟีเจอร์อย่าง LTE, GPS, วัดอัตราการเต้นหัวใจ เหมือนอีกรุ่น และรองรับมาตรฐานสายรัดข้อมือ MODE นาฬิกา Android Wear ทั้งสองรุ่นนี้จะมีฟีเจอร์ Google Assistant ที่มาพร้อมกับ contextual alert ด้วย และจากการที่ Sundar Pichai เคยพูดไว้ว่า Nexus อาจจะมีฟีเจอร์แบบ exclusive มากขึ้น ก็น่าสนใจว่านาฬิกาทั้งสองรุ่นนี้จะมีฟีเจอร์อะไรที่อุปกรณ์ Android Wear จากผู้ผลิตรายอื่นจะไม่มีอีกหรือไม่ ตอนนี้ก็ยังไม่ทราบสถานะของการพัฒนาของนาฬิกาทั้งสองรุ่น ซึ่งทาง Android Police คาดว่า Google น่าจะเปิดตัวนาฬิการุ่นนี้หลังจากมือถือ Nexus รุ่นถัดไปเล็กน้อย ที่มา - Android Police   ", 
  "Date": "7/July/2016", 
  "Image-Link": [
    "https://www.blognone.com/sites/default/files/styles/thumbnail/public/topics-images/android-wear.png?itok=3cTHcWDj", 
    "/sites/all/themes/blognone42/images/linebutton.png"
  ], 
  "Link": "https://www.blognone.com/node/83105", 
  "News": "[ไม่ยืนยัน] Google กำลังพัฒนาอุปกรณ์ Android Wear สองรุ่น อาจใช้แบรนด์ Nexus", 
  "Tags": [
    "Android Wear", 
    "Google", 
    "Google Nexus"
  ], 
  "Time": "08:39"
}