{
  "By": "nismod", 
  "Contents": " Google ประกาศเข้าซื้อ Webpass ผู้ให้บริการอินเทอร์เน็ตความเร็วสูงในสหรัฐด้วยมูลค่าที่ไม่มีการเปิดเผย ซึ่งนับเป็นการเข้าซื้อบริษัทด้านบรอดแบรนด์ครั้งแรกภายใน Alphabet Webpass ให้บริการใน 10 เมืองใหญ่ในสหรัฐ โดยลูกค้าของ Webpass ส่วนใหญ่คือกลุ่มภาคธุรกิจและอพาร์ทเมนท์ต่างๆ ซึ่งเป็นกลุ่มลูกค้าเป้าหมายที่ Google Fiber กำลังพยายามเข้าถึง การเข้าซื้อครั้งนี้คาดว่าน่าจะเสร็จสิ้นภายในฤดูร้อนนี้ (สิ้นเดือนกันยายน) โดยต้องรอการรับรองจากหน่วยงานภาครัฐเสียก่อน ที่มา - Recode   ", 
  "Date": "23/June/2016", 
  "Image-Link": [
    "https://www.blognone.com/sites/default/files/styles/thumbnail/public/topics-images/google-fiber.png?itok=BHs2UVD5", 
    "/sites/all/themes/blognone42/images/linebutton.png"
  ], 
  "Link": "https://www.blognone.com/node/82573", 
  "News": "Google Fiber เข้าซื้อ Webpass เล็งขยายบริการไปยังอพาร์ทเมนท์และภาคธุรกิจ", 
  "Tags": [
    "Google Fiber", 
    "Google", 
    "Acquisition", 
    "Broadband"
  ], 
  "Time": "10:28"
}