{
  "By": "nrad6949", 
  "Contents": " เมื่อเร็วๆ นี้ ศาลของมลรัฐฟลอริดาได้มีคำตัดสินว่า การกระทำของ Google ที่นำเอาผลการค้นหาบางอย่างออก ไม่ใช่การกระทำที่ได้รับการปกป้องภายใต้ First Amendment หรือการแก้ไขรัฐธรรมนูญครั้งแรกของสหรัฐอเมริกา ที่มีข้อบัญญัติเรื่องของสิทธิเสรีภาพในการแสดงออก (freedom of expression) กรณีดังกล่าวนี้เกิดขึ้นเมื่อผลการค้นหาที่เกิดจากการทำ search engine optimization (SEO) ของบริษัท E-ventures ถูกเอาออกจากผลการค้นหา โดยระบุว่าเป็นการสร้าง spam ล้วนๆ ทำให้มีคดีฟ้องร้องกัน ซึ่งศาลระบุว่าไม่ใช่เรื่องจริงไปเสียทั้งหมด แต่เป็นประเด็นเรื่องของการกีดกันทางการค้ามากกว่า นอกจากนั้นยังปิดทางไม่ให้ Google ใช้ข้ออ้างทางกฎหมายที่เรียกว่า \"Good Samaritan clause\" ที่กำหนดว่าต้องเข้าช่วยเหลือผู้อื่นที่อยู่ในสภาวะอันตราย ซึ่งในกรณีนี้คือการที่ Google ดึงเนื้อหาของ E-ventures ออกจากเว็บไซต์ เพื่อปกป้องผู้ใช้นั่นเอง อย่างไรก็ตาม ศาลเมือง San Francisco เคยตัดสินว่า Google มีเสรีภาพในการจัดลำดับผลการค้นหาเมื่อปี 2014 มาแล้ว ทำให้ Engadget มองว่า Google อาจยื่นโต้แย้งคำตัดสินในครั้งนี้ครับ ที่มา - TechDirt ผ่าน Engadget   ", 
  "Date": "23/May/2016", 
  "Image-Link": [
    "https://www.blognone.com/sites/default/files/styles/thumbnail/public/topics-images/Google_2015_logo.svg_.png?itok=bd4RvVLK", 
    "/sites/all/themes/blognone42/images/linebutton.png"
  ], 
  "Link": "https://www.blognone.com/node/81274", 
  "News": "ศาลมลรัฐฟลอริดา ชี้ Google ไม่มีสิทธิตาม First Amendment เอาผลการค้นหาบางอันออก", 
  "Tags": [
    "Google", 
    "USA", 
    "Search Engine", 
    "Law"
  ], 
  "Time": "10:59"
}