{
  "By": "mk", 
  "Contents": " ในชั้นเรียนแบบเดิม นักเรียนมีหน้าที่รับสารจากครูที่อยู่หน้าชั้น ถึงแม้จะนำคอมพิวเตอร์มาใช้งานก็ตาม แต่รูปแบบการเรียนยังเป็นนักเรียนเปิดคอมพิวเตอร์ดูหน้าจอเดียวกับที่ครูนำเสนอ แต่ Google Cast for Education กำลังจะทำให้นักเรียนทั้งชั้นส่งภาพไปขึ้นจอหน้าห้องเรียนได้ โดยไม่ต้องใช้ฮาร์ดแวร์แบบ Chromecast ช่วยเลย Google Cast for Education อาศัยว่าคอมพิวเตอร์ของครูต่อเชื่อมกับโปรเจคเตอร์หรือจอภาพหลักอยู่แล้ว และเมื่อคอมพิวเตอร์ทั้งหมดในชั้นต่อเชื่อมกันผ่านเครือข่าย กูเกิลจึงสร้างแอพบน Chrome ให้นักเรียนสามารถส่งภาพบนจอของตัวเองไปขึ้นจอได้ เทคโนโลยีนี้จะช่วยให้นักเรียนมีส่วนร่วมกับการเรียนมากขึ้น เช่น ครูสามารถกำหนดหัวข้อให้นักเรียนหาข้อมูล แล้วสลับกันส่งภาพขึ้นจอหลักเพื่อแลกเปลี่ยนความเห็นกันได้ (มีระบบคิวให้ครูเลือกได้ว่าจะเอาภาพไหนขึ้นจอ) ฟีเจอร์ตัวนี้ทำงานร่วมกับ Google Classroom ซอฟต์แวร์บริหารจัดการห้องเรียน ที่กูเกิลมีอยู่ก่อนแล้ว เมื่อรวมกับอุปกรณ์กลุ่ม Chromebook จึงส่งผลให้กูเกิลมีโซลูชันด้านการศึกษาที่ครบวงจรมากยิ่งขึ้น ตอนนี้ Google Cast for Education ยังมีสถานะเป็นรุ่นเบต้า ใครสนใจสามารถลองได้จาก Google Cast for Education ที่มา - Official Google Blog   ", 
  "Date": "28/June/2016", 
  "Image-Link": [
    "https://www.blognone.com/sites/default/files/styles/thumbnail/public/topics-images/google-cast.png?itok=LxtSnhZu", 
    "/sites/all/themes/blognone42/images/linebutton.png"
  ], 
  "Link": "https://www.blognone.com/node/82740", 
  "News": "สู่การเรียนแบบใหม่ นักเรียนส่งภาพขึ้นจอใหญ่ได้ด้วย Google Cast for Education", 
  "Tags": [
    "Google Cast", 
    "Google", 
    "Education"
  ], 
  "Time": "11:07"
}