{
  "By": "nrad6949", 
  "Contents": " เป็นเวลากว่า 2 ปีแล้วที่ Google ทำให้ Chrome OS สามารถรันแอพ Android ได้ แต่ก็เป็นเพียงแอพที่อยู่ในวงจำกัดเท่านั้น และเคยมีข่าวลือว่า Google กำลังทำให้ Chrome OS รองรับ Play store เพื่อเปิดทางให้แอพ Android สามารถขึ้นมาอยู่บน Chrome OS ได้อย่างไม่จำกัด ล่าสุด Google เผลอยืนยันเองว่า Play Store บน Chrome OS จะมาจริง เว็บไซต์หลายแห่งทั้ง Ausdroid, CNET และ 9to5Google ต่างพบว่าหนึ่งใน session ของงาน Google I/O ประจำปีนี้ จะมีหัวข้อที่ชื่อว่า \"Bring Your Android App to Chrome OS\" ซึ่งระบุรายละเอียดว่าจะเป็นการเปิดตัว Play store บน Chrome OS และจะมีวิศวกรจากบริษัทช่วยทดสอบและให้คำแนะนำปรับแต่งแอพ Android ที่จะนำมารันบน Chrome OS รวมถึงแจก Chromebook สำหรับ 50 คนแรกที่มาถึงห้องประชุมด้วย หลังจากข่าวนี้แพร่ออกไป Google ได้แก้ไขข้อมูลของ session ดังกล่าวเป็น \"Optimizing Android apps for productivity\" และจะพูดถึงเรื่องของคุณสมบัติ multi-window และการรองรับ keyboard กับ trackpad บน Android M และ N แทน แต่ยังระบุผู้พูดว่าเป็นหนึ่งในทีมวิศวกรของ Chrome OS ครับ ที่มา - Ausdroid, CNET, 9to5Google    ", 
  "Date": "19/May/2016", 
  "Image-Link": [
    "https://www.blognone.com/sites/default/files/styles/thumbnail/public/topics-images/Google_2015_logo.svg_.png?itok=bd4RvVLK", 
    "https://upic.me/i/vs/screenshot2014-06-26at01.47.59.png", 
    "/sites/all/themes/blognone42/images/linebutton.png"
  ], 
  "Link": "https://www.blognone.com/node/81184", 
  "News": "Google เผลอยืนยัน Play store จะมาใน Chrome OS เปิดทางแอพ Android รันเต็มที่", 
  "Tags": [
    "Chrome OS", 
    "Google", 
    "Android", 
    "Google Play"
  ], 
  "Time": "11:38"
}