{
  "By": "lew", 
  "Contents": " DeepMind บริษัทปัญญาประดิษฐ์ในเครือกูเกิลผู้สร้าง AlphaGo อันโด่งดัง ย้ายแพลตฟอร์มไปใช้ TensorFlow ของกูเกิลเองแล้ว หลังจากที่ก่อนหน้านี้ใช้ Torch7 ทาง DeepMind ระบุว่าได้ทดลองโครงการใหม่ๆ ด้วย TensorFlow มาแล้ว 6 เดือนและเชื่อว่าการใช้ TensorFlow จะช่วยเปิดทางให้การวิจัยใหม่ๆ บนเครื่องขนาดใหญ่ขึ้น และการพัฒนาเองก็จะเร็วขึ้นด้วย แม้จะแยกจาก Torch7 มาแล้ว ทาง DeepMind ก็แสดงความชื่นชมโครงการว่าเป็นโครงการที่ทำงานด้วยกันได้ดี และตอนนี้ Torch7 ก็ถูกใช้งานโดยบริษัทใหญ่ๆ อย่างเฟซบุ๊กและทวิตเตอร์ ที่มา - Research at Google   ", 
  "Date": "6/May/2016", 
  "Image-Link": [
    "https://www.blognone.com/sites/default/files/styles/thumbnail/public/news-thumbnails/NzcXa05I.png?itok=x_igPeGw", 
    "/sites/all/themes/blognone42/images/linebutton.png"
  ], 
  "Link": "https://www.blognone.com/node/80681", 
  "News": "DeepMind ย้ายจากแพลตฟอร์ม Torch7 มาเป็น TensorFlow", 
  "Tags": [
    "Artificial Intelligence", 
    "Google", 
    "DeepMind", 
    "TensorFlow"
  ], 
  "Time": "13:16"
}