{
  "By": "nismod", 
  "Contents": " สำนักข่าว Reuters รายงานว่าฝ่ายไอทีของสภาผู้แทนราษฎรสหรัฐฯ (House of Representative) ได้บล็อกการเข้าถึง Yahoo Mail และบริการต่างๆ ของ Google รวมถึงแอพและเว็บไซต์ที่เช่าโฮสต์จาก Google บนเครือข่ายของสภาผู้แทนฯ เพื่อป้องกันภัยจาก ransomware Yahoo Mail ถูกบล็อกไปตั้งแต่ช่วงต้นสัปดาห์ที่ผ่านมา ขณะที่บริการของ Google เพิ่งถูกปิดกั้นการเข้าถึงเมื่อวันพุธที่ผ่านมาตามเวลาในสหรัฐฯ ซึ่งฝ่ายไอทีของสภาฯ เผยว่าในระยะหลัง มี phishing เมลจากผู้ให้บริการอีเมลภายนอก เพิ่มขึ้นค่อนข้างมาก  โดยเฉพาะ Yahoo Mail และ Gmail โดยก่อนหน้านี้เคยมีคอมพิวเตอร์ของพนักงานสภาผู้แทนฯ ติด ransomware หลังกดเปิดไฟล์ Word บนอีเมล แต่ทางเจ้าหน้าที่ก็สามารถกู้ไฟล์คืนได้โดยไม่ต้องจ่ายค่าไถ่แต่อย่างใด ขณะที่ Yahoo! และ Google ก็กำลังประสานงานกับเจ้าหน้าที่ของสภาผู้แทนฯ เพื่อแก้ปัญหาตรงนี้ ที่มา - Reuters   ", 
  "Date": "12/May/2016", 
  "Image-Link": [
    "https://www.blognone.com/sites/default/files/styles/thumbnail/public/news-thumbnails/Seal_of_the_United_States_House_of_Representatives.svg_.png?itok=u6pVSliQ", 
    "/sites/all/themes/blognone42/images/linebutton.png"
  ], 
  "Link": "https://www.blognone.com/node/80883", 
  "News": "สภาผู้แทนสหรัฐฯ บล็อก Yahoo Mail และบริการของ Google เพื่อป้องกัน ransomware", 
  "Tags": [
    "USA", 
    "Ransomware", 
    "Yahoo!", 
    "Google", 
    "Gmail"
  ], 
  "Time": "14:00"
}