{
  "By": "nismod", 
  "Contents": " Google ของประเทศอินเดียประกาศเพิ่มฟีเจอร์ Smart Offline บน YouTube ให้กับผู้ใช้ภายในประเทศ สำหรับการตั้งเวลาให้วิดีโอดาวน์โหลดในช่วงกลางคืน ที่ผู้ให้บริการเครือข่ายโทรศัพท์มักคิดค่าบริการอินเทอร์เน็ตในช่วงดึก ถูกกว่าช่วงเวลาอื่น ทาง Google ระบุว่าฟีเจอร์นี้จะช่วยลดภาระค่าใช้จ่าย รวมถึงผู้ใช้ไม่ต้องอยู่จนดึกเพื่อดาวน์โหลดวิดีโอ โดยฟีเจอร์นี้จะใช้ไม่ได้หากสมาร์ทโฟนเชื่อมต่อกับ Wi-Fi อยู่ รวมไปถึงใช้ได้เฉพาะกับลูกค้าของเครือข่าย Airtel และ Telenor ก่อนเท่านั้น และจะขยายไปยังผู้ให้บริการเจ้าอื่นต่อไป ที่มา - Google India Blog    ", 
  "Date": "9/June/2016", 
  "Image-Link": [
    "https://www.blognone.com/sites/default/files/styles/thumbnail/public/topics-images/youtube300.png?itok=YF7mGiqj", 
    "https://c8.staticflickr.com/8/7010/27557123135_a2b37c4a38_z.jpg", 
    "/sites/all/themes/blognone42/images/linebutton.png"
  ], 
  "Link": "https://www.blognone.com/node/82070", 
  "News": "YouTube เพิ่มฟีเจอร์ Smart Offline ตั้งเวลาดาวน์โหลดช่วงกลางคืนสำหรับผู้ใช้ในอินเดีย", 
  "Tags": [
    "YouTube", 
    "India", 
    "Google"
  ], 
  "Time": "15:27"
}