{
  "By": "nismod", 
  "Contents": " Google อัพเดต Hangouts เป็นเวอร์ชัน 10.0 โดยสิ่งที่เพิ่มเติมเข้ามา มีเพียงตัวเลือกในการแชร์ไฟล์ รูปภาพ ลิงก์ ฯลฯ ไปยังผู้ใช้โดยตรง (Direct Share) หลังจากที่ก่อนหน้านี้การแชร์ไปยัง Hangouts ตัวแอพจะเด้งขึ้นมาให้เลือกคนที่เราจะแชร์ไฟล์หรือรูปภาพไปให้ โดยทาง Android Police ระบุว่านอกจากฟีเจอร์นี้แล้ว ยังไม่พบการอัพเดตใดๆ เพิ่มเติมเข้ามาครับ ไฟล์ APK ของ Hangouts 10.0 ดาวน์โหลดได้ที่นี่ครับ ที่มา - Android Police    ", 
  "Date": "2/June/2016", 
  "Image-Link": [
    "https://www.blognone.com/sites/default/files/styles/thumbnail/public/topics-images/hangout300.png?itok=W48uGqDs", 
    "https://c3.staticflickr.com/8/7513/27314416002_042104d532_z.jpg", 
    "/sites/all/themes/blognone42/images/linebutton.png"
  ], 
  "Link": "https://www.blognone.com/node/81759", 
  "News": "Google อัพเดต Hangouts เวอร์ชัน 10.0 เพิ่มตัวเลือกแชร์ให้ผู้ใช้โดยตรง", 
  "Tags": [
    "Hangouts", 
    "Google"
  ], 
  "Time": "16:09"
}