{
  "By": "nismod", 
  "Contents": " เว็บไซต์ Recode รายงานว่า Google แอบซุ่มพัฒนาฮาร์ดแวร์ที่รองรับการสั่งงานด้วยเสียง ในลักษณะเดียวกับ Amazon Echo ซึ่งจะเป็นดึงเอา Google Now ให้กลายมาเป็นผู้ช่วยภายในบ้าน และตัวฮาร์ดแวร์จะมีลักษณะคล้ายกับเร้าท์เตอร์ OnHub แหล่งข่าวของ Recode เผยว่าโปรเจ็คนี้มีชื่อเรียกเป็นการภายในว่า Chirp และระบุด้วยว่า Google \"ไม่น่า\" จะเปิดตัวผลิตภัณฑ์นี้ในงาน Google I/O สัปดาห์หน้า แต่น่าจะเป็นภายในปีนี้แทน ที่มา - Recode   ", 
  "Date": "12/May/2016", 
  "Image-Link": [
    "https://www.blognone.com/sites/default/files/styles/thumbnail/public/topics-images/Google_2015_logo.svg_.png?itok=bd4RvVLK", 
    "/sites/all/themes/blognone42/images/linebutton.png"
  ], 
  "Link": "https://www.blognone.com/node/80898", 
  "News": "[ลือ] Google ซุ่มพัฒนาผลิตภัณฑ์คู่แข่ง Amazon Echo เตรียมเปิดตัวภายในปีนี้", 
  "Tags": [
    "Google", 
    "Google I/O", 
    "Rumor"
  ], 
  "Time": "16:56"
}