{
  "By": "sunnywalker", 
  "Contents": " แม้กูเกิลจะออกมาบอกเสมอว่ารถยนต์ไร้คนขับปลอดภัยกว่ารถทั่วไป ช่วยลดอุบัติเหตุบนท้องถนน แต่ไม่ได้หมายความว่า รถยนต์ไร้คนขับจะไม่เผลอไปชนใครเข้าสักวัน เพราะอุบัติเหตุเป็นสิ่งที่หลีกเลี่ยงไม่ได้ ฉะนั้นกูเกิลจึงออกแบบและจดสิทธิบัตรรถยนต์ไร้คนขับที่แม้ชนคนเดินเท้าเข้า ก็ไม่สร้างความเสียหายถึงชีวิต   ที่มาภาพ : United States Patent and Trademark Office ลักษณะรถยนต์ด้านหน้าจะทำหน้าที่คล้ายกระดาษเหนียวที่ใช้ดักจับแมลง เมื่อชนคนเข้า คนที่ถูกชนจะยังติดอยู่กับด้านหน้ารถ ไม่กระเด็นออกจากรถแล้วไปกระแทกถนนหรือไหล่ทางซึ่งทำให้เสียชีวิตได้เหมือนกัน โดยด้านหน้ารถจะมีชั้นปกคลุม 1 ชั้น เพื่อป้องกันสิ่งอื่นมาติด เช่น นก แมลง ขยะตามถนน กูเกิลตั้งเป้าไว้ว่าจะสามารถใช้รถยนต์ลักษณะนี้ได้ในปี 2020 ที่มา - Telegraph   ", 
  "Date": "19/May/2016", 
  "Image-Link": [
    "https://www.blognone.com/sites/default/files/styles/thumbnail/public/topics-images/Google_2015_logo.svg_.png?itok=bd4RvVLK", 
    "http://i.imgur.com/kdQrRFF.png", 
    "http://i.imgur.com/hpEg8Kk.png", 
    "/sites/all/themes/blognone42/images/linebutton.png"
  ], 
  "Link": "https://www.blognone.com/node/81202", 
  "News": "Google จดสิทธิบัตร \"Sticky Cars\" ช่วยชีวิตคนเดินเท้าหากโดนรถไร้คนขับชน ", 
  "Tags": [
    "Google", 
    "Google Self-Driving Car"
  ], 
  "Time": "18:24"
}