{
  "By": "lew", 
  "Contents": " DeepMind ทำงานร่วมกับภาคสาธารณสุขของอังกฤษอย่างรวดเร็ว  หลังจากเมื่อกลางเดือนที่แล้วเพิ่งประกาศความร่วมมือกับ NHS ตอนนี้ DeepMind ก็ประกาศความร่วมมือกับโรงพยาบาลจักษุ Moorefields ภายใต้ความร่วมมือนี้ DeepMind จะเข้าถึงข้อมูลภาพสแกนดวงตากว่าล้านรายการโดยไม่ระบุตัวตน แต่มีข้อมูลสภาวะของดวงตาและโรค โดยทางโรงพยาบาลยืนยันว่าข้อมูลเหล่านี้ไม่สามารถค้นหาตัวตนของคนไข้ได้ และจะไม่กระทบต่อการรักษาของผู้ป่วยในตอนนี้ ความร่วมมือครั้งนี้หาความเป็นไปได้ที่จะพัฒนาระบบวินิจฉัยโรคจากภาพสแกน และอาจจะนำไปถึงการวินิจฉัยโรคได้ตั้งแต่เนิ่นๆ ก่อนมีอาการ ที่มา - Moorefields Eye Hospital, The Register   ", 
  "Date": "5/July/2016", 
  "Image-Link": [
    "https://www.blognone.com/sites/default/files/styles/thumbnail/public/topics-images/NzcXa05I.png?itok=igDFOi9m", 
    "/sites/all/themes/blognone42/images/linebutton.png"
  ], 
  "Link": "https://www.blognone.com/node/83043", 
  "News": "โรงพยาบาล Moorefields ประความร่วมมือกับ DeepMind แชร์ข้อมูลภาพดวงตากว่าล้านรายการ", 
  "Tags": [
    "DeepMind", 
    "Google", 
    "Artificial Intelligence", 
    "United Kingdom", 
    "Health", 
    "Medical"
  ], 
  "Time": "20:02"
}