{
  "By": "mk", 
  "Contents": " ก่อนหน้านี้ไม่นานนัก เราเห็นข่าวลือว่า กูเกิลกำลังสร้างคีย์บอร์ดสำหรับ iOS วันนี้มันเปิดตัวแล้วในชื่อว่า Gboard จุดเด่นของ Gboard คือผนวกระบบค้นหาของกูเกิลเข้ามากับตัวคีย์บอร์ดเลย เราสามารถค้นเว็บได้ระหว่างการแชท ตัวคีย์บอร์ดจะกลายร่างเป็นผลการค้นหา (ดูวิดีโอประกอบ) เพื่อให้เราสามารถส่งผลการค้นหากลับไปยังหน้าจอแชทได้ทันที ฟีเจอร์อื่นๆ ที่ Gboard มีคือระบบลากเพื่อเดาคำแบบเดียวกับ Swype, ค้นหา Emoji และไฟล์ GIF ได้ในตัว สรุปง่ายๆ ว่ามันเป็นคีย์บอร์ดที่ออกแบบมาเพื่อการแชทยุคใหม่อย่างแท้จริง (แต่ก็ใช้ได้กับแอพทุกตัวเหมือนคีย์บอร์ดทั่วไป) ตอนนี้คีย์บอร์ดยังมีเฉพาะภาษาอังกฤษ ดาวน์โหลดได้แล้วจาก App Store  ที่มา - Official Google Blog   ", 
  "Date": "12/May/2016", 
  "Image-Link": [
    "https://www.blognone.com/sites/default/files/styles/thumbnail/public/news-thumbnails/gboard.jpg?itok=fio_1XzX", 
    "https://i.imgur.com/I3TAM2h.jpg", 
    "/sites/all/themes/blognone42/images/linebutton.png"
  ], 
  "Link": "https://www.blognone.com/node/80908", 
  "News": "กูเกิลเปิดตัว Gboard คีย์บอร์ดสำหรับ iOS ค้นเว็บได้ในตัว, ค้นหา Emoji/GIF ได้", 
  "Tags": [
    "Keyboard", 
    "Google", 
    "Mobile App", 
    "iOS"
  ], 
  "Time": "21:44"
}