{
  "By": "mk", 
  "Contents": " ที่ดินในแถบซิลิคอนวัลเลย์หายากขึ้นทุกวัน การสร้างสำนักงานขนาดใหญ่ก็ทำได้ยาก ล่าสุดกูเกิลประกาศ \"แลก\" ที่ดินกับ LinkedIn เพื่อให้ที่ดินของทั้งสองบริษัทยาวติดกันเป็นผืนเดียว สมประโยชน์ทั้งสองฝ่าย LinkedIn มีสำนักงานใหญ่อยู่ในเมือง Mountain View ติดกับสำนักงานใหญ่ของกูเกิล จากข้อตกลงนี้ LinkedIn จะยกพื้นที่ตรงนี้ให้กูเกิล เพื่อไปเอาพื้นที่สำนักงานของกูเกิลแห่งอื่นในเมือง Mountain View และเมือง Sunnyvale ที่อยู่ติดกันแทน จากข้อตกลงนี้ กูเกิลจะได้ที่ดินผืนใหญ่เพื่อไปสร้างสำนักงานใหญ่แห่งใหม่ ส่วน LinkedIn ก็ได้พื้นที่ใหญ่ขึ้นอีกเท่าตัว ช่วยให้ LinkedIn สามารถเดินหน้าสร้างสำนักงานใหญ่แห่งใหม่ของตัวเองได้เร็วกว่าแผนเดิมเช่นกัน ที่มา - Silicon Valley Business Journal, Ars Technica แผนการสร้างสำนักงานใหญ่ของกูเกิลใกล้ความจริงไปอีกขั้น หลังได้ที่ดินของ LinkedIn มาครอง    ", 
  "Date": "13/July/2016", 
  "Image-Link": [
    "https://www.blognone.com/sites/default/files/styles/thumbnail/public/topics-images/linkedin.png?itok=PosgiESF", 
    "https://lh4.googleusercontent.com/-xvSwS7_zJbc/VPCdC-zUFII/AAAAAAAC8tQ/r_X_Nmcvdf8/w1038-h577-no/Charleston-South_Interior_Cycle%2BTrack.jpg", 
    "/sites/all/themes/blognone42/images/linebutton.png"
  ], 
  "Link": "https://www.blognone.com/node/83404", 
  "News": "กูเกิลแลกที่ดินกับ LinkedIn เพื่อขยายพื้นที่สร้างสำนักงานแห่งใหม่", 
  "Tags": [
    "LinkedIn", 
    "Google", 
    "Silicon Valley"
  ], 
  "Time": "22:40"
}