{
  "By": "BlackMiracle", 
  "Contents": " ฟีเจอร์ใหญ่อย่างหนึ่งที่ Google Maps บนหน้าเว็บทำได้นานแล้วคือการกำหนดจุดแวะตั้งแต่ 1 จุดขึ้นไป และหาเส้นทางตั้งแต่จุดเริ่มจากนั้นก็ตามจุดแวะที่กำหนดไว้ไปเรื่อยๆ จนไปสุดที่ปลายทาง ซึ่งขณะนี้ฟีเจอร์ดังกล่าวเดินทางมาถึงแอพในสมาร์ทโฟนแล้ว วีธีใช้ก็ตรงไปตรงมา เริ่มที่การกำหนดจุดเริ่มต้น และปลายทางก่อน จากนั้นกดปุ่มเมนูสามจุดตรงมุมบนขวา แล้วเลือก Add stop ก็จะมีจุดแวะขึ้นมาให้ค้นหา ถ้าจะเพิ่มอีกก็ทำแบบเดิม หรือหากต้องการเปลี่ยนลำดับก็แค่แตะปุ่มสามขีดทางซ้ายค้างไว้แล้วลากขึ้นหรือลง สุดท้ายให้กดปุ่ม Done แอพก็จะคำนวณเส้นทางให้ทันที ขณะนี้อัพเดตถูกปล่อยออกมาแล้ว (ของผมเช็คแล้วยังไม่มา) โดยฝั่ง Android จะได้ก่อน ส่วนของ iOS จะมาเร็วๆ นี้ ที่มา - Official Google Thailand Blog   ", 
  "Date": "30/June/2016", 
  "Image-Link": [
    "https://www.blognone.com/sites/default/files/styles/thumbnail/public/topics-images/google-maps.png?itok=9Bwq8SFO", 
    "/sites/all/themes/blognone42/images/linebutton.png"
  ], 
  "Link": "https://www.blognone.com/node/82878", 
  "News": "แอพ Google Maps อัพเดตใหม่ เพิ่มจุดแวะระหว่างทางได้แล้ว", 
  "Tags": [
    "Google Maps", 
    "Google", 
    "Mobile App"
  ], 
  "Time": "23:11"
}