{
  "By": "nutmos", 
  "Contents": " Tor Browser ได้ออกเวอร์ชัน 6.0 แล้ว โดย Tor ได้เปลี่ยนไปใช้ DuckDuckGo เป็น search engine หลักบน Disconnect ซึ่งเป็นเครื่องมือค้นหาที่ช่วยปกปิดที่อยู่ไอพีของของ Tor แล้ว แม้ว่า Tor จะใช้ DuckDuckGo เป็นค่าเริ่มต้นสำหรับ Disconnect แต่ผู้ใช้ก็ยังสามารถเลือกเปลี่ยนไปใช้ผลการค้นหาจาก Bing หรือ Yahoo! ได้ โดยเหตุผลที่ Tor ไม่เลือก Bing เป็นหลักแต่ไปเลือก DuckDuckGo เนื่องจากผลลัพธ์การค้นหาของ DuckDuckGo เป็นที่ยอมรับมากกว่า ส่วนผู้ใช้ที่ต้องการใช้ Google ค้นหานั้น ต้องเข้าเว็บ Google ก่อนแล้วค่อยค้นหา เนื่องจากตอนนี้ Disconnect ได้ถอด Google ออกไปแล้ว ซึ่งการถอดนี้จะมีผลกับ Disconnect บน Tor Browser ทั้งหมด (ไม่จำกัดเฉพาะ Tor เวอร์ชัน 6.0) รายละเอียดการปรับปรุงอื่นๆ ของ Tor Browser เวอร์ชัน 6.0 เช่น  อัพเดต Firefox เป็นเวอร์ชัน 45.1.1esr อัพเดต OpenSSL เป็นเวอร์ชัน 1.0.1t อัพเดต Torbutton เป็นเวอร์ชัน 1.9.5.4 อัพเดต Tor Launcher เป็นเวอร์ชัน 0.2.9.3 อัพเดต HTTPS-Everywhere เป็นเวอร์ชัน 5.1.9  การปรับปรุงอื่นๆ สามารถอ่านได้จาก Tor ที่มา - TechCrunch   ", 
  "Date": "31/May/2016", 
  "Image-Link": [
    "https://www.blognone.com/sites/default/files/styles/thumbnail/public/topics-images/tor.png?itok=ymblwvIG", 
    "/sites/all/themes/blognone42/images/linebutton.png"
  ], 
  "Link": "https://www.blognone.com/node/81664", 
  "News": "Tor Browser ออกเวอร์ชัน 6.0 พร้อมเปลี่ยน search engine เป็น DuckDuckGo", 
  "Tags": [
    "Tor"
  ], 
  "Time": "17:50"
}