{
    "By": "nismod", 
    "Contents": "\nUber ยังคงเดินหน้าเปิดบริการใหม่ๆ ของตัวเองอยู่เรื่อยๆ ล่าสุดคือบริการ UberEATs ซึ่ง Uber จะเป็นเหมือนคนกลางส่งอาหารจากร้านอาหารพันธมิตรไปยังลูกค้า (น่าจะคล้ายๆ กับ Foodpanda) โดยจะเริ่มให้บริการอย่างเต็มรูปแบบใน 10 เมืองใหญ่ในเดือนมีนาคมนี้\nUber ทดลองบริการนี้ในเมืองโตรอนโต้ ประเทศแคนาดามาซักพักแล้ว แต่จะมีเฉพาะช่วงมื้ออาหารกลางวันเท่านั้น โดย 10 เมืองที่ UberEATs จะไปเปิดให้บริการในสหรัฐฯก่อนคือ LA, Dallas, Seattle, Chicago, New York, Austin, Washington D.C., Houston, San Francisco, Atlanta และอีกที่คือกรุงปารีส ประเทศฝรั่งเศส โดยบางเมืองจะให้บริการเฉพาะช่วงอาหารกลางวัน บางเมืองจะมีให้บริการทั้งช่วงระหว่างมื้อเช้าและเที่ยง (Brunch), มื้อเที่ยงและมื้อเย็น\nบริการ UberEATs นี้จะมีรวมอยู่ในแอพ Uber เหมือนกับบริการอื่นๆ โดยจะมีรายชื่อร้านอาหารและเมนูมาให้เลือก\nที่มา - Wall Street Journal(ต้องสมัครสมาชิก) via The Next Web, UberEATs\n\n", 
    "Date": "24/01/16", 
    "Image-Link": "https://www.blognone.com/sites/default/files/imagecache/news-thumbnail/news-thumbnails/Capture_3.JPG", 
    "Link": "https://www.blognone.com/node/77058", 
    "News": "Uber เตรียมเปิดบริการ UberEATs บริการส่งอาหารใน 11 เมืองใหญ่", 
    "Tags": "Uber\n", 
    "Time": "15:06"
}