{
  "By": "nutmos", 
  "Contents": " Google ได้ออกโฆษณา AdWords เพื่อเพิ่มความสะดวกในการเลือกซื้อสินค้าจำนวน 2 รูปแบบใหม่ โฆษณารูปแบบแรก คือการโฆษณาในการค้นหารูปภาพ โดย Google จะแสดงผลลัพธ์ที่เป็นรูปภาพสินค้าพร้อมราคาให้ พร้อมลิงก์กดเข้าไปซื้อได้ง่ายๆ ถัดมาคือโฆษณาด้านการซื้อสินค้าในร้านค้า ปกติแล้วการจะไปซื้อสินค้าที่ร้านเราก็อยากทราบว่าที่ร้านมีของให้ไหม ซึ่ง Google ก็มีโปรแกรมเช็คให้ คือเมื่อคลิกร้านค้า เช่น ค้นหาสินค้าและต่อท้ายคำว่า nearby ก็จะแสดงร้านค้าที่มีสินค้าชิ้นนี้อยู่ หรือว่าค้นหาตามชื่อร้านค้าก็จะมีเมนูค้นหาสินค้าในสต็อกของที่ร้านได้ ทั้งหมดนี้ทำผ่านหน้าเว็บของ Google โดยไม่ต้องไปคุ้ยในเว็บของที่ร้านเอง ฟีเจอร์ทั้งสองนี้ Google จะเปิดให้ใช้กับเว็บบนมือถือก่อน ส่วนบนคอมพิวเตอร์นั้นจะตามมาทีหลัง ที่มา - Insight AdWords, Recode   ", 
  "Date": "17/May/2016", 
  "Image-Link": [
    "https://www.blognone.com/sites/default/files/styles/thumbnail/public/topics-images/adwords-logo.png?itok=cBTvRqD4", 
    "/sites/all/themes/blognone42/images/linebutton.png"
  ], 
  "Link": "https://www.blognone.com/node/81064", 
  "News": "Google AdWords ออกโฆษณา 2 รูปแบบใหม่ เพิ่มความสะดวกในการซื้อสินค้า", 
  "Tags": [
    "AdWords", 
    "Google"
  ], 
  "Time": "11:07"
}