{
  "By": "mk", 
  "Contents": "
เว็บบอร์ดชื่อดัง Reddit ประกาศว่าจะ rewrite ลิงก์ที่ผู้ใช้โพสต์ในระบบ ถ้าหากเป็นลิงก์ไปยังร้านค้าออนไลน์ต่างๆ (ประมาณ 1,500 เว็บไซต์) ลิงก์เหล่านี้จะถูกเพิ่มโค้ด affiliate ของ Reddit ลงไปด้วย ถ้าหากมีผู้ใช้กดลิงก์แล้วซื้อสินค้า Reddit ก็จะได้ส่วนแบ่งด้วย
Reddit ระบุว่าแผนการนี้เป็นช่องทางการทำรายได้อีกช่องทางหนึ่งของตัวเอง และจะเริ่มมีผลบังคับในวันที่ 6 มิถุนายนนี้
การ rewrite ลิงก์จะทำผ่านพาร์ทเนอร์คือบริษัท VigLink ซึ่งผู้ใช้ที่ไม่ต้องการ สามารถกดปิดได้จาก VigLink
ที่มา - Reddit, Business Insider
 ", 
  "Date": "30/May/2016", 
  "Image-Link": "https://www.blognone.com/sites/default/files/badges/badge-founder.png", 
  "Link": "https://www.blognone.com/node/81587", 
  "News": "Reddit ประกาศ rewrite ลิงก์โดยเพิ่ม Affiliate Code ของตัวเอง หวังรายได้อีกทาง", 
  "Tags": [
    "Reddit"
  ], 
  "Time": "08:58"
}