{
  "By": "nismod", 
  "Contents": "
Volvo ออกมาประกาศว่าระบบไร้คนขับของตนเองจะล้ำหน้ากว่าของเจ้าอื่นๆ ตรงที่ไม่จำเป็นจะต้องมีคนคอยนั่งควบคุมหลังพวงมาลัย ซึ่งแตกต่างจากของบริษัทอื่น ที่ยังไม่มีใครกล้ายืนยันถึงความปลอดภัยและความน่าเชื่อของระบบไร้คนขับเช่นนี้
Erik Coelingh หัวหน้าอาวุโสฝ่ายเทคนิคด้านความปลอดภัยและเทคโนโลยีสนับสนุนผู้ขับขี่ (Senior Technical Leader for Safety and Driver Support Technologies) ของ Volvo ให้สัมภาษณ์ว่า Volvo จะเผยโฉมระบบไร้คนขับก่อนในปี 2017 และภายในปี 2020 เทคโนโลยีไร้คนขับของบริษัทนั้น จะล้ำหน้ากว่าเจ้าอื่นๆ และสามารถใช้งานได้จริง คนขับสามารถทำอย่างอื่นได้อย่างเต็มที่ โดยไม่ต้องคอยสนใจถนนและพวงมาลัยเลย
โดยระหว่างทางไปถึงเป้าหมายนั้น ปีหน้า Volvo มีแผนจะเปิดตัวโปรแกรมวิจัย DriveMe ในหลายประเทศ ที่จะเปิดโอกาสให้บุคคลทั่วไปเข้ามาทดสอบและควบคุมรถไร้คนขับ โดยทาง Volvo จะเก็บข้อมูลจากการทดสอบเหล่านี้นำไปศึกษาและพัฒนาต่อไป
ที่มา - Tech Insider
 ", 
  "Date": "30/May/2016", 
  "Image-Link": "https://www.blognone.com/sites/default/files/badges/badge-trainee-shadow.png", 
  "Link": "https://www.blognone.com/node/81599", 
  "News": "Volvo ประกาศระบบไร้คนขับจะไม่ต้องมีคนคอยควบคุม, มาภายในปี 2017", 
  "Tags": [
    "Volvo", 
    "Automobile", 
    "Self-Driving Car"
  ], 
  "Time": "12:59"
}