{
  "By": "nrad6949", 
  "Contents": "
ที่งาน Computex ประจำปีนี้ ASUS บริษัทผู้ผลิตอุปกรณ์อิเล็กทรอนิกส์จากไต้หวัน ประกาศเปิดตัว ZenBook 3 (ปีนี้ใช้ B ตัวใหญ่ตาม MacBook) โดยปรับปรุงทั้งในเรื่องของการออกแบบ ที่ระบุว่าบางลงกว่าเดิม เบากว่า MacBook 12 นิ้ว Retina แต่เร็วขึ้นกว่าเดิม ชาร์จเร็วขึ้น และใช้เทคโนโลยีชาร์จเร็ว ทำให้เวลาชาร์จน้อยลงกว่าเดิม
ในเชิงสเปก ใช้หน่วยประมวลผลเป็น Intel Core ตระกูล i รุ่นล่าสุด, แรมสูงสุด 16 GB, หน่วยความจำสูงสุด 1 TB เป็น SSD ตามมาตรฐาน PCIe, มาพร้อมกับที่อ่านลายนิ้วมือที่รองรับ Windows Hello, หน้าจอใช้กระจกเป็น Gorilla Glass 4, รองรับหน้าจอภายนอกที่แสดงผลโดยใช้ USB Type-C, ชาร์จแบตเตอรี่ได้ 60% ใน 49 นาที และใช้งานได้นานสูงสุด 9 ชั่วโมง มี 3 สีคือ Royal Blue, Rose Gold และ Quartz Grey พร้อมแต่งแต้มตัดขอบด้วยสีทอง
ประกาศออกมาด้วยกันทั้งหมด 3 รุ่น รุ่นสูงสุดที่ใช้ Core i7 พร้อมแรม 16 GB และหน่วยความจำ SSD 1 TB ราคาอยู่ที่ 1,999 ดอลลาร์สหรัฐ; รุ่นกลางที่ใช้ Core i7 พร้อมแรม 16 GB และหน่วยความจำ SSD 512 GB ราคาอยู่ที่ 1,499 ดอลลาร์สหรัฐ; ส่วนรุ่นเริ่มต้นใช้ Core i5 พร้อมแรม 4 GB และหน่วยความจำ SSD 256 GB ราคาอยู่ที่ 999 ดอลลาร์สหรัฐ โดยยังไม่ประกาศเวลาวางจำหน่ายในขณะนี้
ที่มา - งานเปิดตัวของ ASUS, ASUS
ASUS ZenBook 3

บาง 11.9 มม. หนัก 910 กรัม
ตัวเครื่องใช้โลหะเป็นอะลูมิเนียมผสม เกรดที่ใช้ในอากาศยาน
หน่วยประมวลผล Intel Core i5 หรือ i7
แรมสูงสุด 16 GB ที่ความถี่ 2,133 MHz
รองรับพื้นที่เก็บข้อมูลสูงสุดแบบ PCIe SSD 1 TB
หน้าจอความละเอียดสูง (ไม่ระบุข้อมูลที่ชัดเจน) ขนาด 12.5 นิ้ว
แบตเตอรี่อยู่ได้นาน 9 ชั่วโมงพร้อมระบบ Fast Charge
ราคา 999 ดอลลาร์สหรัฐ (Core i5/4 GB/256 GB), 1,499 ดอลลาร์สหรัฐ (Core i7/16 GB/512 GB), 1,999 ดอลลาร์สหรัฐ (Core i7/16 GB/1 TB)









ราคารุ่นเริ่มต้น

 ", 
  "Date": "30/May/2016", 
  "Image-Link": "https://www.blognone.com/sites/default/files/badges/badge-writer.png", 
  "Link": "https://www.blognone.com/node/81601", 
  "News": "ASUS เปิดตัว ZenBook 3 เบาขึ้น เร็วขึ้น ชาร์จเร็วขึ้น", 
  "Tags": [
    "Zenbook", 
    "ASUS", 
    "Computex", 
    "Laptop"
  ], 
  "Time": "13:50"
}