{
  "By": "sunnywalker", 
  "Contents": "
ELLO คือคอมพิวเตอร์ที่อาจไม่เหมาะกับผู้ใช้ทั่วไป แต่เหมาะสำหรับโปรแกรมเมอร์ผู้ต้องการเรียนรู้ระบบและแฮกกิ้งโดยเฉพาะ เพราะ ELLO ไม่ใช่คอมพิวเตอร์สำเร็จรูป แต่เป็นคอมพิวเตอร์ DIY ที่ผู้ใช้งานต้องนำไปประกอบเข้าด้วยกัน โดย EllO มาพร้อมกับแผงวงจรไฟฟ้า 6 ชิ้น ความหนารวม 6.4 มิลลิเมตร บอร์ดทดสอบอุปกรณ์ จอ LCD Touchscreen กว้าง 7 นิ้ว และ แป้นพิมพ์
จุดแข็งของ ELLO คือ เหมาะมากสำหรับผู้เริ่มต้นสร้างโปรแกรมพื้นฐาน นอกจากนี้โปรแกรมที่ผู้ใช้งานสร้างขึ้นยังสามารถเชื่อมเข้ากับระบบอิเล็กทรอนิกส์ที่บอร์ดอุปกรณ์ทดสอบแบบไม่ต้องบัดกรีได้ด้วย บอร์ดลงอุปกรณ์ด้านซ้ายบนของคอมพิวเตอร์มีรูถึง 1,156 รู เพื่อรองรับการดัดแปลงของผู้ใช้งานแต่ละคน
ELLO มีซอฟต์แวร์ที่กินสเปกน้อย ฮาร์ดแวร์ไม่ใหญ่มาก บรรจุ 32-bit PIC32 microcontroller, RAM 128kB ,โมดูล 2.4GHz RF,แบตเตอรี่ 4500 มิลลิแอมป์
สามารถสั่งซื้อ ELLO ได้ที่ crowdsupply.com เป็นเว็บไซต์ crowdfunding ราคาเต็มสำหรับอุปกรณ์ครบทุกอย่างคือ 240 เหรียญฯ (ประมาณ 9 พันบาท) ถ้าไม่รวมบอร์ดอุปกรณ์ทดสอบราคาอยู่ที่ 180 เหรียญฯ (ประมาณ 6 พันบาท) และถ้าซื้อแค่บอร์ดเปล่าๆ ราคาอยู่ที่ 65 เหรียญฯ (ประมาณ 2,300 บาท)

ภาพจาก crowdsupply.com
ที่มา - Geek
 ", 
  "Date": "30/May/2016", 
  "Image-Link": "https://www.blognone.com/sites/default/files/badges/badge-contributer.png", 
  "Link": "https://www.blognone.com/node/81610", 
  "News": "ELLO คอมพิวเตอร์ DIY ที่ผู้ซื้อต้องนำไปประกอบเอง ใช้ชิป PIC32", 
  "Tags": [
    "ELLO", 
    "Programming"
  ], 
  "Time": "16:24"
}