{
  "By": "Lamicrosz", 
  "Contents": "
เว็บไซต์ WindowsArea รายงานว่า ได้มีสมาชิกในเว็บบอร์ด Reddit พบเบาะแสที่คาดว่า โทรศัพท์ Windows 10 Mobile จะรองรับการสตรีมเกมจาก Xbox One
เบาะแสนี้พบทั้งในแอพ Xbox และ Xbox (beta) โดยเมื่อเราเข้าไปดูในหน้ารายละเอียดเกมที่เราได้ซื้อไว้ และได้ทำการเชื่อมต่อแอพไว้กับเครื่อง Xbox One จะพบตัวเลือกที่ชื่อว่า "Play from console"
โดยในเวลานี้ เมื่อเรากดเลือกไปจะยังไม่สามารถใช้งานได้ พร้อมขึ้นแจ้งเตือนให้ลองอีกครั้งในภายหลัง ซึ่งอาจจะมีการพูดถึงในงาน E3 2016 ที่จะมาถึง ในอีกไม่นาน
ฟีเจอร์นี้เคยมีให้เห็นมาแล้วในสมาร์ทโฟน Sony Xperia Z3
ที่มา - WindowsArea (ภาษาเยอรมัน) via Windows Central

 ", 
  "Date": "30/May/2016", 
  "Image-Link": "https://www.blognone.com/sites/default/files/badges/badge-contributer.png", 
  "Link": "https://www.blognone.com/node/81624", 
  "News": "ลือ Windows 10 Mobile เตรียมรองรับการสตรีมเกมจาก Xbox One", 
  "Tags": [
    "Xbox One", 
    "Windows 10 Mobile", 
    "Rumors", 
    "Games"
  ], 
  "Time": "23:27"
}