{
  "By": "mk", 
  "Contents": "
ปีที่แล้ว ASUS โชว์โน้ตบุ๊กเกมมิ่งรุ่น ROG GX700 ที่มีจุดขายคือ "ระบายความร้อนด้วยของเหลว" เป็นตัวแรกของโลก
เวลาผ่านมาเกือบปี ในที่สุด ASUS ก็จะเริ่มวางขายโน้ตบุ๊กตัวนี้จริงๆ สักที โดยแยกเป็นรุ่น ROG GX700 ระบายความร้อนด้วยของเหลว และ GX701 ที่เหมือนกันทุกประการ แต่ไม่มี dock ระบบระบายความร้อนแบบใหม่ให้มาด้วย ตัว GX701 จะขายก่อนช่วงต้นเดือนมิถุนายนนี้ ส่วน GX700 ขายปลายเดือนมิถุนายน ราคายังไม่ระบุทั้งสองรุ่น
สเปกของ ASUS ROG GX700/GX701 เป็นโน้ตบุ๊กขนาด 17.3" ให้แรม 64GB, GeForce GTX 980 แรม 8GB, SSD ขนาด 1TB ส่วนซีพียูเลือกปรับแต่งเองได้ (รุ่นที่โชว์ในเว็บเป็น Core i7)
ที่มา - Windows Central

 ", 
  "Date": "29/May/2016", 
  "Image-Link": "https://www.blognone.com/sites/default/files/badges/badge-founder.png", 
  "Link": "https://www.blognone.com/node/81576", 
  "News": "ASUS ROG GX700 เกมมิ่งโน้ตบุ๊ก ระบายความร้อนด้วยของเหลว วางขายเดือนหน้า", 
  "Tags": [
    "ROG", 
    "ASUS", 
    "Notebook"
  ], 
  "Time": "17:41"
}