{
    "By": "arjin", 
    "Contents": "\nไมโครซอฟท์รายงานผลประกอบการประจำไตรมาสที่ 2 ของปีการเงินบริษัท 2016 (ตุลาคม-ธันวาคม 2015) รายได้รวม 25,693 ล้านดอลลาร์ ลดลง 2% จากช่วงเดียวกันในปีก่อน และมีกำไรสุทธิ 6,275 ล้านดอลลาร์ เพิ่มขึ้น 8%\nกลุ่มธุรกิจ Productivity and Business Processes (Office) และ More Personal Computing (Windows) ต่างมีรายได้ลดลงเล็กน้อย ขณะที่กลุ่มธุรกิจ Intelligent Cloud มีรายได้เพิ่มขึ้น 5% โดยเฉพาะ Azure ที่ไมโครซอฟท์บอกว่ารายได้ส่วนนี้เพิ่มขึ้นถึง 140% และหากตัดปัจจัยความผันผวนของค่าเงินจะเติบโตถึง 200% เลย\nซีอีโอ Satya Nadella กล่าวในรายงานโดยพูดถึงความสำเร็จของกลุ่ม Microsoft Cloud ที่ได้รับการตอบรับที่ดีจากภาคธุรกิจ ขณะที่ Windows 10 ก็มีการใช้งานแล้วมากกว่า 200 ล้านอุปกรณ์\nที่มา: ไมโครซอฟท์\n\n", 
    "Date": "29/01/16", 
    "Image-Link": "https://www.blognone.com/sites/default/files/imagecache/news-thumbnail/category_pictures/microsoft-new.png", 
    "Link": "https://www.blognone.com/node/77246", 
    "News": "ไมโครซอฟท์ไตรมาสล่าสุด เผยรายได้จาก Azure เพิ่มขึ้นถึง 3 เท่าตัว", 
    "Tags": "Financial Report\nMicrosoft\nMicrosoft Azure\n", 
    "Time": "9:15"
}