{
    "By": "mk", 
    "Contents": "\nผู้เชี่ยวชาญความปลอดภัยค้นพบช่องโหว่ของ LG G3 มือถือเรือธงของ LG ในปี 2014 สาเหตุเกิดจากแอพชื่อ Smart Notice ที่มาพร้อมกับ LG G3 ทุกเครื่อง\nSmart Notice ใช้ WebView เพื่อเรียกข้อมูลเว็บเพจจากเซิร์ฟเวอร์ แต่ไม่ตรวจสอบข้อมูล (payload) ที่ได้รับมาว่าปลอดภัยหรือไม่ แฮ็กเกอร์อาจใช้ช่องโหว่นี้ส่งโค้ด JavaScript จากเซิร์ฟเวอร์มารันใน WebView ได้\nนักวิจัยส่งข้อมูลนี้ให้ LG แล้ว และ LG ก็ออกแพตช์เรียบร้อยแล้ว ใครที่มี G3 อยู่ก็ลองตรวจสอบว่ามีอัพเดตหรือไม่ครับ\nที่มา - Ars Technica\n\n", 
    "Date": "29/01/16", 
    "Image-Link": "https://www.blognone.com/sites/default/files/imagecache/news-thumbnail/category_pictures/g3.png", 
    "Link": "https://www.blognone.com/node/77273", 
    "News": "พบช่องโหว่ความปลอดภัยใน LG G3, ทาง LG ออกแพตช์แก้แล้ว", 
    "Tags": "LG\nLG G3\nSecurity\n", 
    "Time": "22:32"
}