{
    "By": "mk", 
    "Contents": "\nข้อมูลจากผลประกอบการไมโครซอฟท์ไตรมาส 4/2015 (หรือ 2/2016 ตามปีงบประมาณ) มีข่าวเศร้าสำหรับแฟน Windows Phone คือรายได้จาก Lumia ตกลงหนักถึง 49% เมื่อเทียบกับไตรมาสเดียวกันของปีก่อน และถ้านับเป็นจำนวนเครื่อง ไมโครซอฟท์ขายมือถือได้เพียง 4.5 ล้านเครื่องต่อไตรมาสเท่านั้น ลดลงจากยอด 10.5 ล้านเครื่องในไตรมาสเดียวกันของปีก่อน\nไมโครซอฟท์อธิบายว่ายอดขาย Lumia ที่ตกลงเป็นเพราะการปรับยุทธศาสตร์ Lumia ใหม่เมื่อปีที่แล้ว\nอย่างไรก็ตาม ยอดขาย Surface กลับเพิ่มขึ้น 29% อันเป็นผลจากยอดขาย Surface Pro 4 และ Surface Book, รายได้จากซอฟต์แวร์เกมโตขึ้น 57% จาก Halo 5 และ Minecraft, รายได้รวมของธุรกิจเกมโตขึ้น 9%\nเว็บไซต์ The Verge ถึงกับพาดหัวว่า \"Windows Phone is dead\"\nที่มา - Microsoft, The Verge\n\nSorry, Windows Phone. 110m lifetime sales - 4.5bn iOS & Android phones sold in the same period pic.twitter.com/CO03XWhYJg\n— Benedict Evans (@BenedictEvans) January 28, 2016\n", 
    "Date": "29/01/16", 
    "Image-Link": "https://www.blognone.com/sites/default/files/imagecache/news-thumbnail/category_pictures/ms-lumia.png", 
    "Link": "https://www.blognone.com/node/77272", 
    "News": "ลาแล้ว Windows Phone? ยอดขาย Lumia ตกจากเดิมเกินครึ่ง ", 
    "Tags": "Lumia\nMicrosoft\nWindows Phone\n", 
    "Time": "21:32"
}