{
    "By": "mk", 
    "Contents": "\nเมื่อวานนี้ Huawei จัดงานเปิดตัว Mate 8 มือถือเรือธงตัวล่าสุด อย่างเป็นทางการในประเทศไทย เรื่องสเปกอ่านกันได้จากข่าวเก่าอยู่แล้ว แต่ในงานก็สาธิตฟีเจอร์หลายๆ อย่างที่คนอาจยังไม่รู้กันสักเท่าไรด้วย\nHuawei Mate 8 ตั้งราคาขายในไทยที่ 23,990 บาท เป็นรุ่น Premium Edition ให้แรม 4GB ความจุ 64GB ครับ (อ้างอิงราคาจาก Droidsans)\nผู้บริหาร Huawei เริ่มด้วยภาพรวมของบริษัทในปี 2015 รายได้โตขึ้น 70%\n\nส่วนแบ่งตลาดโลกตอนนี้ขึ้นเบอร์ 3 เรียบร้อยแล้ว (9.7%) ตามหลังแอปเปิลไม่มาก (11.8%)\n\nแบรนด์ Huawei ก็เข้ามาติดอันดับ Top 100 แบรนด์โลก ส่วนติดอันดับเท่าไรขึ้นกับแต่ละสำนัก\n\n\nเข้าเรื่อง Mate 8 กันบ้าง เริ่มจากสเปกเครื่องพลังแรง เป็น Kirin 950 ของบริษัททำเอง ใช้กระบวนการผลิต 16nm FinFET Plus\n\nประสิทธิภาพจีพียูดีขึ้นจาก Kirin 925 รุ่นก่อน 125%\n\nแต่แรงแล้วไม่ร้อน เพราะเตรียมเรื่องนี้มาแล้ว มีระบบช่วยระบายความร้อนมาอย่างดี\n\nแบตเตอรี่ให้มาใหญ่ แก้ปัญหาเรื่องสมาร์ทโฟนยุคนี้แบตหมดเร็ว ถ้าใช้แบบปกติอยู่ได้นาน 2.36 วัน (เทียบกับ iPhone 6 Plus ที่ 1.53 วัน)\n\nฟีเจอร์ด้านความปลอดภัย มีระบบสแกนลายนิ้วมือด้านหลัง ระบบเข้ารหัสดิสก์ และล็อค microSD ไม่ให้ไปใช้กับเครื่องอื่นได้\n\nMate 8 ให้ไมโครโฟนมา 3 ตัว มีฟีเจอร์ด้านรับเสียงมาพอสมควร การอัดเสียงยังรองรับ omni direction คือบอกได้ว่าคนพูดมาจากทิศทางไหน\n\nกล้องก็พัฒนาขึ้น มีระบบ OIS ที่พัฒนากว่าเดิม\n\nลูกเล่นฝั่งซอฟต์แวร์ก็มีจับภาพหน้าจอแบบยาวๆ (สาธิตด้วยภาพตึก Burj Khalifa)\n\nการเคาะหน้าจอด้วยหลังมือ เพื่อจับภาพหน้าจอ หรือบันทึกวิดีโอที่กำลังเล่นอยู่บนจอได้เลย\n\nฟีเจอร์หลังมือยังรองรับ gesture วาดบนจอเพื่อสั่งงานได้ เช่น เปิดกล้อง เปิดเพลง เปิดเว็บ\n\nสีที่วางขายมี 4 สีคือ ทอง เงิน เทา และสีพิเศษของรุ่นนี้คือ Mocha Brown ตามกระแสนิยมการกินกาแฟที่มักผูกโยงไปกับการทำงาน\n\nลองจับเครื่องของจริงครับ ด้านหน้าก็เรียบๆ เน้นขอบจอบาง จอใหญ่ ส่วนธีมของ UI ก็ทำออกมาโทนน้ำตาล-ทอง\n\nด้านหลังเครื่องของสี Mocha Brown (แสงอาจไม่สวยเท่าไร ดูยากหน่อยนะครับ)\n\nดูสีจากภาพ official ของ Huawei อาจชัดเจนกว่าครับ ผมว่า Mocha Brown ดูแปลกตาดี ไม่ค่อยซ้ำซากเท่าไร\n\nเครื่องบางตามสมัยนิยม ตัวบอดี้เป็นโลหะทั้งหมด ซึ่งก็เป็นแนวทางของมือถือเรือธงในยุคนี้เช่นกัน\n\nนอกจากนี้ Huawei ยังเปิดตัวมือถืออีกรุ่นคือ Huawei GR5 ที่เน้นตลาดวัยรุ่น ราคาย่อมเยาลงมา แต่ก็ยังคงฟีเจอร์บางอย่างของ Mate 8 เช่น ตัวอ่านลายนิ้วมือตัวเดียวกัน, แบตเตอรี่ขนาดใหญ่ 3,000 mAh เป็นต้น ราคาขาย 8,990 บาท\n\n", 
    "Date": "29/01/16", 
    "Image-Link": "https://www.blognone.com/sites/default/files/imagecache/news-thumbnail/category_pictures/huawei.png", 
    "Link": "https://www.blognone.com/node/77243", 
    "News": "Huawei เปิดตัว Mate 8 ในไทยอย่างเป็นทางการ ราคา 23,990 บาท", 
    "Tags": "Huawei\nMobile\n", 
    "Time": "8:42"
}