{
    "By": "nutmos", 
    "Contents": "\nสำนักข่าวต่างประเทศเผยว่า ธนาคารของสหรัฐหลายแห่งอย่าง Chase, Bank of America และ Wells Fargo กำลังพัฒนา ATM ที่รองรับ NFC โดยจะใช้ Apple Pay และ Android Pay เป็นตัวกลาง\nMichael Fusco โฆษก Chase เผยว่า ระบบ contactless ATM จะไม่ได้แทนที่บัตรเดบิตโดยตรง แต่เพื่อเป็นการมอบตัวเลือกที่สะดวกสบายให้ลูกค้าถ้าไม่มีบัตรเครดิต และ Chase เผยเตรียมติดตั้ง ATM ที่รองรับ NFC ในปลายปีนี้\nส่วน Wells Fargo และ Bank of America ทาง TechCrunch รายงานว่าทั้งสองธนาคารนี้กำลังพัฒนาระบบ ATM ที่รองรับ NFC และเตรียมติดตั้งในปีนี้เช่นกัน โดย Bank of America ได้บอกกับ TechCrunch ว่าทางธนาคารจะติดตั้ง ATM ระบบใหม่กับตู้ ATM เพียงบางตู้ใน Silicon Valley, San Francisco, Charlotte, New York และ Boston ในเดือนกุมภาพันธ์นี้ และจะเริ่มเปิดให้ใช้ทั่วไปในสหรัฐกลางปี\nวิธีใช้ contactless ATM ก็เพียงเอามือถือแตะเข้าไปที่จุดแตะ NFC หลังจากนั้นมือถือจะสั่งให้ยืนยันการทำรายการ (ด้วย passcode หรือลายนิ้วมือตามที่ตั้งไว้) ซึ่งการนำตู้ ATM เข้าสู่ระบบ contactless ATM ก็น่าจะทำให้ธนาคารลดงบที่ใช้ในการวิจัยเพื่อป้องกัน card skimmer ได้\nปัจจุบันนอกจากสหรัฐที่เตรียมจะติดตั้ง ก็มีสเปนและแคนาดาที่รองรับการใช้งาน contactless ATM แล้ว\nที่มา - The Verge, Wired, TechCrunch\n", 
    "Date": "29/01/16", 
    "Image-Link": "https://www.blognone.com/sites/default/files/imagecache/news-thumbnail/category_pictures/android_pay_logo_rgb_fc_light.png", 
    "Link": "https://www.blognone.com/node/77240", 
    "News": "Apple Pay และ Android Pay เตรียมใช้งานกับ ATM ในสหรัฐในปีนี้", 
    "Tags": "Android Pay\nApple Pay\n", 
    "Time": "7:40"
}