{
    "By": "tanersirakorn", 
    "Contents": "\nแอปเปิลเรียกคืนหัวอะแดปเตอร์ปลั๊กบางแบบ ซึ่งหนึ่งในนั้นมีหัวที่อาจพบได้ในประเทศไทย เนื่องจากมีรายงานอุบัติเหตุไฟฟ้าช็อตจำนวน 12 ครั้งที่เกิดจากหัวปลั๊กนี้\nผู้ใช้ในไทยสามารถทราบรายละเอียดเพิ่มเติมได้จากเว็บไซต์แอปเปิล และติดต่อผู้ให้บริการที่ได้รับอนุญาตจาก Apple ในการเปลี่ยนหัวอะแดปเตอร์เพื่อความปลอดภัย\nที่มา: Engadget\n\n", 
    "Date": "29/01/16", 
    "Image-Link": "https://www.blognone.com/sites/default/files/imagecache/news-thumbnail/category_pictures/Apple_logo_black.svg_.png", 
    "Link": "https://www.blognone.com/node/77268", 
    "News": "แอปเปิลเรียกคืนหัวอะแดปเตอร์ปลั๊ก, ผู้ใช้ในไทยอาจได้รับผลกระทบ", 
    "Tags": "Apple\nProduct Recall\n", 
    "Time": "19:05"
}