{
  "By": "lew", 
  "Contents": " GoToMyPC บริการเข้าถึงเครื่องจากระยะไกลของ Citrix ถูกโจมตีจากการยิงรหัสผ่านโดยกลุ่มที่มีความเชี่ยวชาญสูง (very sophisticated) ทางบริษัทตัดสินใจที่จะรีเซ็ตรหัสผ่านของผู้ใช้ทั้งหมด โดยเบื้องต้นบริษัทระบุว่ารหัสผ่านที่ใช้โจมตีเป็นรหัสผ่านที่รั่วออกมาจากบริการอื่นและมีการใช้ซ้ำบน GoToMyPC ยังไม่มีรายละเอียดว่าการโจมตีนี้พิเศษกว่าปกติอย่างไร ทางบริษัทจึงเรียกว่าเป็นการโจมตีจากกลุ่มที่มีความเชี่ยวชาญสูง ตอนนี้ GoToMyPC แนะนำให้ลูกค้าเปิดใช้งานการยืนยันตัวตนสองขั้นตอน, อย่าใช้รหัสผ่านเป็นคำในพจนานุกรม, ตั้งรหัสผ่านยาว 8 ตัวอักษรขึ้นไป, ใช้รหัสผ่านที่ซับซ้อน ที่มา - GoToMyPC Status, Krebs on Security   ", 
  "Date": "21/June/2016", 
  "Image-Link": [
    "https://www.blognone.com/sites/default/files/styles/thumbnail/public/topics-images/citrix.png?itok=2SOq-ohp", 
    "/sites/all/themes/blognone42/images/linebutton.png"
  ], 
  "Link": "https://www.blognone.com/node/82508", 
  "News": "GoToMyPC ถูกโจมตี, รีเซ็ตรหัสผ่านผู้ใช้ทั้งระบบ", 
  "Tags": [
    "Citrix", 
    "Hacking", 
    "Security", 
    "Password"
  ], 
  "Time": "13:24"
}