{
  "By": "nuntawat", 
  "Contents": "
มีคนพบว่า Windows 10 รุ่นทดสอบล่าสุด 14352 มากับแอปใหม่ชื่อ Quick Assist แอปที่ให้ผู้ใช้หนึ่งสามารถรีโมตมายังคอมพิวเตอร์ของผู้ใช้อีกคนเพื่อแก้ไขปัญหาได้
Quick Assist รองรับการใช้ปากกาวาดเขียน แต่ยังไม่มีฟีเจอร์สำคัญอย่างการรับส่งไฟล์
ดูเหมือนไมโครซอฟท์ยังไม่ต้องการเปิดเผยแอปนี้มากนัก เพราะไม่ปรากฏอยู่ใน All Apps ใน Start Menu หากต้องการใช้งานให้ค้นหาใน Search ของ Windows ด้วยคีย์เวิร์ด "quick assist" ครับ
อนึ่ง ตั้งแต่ Windows XP เป็นต้นมาได้มีฟีเจอร์ Windows Remote Assistance คาดว่า Quick Assist เป็นการรีแบรนด์ฟีเจอร์ดังกล่าวโดยทำให้แอปทันสมัยขึ้นแบบเดียวกับ TeamViewer
ที่มา: MSPoweruser


 ", 
  "Date": "31/May/2016", 
  "Image-Link": "https://www.blognone.com/sites/default/files/badges/badge-writer.png", 
  "Link": "https://www.blognone.com/node/81627", 
  "News": "Windows 10 รุ่นทดสอบ 14352 มากับแอป Quick Assist สำหรับรีโมตเข้าพีซีจากระยะไกล", 
  "Tags": [
    "Windows 10", 
    "Microsoft", 
    "Remote Assistant"
  ], 
  "Time": "08:49"
}