{
  "By": "trinakub", 
  "Contents": "
เกม Dead Island เป็นเกมแนว Action Role-playing FPS ที่มีลักษณะของเกมเก็บเลเวลหรือ RPG ผสมผสานไปด้วย โดยเราต้องเอาชีวิตรอดบนเกาะที่มีแต่ซอมบี้ รอบเกาะจะมีภารกิจต่าง ๆ ให้เราทำ สิ่งตอบแทนอาจเป็นค่าประสบการณ์หรือไอเท็ม บนเกาะจะมีลักษณะเป็น Open World สามารถเดินทางไปที่ไหนบนเกาะก็ได้ ภายในเกมยังมีระบบ Crafting สำหรับสร้างอาวุธหรือปรับแต่งอาวุธของเราให้ดียิ่งขึ้นได้อีกด้วย
เกมประกาศพัฒนาภาค 2 ที่งาน E3 เมื่อปี 2014 ซึ่งเทรลเลอร์ได้รับกระแสตอบรับเป็นอย่างดี เป็นที่น่าตั้งตารอคอย เดิมทีตัวเกมจะออกในปี 2015 แต่หลังจากมีการเลื่อนมาและข่าวคราวเงียบไป
ผู้จัดจำหน่าย Deep Silver เคยประกาศอย่างเป็นทางการว่าผู้พัฒนาเดิม Yager ไม่ได้พัฒนาเกมต่อแล้ว และภายหลังยืนยันว่า Sumo Digital เป็นผู้พัฒนารายใหม่แทน บริษัท Yager ใช้เวลาพัฒนาเกมไปทั้งสิ้นเกือบ 3 ปี ก่อนถูกดึงตัวออกจากโปรเจค ทาง Deep Silver แถลงการว่ารายละเอียดของเกมจะถูกเปิดเผยออกมาเมื่อเกมพัฒนาไปถึงขั้นตอนต่อไป
ล่าสุด DeathSparks จากเว็บ NeoGAF ค้นพบว่าเกม Dead Island 2 หายไปอย่างปริศนาจาก Steam และดูเหมือนว่าการนำหน้าเพจออก พึ่งเกิดขึ้นไม่นานมานี้เอง  (ที่น่าสนใจว่า ตัว database ของ steam ยังคงอยู่ ซึ่งมีรายละเอียดการเปลี่ยนแปลงทุกอย่างเก็บเอาไว้)
เหตุการณ์ครั้งนี้บ่งบอกถึงความเป็นไปได้ 2 อย่างนั่นคือ อาจจะมีการเปิดตัวเกมครั้งใหม่อีกรอบในภายภาคหน้าพร้อมกับหน้าเพจใหม่ หรือตัวเกมอาจถูกยกเลิกไปแบบเงียบๆ
โดยส่วนตัวมีความเป็นไปได้ในระดับนึงว่าอาจจะมีการประกาศเกมใหม่อีกรอบที่งาน E3 ที่จะมาถึงในเร็ว ๆ นี้ของปีนี้ ซึ่งเกม Dead Island ก็เป็นที่ชื่นชอบของใครหลาย ๆ คน จึงคิดว่าทางบริษัทไม่น่าจะยกเลิกโปรเจคไปง่าย ๆ แบบนี้ อาจเป็นไปได้ว่าเกมจะมาในชื่ออื่นแทน
ที่มา – vg247
 ", 
  "Date": "31/May/2016", 
  "Image-Link": "https://www.blognone.com/sites/default/files/badges/badge-contributer.png", 
  "Link": "https://www.blognone.com/node/81640", 
  "News": "เกม Dead Island 2 หายไปจากหน้า Steam อย่างปริศนา", 
  "Tags": [
    "Games", 
    "Dead Island"
  ], 
  "Time": "10:14"
}