{
  "By": "magnamonkun", 
  "Contents": "
แม้จะมีแง้มๆ มาจากฝั่ง ASRock ว่าอินเทลมีแผนเปิดตัว Core i7 แบบ 10 คอร์ ล่าสุดที่งาน Computex 2016 อินเทลได้ใช้เวทีเปิดตัวเจ้า 10 คอร์ที่ว่านี้เรียบร้อยในชื่ออย่างเป็นทางการว่า "Intel Core i7-6950X Extreme Edition"
ซีพียูตัวนี้ถูกจัดอยู่ในกลุ่ม HEDT (High-End Desktop) ผลิตบนสถาปัตยกรรม Broadwell-E มาพร้อม TDP ที่ 140 วัตต์ ใช้ Socket 2011-v3 และต้องการเมนบอร์ดที่ใช้ Intel X99 มีคอร์พื้นฐานที่ 10 คอร์ รองรับ Hyper-Threading ได้สูงถึง 20 เทรด มี L3 Cache ที่ 25 MB มีความเร็วพื้นฐานที่ 3.0 GHz รองรับ Turbo Boost 2.0 ได้สูงสุด 3.5 GHz และรองรับการใช้งานกับ Turbo Boost Max 3.0 (เร่งความเร็วสูงสุดที่คอร์เดี่ยว 1 คอร์) ในตัว และรองรับการ Overclock จากภายนอกด้วย
อินเทลระบุว่าซีพียูตัวนี้ถูกออกแบบมาสำหรับเกมเมอร์และรองรับกับ VR โดยเฉพาะ และยังสามารถประมวลผลภาพและเสียงสำหรับความละเอียด 4K ได้เป็นอย่างดี ซึ่งจะเป็นการดีที่เกมเมอร์จะได้สัมผัสกับภาพและเสียงรวมถึงประสิทธิภาพในการประมวลผลที่เต็มเปี่ยมไปด้วยคุณภาพโดยเฉพาะ
นอกจาก Core i7 Extreme Edition แล้ว พร้อมกันนี้อินเทลยังได้เปิดตัว Intel Core i7 สาย K (Unlocked) เพิ่มเติมอีก 3 รุ่น คือ 6900K/6850K และ 6800K โดยทั้งหมดมาพร้อม TDP เท่ากันที่ 140 วัตต์ ใช้ Socket 2011-v3 และต้องการเมนบอร์ดที่ใช้ Intel X99 ข่าวร้ายคือ 6900K มาพร้อม 8 คอร์ 16 เทรด มี L3 Cache ที่ 20 MB ในขณะที่ 68xx มาพร้อม 6 คอร์ 12 เทรด และมี L3 Cache น้อยกว่าที่ 15 MB แต่ได้ความเร็วในการประมวลผลต่อคอร์ที่สูงขึ้น และ 6800K จะถูกลด PCI-Express Lane เหลือ 28 เลน ในขณะที่รุ่นอื่นๆ รวม 6950X มีทั้งหมด 40 เลน
สำหรับรายละเอียดอื่นๆ อินเทลยังไม่ได้เปิดเผยออกมามากนักรวมถึงราคา ซึ่งคนที่สนใจสามารถศึกษาได้จากเอกสารเพิ่มเติมด้านล่างครับ
ที่มา - Intel Newsroom
เอกสารเพิ่มเติม

Intel Core i7 X Series Briefing Info
Intel Core i7 X Series Factsheet


 ", 
  "Date": "31/May/2016", 
  "Image-Link": "https://www.blognone.com/sites/default/files/badges/badge-writer.png", 
  "Link": "https://www.blognone.com/node/81657", 
  "News": "อินเทลเปิดตัว Core i7-6950X Extreme Edition ซีพียู 10 คอร์ เพื่อ VR และเกม", 
  "Tags": [
    "Core i7", 
    "Intel", 
    "CPU", 
    "Hardware", 
    "Broadwell"
  ], 
  "Time": "15:25"
}