{
  "By": "lew", 
  "Contents": " ในบรรดาบอร์ดคอมพิวเตอร์ขนาดเล็กนั้น Beagle Board จากฝั่ง Texas Instrument มีแนวทางธุรกิจชัดเจนด้วยการเปิดให้ผู้ผลิตรายอื่นๆ นำบอร์ดไปดัดแปลงเพิ่มเติม (และสามารถซื้อชื่อ Beagle ไปแปะ) ที่ผ่านมามีการนำบอร์ดไปดัดแปลงครั้งสำคัญๆ เช่น BeagleBone Green จาก SeeedStudio ตอนนี้ผู้ผลิตชิปรายใหม่อย่าง Octavo Systems มองเห็นโอกาสนี้ก็สร้างชิปตระกูล OSD335x ที่รวมอุปกรณ์สำคัญไว้ในชิปเดียวทั้งหมด ชิปตัวแรกในตระกูลนี้ คือ OSD3358 จะรวมเอาซีพียู Sitara AM3358, ภาคจ่ายไฟ, และแรม DDR3 ซึ่งส่วนประกอบเหล่านี้มักยุ่งยากในการออกแบบบอร์ด การรวมเป็นชิปเดียวทำให้ผู้ผลิตที่ต้องการสร้างส่วนเสริมสามารถทำได้ง่ายขึ้น และไปโฟกัสกับการออกแบบความสามารถเพิ่มเติม ทาง Octovo เปิดพิมพ์เขียวของบอร์ด BeagleBone ที่ใช้ชิป OSD3358 นี้ ขณะเดียวกันก็ยืนยันว่าสามารถนำชิปนี้ไปใช้งานอื่นๆ ได้ด้วย สำหรับรายใหญ่อย่าง Raspberry Pi นั้น บริษัทภายนอกไม่สามารถออกแบบปรับแต่งเองได้ แต่ต้องสั่งผ่านโรงงาน Element14 เท่านั้นทำให้ตัวเลือกในการพัฒนาจำกัดกว่า BeagleBone พอสมควร ที่มา - Ovtovo Systems    ", 
  "Date": "10/May/2016", 
  "Image-Link": [
    "//upic.me/i/6d/osd335-quarter.jpg", 
    "/sites/all/themes/blognone42/images/linebutton.png"
  ], 
  "Link": "https://www.blognone.com/node/80775", 
  "News": "Octavo Systems ออกชิป OSD335x สำหรับการสร้าง BeagleBone โดยเฉพาะ", 
  "Tags": [
    "Texas Instrument", 
    "Hardware", 
    "Semiconductor"
  ], 
  "Time": "01:45"
}