{
  "By": "nrad6949", 
  "Contents": " ศูนย์วิเคราะห์สื่อออนไลน์ (Centre for the Analysis of Social Media: CASM) ของ Demos สถาบันวิจัยเพื่อการกุศลด้านการศึกษาและการใช้อำนาจของอังกฤษ ออกมาเปิดเผยผลการศึกษาวิจัยชิ้นใหม่ที่ทำต่อจากงานวิจัยในปี 2014 โดยระบุว่าผู้ใช้ทวิตเตอร์ชาวอังกฤษ มีการใช้คำหยาบคายเพิ่มขึ้นมากกว่าเดิมในช่วงที่ทำการศึกษายาวนาน 3 อาทิตย์ (ไม่ระบุว่าช่วงเวลาไหน) และในระดับนานาชาติ มีทวิตที่ใช้คำหยาบคายสูงถึง 2 แสนทวิต ส่งถึงกว่า 8 หมื่นคน Demos ระบุว่า ได้พัฒนาอัลกอริทึมเพื่อตรวจจับคำหยาบคายและเนื้อหาที่เพิ่มความเกลียดชังทางเพศ (misogyny) ซึ่งพบว่าผู้ใช้ชาวอังกฤษจำนวนกว่า 6,500 คน ตกเป็นเหยื่อของทวิตคำหยาบคายเหล่านี้มากถึง 10,000 ทวิต โดยผู้หญิงตกเป็นเป้าของการโจมตีมากถึง 50% ส่วนคนที่ใช้คำหยาบนั้นมีทั้งสองเพศ ผลการศึกษาฉบับเต็มถูกนำเสนอระหว่างงานเลี้ยงอาหารกลางวันของรัฐสภาอังกฤษในประเด็นเรื่องของสิทธิสตรีในโลกอินเทอร์เน็ต วันที่ 26 พฤษภาคม ที่ผ่านมาครับ ที่มา - Demos ผ่าน CNET, การศึกษาเมื่อปี 2014    ", 
  "Date": "28/May/2016", 
  "Image-Link": [
    "https://www.blognone.com/sites/default/files/styles/thumbnail/public/topics-images/twitter300.png?itok=DkxsrWCR", 
    "https://blognone.s3.byteark.com/13-10/Samsung_screenshot_marty_replaced2.jpg", 
    "/sites/all/themes/blognone42/images/linebutton.png"
  ], 
  "Link": "https://www.blognone.com/node/81532", 
  "News": "ผลการศึกษาจากอังกฤษระบุ ผู้ใช้ทวิตเตอร์มีการใช้คำหยาบคายมากกว่าเดิม", 
  "Tags": [
    "Twitter", 
    "Research", 
    "Social", 
    "Social Network", 
    "Internet", 
    "Gender"
  ], 
  "Time": "09:25"
}