{
  "By": "mk", 
  "Contents": " SanDisk (ปัจจุบันเป็นบริษัทลูกของ Western Digital) ออก microSD รุ่นใหม่ SanDisk Extreme microSDXC UHS-I card ความจุ 256GB โดยคุยว่าเป็นการ์ดที่อ่านเขียนข้อมูลได้เร็วที่สุดในโลก อัตราการอ่านข้อมูลอยู่ที่ 100MBps ส่วนอัตราการเขียนคือ 90MBps สามารถใช้อัดวิดีโอ 4K ได้นานประมาณ 14 ชั่วโมง เหมาะสำหรับกล้องความละเอียดสูง โดรนติดกล้อง หรือสมาร์ทโฟนที่รองรับ 4K ราคาขายที่ตัวละ 199.99 ดอลาร์ เริ่มวางขายไตรมาสที่สี่ นอกจากนี้ SanDisk ยังออกการ์ด SanDisk Ultra รุ่น Premium Edition (ชื่อดูพรีเมียม กลับแต่เป็นรุ่นราคาถูก เพราะเป็น Ultra ที่ต่ำกว่า Extreme) ความจุ 256GB เท่ากัน เน้นใช้สำหรับอุปกรณ์ Android โดยมีความเร็วการอ่าน 95MBps (ไม่ระบุความเร็วการเขียน) ราคา 149.99 ดอลลาร์ เริ่มขายเดือนสิงหาคมนี้ ปัจจุบัน SanDisk มี SD ความจุสูงสุดวางขายที่ขนาด 512GB ที่มา - SanDisk, The Verge     ", 
  "Date": "29/June/2016", 
  "Image-Link": [
    "https://www.blognone.com/sites/default/files/styles/thumbnail/public/topics-images/sandisk.png?itok=B-FsCR2W", 
    "http://i.imgur.com/kskWnCx.jpg", 
    "http://i.imgur.com/1l8FV82.jpg", 
    "/sites/all/themes/blognone42/images/linebutton.png"
  ], 
  "Link": "https://www.blognone.com/node/82829", 
  "News": "การ์ด SanDisk Extreme รุ่นใหม่ 256GB คุยอัตราการอ่านข้อมูลเร็วที่สุด", 
  "Tags": [
    "SanDisk", 
    "microSD"
  ], 
  "Time": "20:38"
}