{
  "By": "nismod", 
  "Contents": " หลังเกิดเหตุก่อการร้ายล่าสุดที่ฝรั่งเศสเมื่อคืนที่ผ่านมาตามเวลาในบ้านเรา Google ออกมาประกาศให้โทรไปยังฝรั่งเศสผ่าน Hangouts และ Project Fi โดยไม่คิดค่าบริการ เช่นเดียวกับโอเปอเรเตอร์ในสหรัฐ ทั้ง AT&T และ Verizon ที่ให้ลูกค้าโทรและส่งข้อความไปยังฝรั่งเศสโดยไม่คิดเงิน ขณะที่ T-Mobile ระบุแต่เพียงว่าเฉพาะการโทรและส่งข้อความไปยังพื้นที่ของเมืองนีซที่เกิดเหตุเท่านั้น ส่วน Sprint ไม่คิดเงินทั้งการโทรไปฝรั่งเศส และโทรออกจากฝรั่งเศส ที่มา - Android Police   ", 
  "Date": "15/July/2016", 
  "Image-Link": [
    "https://www.blognone.com/sites/default/files/styles/thumbnail/public/topics-images/Google_2015_logo.svg_.png?itok=bd4RvVLK", 
    "/sites/all/themes/blognone42/images/linebutton.png"
  ], 
  "Link": "https://www.blognone.com/node/83463", 
  "News": "Google และโอเปอเรเตอร์ในสหรัฐ เปิดให้โทรและส่งข้อความฟรีไปฝรั่งเศส", 
  "Tags": [
    "Google", 
    "France", 
    "AT&T", 
    "T-Mobile", 
    "Sprint", 
    "Verizon"
  ], 
  "Time": "11:27"
}