{
  "By": "sunnywalker", 
  "Contents": " จากที่มีกระแสว่า Facebook มีหน่วยคัดกรองคุมเนื้อหาที่จะขึ้นในหน้า feed หรือมีบรรณารักษ์ข่าวนั้น Mark Zuckerberg โพสต์เฟสบุคย้ำจุดยืนของ Facebook ว่าเป็นพื้นที่ให้ทุกความคิด และในบ่ายวันนี้ (ตามเวลาท้องถิ่น) ตัวเขาจะเป็นเจ้าภาพในการพูดคุยกับผู้นำทางการเมืองฝ่ายอนุรักษ์นิยม (conservative) จำนวนหนึ่ง เพื่อทำให้แน่ใจว่า Facebook ยังคงเป็นพื้นที่สำหรับทุกความคิดทางการเมือง Mark Zuckerberg ยังระบุว่า ความสำเร็จของ Facebook ขึ้นอยู่กับว่าผู้ใช้สบายใจที่จะแชร์เรื่องราวที่เขาต้องการ ไม่สมเหตุสมผลเลยที่จะป้องกันเนื้อหาใดๆที่เขาสบายใจจะแชร์ ฝ่าย conservative และผู้สนับสนุนพรรค Republican ยังคงเป็นส่วนหนึ่งที่สำคัญของเรา โดย Donald Trump มีคนติดตามใน Facebook มากกว่านักการเมืองคนอื่นๆ ส่วนสำนักข่าว Fox News ก็มีความเคลื่อนไหวผ่านแฟนเพจมากกว่าสำนักข่าวอื่น แม้ฝ่าย conservative จะไม่เชื่อว่าเราปราศจากอคติ แต่ Facebook ก็ยังอยากจะได้ยินเสียงของฝ่าย conservative เพื่อพัฒนา platform ต่อไป  ที่มา - Mark Zuckerberg   ", 
  "Date": "19/May/2016", 
  "Image-Link": [
    "https://www.blognone.com/sites/default/files/styles/thumbnail/public/topics-images/zuck.png?itok=kocAZM9K", 
    "http://i.imgur.com/uAW7SOW.png", 
    "/sites/all/themes/blognone42/images/linebutton.png"
  ], 
  "Link": "https://www.blognone.com/node/81199", 
  "News": "Mark Zuckerberg ย้ำจุดยืน Facebook เปิดกว้างทางการเมือง", 
  "Tags": [
    "Mark Zuckerberg", 
    "Facebook", 
    "Politics"
  ], 
  "Time": "22:38"
}