{
  "By": "nismod", 
  "Contents": " ASUS เปิดตัว Chromebook รุ่น C301SA ที่มาพร้อมกับความจุและแรมที่เพิ่มขึ้นเป็น 64GB และ 4GB ตามลำดับเพื่อรองรับการมาของแอพแอนดรอยด์บน Chrome OS มาพร้อมหน้าจอขนาด 13.3 นิ้ว ความละเอียด 1920x1080 ซีพียู Intel Celeron N3160 Braswell แรม 4GB รองรับ Wi-Fi มาตรฐาน 802.11ac, Bluetooth 4.2 พร้อมพอร์ต USB 3.0 และ HDMI ASUS เปิดราคาของ Chromebook C301SA อยู่ที่ 300 เหรียญสหรัฐครับ ที่มา - Liliputing     ", 
  "Date": "12/July/2016", 
  "Image-Link": [
    "https://www.blognone.com/sites/default/files/styles/thumbnail/public/topics-images/C720-zoom-big.png?itok=LlppYcGm", 
    "https://c6.staticflickr.com/9/8694/27644539413_c7266300dd_z.jpg", 
    "https://c8.staticflickr.com/8/7398/27644538983_e6e029a13c.jpg", 
    "/sites/all/themes/blognone42/images/linebutton.png"
  ], 
  "Link": "https://www.blognone.com/node/83329", 
  "News": "ASUS เปิดตัว Chromebook C301SA มาพร้อมหน้าจอ FHD, ความจุ 64GB ราคา $300", 
  "Tags": [
    "Chromebook", 
    "ASUS", 
    "Chrome OS"
  ], 
  "Time": "16:22"
}