{
  "By": "nrad6949", 
  "Contents": " ถือว่ามาตามนัดสำหรับคุณสมบัติใหม่ของ Chrome OS ที่จะสามารถรันแอพจาก Android ได้พร้อมกับ Play store เมื่อวันนี้ Google ปล่อย Chrome OS รุ่น 53.0.2768.0 กับผู้ใช้ Chromebook ที่รับอัพเดตจาก Dev Channel ให้แล้ว เมื่อผู้ใช้ติดตั้งอัพเดตนี้เสร็จและทำการรีสตาร์ทเครื่อง จะปรากฎโลโก้ของ Play store ที่แถบด้านล่าง (Chrome OS เรียกว่า shelf) ซึ่งสามารถเรียกใช้งานและเข้าไปโหลดแอพได้ทันทีโดยใช้เวลาไม่มากนัก ผมทดลองเบื้องต้นแล้วก็พบว่าใช้งานได้อย่างไม่มีปัญหาบน ASUS Chromebook Flip ทั้งนี้ คุณสมบัติดังกล่าวยังมีเฉพาะผู้ใช้ที่รับอัพเดตจาก Dev Channel และใช้ Chromebook เฉพาะบางรุ่นที่กำหนดเท่านั้น ที่มา - Android Police, พบด้วยตนเอง    ", 
  "Date": "17/June/2016", 
  "Image-Link": [
    "https://www.blognone.com/sites/default/files/styles/thumbnail/public/topics-images/google-play-new.png?itok=rDa4mjxu", 
    "https://i.imgur.com/lCB0oCv.png", 
    "/sites/all/themes/blognone42/images/linebutton.png"
  ], 
  "Link": "https://www.blognone.com/node/82391", 
  "News": "Google ปล่อย Chrome OS พร้อม Play store ลง Dev Channel แล้ว", 
  "Tags": [
    "Chrome OS", 
    "Android", 
    "Google Play"
  ], 
  "Time": "19:33"
}