{
  "By": "mk", 
  "Contents": " อินเทลเปิดตัว Xeon E7 v4 พี่ใหญ่รุ่นที่สี่ (ตัวต่อจาก Xeon E7 v3 ที่ออกเมื่อปีที่แล้ว) ตัวนี้ยังเป็นสถาปัตยกรรม Broadwell ตามรหัส v4 นะครับ (ถ้าเป็น v5 ถึงเป็น Skylake) Xeon E7 v4 แยกเป็นสองซีรีส์ย่อยคือ E7-8800 และ E7-4800 จุดเด่นคือใส่หน่วยความจำได้สูงถึง 24TB และรองรับการคอนฟิกสูงสุด 256 ซ็อคเก็ตถ้าใช้คอนโทรลเลอร์พิเศษเข้าช่วย นอกจากนี้ยังมีฟีเจอร์สำหรับตลาดบน เช่น Intel Run Sure Technology ช่วยเพิ่มเสถียรภาพของระบบ มีตัวช่วยถอดรหัสที่ฮาร์ดแวร์ ประสิทธิภาพดีกว่า Xeon E7 v3 ถึง 70% อินเทลระบุว่าประสิทธิภาพเฉลี่ยดีขึ้น 1.3 เท่าจาก Xeon E7 v3 และเมื่อคู่แข่งโดยตรงของ Xeon E7 คือ IBM Power 8 ซึ่งอินเทลก็โฆษณาว่าประสิทธิภาพของตัวเองดีกว่า 1.4 เท่า และใช้พลังงานน้อยกว่าครึ่งนึง ชิปส่งให้ผู้ผลิตฮาร์ดแวร์เซิร์ฟเวอร์แล้ว และวันนี้ก็มีเซิร์ฟเวอร์หลายรุ่นทยอยเปิดตัวแล้วเช่นกัน ที่มา - Intel, Intel (PDF), The Register    ", 
  "Date": "6/June/2016", 
  "Image-Link": [
    "https://www.blognone.com/sites/default/files/styles/thumbnail/public/topics-images/xeon.png?itok=PfvgquaT", 
    "http://i.imgur.com/ESxcda9.png", 
    "/sites/all/themes/blognone42/images/linebutton.png"
  ], 
  "Link": "https://www.blognone.com/node/81910", 
  "News": "อินเทลเปิดตัว Xeon E7 v4 สถาปัตยกรรม Broadwell, ประสิทธิภาพดีขึ้น 1.3 เท่าจากรุ่นก่อน", 
  "Tags": [
    "Xeon", 
    "Intel", 
    "Processor", 
    "CPU", 
    "Broadwell"
  ], 
  "Time": "16:05"
}