{
  "By": "lew", 
  "Contents": " Element14 รับคำสั่งซื้อ micro:bit คอมพิวเตอร์จิ๋วจากผู้ซื้อทั่วไปแล้ว ช่วงแรกมีสามชุดให้เลือก ได้แก่ micro:bit go กล่องเดียว, micro:bit club กล่อง 10 ชุด, และ micro:bit bulk ระดับโรงเรียนและบริษัท 100 ชุด สินค้าเริ่มรับคำสั่งซื้อตั้งแต่วันนี้ แต่เริ่มส่งมอบเดือนกรกฎาคม หลังจากเปิดตัวบอร์ดหนึ่งปีเต็ม และเริ่มส่งมอบให้กับเด็กนักเรียนไปก่อนเมื่อเดือนมีนาคมที่ผ่านมา ราคาชุดละ 12.29 ปอนด์ รองรับการเชื่อมต่อ Bluetooth มีเข็มทิศ, accelerometer ในตัว พร้อม LED 5x5 และปุ่มอีกสองปุ่ม รู I/O ขนาดใหญ่ 5 รู (เป็น VCC และ GND ไปสองรู เหลือ I/O จริง 3 รู) ด้านซอฟต์แวร์ รองรับทั้งภาษา Block, JavaScript, TouchDevelop, และ MicroPython ที่มา - TechCrunch    ", 
  "Date": "31/May/2016", 
  "Image-Link": [
    "https://www.blognone.com/sites/default/files/styles/thumbnail/public/topics-images/bbc.png?itok=OTN0w22h", 
    "//upic.me/i/v4/2546862-500.jpg", 
    "/sites/all/themes/blognone42/images/linebutton.png"
  ], 
  "Link": "https://www.blognone.com/node/81666", 
  "News": "คอมพิวเตอร์จิ๋วสำหรับนักเรียน micro:bit เปิดรับคำสั่งซื้อจากคนทั่วไปแล้ว เริ่มต้น 12.29 ปอนด์", 
  "Tags": [
    "micro:bit", 
    "BBC", 
    "Education", 
    "Hardware"
  ], 
  "Time": "18:46"
}