{
  "By": "advertorial", 
  "Contents": " Samsung Galaxy J7 ตัวนี้เป็นรุ่นล่าสุดใน J Series ตัวผลิตภัณฑ์เน้นการถ่ายรูปเป็นจุดขาย โดยเฉพาะกล้องหน้าที่มีความละเอียด 5 ล้านพิกเซล ส่วนกล้องหลัง 13 ล้านพิกเซล  รูรับแสงกว้าง F1.9 ซึ่งจะให้ความสว่างมากกว่า เช่น ถ่ายในที่มืด ถ่ายตอนกลางคืนแสงส้ม เป็นต้น  นอกจากนี้ CPU Speed ก็แรงพอสมควร จุได้ 16GB  ขนาดตัวเครื่องจับถนัดมือกว้าง 5.5 นิ้ว  เล็กกว่าตระกูล Note นิดหน่อย แต่หน้าจอยังกว้างพอที่จะอ่านบทความยาวชัดๆ ได้ และจับถือได้สะดวกกว่าด้วย  วัสดุให้ความรู้สึกพรีเมี่ยม ดีไซน์เรียบหรู วัสดุดูแข็งแรงกว่ารุ่นเก่าที่ใช้พลาสติกที่ลอกง่าย  รูปถ่ายมีคุณภาพดี สีสันสดใสชัดเจน  เช่น ตัวอย่างภาพด้านล่าง ถ่ายในบ้านตอนกลางคืน มีแสงส้มไม่สว่างมาก แต่ขับสีสันอาหารได้ชัดเจนไม่อมส้มเกินไป ภาพในบ้านตอนกลางคืน แสงไฟสีส้ม ส่วนรูปล่างถ่ายในห้องที่มีม่านปิดทึบ แสงอาทิตย์ลอดเข้ามาน้อย แต่ภาพที่ได้สว่างจนเหมือนไม่ได้ถ่ายในห้องที่ปิดม่าน ภาพในห้องตอนกลางวันที่ปิดม่านทึบ ส่วนกล้องหน้าของ J7 ที่ความละเอียดสูง 5 ล้านพิกเซล รูรับแสงกว้าง 1.9 ถ่ายรูปง่ายเพียงแตะหน้าจอ มาพร้อมกับระบบเซลฟี่ด้วยคำสั่งมือ สามารถตั้งมือถือพิงกับสิ่งของแล้วถ่ายภาพเซลฟี่ด้วยการยกมือขึ้นลงได้  ถ่ายเซลฟี่แบบพาโนรามาก็ทำได้เช่นกัน  ถ่ายเซลฟี่พาโนรามาได้ด้วย wild selfie ภาพด้านล่างคือภาพที่ถ่ายด้วยกล้องหน้า ยอมรับว่า J7 ทำได้ดี ปรับความสว่างอัตโนมัติ (สังเกตได้ว่ามี noise อยู่บ้างตรงบริเวณภาพที่เป็นสีเข้ม)  ภาพจากกล้องหน้า ถ่ายย้อนแสง มาดูคุณภาพหน้าจอกันบ้าง หน้าจอของ J7 เป็นระดับ HD Super AMOLED ดูรูปถ่ายและวิดีโอชัดเจน แม้ J7 จะไม่มีโหมดตั้งค่าหน้าจอแต่ก็ให้ภาพชัด ปรับแสงสว่างได้ตั้งแต่สว่างมากที่สุดจนถึงน้อยที่สุดเพื่อความสบายตาได้ เล่นคลิปจาก YouTube สเปกอื่นๆ Samsung J7 Version 2  รองรับ 4G ในตัว  มีโลโก้ Duos ข้างหลังเครื่องคือใส่ได้ 2 ซิม  แบตเตอรี่ 3,300 mAh เล่น 3G ได้ยาวนานสูงสุด 11 ชั่วโมง CPU แบบ 8 คอร์ รองรับการทำงาน multitask  ความจุ 16GB สามารถใส่เมมเพิ่มเองได้อีก 128GB สำหรับคนชอบถ่ายรูปถ้าใส่เมมเพิ่มก็แทบจะไม่ต้องลบรูปออกจากเครื่องเลย  ระบบปฏิบัติการ Android 6.0  Marshmallow ที่มีการพัฒนาคุณภาพระบบและความปลอดภัยได้ดีกว่าแอนดรอยด์เวอร์ชั่นก่อนๆ    ทั้งหมดนี้ราคาเพียง 8,900 บาท เรียกได้ว่าเป็นสมาร์ทโฟนสเปกดี คุณสมบัติเกินราคา ถ้าชอบถ่ายรูป เล่นเน็ต ดูวิดีโอ ถือว่าคุ้มมาก   ", 
  "Date": "5/June/2016", 
  "Image-Link": [
    "https://www.blognone.com/sites/default/files/styles/thumbnail/public/topics-images/j8u2rhG1.jpg?itok=CJuE6qSo", 
    "//i.imgur.com/yE4KQHO.png”", 
    "//i.imgur.com/9NHA4RV.jpg?1”", 
    "//i.imgur.com/Phlh51l.jpg?2”", 
    "//i.imgur.com/YJo5rfh.jpg”", 
    "//i.imgur.com/dN13VyQ.png?1”", 
    "//i.imgur.com/GHOUWzL.jpg?1”", 
    "//i.imgur.com/oBkmkeZ.jpg?1”", 
    "/sites/all/themes/blognone42/images/linebutton.png"
  ], 
  "Link": "https://www.blognone.com/node/81868", 
  "News": "รีวิว Galaxy J7 Version 2 สมาร์ทโฟนสเปกดี ราคาไม่แรง แค่ 8,900 บาท", 
  "Tags": [
    "Samsung", 
    "Samsung Galaxy", 
    "Galaxy J", 
    "Review", 
    "Advertorial"
  ], 
  "Time": "18:20"
}