{
  "By": "nutmos", 
  "Contents": " Facebook ได้ออก SDK สำหรับการรวมบริการของ Facebook เข้าไปในโปรแกรมที่เขียนด้วยภาษา Swift ซึ่งสามารถใช้ได้ทั้งแอพที่พัฒนาสำหรับ iOS, watchOS, tvOS และ macOS เนื่องจากปัจจุบันภาษา Swift ยังคงอยู่ในการพัฒนาเวอร์ชันที่ 3 ฉะนั้น Facebook SDK สำหรับภาษา Swift เวอร์ชันเบต้านี้จะรองรับเฉพาะ Swift 2.2.1 และ 2.3 เท่านั้น และจะอัพเดต Facebook SDK สำหรับภาษา Swift เพื่อให้รองรับ Swift 3 ในช่วงท้ายปีเมื่อตัวภาษาเข้าสู่สถานะ GM แล้ว โค้ด Facebook SDK สำหรับภาษา Swift นี้ทาง Facebook ได้โอเพ่นซอร์สด้วย โดยซอร์สโค้ดของ SDK นี้สามารถดาวน์โหลดได้ทันทีผ่าน GitHub หรือจะรวมเข้ากับตัวแอพผ่าน CocoaPods หรือ Carthage ก็ได้ ที่มา - Facebook Developers   ", 
  "Date": "15/July/2016", 
  "Image-Link": [
    "https://www.blognone.com/sites/default/files/styles/thumbnail/public/topics-images/fb-500.png?itok=7KEmyKx1", 
    "/sites/all/themes/blognone42/images/linebutton.png"
  ], 
  "Link": "https://www.blognone.com/node/83474", 
  "News": "Facebook ออก SDK สำหรับภาษา Swift เวอร์ชันเบต้า", 
  "Tags": [
    "Facebook", 
    "Swift", 
    "Developer"
  ], 
  "Time": "14:19"
}