{
  "By": "nuntawat", 
  "Contents": " ไมโครซอฟท์ปล่อยแอป OneDrive UWP สำหรับ Windows 10 พีซีแล้ว โดยผู้ใช้สามารถเรียกดู แก้ไข และแบ่งปันไฟล์/โฟลเดอร์บน OneDrive ได้โดยที่ไม่ต้องซิงค์ไฟล์/โฟลเดอร์ลงพีซีก่อน แอป OneDrive นี้ยังมีฟีเจอร์แบบเดียวกับ OneDrive เวอร์ชันเว็บ อาทิ กู้คืนไฟล์จาก Recycle Bin รวมถึงสามารถลากไฟล์มาวางในแอปเพื่ออัพโหลดได้ทันที เป็นต้น ดาวน์โหลดแอปได้แล้วจาก Windows Store ครับ ที่มา: Microsoft - Office Blogs    ", 
  "Date": "17/May/2016", 
  "Image-Link": [
    "https://www.blognone.com/sites/default/files/styles/thumbnail/public/topics-images/onedrive.png?itok=xRirAw91", 
    "http://i.imgur.com/XdJ80df.png", 
    "/sites/all/themes/blognone42/images/linebutton.png"
  ], 
  "Link": "https://www.blognone.com/node/81058", 
  "News": "ไมโครซอฟท์ปล่อยแอป OneDrive UWP สำหรับ Windows 10 พีซีแล้ว", 
  "Tags": [
    "OneDrive", 
    "UWP", 
    "Windows 10", 
    "Microsoft", 
    "Cloud Storage"
  ], 
  "Time": "09:46"
}