{
  "By": "trinakub", 
  "Contents": " Dragon Quest Builders เป็นเกมที่มีลักษณะของเกม Action RPG ผสมผสานกับความเป็น Sandbox แบบ Minecraft ในรูปแบบ 3D ซึ่งผู้เล่นสามารถเก็บเกี่ยว Block ต่าง ๆ และนำมาสร้างเป็นสิ่งก่อสร้างหรืออุปกรณ์ต่าง ๆ ได้ ในขณะเดียวกันก็จะมีระบบ Level และมีมอนสเตอร์จากโลกของ Dragon Quest เป็นศัตรู เช่น สไลม์ ให้เราได้ต่อสู้ ให้ความรู้สึกแบบเดียวกับเกม RPG เรียกได้ว่าเป็นการผสมผสานที่น่าสนใจเลยทีเดียว เหมาะสมสำหรับผู้ที่ชื่นชอบทั้งเกม Minecraft และ Dragon Quest ล่าสุดภายในงาน E3 ทาง Square Enix ประกาศวันวางจำหน่ายเกม Dragon Quest Builders ในประเทศฝั่งตะวันตกแล้ว (ใครที่รอภาษาอังกฤษจะได้เล่นกัน) เกมนี้เป็น exclusive เฉพาะเครื่อง PlayStation 4 และ PS Vita เท่านั้น วันวางจำหน่ายบนเครื่อง PS4 และ PS Vita  North America วางจำหน่ายวันที่ 11 ตุลาคม 2016 Europe วางจำหน่ายวันที่ 14 ตุลาคม 2016  ที่มา - GamenewsHQ   ", 
  "Date": "15/June/2016", 
  "Image-Link": [
    "https://www.blognone.com/sites/default/files/styles/thumbnail/public/news-thumbnails/Dragon%20Quest%20Logo.jpg?itok=9kJsAjg2", 
    "/sites/all/themes/blognone42/images/linebutton.png"
  ], 
  "Link": "https://www.blognone.com/node/82304", 
  "News": "Square Enix ประกาศวันวางจำหน่ายเกม Dragon Quest Builders ในซีกโลกตะวันตก", 
  "Tags": [
    "Dragon Quest", 
    "Games", 
    "Square Enix"
  ], 
  "Time": "18:19"
}