{
  "By": "nrad6949", 
  "Contents": " เมื่อวานนี้ Acer ได้แจ้งไปยังทางการสหรัฐฯ ผ่านสำนักงานอัยการของมลรัฐแคลิฟอร์เนีย ระบุว่าบริษัทถูกโจมตีจากแฮกเกอร์ โดยผู้โจมตีสามารถนำเอาฐานข้อมูลบัตรเครดิตและลูกค้าในสหรัฐฯ แคนาดา และเปอร์โตริโก ออกไปได้ บริษัทระบุว่า ลูกค้าที่ได้รับผลกระทบคือคนที่เคยมีประวัติสั่งซื้อสินค้าผ่านหน้าเว็บกับทางบริษัท ระหว่างเดือนพฤษภาคมปีที่แล้ว จนถึงวันที่ 28 เมษายนที่ผ่านมา โดยข้อมูลที่ถูกเอาออกไปนั้น นอกจากมีชื่อ ที่อยู่ของลูกค้าแล้ว ยังมีข้อมูลบัตรเครดิตทั้งหมด (รหัสบัตร วันหมดอายุ และเลขยืนยันบัตร (CVV:Card Verification Value) สามหลัก) ออกไปด้วย Engadget ระบุว่า Acer ยังไม่เปิดเผยสาเหตุและที่มาของการถูกโจมตีในครั้งนี้ แต่ระบุว่าเหตุการณ์ลักษณะนี้มักจะเกิดขึ้นน้อยครั้งกับผู้ผลิตคอมพิวเตอร์ โดยเฉพาะอย่างยิ่งกับร้านค้าออนไลน์ของตนเอง ที่มา - สำนักงานอัยการมลรัฐแคลิฟอร์เนีย ผ่าน Engadget   ", 
  "Date": "21/June/2016", 
  "Image-Link": [
    "https://www.blognone.com/sites/default/files/styles/thumbnail/public/topics-images/acer.png?itok=2JFequgW", 
    "/sites/all/themes/blognone42/images/linebutton.png"
  ], 
  "Link": "https://www.blognone.com/node/82482", 
  "News": "Acer แจ้งทางการสหรัฐฯ ถูกโจมตีเพื่อขโมยเอาฐานข้อมูลบัตรเครดิต", 
  "Tags": [
    "Acer", 
    "Security", 
    "USA", 
    "Hacking"
  ], 
  "Time": "07:37"
}