{
  "By": "Pakin", 
  "Contents": " LINE ประกาศเปิดใช้งานฟีเจอร์ \"Letter Sealing\" ซึ่งเป็นการเข้ารหัสแบบปลายทางถึงปลายทาง (end-to-end encryption) เป็นค่าเริ่มต้นให้กับผู้ใช้ทุกคน และยกเลิกฟีเจอร์ Hidden Chat โดยให้มาใช้ Letter Sealing แทน การเปลี่ยนแปลงมีผลตั้งแต่วันนี้ (1 ก.ค.) เป็นต้นไปครับ ที่มา - LINE official blog    ", 
  "Date": "1/July/2016", 
  "Image-Link": [
    "https://www.blognone.com/sites/default/files/styles/thumbnail/public/topics-images/line300.png?itok=EJ65plDD", 
    "http://i.imgur.com/5Nlgdr0.jpg", 
    "/sites/all/themes/blognone42/images/linebutton.png"
  ], 
  "Link": "https://www.blognone.com/node/82885", 
  "News": "LINE เปิดการเข้ารหัสแบบ End-to-End เป็นค่าเริ่มต้น, ยกเลิก Hidden Chat", 
  "Tags": [
    "LINE", 
    "Security", 
    "Encryption", 
    "Instant Messenger"
  ], 
  "Time": "07:53"
}