{
  "By": "mk", 
  "Contents": " ความคืบหน้ากรณี ผู้ใช้ TeamViewer โดนแฮ็ก ล่าสุดโฆษกของ TeamViewer ออกมาให้สัมภาษณ์ มีประเด็นดังนี้  TeamViewer ยอมรับว่ามีผู้ใช้ที่โดนแฮ็กจำนวนเยอะอย่างมีนัยสำคัญ (significant) แต่ไม่มีตัวเลขที่แน่นอน บริษัทยังเชื่อว่าการแฮ็กมาจากข้อมูลหลุดของโซเชียลต่างๆ ในช่วงนี้ เช่น LinkedIn และ Myspace มีผู้ใช้บางราย ระบุว่าเปิดใช้ 2-factor autentication แต่ก็ยังโดนแฮ็ก ซึ่ง TeamViewer บอกว่ายังไม่ได้ข้อสรุป และพยายามติดต่อขอ log จากผู้ใช้เหล่านี้แล้วแต่ยังไม่สำเร็จ ซึ่งบริษัทก็ขอให้ผู้ใช้ส่ง log เข้ามาเพื่อสอบสวนอย่างละเอียด บริษัทพยายามตรวจสอบร่องรอยการถูกแฮ็กที่ตัวระบบของบริษัทเอง แต่ยังไม่พบหลักฐานใดๆ บ่งชี้ว่าถูกแฮ็ก  ที่มา - Ars Technica    ", 
  "Date": "7/June/2016", 
  "Image-Link": [
    "https://www.blognone.com/sites/default/files/styles/thumbnail/public/topics-images/teamviewer.png?itok=WVrzMwP3", 
    "https://i.imgur.com/QLwTeEV.png", 
    "/sites/all/themes/blognone42/images/linebutton.png"
  ], 
  "Link": "https://www.blognone.com/node/81937", 
  "News": "TeamViewer ยอมรับมีผู้ใช้โดนแฮ็กเยอะจำนวนหนึ่ง แต่ยืนยันระบบตัวเองไม่ถูกแฮ็ก", 
  "Tags": [
    "TeamViewer", 
    "Hacking", 
    "Security"
  ], 
  "Time": "08:17"
}