{
  "By": "nrad6949", 
  "Contents": " นอกจากจะปล่อยอัพเดตให้กับ iOS แล้ว วันนี้ Apple ก็ปล่อยอัพเดตสำหรับ OS X El Capitan ด้วยเช่นกัน โดยมีรหัสรุ่น 10.11.5 เน้นไปที่การแก้ไขข้อผิดพลาด ปรับปรุงเรื่องความปลอดภัย ความเสถียร  และคุณสมบัติสำหรับการใช้งานในองค์กร อัพเดตนี้จะรวมการปรับปรุงความปลอดภัยรหัส 2016-003 ซึ่งเป็นการแก้ไขช่องโหว่ความปลอดภัยของ OS X เอาไว้หลายตัว (ดูได้จากที่มา) ส่วนมากเป็นช่องโหว่ที่อนุญาตให้ผู้ไม่ประสงค์ดีสามารถรันโค้ดบางอย่างด้วยสิทธิของ kernel ในตัวระบบปฏิบัติการ นอกจากนั้นแล้วยังมีการแก้ไขงานสำหรับในการใช้ในองค์กร ตัวอย่างเช่นข้อผิดพลาดที่แสดงอิมเมจ NetBoot เพียงตัวเดียวทั้งที่ในระบบองค์กรมีมากกว่า 1 อิมเมจ เป็นต้น เปิดให้ดาวน์โหลดแล้วจาก Mac App Store ทั้งนี้อัพเดตดังกล่าวไม่มีการระบุว่ามีการแก้ไขปัญหา MacBook Pro ค้างแล้วหรือไม่ ที่มา - MacRumors, Apple (รายการแก้ไขปัญหาความปลอดภัย, รายการแก้ไขปัญหาคุณสมบัติสำหรับองค์กร)    ", 
  "Date": "17/May/2016", 
  "Image-Link": [
    "https://www.blognone.com/sites/default/files/styles/thumbnail/public/topics-images/osx.png?itok=WjCUNsHI", 
    "https://farm1.staticflickr.com/445/18423126380_8abe7a48c9_z_d.jpg", 
    "/sites/all/themes/blognone42/images/linebutton.png"
  ], 
  "Link": "https://www.blognone.com/node/81056", 
  "News": "Apple ปล่อยอัพเดต OS X 10.11.5 ปรับปรุงความปลอดภัยและคุณสมบัติสำหรับองค์กร", 
  "Tags": [
    "OS X", 
    "Apple", 
    "Security"
  ], 
  "Time": "09:26"
}