{
  "By": "nismod", 
  "Contents": " หากใครที่พอมีโอกาสได้ล็อกอินเข้าไปเล่น Pokemon Go ก่อนหน้านี้อาจจะพอทราบว่าเราสามารถใช้อีเมลของ Gmail ในการล็อกอินได้ ล่าสุด Adam Reeve ผู้เชี่ยวชาญจาก Cybersecurity ค้นพบว่า Niantic Labs ทีมพัฒนา Pokemon Go มีสิทธิเข้าถึงข้อมูลในแอคเคาท์ Gmail ทุกอย่าง (Full Access) ทั้งอีเมล รูปภาพ ข้อมูลและรายชื่อผู้ติดต่อ หากผู้ใช้ล็อกอินเข้าเล่นเกมผ่าน iOS เบื้องต้น Niantic Labs ชี้แจงยืนยันถึงแม้บริษัทจะมีสิทธิเข้าถึงข้อมูลทั้งหมด แต่นอกจากข้อมูลพื้นฐานอย่างอีเมลแล้ว บริษัทไม่เคยเข้าถึงข้อมูลอื่นๆ ของผู้ใช้เลย พร้อมยืนยันว่ากำลังแก้ไขให้ Pokemon Go เข้าถึงเฉพาะข้อมูลพื้นฐานที่จำเป็นเท่านั้น โดยกระบวนการนี้ผู้ใช้ไม่ต้องทำอะไรทั้งสิ้น แต่หากใครกังวล สามารถเข้าไปลบการเข้าถึงได้ที่นี่ ที่มา - CNET, Engadget   ", 
  "Date": "12/July/2016", 
  "Image-Link": [
    "https://www.blognone.com/sites/default/files/styles/thumbnail/public/topics-images/pokemon.png?itok=7HuOXT6S", 
    "/sites/all/themes/blognone42/images/linebutton.png"
  ], 
  "Link": "https://www.blognone.com/node/83305", 
  "News": "ผู้พัฒนา Pokemon Go ได้สิทธิเข้าถึงข้อมูลส่วนตัวและอีเมล หากใช้ Gmail ล็อกอินบน iOS", 
  "Tags": [
    "Pokemon", 
    "Security", 
    "Privacy", 
    "Gmail", 
    "iOS"
  ], 
  "Time": "12:30"
}