{
  "By": "nutmos", 
  "Contents": " Mozilla ได้ตั้งกองทุน Secure Open Source (SOS) ซึ่งเป็นกองทุนที่จะช่วยให้โค้ดของโครงการโอเพนซอร์สมีความปลอดภัยมากยิ่งขึ้น มีเงินสนับสนุนแรกเริ่มจาก Mozilla Open Source Support จำนวน 5 แสนดอลลาร์ จุดประสงค์ของกองทุน SOS คือป้องกันปัญหาด้านความปลอดภัยที่จะเกิดขึ้นจากโครงการโอเพนซอร์สต่างๆ ไม่ว่าจะเป็น Heartbleed หรือ Shellshock โดยนำเงินเหล่านี้ไปจ้างบริษัทความปลอดภัยเพื่อตรวจสอบโค้ดของโครงการโอเพนซอร์ส และทำงานร่วมกับผู้พัฒนาโครงการเหล่านี้เพื่อแก้ปัญหา Mozilla เริ่มคุยกับบริษัท, องค์กรการศึกษา และหน่วยงานรัฐบาลที่ใช้ประโยชน์จากโอเพนซอร์ส ให้มาเข้าร่วมกับโครงการ โดย Chris Riley จาก Mozilla กล่าวไว้ในประกาศว่า \"เราขอท้าให้คนที่รับผลประโยชน์จากโอเพนซอร์สมาจ่ายร่วมกันและช่วยทำให้อินเทอร์เน็ตปลอดภัยขึ้น\" SOS นี้จะเริ่มทดสอบกับ 3 โครงการก่อน ได้แก่ PCRE, libjpeg-turbo และ phpMyAdmin โดยในช่วงแรกของการทดสอบ Mozilla ได้ร่วมกับ Cure53 และ NCC Group ทำการตรวจสอบโค้ด ซึ่งพบบั๊กไปแล้ว 43 จุด โดยมี 1 จุดที่เป็นช่องโหว่อันตราย ที่มา - Mozilla, TechCrunch   ", 
  "Date": "10/June/2016", 
  "Image-Link": [
    "https://www.blognone.com/sites/default/files/styles/thumbnail/public/topics-images/mozilla.png?itok=cNR87Ht_", 
    "/sites/all/themes/blognone42/images/linebutton.png"
  ], 
  "Link": "https://www.blognone.com/node/82119", 
  "News": "Mozilla ตั้งกองทุนป้องกันปัญหาความปลอดภัยโครงการโอเพนซอร์ส", 
  "Tags": [
    "Mozilla", 
    "Security", 
    "Open Source"
  ], 
  "Time": "14:13"
}