{
  "By": "mk", 
  "Contents": " ไมโครซอฟท์อัพเดต Windows 10 ทั้งรุ่นปัจจุบัน (1511) และรุ่นอนาคต (Insider) ดังนี้ครับ  Windows 10 Insider Preview Build 14388 ต่อเนื่องจาก Build 14385 เมื่อไม่กี่วันก่อน การปรับปรุงเน้นการแก้บั๊ก 44 จุด และไม่มีฟีเจอร์ใหม่เพิ่มอีกแล้ว แก้บั๊กเพื่อเตรียมออกเป็น Anniversary Update อย่างเดียวเท่านั้น - Windows Experience Blog Windows 10 Version 1511 รุ่นปัจจุบัน อัพเดตย่อยเป็น Build 10586.494 โดยเป็นแพตช์อุดช่องโหว่ความปลอดภัย 9 จุด ประจำรอบ Patch Tuesday เดือนกรกฎาคม - WinSuperSite  ใครใช้ Windows 10 รุ่นไหนอยู่ก็กดอัพเดตกันเองตามสะดวกครับ   ", 
  "Date": "13/July/2016", 
  "Image-Link": [
    "https://www.blognone.com/sites/default/files/styles/thumbnail/public/topics-images/Windows_logo_Cyan_rgb_D.png?itok=bKOyx4bD", 
    "/sites/all/themes/blognone42/images/linebutton.png"
  ], 
  "Link": "https://www.blognone.com/node/83386", 
  "News": "ไมโครซอฟท์ออก Windows 10 Insider Build 14388 และแพตช์ความปลอดภัยให้รุ่น 1511", 
  "Tags": [
    "Windows 10", 
    "Microsoft", 
    "Security"
  ], 
  "Time": "16:41"
}