{
  "By": "lew", 
  "Contents": " เคอร์เนลลินุกซ์จาก Allwinner สำหรับชิปรุ่น H3, A83T, และ H8 โดยเปิดไฟล์ /proc/sunxi_debug/sunxi_debug เอาไว้ และเมื่อโปรแกรมใดๆ ส่งข้อความ rootmydevice เข้าไปในไฟล์นี้ก็จะได้สิทธิ root ในทันที ทางทีมพัฒนา Armbian ระบุว่าช่องโหว่นี้ถูกพูดถึงใน IRC ของนักพัฒนาเมื่อสองวันก่อน และทาง Armbian ก็รีบออกรุ่น 5.10 เพื่ออุดช่องโหว่นี้ ชิปทั้งสามรุ่นได้รับความนิยมในหมู่ผู้ผลิตบอร์ดจีนอย่างกว้างขวาง บอร์ดที่ได้รับผลกระทบเช่น FriendlyARM, Orange Pi, Banana Pi, Cubietruck+, pcDuino8 Uno ล่าสุดทาง FriendlyARM ออกแพตช์สำหรับช่องโหว่นี้มาแล้ว ที่มา - The Register, Armbian    ", 
  "Date": "10/May/2016", 
  "Image-Link": [
    "https://www.blognone.com/sites/default/files/styles/thumbnail/public/topics-images/allwinner.png?itok=yczWJJ_B", 
    "//upic.me/i/sn/screenshot_2016-05-10_20-10-53.png", 
    "/sites/all/themes/blognone42/images/linebutton.png"
  ], 
  "Link": "https://www.blognone.com/node/80817", 
  "News": "เคอร์เนลลินุกซ์จาก Allwinner ลืมปิดโหมดดีบั๊ก มีช่องโหว่เข้าสิทธิ์ root, บอร์ดจำนวนมากได้รับผลกระทบ", 
  "Tags": [
    "AllWinner", 
    "China", 
    "Linux", 
    "Security"
  ], 
  "Time": "20:27"
}