{
  "By": "nismod", 
  "Contents": " การเปิดตัวสมาร์ทโฟนเรือธงในปีนี้ของ Huawei อย่างรุ่น Huawei P9 ได้สร้างความฮือฮาให้กับหลายฝ่ายอย่างมาก จากการประกาศว่าได้ร่วมพัฒนากล้องกับ Leica แบรนด์ผู้ผลิตกล้องชื่อดัง ถึงแม้จะมีข่าวออกมาภายหลังว่า Leica ไม่ได้มีส่วนร่วมในการพัฒนาและผลิตแต่อย่างใด แค่ช่วยรับรองโมดูลกล้องให้ก็ตาม แต่ถือว่า Huawei ได้สร้างความกระแสและชี้ให้เห็นถึงความพยายามจะยกมาตรฐานกล้องของสมาร์ทโฟนเรือธงตัวเองได้ระดับหนึ่ง ผมมีโอกาสได้ Huawei P9 มาทดลองใช้อยู่เกือบๆ 1 อาทิตย์ ก็เลยนำมาฝากกันแบบคร่าวๆ โดยเฉพาะประสิทธิภาพของกล้องที่ Huawei พยายามโปรโมทในสมาร์ทโฟนตัวนี้ครับ (ภาพเยอะ)  ตัวเครื่อง ตัวเครื่องของ Huawei เป็นโลหะแบบ unibody สวยงาม น้ำหนักทั้งเครื่องประมาณ 144 กรัม ซึ่งถือว่าเบามาก เบาจนเสียวจะทำเครื่องหล่นได้ง่ายๆ ด้วยซ้ำไป หน้าจอให้มาขนาด 5.2 นิ้ว ถือว่าไม่เล็กไม่ใหญ่ กำลังพอดีมือ  ด้านขวามือเป็นปุ่มปรับเสียงและปุ่มล็อคหน้าจอมาตรฐาน ด้านซ้ายเป็นถาดใส่ซิมพร้อม micro SD ด้านล่างเป็นลำโพง ช่องเสียบหูฟังขนาด 3.5 มม. และพอร์ท USB-C     ด้านหลังเป็นกล้อง พร้อมแฟลชคู่เรียบเนียนไปกับตัวเครื่อง และเซ็นเซอร์สแกนลายนิ้วมือ   การใช้งาน Huawei P9 มาบนระบบปฏิบัติการแอนดรอยด์ 6.0 Marshmallow ครอบทับด้วย EMUI เวอร์ชัน 4.1 ที่ไม่แตกต่างเวอร์ชัน 4.0 มากนัก ที่ยังคงไม่มีหน้า app drawer และมาพร้อมสารพัดแอพพื้นฐานรวมถึงแอพสารพัดประโยชน์อย่างไฟฉาย กระจก เข็มทิศ ฯลฯ พร้อมฟีเจอร์จัดการแบตเตอรี่และเคลียร์แรม  อย่างไรก็ตามข้อมูลแพทช์ความปลอดภัย (ช่วงที่รีวิว) ยังเป็นรอบเดือนเมษายน 2016 อยู่  นอกจากแอพข้างต้นแล้ว Huawei ยังให้ฟีเจอร์ช่วยเหลืออัจฉริยะ (Smart Assistance) อาทิ การวาดตัวอักษรภาษาอังกฤษเพื่อเข้าแอพ การคว่ำหน้าจอเพื่อปิดเสียงนาฬิกาปลุกหรือเสียงเรียกเข้า ยกโทรศัพท์แนบหูเพื่อรับสาย รวมถึงฟีเจอร์ที่อาศัยการใช้ข้อนิ้วเคาะที่หน้าจอ 2 ครั้งเพื่อเก็บภาพหน้าจอ ซึ่งดูค่อนข้างมีประโยชน์ แต่พบว่าแทบไม่ค่อยได้ใช้ในสถานการณ์จริงเท่าไหร่นัก  ขณะที่การใช้งานเซ็นเซอร์สแกนลายนิ้วมือด้านหลัง ด้วยขนาดของ Huawei P9 ที่ค่อนข้างพอดีมือ ประกอบกับตำแหน่งของเซ็นเซอร์ ต้องบอกว่าทำออกมาได้พอดีและสะดวกกว่าเซ็นเซอร์บริเวณปุ่มโฮมค่อนข้างมาก (ยกเว้นจะใช้งานโดยวางโทรศัพท์ไว้บนโต๊ะ) หยิบโทรศัพท์ขึ้นมาแทบจะปลดล็อกได้ทันที และที่สำคัญคือการตอบสนองของเซ็นเซอร์ค่อนข้างเร็วมาก ส่วนการใช้งานอื่นทั่วไป ถึงแม้ Huawei P9 จะมาพร้อมแบตเตอรี่ขนาด 3,000 mAh แต่เอาเข้าจริงแบตเตอรี่กลับหมดค่อนข้างเร็ว โดยเฉพาะวันที่ใช้งานหนัก (ไม่ได้จับเวลาแน่นอน แต่ที่เร็วที่สุดคือออกจากบ้านเช้า หมดตั้งแต่บ่ายๆ) อีกหนึ่งประเด็นที่อยากจะพูดถึงคือลำโพง ผมพบว่า Huawei P9 รองรับไฟล์ FLAC (ให้มาในเครื่องด้วย) แต่เมื่อลองเล่น ลำโพงกลับไม่ได้ดีพอจะรองรับคุณภาพเสียงดังกล่าว  เหมือนถูกปรับจูนเสียงมาให้ก้อง ทำให้ช่วงเสียงสูงและกลางพอไปได้ แต่พอเป็นเสียงต่ำกลับแตกและไม่ได้มิติเท่าไหร่นัก ทั้งนี้ผมไม่ได้ทดสอบประสิทธิภาพของตัวเครื่องผ่านแอพ benchmark ต่างๆ เนื่องจากไม่สามารถติดตั้งได้แม้แต่ตัวเดียว (ขึ้น Unknown error code during application install: “-505”) กล้อง กล้องบนสมาร์ทโฟนถือเป็นหนึ่งในประเด็นที่หลายค่ายพยายามเข็นและแข่งขันกันอย่างดุเดือด โดยใน Huawei P9 ใช้ระบบกล้องคู่ โดยกล้องตัวแรกสำหรับถ่ายภาพสี และกล้องอีกตัวสำหรับถ่ายภาพ monochrome โดยเฉพาะ ความละเอียด 12 ล้านพิกเซล ใช้เซ็นเซอร์รับภาพ  Sony IMX 286 รูรับแสง f/2.2 พร้อมเลเซอร์ช่วยออโต้โฟกัส แอพกล้องใน Huawei P9 มีตัวเลือกมาให้มากมาย ทั้งฟิลเตอร์และโหมดต่างๆ ซึ่งมีตัวที่น่าสนใจแต่ผมไม่ได้มีโอกาสทดสอบ (เพราะไม่มีขาตั้งกล้อง) อย่าง Light Painting หรือการเปิดรูรับแสงเอาไว้เป็นระยะเวลาหนึ่ง เพื่อสร้างภาพให้แสงออกมาเป็นเส้น   นอกจากตัวเลือกปรับแต่งมากมายข้างต้น ตัวกล้องมีโหมดหลักๆ มาให้เลือก 2 โหมดคือออโต้และโปร ที่สามารถปรับค่า ISO, Speed Shutter, ออโต้โฟกัสและค่าชดเชยแสง รวมถึงเลือกไฟล์ภาพ RAW ได้ด้วยเช่นกัน (แต่ซูมไม่ได้)  การถ่ายภาพสีจาก Huawei P9 ต้องบอกว่าดีไม่แตกต่างหรือโดดเด่นไปกว่าเรือธงเจ้าอื่นๆ มากนัก ทั้งความคมชัด สดใส คอนทราสต์ที่จัดจ้าน (ยิ่งดูบนหน้าจอของ Huawei เองยิ่งสวย) ทั้งในพื้นที่ที่มีแสงเพียงพอและพื้นที่ที่มีแสงน้อย ถึงแม้ระบบออโต้โฟกัสจะมีเอ๋อๆ บ้างในพื้นที่มืดๆ ก็ตาม           อย่างไรก็ตาม จุดเด่นของกล้องของ Huawei P9 ต้องยกให้กับภาพขาวดำ (monochrome) ที่มีเลนส์แยกออกมาต่างห่างโดยเฉพาะ ทำให้ภาพที่ออกมาแตกต่างจากการใช้ฟิลเตอร์ขาวดำอย่างชัดเจน ภาพมีถ่ายออกมามิติและไดนามิกของแสงที่มากกว่าอย่างเห็นได้ชัด         สรุป เมื่อพิจารณาจากราคาของ Huawei P9 รุ่นเล็กที่วางจำหน่ายในราคาเริ่มต้น 16,990 บาท ต้องบอกว่าไม่ขี้ริ้วขี้เหร่เท่าไหร่นัก หากจะหยิบเรือธงตัวนี้ของ Huawei มาพิจารณา โดยเฉพาะเรื่องกล้องที่ดีไม่แพ้เรือธงราคาสูงกว่า 20k ของเจ้าอื่น และที่เด่นกว่าก็คงหนีไม่พ้นการถ่ายภาพขาวดำ ข้อดี  บอดี้โลหะ ให้ความรู้สึกพรีเมียม น้ำหนักเบา ขนาดกำลังพอดี ไม่เล็กไม่ใหญ่เกินไป เซ็นเซอร์สแกนลายนิ้วมือแม่นยำและรวดเร็ว กล้องถือว่าดีในราคาที่ถูกกว่าเรือธงรุ่นอื่น โดยเฉพาะการถ่ายภาพขาวดำที่อาจเรียกได้ว่าเป็นจุดขายของรุ่นนี้  ข้อเสีย  แบตเตอรี่ไม่ทนมากนัก หากใช้งานหนักคงต้องมีพกแบตสำรอง (ยิ่งกระแส Pokemon Go กำลังมาแรงแบบนี้) ฟีเจอร์ที่่ให้มาค่อนข้างเยอะ แต่ไม่ได้ก่อให้เกิดประโยชน์ในการใช้งานจริงอย่างมีนัยสำคัญ รองรับไฟล์ FLAC แต่ลำโพงกลับไม่ดีพอจะรองรับคุณภาพเสียงขนาดนั้น    ", 
  "Date": "11/July/2016", 
  "Image-Link": [
    "https://www.blognone.com/sites/default/files/styles/thumbnail/public/topics-images/huawei.png?itok=6S9mP3fu", 
    "https://c1.staticflickr.com/9/8861/27621757304_95d09018b2_z.jpg", 
    "https://c5.staticflickr.com/8/7699/28203396596_ddc0553bbb_z.jpg", 
    "https://c5.staticflickr.com/9/8765/28133112812_70a68d25fc_z.jpg", 
    "https://c5.staticflickr.com/9/8718/28133113932_60befdd55d_z.jpg", 
    "https://c7.staticflickr.com/9/8652/28133113582_ce4909ff43_z.jpg", 
    "https://c1.staticflickr.com/8/7376/28203391376_cab3f1f380_z.jpg", 
    "https://c3.staticflickr.com/8/7619/28203395266_3dd3ce75aa_z.jpg", 
    "https://c1.staticflickr.com/9/8587/28203393896_8ba6c6997a_z.jpg", 
    "https://c5.staticflickr.com/8/7521/28203371756_67d96dc076.jpg", 
    "https://c7.staticflickr.com/8/7544/28203370806_4bdd2edfeb.jpg", 
    "https://c8.staticflickr.com/9/8855/28237269695_87dc812d98.jpg", 
    "https://c2.staticflickr.com/9/8794/28237269465_c9108ef9f7.jpg", 
    "https://c6.staticflickr.com/9/8829/27621899213_3cb9c8e127_z.jpg", 
    "https://c1.staticflickr.com/9/8685/28203368016_554a7b6714.jpg", 
    "https://c4.staticflickr.com/8/7633/28159507531_22e480e991.jpg", 
    "https://c5.staticflickr.com/9/8662/27956469460_8f2e793522.jpg", 
    "https://c1.staticflickr.com/9/8639/28203367216_432927786f.jpg", 
    "https://c8.staticflickr.com/9/8636/28159507311_0140b6fea0.jpg", 
    "https://c7.staticflickr.com/9/8844/27621699934_5678e47351.jpg", 
    "https://c6.staticflickr.com/9/8671/28159534901_03758b3aef_z.jpg", 
    "https://c6.staticflickr.com/8/7394/27621681813_e5b7786345_z.jpg", 
    "https://c1.staticflickr.com/9/8620/27956486960_eb5f20236e_z.jpg", 
    "https://c5.staticflickr.com/9/8748/27621718524_49f93ab543_z.jpg", 
    "https://c1.staticflickr.com/8/7506/27621716344_874816df02_z.jpg", 
    "https://c3.staticflickr.com/9/8596/27621715034_00d85ef05c_z.jpg", 
    "https://c7.staticflickr.com/9/8867/27621711494_2f72a29073_z.jpg", 
    "https://c2.staticflickr.com/9/8671/28237271625_164aa561a8_z.jpg", 
    "https://c2.staticflickr.com/9/8738/28159533121_869dddbcfb_z.jpg", 
    "https://c6.staticflickr.com/9/8653/28159532061_9fe2da4b56_z.jpg", 
    "https://c7.staticflickr.com/8/7452/27621717414_1ec0f2a184_z.jpg", 
    "https://c6.staticflickr.com/8/7535/28159524261_43e8280bef_z.jpg", 
    "https://c7.staticflickr.com/8/7427/28133105902_1721858e43_z.jpg", 
    "https://c8.staticflickr.com/8/7530/28159520831_a364870c0c_z.jpg", 
    "https://c6.staticflickr.com/9/8666/28159517261_96a1ab4483_z.jpg", 
    "https://c1.staticflickr.com/9/8870/27621710744_c7e558b298_z.jpg", 
    "https://c2.staticflickr.com/9/8609/28159513521_1c7fdfef4e_z.jpg", 
    "https://c8.staticflickr.com/8/7294/28237273895_ce613c94c1_z.jpg", 
    "/sites/all/themes/blognone42/images/linebutton.png"
  ], 
  "Link": "https://www.blognone.com/node/83276", 
  "News": "รีวิว Huawei P9 กับความพยายามในการผลักดันกล้องบนสมาร์ทโฟนให้ไปอยู่แถวหน้า ", 
  "Tags": [
    "Huawei", 
    "Mobile", 
    "Review"
  ], 
  "Time": "16:39"
}