{
  "By": "Job_The_Gamer", 
  "Contents": " GOG ร้านขายเกมออนไลน์ไร้ DRM เปิดตัว GOG Connect ที่ช่วยจะสแกนเกม (ที่เข้าร่วมรายการ) ซึ่งผู้เล่นเคยซื้อไปแล้วบน Steam มาใส่ในไลบรารี GOG ให้กับผู้เล่นโดยไม่มีค่าใช้จ่าย และด้วยความที่เกมเพิ่มมาให้นั้นเป็นเวอร์ชัน DRM-free ตามคอนเซปต์ของ GOG ผู้เล่นจึงมีอิสระในการติดตั้งเกมและไม่ถูกผูกติดกับระบบตรวจสอบลิขสิทธิ์ของ Steam ที่ต้องการเชื่อมต่ออินเทอร์เน็ตอีกต่อไป แต่ถ้าต้องการฟีเจอร์อื่นอย่าง achivement,ระบบแชตหรือตัวอัพเดตเกมแบบ Steam ก็สามารถใช้ GOG Galaxy แทนได้ ในขณะนี้ GOG ได้จับมือกับค่ายเกมอย่าง Deep Silver, Harebrained Schemes, Jonathan Blow's Number None และ TaleWorlds เพื่อนำเกมมาเข้าร่วมโครงการ GOG Connect แล้ว 20 กว่าเกมยกตัวอย่างเช่น  The Witness FTL: Faster Than Light The Incredible Adventures of Van Helsing: Final Cut Galactic Civilizations 3 Trine Enchanted Edition Saints Row 2 Shadowrun Returns The Witcher: Enhanced Edition Unreal Tournament GOTY Edition VVVVVV  ดูรายการเกมทั้งหมดและเข้าเชื่อมต่อกับบัญชี Steam ได้ที่ connect.gog.com ทาง GOG ยังบอกอีกว่าข้อเสนอดังกล่าวมีเวลาจำกัดเกมที่เข้าร่วมรายการอาจเปลี่ยนแปลงในภายหลังได้ ดังนั้นเกมเมอร์ท่านใดที่สนใจก็อย่ารอช้าครับ ที่มา - GOG.com via Windows Central    ", 
  "Date": "5/June/2016", 
  "Image-Link": [
    "https://www.blognone.com/sites/default/files/styles/thumbnail/public/news-thumbnails/GOG_logo.png?itok=8jU7Z1t-", 
    "https://lh3.googleusercontent.com/-zQUfLETwAsM/V1QP9ief-HI/AAAAAAAAAsw/ZJS4ruQBoBA2PKx2MPPbJBLBtM_TL3IpQCCo/s640/GOG%2BConnect.jpg", 
    "/sites/all/themes/blognone42/images/linebutton.png"
  ], 
  "Link": "https://www.blognone.com/node/81869", 
  "News": "อยากได้เกมไม่ติด DRM ไม่ต้องซื้อซ้ำ, GOG Connect ช่วยดึงเกมจาก Steam เข้าไลบรารี GOG", 
  "Tags": [
    "GOG", 
    "Steam", 
    "Games", 
    "DRM"
  ], 
  "Time": "18:46"
}