{
  "By": "lew", 
  "Contents": "
Pornhub เพิ่งเปิดโครงการหาช่องโหว่เว็บเมื่อต้นเดือนที่ผ่านมา ตอนนี้โครงการได้รับความสนใจสูงโดยทางเว็บได้รับรายงานหลายพันรายการ ทางเว็บระบุว่าได้เรียนรู้หลายอย่างและกำลังเพิ่มพนักงานเพื่อให้ตอบสนองต่อรายงานที่เข้ามาได้เร็วขึ้น เพิ่มเงินรางวัล และเพิ่มบริการ Pornhub Premium เข้าโครงการ
นอกจากเงินรางวัลแล้ว ทางเว็บจะแจกเสื้อยืดสำหรับนักวิจัยที่พบช่องโหว่ให้อีกด้วย
บนเว็บของ HackerOne แสดงให้เห็นว่า Pornhub จ่ายเงินรางวัลอยู่เรื่อยๆ นักวิจัยอย่าง Ciaran McNally (mak) คนเดียวทำเงินจาก Pornhub ไปแล้วมากกว่าหมื่นดอลลาร์ จากช่องโหว่ 5 รายการ (เป็นคนสมาธิดีมากๆ)
ที่มา - The Register
 ", 
  "Date": "31/May/2016", 
  "Image-Link": "https://www.blognone.com/sites/default/files/badges/badge-founder.png", 
  "Link": "https://www.blognone.com/node/81650", 
  "News": "Pornhub เพิ่มเงินรางวัลค้นหาช่องโหว่, เพิ่มเว็บ Premium เข้าโครงการ", 
  "Tags": [
    "Pornhub", 
    "Security", 
    "Bug Bounty"
  ], 
  "Time": "13:26"
}