{
  "By": "nismod", 
  "Contents": "
การดาวน์โหลดวิดีโอจาก YouTube ดูจะเป็นปัญหาเรื้อรังสำคัญ ล่าสุดทีมกฎหมายของ YouTube ได้ส่งจดหมายไปยังเจ้าของเว็บไซต์ TubeNinja.net ที่เปิดให้ดาวน์โหลดไฟล์วิดีโอจากลิงก์ YouTube ให้ยกเลิกการให้บริการภายใน 7 วัน
YouTube อ้างถึงการละเมิดกฎการใช้งานในการดาวน์โหลดวิดีโอ รวมถึงละเมิดการใช้งาน API ของ YouTube อย่างไรก็ตามเจ้าของ TubeNinja กลับไม่คิดจะทำตามคำขู่ของ YouTube แถมตอบกลับว่าไม่ได้ละเมิดกฎการใช้ API และเป็นความรับผิดชอบของผู้ใช้ที่จะใช้งานโดยไม่ละเมิดกฎของ YouTube พร้อมอ้างถึงส่วนเสริมของ Chrome สำหรับการดาวน์โหลดวิดีโอจาก YouTube อีกจำนวนมากด้วย
ที่มา - Torrent Freak
 ", 
  "Date": "31/May/2016", 
  "Image-Link": "https://www.blognone.com/sites/default/files/badges/badge-trainee-shadow.png", 
  "Link": "https://www.blognone.com/node/81671", 
  "News": "YouTube ส่งจดหมายเตือนเว็บดาวน์โหลดวิดีโอให้ระงับการให้บริการ", 
  "Tags": [
    "YouTube", 
    "Online Video"
  ], 
  "Time": "23:35"
}