{
  "By": "nismod", 
  "Contents": " Motorola India เปิดตัว Moto G ประจำปีนี้ตามที่คาดกันไว้ โดยแบ่งเป็น 2 รุ่นย่อยตามกระแสนิยมคือ Moto G4 และ Moto G4 Plus ที่แตกต่างกันเพียงกล้อง แรมและเซ็นเซอร์สแกนลายนิ้วมือเท่านั้น สำหรับสเปค Moto G4 Plus มาพร้อมหน้าจอ 5.5 นิ้ว ความละเอียด FullHD กระจก Gorilla Glass 3 รันด้วย Snapdragon 617 กล้องหลัง 16 ล้านพิกเซล รูรับแสงกว้าง f/2.0 พร้อมเลเซอร์โฟกัสและ PDAF และโหมดโปร กล้องหน้า 5 ล้านพิกเซล แบตเตอรี่ความจุ 3,000 mAh พร้อมรองรับ fast-charging ความจุ 16GB และ 32GB ส่วนแรมมีให้เลือก 2GB และ 3GB สำหรับความจุ 32GB พร้อมเซ็นเซอร์สแกนลายนิ้วมือ รันแอนดรอยด์ Marshmallow และรองรับ Moto Action และการปรับแต่งบน Moto Maker ขณะที่ Moto G สเปคไม่ต่างจากรุ่น Plus มากนัก ยกเว้นกล้องหลังที่มีความละเอียด 13 ล้านพิกเซลเท่ารุ่นปัจจุบันและตวเลือกแรมมีเพียง 2GB เท่านั้น โดย Moto G4 ราคาเริ่มต้นที่ประมาณ 8,600 บาทและรุ่น G4 Plus เริ่มต้นที่ประมาณ 10,230 บาทครับ (ดูคลิป Unbox ได้จากข่าวหลุดก่อนหน้านี้ได้ครับ) ที่มา - Engadget, The Verge, @Moto_IND  ภาพจาก The Verge   ", 
  "Date": "17/May/2016", 
  "Image-Link": [
    "https://www.blognone.com/sites/default/files/styles/thumbnail/public/topics-images/motorola.png?itok=Pff47JHy", 
    "https://farm8.staticflickr.com/7502/26975933482_d4999b14a6_z.jpg", 
    "/sites/all/themes/blognone42/images/linebutton.png"
  ], 
  "Link": "https://www.blognone.com/node/81095", 
  "News": "Motorola เปิดตัว Moto G4 และ Moto G4 Plus", 
  "Tags": [
    "Moto G", 
    "Motorola", 
    "Mobile"
  ], 
  "Time": "18:32"
}