{
  "By": "mk", 
  "Contents": " ข่าวการขายหุ้น IPO ที่น่าจับตามองคือ LINE ที่จะขายหุ้นวันที่ 15 กรกฎาคมนี้ คาดว่าจะระดมทุนได้ราว 1 พันล้านดอลลาร์ และน่าจะเป็นการขายหุ้น IPO ที่ใหญ่ที่สุดในปี 2016 นี้ อย่างไรก็ตาม ในแวดวงนักลงทุนกลับประเมินว่า LINE กำลังเผชิญปัญหาการเติบโตช้าลง โดยบริษัท Bayview Asset Management มองว่า LINE มีฐานที่มั่นใน 4 ประเทศคือญี่ปุ่น ไต้หวัน ไทย อินโดนีเซีย ซึ่งมีเพียงอินโดนีเซียประเทศเดียวที่ยังโตได้อีก นอกจากนี้นักลงทุนอีกรายหนึ่งที่ยังไม่ระบุชื่อแสดงความเห็นว่าโมเดลธุรกิจของ LINE ยังมีแค่การโฆษณาเพียงอย่างเดียว และยังไม่มีโมเดลการทำเงินแบบอื่นๆ ให้เห็นด้วย ปัจจุบัน LINE มีผู้ใช้ต่อเดือน 218 ล้านคน ถือเป็นแอพแชทอันดับ 7 ของโลก มีพนักงาน 2,450 คน และกำลังเร่งขยายทีมงานอย่างหนักในช่วงหลัง ที่มา - Fortune    ", 
  "Date": "27/June/2016", 
  "Image-Link": [
    "https://www.blognone.com/sites/default/files/styles/thumbnail/public/topics-images/line300.png?itok=EJ65plDD", 
    "http://i.imgur.com/R4wp9G9.png", 
    "/sites/all/themes/blognone42/images/linebutton.png"
  ], 
  "Link": "https://www.blognone.com/node/82692", 
  "News": "นักลงทุนมองหุ้น IPO ของ LINE ไม่น่าดึงดูด เพราะเติบโตช้าลง-โมเดลธุรกิจไม่หลากหลาย", 
  "Tags": [
    "LINE", 
    "IPO"
  ], 
  "Time": "09:34"
}