{
  "By": "mk", 
  "Contents": " ไมโครซอฟท์เริ่มนำแอพพลิเคชันคลาสสิคของ Windows มาแปลงเป็นแอพแบบ UWP ลง Windows Store แล้ว ตอนนี้แอพ 4 ตัวที่ถูกพอร์ตด้วย Desktop App Converter หรือ Project Centennial เดิม ได้แก่ WordPad, Windows Fax and Scan, XPS Viewer, Microsoft Character Map เปิดให้ดาวน์โหลดผ่าน Windows Store แล้ว แต่คนที่ดาวน์โหลดได้ต้องใช้งาน Windows 10 Insider ด้วย เว็บไซต์ WinBeta ลองดาวน์โหลดแอพมาทดสอบ พบว่าความสามารถเหมือนต้นฉบับทุกประกาศ และยังต้องใช้เมาส์-คีย์บอร์ดในการสั่งงาน เพราะไม่ได้ออกแบบมารองรับนิ้วสัมผัส รวมถึงไม่มีให้ใช้งานบน Windows 10 Mobile ด้วย ที่มา - WinBeta   ", 
  "Date": "25/June/2016", 
  "Image-Link": [
    "https://www.blognone.com/sites/default/files/styles/thumbnail/public/news-thumbnails/wordpad.png?itok=9-SALc0d", 
    "/sites/all/themes/blognone42/images/linebutton.png"
  ], 
  "Link": "https://www.blognone.com/node/82657", 
  "News": "ไมโครซอฟท์แปลง WordPad, Character Map เป็นแอพ UWP ลง Windows Store แล้ว", 
  "Tags": [
    "Microsoft", 
    "Windows 10", 
    "Windows Store", 
    "UWP"
  ], 
  "Time": "11:12"
}