{
  "By": "mk", 
  "Contents": " ที่ผ่านมา Google Forms ถือเป็นเครื่องมือที่สะดวกในการเก็บข้อมูลจากฟอร์ม โดยเฉพาะพวกความคิดเห็นต่างๆ แต่อาจยังไม่เหมาะกับการใช้เป็นข้อสอบหรือควิซมากนัก ล่าสุด Google Forms เพิ่มฟีเจอร์ใหม่ สามารถสร้างควิซได้แล้ว พร้อมมีระบบตรวจข้อสอบอัตโนมัติ ผู้สร้างควิซเพียงแค่ระบุคำตอบที่ถูกต้อง พร้อมกำหนดคะแนนของข้อนั้นๆ เมื่อผู้ทำควิซทำเสร็จแล้ว ก็จะทราบผลคะแนนพร้อมเฉลยคำตอบที่ถูกต้อง (และคำอธิบาย) ทันที ระบบควิซนี้ยังใช้ได้เฉพาะโจทย์ตัวเลือกแบบ multiple choice หรือ checkbox เท่านั้น ยังไม่รองรับควิซแบบเติมคำครับ ที่มา - Official Google Blog    ", 
  "Date": "28/June/2016", 
  "Image-Link": [
    "https://www.blognone.com/sites/default/files/styles/thumbnail/public/news-thumbnails/gform.png?itok=1JMFi_zZ", 
    "http://i.imgur.com/HA5zSjZ.png", 
    "/sites/all/themes/blognone42/images/linebutton.png"
  ], 
  "Link": "https://www.blognone.com/node/82741", 
  "News": "Google Forms ใช้สร้างควิซได้แล้ว ตรวจคำตอบพร้อมให้คะแนนอัตโนมัติ", 
  "Tags": [
    "Google Docs", 
    "Education", 
    "Google"
  ], 
  "Time": "11:21"
}