{
  "By": "lew", 
  "Contents": " Ceph Storage ซอฟต์แวร์คลัสเตอร์สตอเรจของ Red Hat ออกเวอร์ชั่นใหม่ ปรับปรุงการทำงานเพิ่มเติม โดยเวอร์ชั่นนี้พัฒนาต่อมาจาก Ceph 10.2 Jewel เพิ่มฟีเจอร์จากรุ่นแรกมาหลายอย่าง  สร้างคลัสเตอร์แบบ global มี namespace เดียว ซิงก์ข้อมูลข้ามหลายเขต (region) เชื่อมต่อการยืนยันตัวตนกับ Active Directory, LDAP, หรือ OpenStack Identity ปรับปรุง API S3 รองรับความสามารถใหม่ๆ เช่น object versioning, การลบข้อมูลเป็นชุด หน้าจอจัดการสตอเรจ Red Hat Storage Console 2 ปรับปรุงให้ดูแลระบบได้ง่ายขึ้น รองรับ CephFS โดยระบุว่าเป็นระดับพรีวิวเท่านั้น แม้ว่าตัวโครงการ Ceph จะระบุว่า CephFS นิ่งแล้วก็ตาม  ตัวโครงการ Ceph เป็นโอเพนซอร์สอยู่แล้ว ถ้าใครอยากลองใช้งานก็สามารถดาวน์โหลดมาใช้งานได้ รุ่นล่าสุดของ Ceph คือ 10.2.2 สำหรับคนที่ต้องการใช้งานแบบมีซัพพอร์ตจาก Red Hat ตัว Ceph Storage 2 จะมีขายจริงภายในช่วงหน้าร้อนนี้ ที่มา - Business Wire   ", 
  "Date": "28/June/2016", 
  "Image-Link": [
    "https://www.blognone.com/sites/default/files/styles/thumbnail/public/topics-images/Screenshot%202016-03-24%20at%2009.12.35.png?itok=qPQOqWNa", 
    "/sites/all/themes/blognone42/images/linebutton.png"
  ], 
  "Link": "https://www.blognone.com/node/82747", 
  "News": "Red Hat เปิดตัว Ceph Storage 2: ปรับปรุงการทำงาน, บำรุงรักษาง่ายขึ้น", 
  "Tags": [
    "Red Hat", 
    "Storage"
  ], 
  "Time": "12:37"
}