{
  "By": "sunnywalker", 
  "Contents": " ในขณะที่ศิลปินบางกลุ่มไม่ชอบใจที่แฟนเพลงใช้สมาร์ทโฟนถ่ายคลิป หรือใช้โซเชียลมีเดียระหว่างการแสดงสด (Jack White เป็นหนึ่งในนั้น) แต่ Tom Yorke และเพื่อนวง Radiohead ที่เปิดกว้างเรื่องนี้มาแต่ไหนแต่ไร กระตุ้นให้แฟนเพลงใช้สมาร์ทโฟนในคอนเสิร์ตของพวกเขาได้ และยังยุให้ลองใช้ Periscope แอพพลิเคชั่นถ่าย live video ผ่านทวิตเตอร์ด้วย Radiohead มีการแสดงสดในงาน Iceland's Secret Solstice festival เมื่อช่วงวีคเอนด์ที่ผ่านมา ก่อนจะขึ้นเล่นดนตรี พวกเขาแจกจ่ายรหัสไวไฟให้แฟนเพลงจำนวนหนึ่งผ่านเว็บไซต์กลางของ Radiohead ชื่อว่า waste-central บอกให้แฟนเพลงส่งข้อความมาขอรหัสไวไฟในคอนเสิร์ตได้ทางทวิตเตอร์ @doorisnowclosed โดยจำกัดจำนวนผู้ใช้เพื่อให้ถ่ายทอดสดได้เสถียร ซึงมีแฟนเพลง 2-3 บัญชีใช้ Periscope ถ่ายทอดการแสดง ส่วนตัวอย่างวิดีโอดูได้ที่นี่  ภาพจาก วิกิพีเดีย ที่มา - Consequence of Sound   ", 
  "Date": "24/June/2016", 
  "Image-Link": [
    "https://www.blognone.com/sites/default/files/styles/thumbnail/public/topics-images/periscope.png?itok=4_1OMwwR", 
    "http://i.imgur.com/ErafTSO.jpg", 
    "/sites/all/themes/blognone42/images/linebutton.png"
  ], 
  "Link": "https://www.blognone.com/node/82638", 
  "News": "มาเหนือ! Radiohead กระตุ้นแฟนเพลงให้ใช้ Periscope ถ่ายทอดสดลงโซเชียล", 
  "Tags": [
    "Radiohead", 
    "Periscope"
  ], 
  "Time": "15:14"
}