{
  "By": "nrad6949", 
  "Contents": " เมื่อวันพฤหัสบดีที่ผ่านมา Qualcomm ออกแถลงการณ์ประกาศว่าได้ยื่นฟ้อง Meizu ต่อศาลทรัพย์สินทางปัญญาของจีน โดยระบุว่า Meizu ละเมิดสิทธิบัตรของ Qualcomm หลายตัว ซึ่งรวมไปถึงสิทธิบัตรที่เกี่ยวข้องกับเทคโนโลยี 3G (ทั้ง WCDMA และ CDMA2000) และ 4G LTE ด้วย Qualcomm ระบุว่าบริษัทได้พยายามเจรจากับทาง Meizu ด้วยดีมาโดยตลอด โดยเฉพาะอย่างยิ่งในข้อตกลงการใช้งานสิทธิบัตรที่เป็นไปตามข้อกำหนดของทางการจีน แต่ Meizu กลับปฏิเสธที่จะลงนาม ขณะที่บริษัทอื่นๆ กลับยอมลงนามด้วย การยื่นฟ้องนี้นอกจากจะขอให้ศาลชี้ขาดเรื่องของการละเมิดสิทธิบัตรแล้ว ยังเป็นการขอให้ระบุเพิ่มว่า ข้อตกลงที่ Qualcomm ขอให้ Meizu ทำ ไม่ขัดกฎการผูกขาดของจีน และไม่เป็นการเลือกปฏิบัติอีกด้วย ที่มา - Qualcomm ผ่าน CNET   ", 
  "Date": "25/June/2016", 
  "Image-Link": [
    "https://www.blognone.com/sites/default/files/styles/thumbnail/public/topics-images/qualcomm.png?itok=94mCHWcT", 
    "/sites/all/themes/blognone42/images/linebutton.png"
  ], 
  "Link": "https://www.blognone.com/node/82664", 
  "News": "Qualcomm ยื่นฟ้อง Meizu ต่อศาลทรัพย์สินทางปัญญาของจีน ระบุละเมิดสิทธิบัตร", 
  "Tags": [
    "Qualcomm", 
    "Meizu", 
    "China", 
    "Patent", 
    "Intellectual Property"
  ], 
  "Time": "15:26"
}