{
  "By": "mk", 
  "Contents": " สำนักงานส่งเสริมอุตสาหกรรมซอฟต์แวร์แห่งชาติ (SIPA) เตรียมตั้ง ชมรมผู้ประกอบการเทคโนโลยีดิจิทัลรายใหม่ (Tech Startup Club) ในสถาบันการศึกษาและหน่วยงานที่เกี่ยวข้อง รวม 40 แห่งทั่วประเทศไทยภายในปีนี้ เพื่อสร้างกำลังคนด้านดิจิทัลรุ่นใหม่เข้ามาในอุตสาหกรรม นายศุภชัย จงศิริ รักษาการผู้อำนวยการ SIPA บอกว่าในนิยามของ SIPA มองว่า Tech Startup คือธุรกิจใหม่ที่เกิดจากเทคโนโลยี ซึ่งไม่ใช่กลุ่มผู้ใช้เทคโนโลยีแล้วมาทำธุรกิจ โดยรวมไปถึงกลุ่มบุคคลที่มีไอเดียแต่ไม่สามารถใช้เทคโนโลยีได้ ไปจับกลุ่มกับผู้ที่สามารถใช้เทคโนโลยีเพื่อเป็นผู้ประกอบการต่อไป ขณะนี้ไทยยังมี Tech Startup ไม่มาก เพราะปัญหาการขาดกำลังคนที่มีความคิดสร้างสรรค์ และขาดทักษะในการสร้างธุรกิจใหม่บนพื้นฐานของนวัตกรรมดิจิทัล สำหรับชมรม Tech Startup Club จะเป็นเครือข่ายความรู้และแลกเปลี่ยนประสบการณ์ โดยปีนี้ SIPA ตั้งเป้าเปิดชมรม 40 แห่ง, มีบุคคลากรที่มีความพร้อมเป็นผู้ประกอบการใหม่ 800 ราย และเกิด \"แนวคิดดิจิทัล\" รูปแบบใหม่ 300 โครงการ ตอนนี้ SIPA กำลังอยู่ระหว่างการคัดเลือกสถาบันศึกษาที่มีความพร้อมเข้าร่วมโครงการ ที่มา - อีเมลประชาสัมพันธ์ SIPA    ", 
  "Date": "23/June/2016", 
  "Image-Link": [
    "https://www.blognone.com/sites/default/files/styles/thumbnail/public/topics-images/sipa.png?itok=IVw_cQCS", 
    "https://i.imgur.com/G9kGFVW.jpg", 
    "/sites/all/themes/blognone42/images/linebutton.png"
  ], 
  "Link": "https://www.blognone.com/node/82596", 
  "News": "SIPA ประกาศตั้งชมรมผู้ประกอบการ Tech Startup Club 40 แห่งทั่วประเทศ ภายในปีนี้", 
  "Tags": [
    "SIPA", 
    "Startup"
  ], 
  "Time": "18:09"
}