{
  "By": "mk", 
  "Contents": " ประเด็นเรื่องไมโครซอฟท์หลอกล่อให้ผู้ใช้ Windows รุ่นเก่าๆ อัพเกรดเป็น Windows 10 ยังสร้างความขัดแย้งได้เสมอมา สำหรับคนที่ใช้ Windows 7/8.1 คงคุ้นเคยกันดีกับไอคอน Get Windows 10 ที่ตามมาหลอกหลอนอยู่เรื่อยๆ ล่าสุดไมโครซอฟท์ปรับหน้าจอแจ้งเตือนให้อัพเกรดเป็น Windows 10 อีกเล็กน้อย โดยเพิ่มปุ่มตัวเลือกให้ชัดเจนขึ้นเป็น 3 แนวทางคือ Upgrade Now (ทำทันที), Choose time (เลือกเวลาที่อัพเกรด) และ Decline free offer (ปฏิเสธไม่รับสิทธิอัพเกรดเลย) ก่อนหน้านี้การกดปุ่ม x ที่มุมขวาบนเพื่อปิดหน้าต่าง มีความหมายตรงกับ Choose time หรือปิดไว้ชั่วคราวแล้วให้เตือนอีกครั้ง แต่ตอนนี้ไมโครซอฟท์ปรับความหมายของปุ่ม x เป็น Decline free offer แทนแล้ว การอัพเกรดฟรีเป็น Windows 10 จะใช้ได้ถึง 29 กรกฎาคม 2016 เท่านั้น หลังจากวันนี้ไปจะต้องเสียค่าอัพเกรด 119 ดอลลาร์ ที่มา - The Verge    ", 
  "Date": "28/June/2016", 
  "Image-Link": [
    "https://www.blognone.com/sites/default/files/styles/thumbnail/public/topics-images/Windows_logo_Cyan_rgb_D.png?itok=bKOyx4bD", 
    "https://i.imgur.com/IIPc6cq.png", 
    "/sites/all/themes/blognone42/images/linebutton.png"
  ], 
  "Link": "https://www.blognone.com/node/82779", 
  "News": "ไมโครซอฟท์ปรับหน้าจอเตือนอัพเกรดเป็น Windows 10 ให้ปฏิเสธไม่รับสิทธิได้ง่ายขึ้น", 
  "Tags": [
    "Windows 10", 
    "Microsoft"
  ], 
  "Time": "21:34"
}