{
  "By": "BlackMiracle", 
  "Contents": " ที่งาน Build 2016 ช่วงต้นปี ไมโครซอฟท์ประกาศออกอัพเดตใหญ่ให้ Windows 10 หรือที่รู้จักกันในชื่อ Anniversary Update โดยในงานบอกเพียงแค่ว่าจะออกตัวจริงในช่วงฤดูร้อนกลางปีนี้ ล่าสุดเป็นไมโครซอฟท์เองที่โพสต์ข้อมูลว่าอัพเดตดังกล่าวจะถูกปล่อยในวันที่ 2 สิงหาคมนี้ โดยโพสต์ดังกล่าวมีแค่พาดหัว เขียนว่า \"Microsoft announces Windows 10 anniversary update available Aug. 2\" แต่ไม่มีเนื้อหาใดๆ ถูกโพสต์อยู่ที่เว็บไซต์รวมข่าวประชาสัมพันธ์ของบริษัท ขณะนี้ฟีเจอร์บางตัวของ Anniversary Update ถูกปล่อยให้ผู้ใช้ Windows Insider ทดลองกันแล้วในช่วงไม่กี่เดือนที่ผ่านมา ที่มา - Windows Central     ", 
  "Date": "28/June/2016", 
  "Image-Link": [
    "https://www.blognone.com/sites/default/files/styles/thumbnail/public/topics-images/Windows_logo_Cyan_rgb_D.png?itok=bKOyx4bD", 
    "https://i.imgur.com/85Ic9pN.jpg", 
    "https://i.imgur.com/zyFq8J7.png", 
    "/sites/all/themes/blognone42/images/linebutton.png"
  ], 
  "Link": "https://www.blognone.com/node/82780", 
  "News": "ไมโครซอฟท์อาจปล่อย Windows 10 Anniversary Update ตัวจริงวันที่ 2 สิงหาคมนี้", 
  "Tags": [
    "Windows 10", 
    "Microsoft", 
    "Operating System"
  ], 
  "Time": "21:59"
}