{
  "By": "iamsirid", 
  "Contents": "
SMSToControl เป็นแอพที่ทำให้คุณสามารถควบคุมเครื่องของคุณจากระยะไกลโดยการส่งข้อความ SMS ให้ตรงกับคีย์เวิร์ดที่ตั้งเอาไว้
ขณะนี้มี 4 ฟังก์ชั่นให้ใช้งาน คือ

“ขอตำแหน่งที่อยู่” - ขอตำแหน่งที่อยู่ปัจจุบันเครื่องของคุณ
“ส่งเสียงร้อง” - ทำให้เครื่องของคุณส่งเสียงร้องด้วยระดับเสียงสูงสุด
“ล็อก” - ล็อกเครื่องของคุณและตั้งรหัสผ่านใหม่
“ล้างข้อมูล” - ลบไฟล์ข้อมูลทั้งหมดและคืนค่าเริ่มต้นของเครื่อง

ฟังก์ชั่นทั้งหมดนี้ทำงานได้โดยไม่ต้องใช้อินเทอร์เน็ต เพราะฉะนั้นถ้าเกิดคุณทำเครื่องของคุณหายโดยไม่ได้ต่ออินเทอร์เน็ตเอาไว้ คุณก็สามารถใช้แอพนี้ช่วยหาหรือป้องกันข้อมูลในเครื่องของคุณได้

Screenshot หน้าตาภายในแอพ
    
เพิ่มเติม แอพตัวนี้เป็นแอพที่ผมทำส่งเป็นโครงงานคอมพิวเตอร์ ม.6 เมื่อปลายปี 58 ตอนนี้เอามาปรับปรุงเพิ่มเติมและเอาขึ้น Google Play ถ้าเป็นไปได้อยากได้คำแนะนำในหลายๆด้าน ทั้งเรื่องการออกแบบ การใช้ภาษาข้อความต่างๆในแอพทั้งไทยและอังกฤษ ความยากง่ายในการใช้งาน หรืออยากให้มีความสามารถอะไรเพิ่มเติม ทั้งจากมุมมองคนใช้ทั่วไปและจากมุมมองนักพัฒนาครับ :)

 ", 
  "Date": "30/May/2016", 
  "Image-Link": "https://www.blognone.com/sites/default/files/styles/thumbnail/public/news-thumbnails/orig-icon-blue.png?itok=pUJC_FN4", 
  "Link": "https://www.blognone.com/node/81609", 
  "News": "[App.th] SMSToControl ควบคุมเครื่องของคุณจากระยะไกลผ่านทาง SMS ", 
  "Tags": [
    "App.th", 
    "SMS", 
    "Mobile App"
  ], 
  "Time": "16:09"
}