{
  "By": "nrad6949", 
  "Contents": " เว็บไซต์ข่าวหนังสือพิมพ์ USA Today รายงานข่าวลือว่า Warren Buffett เตรียมร่วมวงซื้อทรัพย์สินของ Yahoo กับนักลงทุนกลุ่มหนึ่งซึ่งมี Dan Gilbert ผู้ก่อตั้ง Quicken Loans บริษัทสินเชื่อสำหรับรายย่อย และเจ้าของทีมบาสเกตบอล Cleveland Cavaliers เป็นหนึ่งในกลุ่มนักลงทุนดังกล่าวด้วย ข่าวดังกล่าวนี้ออกมาในช่วงเวลาที่มีข่าวลือออกมาอีกเช่นกันว่า Yahoo กำลังอยู่ระหว่างการขายบริษัทให้กับ Verizon และกลุ่มนักลงทุนอื่นๆ ซึ่งหลังจากข่าวที่ Buffet จะมาลงทุนมีการรายงานออกมา ราคาหุ้นของบริษัทก็พุ่งขึ้นทันที 1.4% ไปอยู่ที่ราคา 37 ดอลลาร์สหรัฐต่อหุ้น ในช่วงเวลาการซื้อขายนอกเวลาทำการ (after-hours trading) ส่วนราคาหุ้นแบบ B ของ Berkshire Hathaway ราคาลดลง 1% เหลือ 141.50 ดอลลาร์สหรัฐต่อหุ้น ทั้งนี้เมื่อผู้สื่อข่าวหลายสำนักสอบถามไปยังทั้งตัว Buffet, Berkshire Hathaway, Yahoo และ Rock Ventures LLC บริษัทลงทุนของ Gilbert ต่างได้รับการปฏิเสธที่จะให้ความเห็นถึงข่าวลือดังกล่าวครับ ที่มา - USA Today    ", 
  "Date": "14/May/2016", 
  "Image-Link": [
    "https://www.blognone.com/sites/default/files/styles/thumbnail/public/topics-images/buffett.PNG?itok=VHQ9i-Sc", 
    "https://farm9.staticflickr.com/8899/18018142849_38ef4c746d_z.jpg", 
    "/sites/all/themes/blognone42/images/linebutton.png"
  ], 
  "Link": "https://www.blognone.com/node/80968", 
  "News": "[ลือ] Warren Buffet เตรียมร่วมวงซื้อทรัพย์สินของ Yahoo กับกลุ่มนักลงทุนกลุ่มหนึ่ง", 
  "Tags": [
    "Warren Buffett", 
    "Yahoo!", 
    "Rumor"
  ], 
  "Time": "08:38"
}