{
  "By": "mk", 
  "Contents": "
E Ink เปิดตัวเทคโนโลยีจอภาพสีรุ่นใหม่ Advanced Color ePaper (ย่อว่า ACeP) จอแบบ reflective (ไม่ต้องใช้ backlight) ที่สามารถแสดงสีแบบ full color ได้บนทุกเม็ดพิกเซล และถือเป็นครั้งแรกที่จอแบบ electrophoretic display (EPD) สามารถทำได้แบบนี้
เทคนิคนี้พัฒนาขึ้นจากจอสีแบบเดิม ที่ใช้ color filter array (CFA) ซึ่งหนึ่งพิกเซลไม่สามารถแสดงได้ทุกสี ต้องใช้วิธีวางสับหว่างกันไป ดังนั้นสีที่แสดงออกมาจึงสมจริงกว่า
เบื้องต้น จอ ACeP จะนำมาใช้กับป้ายดิจิทัล (digital signage) ก่อน จอต้นแบบที่นำมาโชว์มีขนาด 20" ความละเอียด 1600x2500 (150 ppi) โดยจะแสดงในงาน Display Week ที่ซานฟรานซิสโกช่วงสัปดาห์นี้
ที่มา - E Ink

 ", 
  "Date": "26/May/2016", 
  "Image-Link": "https://www.blognone.com/sites/default/files/badges/badge-founder.png", 
  "Link": "https://www.blognone.com/node/81416", 
  "News": "E Ink เปิดตัวจอภาพรุ่นใหม่ ACeP แสดงสีได้อย่างสมบูรณ์ เน้นใช้กับป้ายดิจิทัล", 
  "Tags": [
    "E Ink", 
    "Display"
  ], 
  "Time": "06:55"
}