{
  "By": "mk", 
  "Contents": "
การประมูลคลื่น 900Mz รอบใหม่จะจัดขึ้นวันพรุ่งนี้ (27 พฤษภาคม) โดยมี AIS เพียงเจ้าเดียวที่เข้ามายื่นซองเอกสารเพื่อเข้าประมูล
นายฐากร ตัณฑสิทธิ์ เลขาธิการ กสทช. ประกาศว่า กสทช. เตรียมความพร้อมในการจัดประมูลอย่างดี คาดว่าการประมูลจะใช้เวลาไม่เกิน 15 นาที ประมวลผล 5 นาที จากนั้นจะยืนยันผู้ชนะการประมูล และเรียกประชุมบอร์ด กทค. นัดพิเศษเพื่อรับรองผลการประมูลทันที ส่วนงบประมาณการจัดประมูล 8 ล้านบาทจะเรียกเก็บจาก JAS Mobile
ตามเงื่อนไขการประมูล AIS จะต้องมาจ่ายเงินค่าประมูลงวดแรกภายในวันที่ 30 มิถุนายน ซึ่ง AIS ก็ประกาศล่วงหน้าว่าจะเข้ามาจ่ายในวันที่ 10 มิถุนายน
ที่มา - ไทยรัฐ

 ", 
  "Date": "26/May/2016", 
  "Image-Link": "https://www.blognone.com/sites/default/files/badges/badge-founder.png", 
  "Link": "https://www.blognone.com/node/81447", 
  "News": "กสทช. จัดประมูลคลื่น 900MHz รอบใหม่พรุ่งนี้, AIS เข้ารายเดียว คาดประมูล 20 นาทีจบ", 
  "Tags": [
    "AIS", 
    "Telecom", 
    "Auction", 
    "NBTC"
  ], 
  "Time": "13:10"
}