{
  "By": "mk", 
  "Contents": " ปีที่แล้ว บริษัท SoftBank ของญี่ปุ่นวางขายหุ่นยนต์ต้อนรับชื่อ Pepper และประสบความสำเร็จเป็นอย่างดี ปีนี้ SoftBank ประกาศว่านักพัฒนาสามารถสร้างแอพให้กับ Pepper ได้แล้ว (เรียกว่า RoboApps) โดยใช้เครื่องมือพัฒนาที่มีฐานมาจาก Android ที่หน้าอกของหุ่น Pepper มีแท็บเล็ตที่ใช้ระบบปฏิบัติการ Android ฝังอยู่ (ตัวหุ่นยนต์ใช้ระบบปฏิบัติการแยกกันคือ NAOqi ของ SoftBank เอง พัฒนามาจาก Gentoo Linux) ตัวแท็บเล็ตนี้จะช่วยให้ Pepper รับคำสั่งจากผู้ใช้งานและแสดงข้อมูลต่างๆ บนหน้าจอได้ เบื้องต้น ทีม SoftBank Robotics จะออก Pepper SDK for Android Studio เวอร์ชันเบต้าให้ดาวน์โหลดไปทดสอบกันก่อน (รองรับเฉพาะวินโดวส์และลินุกซ์) และจะเริ่มขายหุ่นยนต์ให้นักพัฒนาในเดือนกรกฎาคมนี้ ราคาขั้นต้นตัวละ 198,000 เยน (65,000 บาท) ยังไม่รวมค่าใช้จ่ายรายเดือนอีก 36 เดือน รวมทั้งหมด 975,600 เยน (320,000 บาท) ที่มา - SoftBank, Bloomberg    ", 
  "Date": "22/May/2016", 
  "Image-Link": [
    "https://www.blognone.com/sites/default/files/styles/thumbnail/public/topics-images/softbank.png?itok=XjOOxfhR", 
    "https://i.imgur.com/PLnwL6J.png", 
    "/sites/all/themes/blognone42/images/linebutton.png"
  ], 
  "Link": "https://www.blognone.com/node/81252", 
  "News": "หุ่นยนต์ SoftBank Pepper เปิด SDK ให้สร้างแอพด้วย Android", 
  "Tags": [
    "SoftBank", 
    "Robotics", 
    "Android", 
    "Development"
  ], 
  "Time": "15:26"
}