{
  "By": "lew", 
  "Contents": " เส้นตายการย้ายระบบบัตรเอทีเอ็มไปใช้งานบัตรชิปอยู่ที่วันที่ 16 พฤษภาคมนี้ ตอนนี้ธนาคารธนชาตก็ออกมาประกาศแล้วว่าจะเริ่มให้บริการตั้งแต่วันที่ 6 เป็นต้นไป ทางธนชาตให้บริการเป็นบัตรเดบิตแต่ระบุว่าค่าบริการไม่ต่างจากบัตรเอทีเอ็มธรรมดา (ค่าออกบัตร 100 บาท ค่าบริการรายปี 200 บาท มีแบบสมัครหลายปีได้ลด) และในแง่การใช้งานแล้วก็สามารถปรับลดวงเงินเดบิตจนเหลือศูนย์เพื่อให้เป็นบัตรเอทีเอ็มได้ นอกจากนี้หากใช้รูดบัตรก็ยังได้เงินคืนอีก 0.75% เท่าที่ผมทราบข่าวทางธนชาตเป็นธนาคารแรกที่ออกมาประกาศเรื่องนี้ และบ่ายนี้จะมีแถลงข่าวที่ธนาคารแห่งประเทศไทย ต้องรอดูต่อไปว่าธนาคารอื่นๆ จะมีความพร้อมกันเพียงใด ที่มา - จดหมายข่าวธนาคารธนชาต    ", 
  "Date": "4/May/2016", 
  "Image-Link": [
    "https://www.blognone.com/sites/default/files/styles/thumbnail/public/topics-images/thanachart.png?itok=LSOkkpd_", 
    "//upic.me/i/ca/banner-debit-cashback.jpg", 
    "/sites/all/themes/blognone42/images/linebutton.png"
  ], 
  "Link": "https://www.blognone.com/node/80608", 
  "News": "ธนาคารธนชาต พร้อมเปลี่ยนบัตร ATM แบบชิป เริ่มให้บริการวันที่ 6 พฤษภาคมนี้", 
  "Tags": [
    "Thailand", 
    "Banking", 
    "Bank of Thailand", 
    "Thanachart Bank"
  ], 
  "Time": "14:25"
}