{
  "By": "nismod", 
  "Contents": " นอกจากโพสต์ภาพแบบ 360 องศาแล้ว เฟซบุ๊กยังประกาศฟีเจอร์ใหม่ ให้โพสต์วิดีโอลงในช่องคอมเมนท์และตอบกลับ (reply) ได้แล้ว ซึ่งฟีเจอร์นี้ถูกพัฒนาขึ้นจากการ Hackathon ครั้งที่ 50 ของเฟซบุ๊ก การโพสต์วิดีโอในคอมเมนท์ สามารถโพสต์ได้ทั้งในฐานะตัวผู้ใช้เองหรือในนามของเพจ โดยหัวหน้าทีมที่พัฒนาฟีเจอร์นี้ เป็นคนเดียวกับที่นำทีมพัฒนาฟีเจอร์โพสต์รูปภาพและสติ๊กเกอร์ในช่องคอมเมนท์ครับ ที่มา - TechCrunch   ", 
  "Date": "10/June/2016", 
  "Image-Link": [
    "https://www.blognone.com/sites/default/files/styles/thumbnail/public/topics-images/fb-500.png?itok=7KEmyKx1", 
    "/sites/all/themes/blognone42/images/linebutton.png"
  ], 
  "Link": "https://www.blognone.com/node/82114", 
  "News": "เฟซบุ๊กเปิดให้โพสต์วิดีโอลงช่องคอมเมนท์ได้แล้ว", 
  "Tags": [
    "Facebook", 
    "Social Media"
  ], 
  "Time": "13:23"
}