{
  "By": "mk", 
  "Contents": " เพิ่งมีสเปกหลุด Nexus รุ่นใหม่รหัส \"Sailfish\" ที่จะผลิตโดย HTC ไปเมื่อเร็วๆ นี้ ล่าสุดเว็บไซต์ Android Police ได้สเปกหลุดของ HTC Nexus อีกตัวรหัส \"Marlin\" ที่จะเป็นรุ่นหน้าจอใหญ่เหมือนกับ Nexus 6P ของปีที่แล้ว  Quad-core Qualcomm processor ยังไม่ชัดว่าเป็น Snapdragon 820 รุ่นปรับปรุง หรือ 821/823 หน้าจอ 5.5\" QHD (2560x1440) AMOLED  USB-C port กล้องหลัง 12MP, กล้องหน้า 8MP ตัวสแกนลายนิ้วมือด้านหลัง 4GB RAM 3450mAh battery Bottom-firing speakers 32/128GB of storage Bluetooth 4.2  Android Police เชื่อว่าปีนี้เราจะได้เห็น HTC Nexus 2 ตัวที่สเปกเกือบเท่ากันหมด ยกเว้นขนาดหน้าจอและแบตเตอรี่เท่านั้น (ลักษณะเดียวกับ Xperia Z/Z Compact หรือ iPhone รุ่น Plus) ซึ่งต่างจากปีที่แล้วที่ Nexus 5X มีสเปกเป็นรอง Nexus 6P อยู่บ้าง ที่มา - Android Police   ", 
  "Date": "2/July/2016", 
  "Image-Link": [
    "https://www.blognone.com/sites/default/files/styles/thumbnail/public/topics-images/nexus.png?itok=aS4M8JEF", 
    "/sites/all/themes/blognone42/images/linebutton.png"
  ], 
  "Link": "https://www.blognone.com/node/82925", 
  "News": "หลุดสเปก HTC Nexus รุ่นจอใหญ่ 5.5 นิ้ว รหัส Marlin", 
  "Tags": [
    "Google Nexus", 
    "HTC", 
    "Mobile", 
    "Leak"
  ], 
  "Time": "07:24"
}