{
  "By": "mk", 
  "Contents": " Sundar Pichai ซีอีโอกูเกิลไปขึ้นเวทีงาน Code Conference เขาระบุว่ากูเกิลจะเข้าไปมีบทบาทในการออกแบบมือถือตระกูล Nexus มากขึ้น โดยเฉพาะประเด็นที่กูเกิลเห็นว่าช่วยพัฒนาสมาร์ทโฟนให้ดีขึ้นได้ ตัวอย่างที่ชัดเจนคือ Nexus 5X/6P ที่กูเกิลกำหนดให้ผู้ผลิตฮาร์ดแวร์ต้องใส่ตัวอ่านลายนิ้วมือ Nexus Imprint เข้ามาด้วย เพื่อให้เป็นมาตรฐานของมือถือ Android มากขึ้น Sundar ยังบอกว่ากูเกิลจะเพิ่มฟีเจอร์ของมือถือ Android รุ่นท็อปๆ เข้ามายัง Nexus มากขึ้นด้วย ต่างจากที่แล้วๆ มาที่ซอฟต์แวร์ของ Nexus ค่อนข้างเรียบๆ ไม่มีฟีเจอร์พิเศษอะไรมากนัก อย่างไรก็ตาม Sundar ยังยืนยันว่าโครงการ Nexus เป็นความร่วมมือระหว่างกูเกิลกับบริษัทฮาร์ดแวร์ที่เป็นพาร์ทเนอร์เช่นเดิม และกูเกิลยังไม่มีแผนทำสมาร์ทโฟนด้วยตัวเอง 100% ที่มา - The Verge    ", 
  "Date": "2/June/2016", 
  "Image-Link": [
    "https://www.blognone.com/sites/default/files/styles/thumbnail/public/topics-images/nexus.png?itok=aS4M8JEF", 
    "https://i.imgur.com/izbHkTB.jpg", 
    "/sites/all/themes/blognone42/images/linebutton.png"
  ], 
  "Link": "https://www.blognone.com/node/81756", 
  "News": "Sundar Pichai บอกกูเกิลจะมีบทบาทในการออกแบบฮาร์ดแวร์ Nexus มากขึ้นกว่าเดิม", 
  "Tags": [
    "Google Nexus", 
    "Android", 
    "Sundar Pichai"
  ], 
  "Time": "15:24"
}