{
  "By": "sunnywalker", 
  "Contents": " ที่งานประชุม Bloomberg technology conference นาย Omid Kordestani ประธาน Twitter กล่าวถึงความคิดเห็นต่อประเด็นต่างๆใน Twitter โดยเฉพาะประเด็นการเมืองกระแสความเกลียดชังผู้อพยพว่า ไม่ว่าคุณจะชอบหรือไม่ ความคิดเห็นที่หยาบคายรุนแรง ก็ควรมีที่ยืนใน Twitter ในบรรยากาศหาเสียงและการเลือกตั้งหยั่งเสียง นโยบายต่อต้านผู้ลี้ภัยของ Donald Trump ผู้สมัครรับเลือกตั้งฝ่าย Republican ก็ได้รับการพูดถึงทั่วสหรัฐฯ มีทั้งกระแสต้าน และกระแสหนุน พื้นที่ใน Twitter เป็นอีกช่องทางที่มีประเด็นทางการเมือง ความเกลียดชัง Hate Speech จากเหล่าผู้ใช้ตลอดเวลา Kordestani ยังกล่าวเพิ่มเติมอย่างน่าสนใจว่า วาทกรรมเป็นสิ่งสำคัญต่อระบอบประชาธิปไตย แทนที่จะเป็นรถถังและกองกำลังบนถนน เพราะเป็นบรรยากาศที่ทำให้การถกเถียงมันเกิดขึ้น  Omid Kordestani ประธาน Twitter ภาพจากทวิตเตอร์ @omidkordestani ที่มา - Techcrunch   ", 
  "Date": "14/June/2016", 
  "Image-Link": [
    "https://www.blognone.com/sites/default/files/styles/thumbnail/public/topics-images/twitter300.png?itok=DkxsrWCR", 
    "http://i.imgur.com/ksyvfiY.jpg", 
    "/sites/all/themes/blognone42/images/linebutton.png"
  ], 
  "Link": "https://www.blognone.com/node/82237", 
  "News": "ประธาน Twitter ประกาศก้อง หยาบคายแค่ไหนก็ควรมีที่ยืนใน Twitter ", 
  "Tags": [
    "Twitter", 
    "Politics", 
    "Freedom of Speech"
  ], 
  "Time": "14:27"
}