{
  "By": "nutmos", 
  "Contents": " Twitter ได้เปิดฟีเจอร์ใหม่คือการแสดงทวีตตามสถานที่ให้ผู้ใช้ทั่วไปได้ใช้กันแล้ว ฟีเจอร์นี้ได้ใช้ข้อมูลสถานที่จาก Foursquare ซึ่งซีอีโอ Jeff Glueck ได้กล่าวกับ TechCrunch ว่า Foursquare ได้สนับสนุน Twitter ในสหรัฐฯ, แคนาดา, บราซิล และประเทศอื่น ๆ ซึ่งจะยังมีอีกหลายประเทศตามมาในอนาคต ส่วนประเทศไหนที่ข้อมูลจาก Foursquare มีน้อย Twitter ก็จะใช้ข้อมูลสถานที่จาก Yelp ด้วย แต่ระบบทวีตด้วยสถานที่นั้นยังไม่ได้บังคับว่าต้องเขียนว่ามาจากสถานที่ที่อยู่จริงโดยอิงจากข้อมูลที่ตั้ง ฉะนั้นใครจะบอกว่าอยู่ที่ไหนก็ได้ วิธีใช้ฟีเจอร์นี้คือ เมื่อผู้ใช้เห็นทวีตที่ติดป้ายว่าทวีตมาจากสถานที่ใด ให้กดที่สถานที่ จากนั้นก็จะมีทวีตที่ทวีตที่บอกสถานที่เดียวกันขึ้นมา พร้อมแผนที่ด้านบน แต่ถ้าเป็นทวีตที่ติดป้ายว่ามาจากสถานที่ระดับเมือง ก็จะยังไม่แสดงชื่อสถานที่บน Timeline หรือโปรไฟล์ แต่จะต้องกดดูที่ทวีตก่อนเพื่อดูรายละเอียดแล้วค่อยกดที่ชื่อสถานที่เพื่อดูทวีตตามสถานที่ ทั้งนี้การดูทวีตตามสถานที่ของ Twitter นั้นยังคงต้องเข้าผ่านทวีตอีกที ไม่สามารถค้นหาสถานที่จากเมนูค้นหาของ Twitter เป็นชื่อสถานที่แล้วดูได้ โดยฟีเจอร์นี้ยังเปิดให้ใช้เฉพาะผู้ใช้ iOS เท่านั้น ส่วนแพลตฟอร์มอื่น ๆ จะตามมาในภายหลัง ที่มา - TechCrunch    ", 
  "Date": "26/June/2016", 
  "Image-Link": [
    "https://www.blognone.com/sites/default/files/styles/thumbnail/public/topics-images/twitter300.png?itok=DkxsrWCR", 
    "http://i.cubeupload.com/5XdyXQ.png", 
    "/sites/all/themes/blognone42/images/linebutton.png"
  ], 
  "Link": "https://www.blognone.com/node/82673", 
  "News": "Twitter เปิดฟีเจอร์แสดงทวีตตามสถานที่ให้ผู้ใช้แล้ว", 
  "Tags": [
    "Twitter"
  ], 
  "Time": "08:08"
}