{
  "By": "nuntawat", 
  "Contents": " Mojang ผู้ผลิตเกม Minecraft เผยว่า ภาพยนตร์จากเกม Minecraft จะเข้าฉายในโรงภาพยนตร์ในระบบปกติในวันที่ 24 พ.ค. 2019 และจะเข้าฉายในระบบสามมิติและ IMAX ด้วย ในส่วนของเนื้อหานั้นคงต้องรอ Mojang เผยในโอกาสต่อไปครับ ที่มา: Mojang   ", 
  "Date": "28/June/2016", 
  "Image-Link": [
    "https://www.blognone.com/sites/default/files/styles/thumbnail/public/topics-images/minecraft-logo.png?itok=wUsaULhq", 
    "/sites/all/themes/blognone42/images/linebutton.png"
  ], 
  "Link": "https://www.blognone.com/node/82731", 
  "News": "ภาพยนตร์ Minecraft เข้าฉาย 24 พ.ค. 2019", 
  "Tags": [
    "Minecraft", 
    "Movie"
  ], 
  "Time": "08:22"
}