{
  "By": "nutmos", 
  "Contents": " Walmart กำลังร่วมมือกับ Five Elements Robotics เพื่อพัฒนารถเข็นสำหรับซื้อสินค้าใหม่ โดยจะเป็นรถเข็นอัตโนมัติที่คอยติดตามผู้ซื้อสินค้า รวมถึงช่วยในการค้นหาและแนะนำสินค้าในรายการที่จะซื้อได้ เรื่องนี้ได้รับการเปิดเผยโดย Wendy Roberts ซีอีโอของ Five Elements ในงาน Bloomberg Technology Conference โดยฝั่ง Walmart นั้นยังไม่ได้พูดถึงเรื่องนี้ และปฏิเสธที่จะให้ความเห็นเรื่องกระบวนการพัฒนา ผลงานของ Five Elements Robotics ก็มีหุ่นยนต์ส่วนตัว Budgee ซึ่งเป็นอุปกรณ์ที่คอยติดตามผู้สั่งการไปเรื่อย ๆ ได้ และอุปกรณ์นี้ก็ถือว่าเพียงพอกับการใช้งานในรถเข็นสินค้าอัตโนมัติที่ Walmart วางแผนไว้ Walmart พยายามที่จะนำเทคโนโลยีเข้ามาช่วยในการซื้อขายและจัดการสินค้าของบริษัทมากขึ้น โดยล่าสุดก็มีโดรนสำหรับจัดการคลังสินค้า, ร่วมมือกับ Uber, Lyft, Deliv เพื่อเป็นบริการส่งสินค้าถึงบ้านลูกค้า ที่มา - ZDNet   ", 
  "Date": "21/June/2016", 
  "Image-Link": [
    "https://www.blognone.com/sites/default/files/styles/thumbnail/public/topics-images/walmart.png?itok=WcVkpdXc", 
    "/sites/all/themes/blognone42/images/linebutton.png"
  ], 
  "Link": "https://www.blognone.com/node/82486", 
  "News": "Walmart เตรียมพัฒนารถเข็นอัตโนมัติ ติดตามผู้ซื้อสินค้าและค้นหาสินค้าที่ต้องการได้", 
  "Tags": [
    "Walmart"
  ], 
  "Time": "08:53"
}