{
  "By": "nismod", 
  "Contents": " Grab เปิดตัว GrabHitch บริการคาร์พูลข้ามพรมแดนระหว่างสิงคโปร์และและเมือง Johor Bahru ของมาเลเซียไปเมื่อสัปดาห์ที่แล้ว ล่าสุดกรมการขนส่งทางบกสิงคโปร์ (Singapore Land Transport Authority - LTA) ออกมาระบุว่าบริการดังกล่าวผิดกฎหมาย กรมการขนส่งฯระบุว่าเนื่องจากรถยนต์ที่จดทะเบียนในมาเลเซีย ไม่สามารถให้บริการแบบรับจ้างในสิงคโปร์โดยไม่มีใบอนุญาตได้ ผู้ที่ละเมิดอาจถูกปรับสูงถึง 3,000 เหรียญสิงคโปร์ (ราว 78,000 บาท) และจำคุกสูงสุด 6 เดือน เช่นเดียวกับทางฝั่งของมาเลเซียที่ไม่อนุญาตให้รถที่จดทะเบียนในสิงคโปร์ไปวิ่งให้บริการในประเทศ อย่างไรก็ตาม GrabHitch จะยังคงไม่คิดค่าบริการในช่วง 3 สัปดาห์แรกหลังเปิดตัว ซึ่งการไม่คิดค่าบริการตรงนี้ทางกรมการขนส่งทางบกสิงคโปร์ระบุว่าไม่ผิดกฎหมาย ขณะที่ทาง Grab เองก็เผยว่ากำลังพูดคุยอยู่กับทั้งทางฝั่งของสิงคโปร์และมาเลเซียอยู่ ที่มา - Malaysiakini   ", 
  "Date": "21/June/2016", 
  "Image-Link": [
    "https://www.blognone.com/sites/default/files/styles/thumbnail/public/topics-images/grab_0.png?itok=cZumEDP8", 
    "/sites/all/themes/blognone42/images/linebutton.png"
  ], 
  "Link": "https://www.blognone.com/node/82492", 
  "News": "กรมการขนส่งทางบกสิงคโปร์ชี้ บริการคาร์พูลข้ามประเทศของ Grab ผิดกฎหมาย", 
  "Tags": [
    "Grab", 
    "Transportation", 
    "Singapore", 
    "Malaysia"
  ], 
  "Time": "09:56"
}