{
  "By": "nismod", 
  "Contents": " Sergio Marchionne ซีอีโอของ Fiat Crysler Automobiles บริษัทแม่ของ Maserati ให้สัมภาษณ์ว่าบริษัทกำลังพิจารณาจะนำรถยนต์สปอร์ต Maserati Alfieri มาผลิตเป็นรถยนต์ไฟฟ้า ซึ่งคาดว่าจะเริ่มกระบวนการผลิตในอีกอย่างน้อย 2 ปีข้างหน้า นอกจากรถยนต์สปอร์ตไฟฟ้าแล้ว บริษัทก็กำลังพิจารณาจะผลิตรถยนต์ไฟฟ้าขนาดเล็ก (City Car) ภายใต้แบรนด์ Fiat เพื่อเจาะตลาดยุโรปด้วย โดยปัจจุบันรถยนต์ไฟฟ้าของบริษัทมีจำหน่ายอยู่แค่ในแคลิฟอร์เนียและออริก้อนเพียง 2 แห่งเท่านั้น ทั้งนี้ช่วงต้นปีที่ผ่านมา ซีอีโอของ Maserati เคยระบุไว้ว่าจะเพิ่มรุ่นเครื่องยนต์ไฮบริด สำหรับรถยนต์ทุกๆ รุ่นของบริษัทด้วย ที่มา - Venturebeat  ภาพคอนเซ็ปต์ Alfieri ที่โชว์ในงาน Geneva Auto Show 2014   ", 
  "Date": "27/June/2016", 
  "Image-Link": [
    "https://www.blognone.com/sites/default/files/styles/thumbnail/public/news-thumbnails/Maserati-logo-Trident.png?itok=_EQkZkoK", 
    "https://c8.staticflickr.com/8/7630/27853467391_77852c31ec_z.jpg", 
    "/sites/all/themes/blognone42/images/linebutton.png"
  ], 
  "Link": "https://www.blognone.com/node/82698", 
  "News": "Maserati กำลังพิจารณาทำรถยนต์สปอร์ตไฟฟ้า", 
  "Tags": [
    "Automobile", 
    "Electric Car"
  ], 
  "Time": "12:08"
}