{
  "By": "nismod", 
  "Contents": " เข้าใจได้ว่าความลับของบริษัทเป็นเรื่องสำคัญ แต่ใครจะคิดว่าซีอีโอของสื่อโซเชียลมีเดียยักษ์ใหญ่ของโลก จะอาศัยการปกป้องข้อมูลด้วยวิธีทางกายภาพแบบบ้านๆ อย่างการใช้เทปกาวปิดที่กล้องเว็บแคมและช่องไมค์บนเครื่อง MacBook Mark Zuckerberg ได้โพสต์ภาพแสดงความยินดีที่ Instagram มีผู้ใช้รายเดือนเกิน 500 ล้านคน แต่ก็มีคนตาดีไปเห็นเครื่อง MacBook ที่ถูกปิดไว้ด้วยเทป ซึ่งต่อให้แฮกเกอร์จะสามารถฝังมัลแวร์เข้ามาเก็บข้อมูลผ่านทางกล้องและไมค์โดยตรวจจับไม่ได้ แต่ก็คงไม่น่าจะเก็บข้อมูลอะไรออกไปได้ ทาง Gizmodo ที่ค้นพบเขียนแซวซีอีโอเฟซบุ๊กเล็กน้อยด้วยว่า มาร์คมัวมานั่งกังวลว่าจะมีใครเฝ้าติดตามตัวเขา ขณะที่บริษัทเขาเองทำเงินได้มหาศาลจากการเก็บและติดตามข้อมูลคนทั้งโลก ที่มา - Gizmodo via The Next Web, Mark Zuckerberg    ", 
  "Date": "22/June/2016", 
  "Image-Link": [
    "https://www.blognone.com/sites/default/files/styles/thumbnail/public/topics-images/zuck.png?itok=kocAZM9K", 
    "https://c3.staticflickr.com/8/7409/27218540154_5841af26c7_z.jpg", 
    "/sites/all/themes/blognone42/images/linebutton.png"
  ], 
  "Link": "https://www.blognone.com/node/82540", 
  "News": "Mark Zuckerberg ใช้เทปกาวในการป้องกันการดักฟังข้อมูลผ่านเว็บแคมและไมโครโฟน", 
  "Tags": [
    "Mark Zuckerberg", 
    "Security"
  ], 
  "Time": "12:10"
}