{
  "By": "nismod", 
  "Contents": " The Information รายงานอ้างอิงแหล่งข่าววงในว่า Huawei ไม่ต้องการจะพึ่งแอนดรอยด์ไปตลอด และมีแผนจะพัฒนาระบบปฏิบัติการของตัวเอง โดยแผนนี้ยังอยู่ขั้นต้นเท่านั้น แหล่งข่าวระบุด้วยว่าทีมหรือแผนกพัฒนาระบบปฏิบัติการใหม่นี้ตั้งอยู่ในประเทศแถบสแกดิเนเวีย ขณะที่ Abigail Brody อดีตนักพัฒนาและออกแบบ UI ของแอปเปิลและขณะนี้ทำงานให้กับ Huawei ยอมรับกับ The Information ว่าบริษัทมีความคิดนี้อยู่จริง โดยตัวเธอจะเริ่มพูดคุยกับทีมพัฒนาเป็นครั้งแรกในเดือนสิงหาคมนี้ ที่มา - The Information (ต้องสมัครสมาชิก) via 9to5Google   ", 
  "Date": "23/June/2016", 
  "Image-Link": [
    "https://www.blognone.com/sites/default/files/styles/thumbnail/public/topics-images/huawei.png?itok=6S9mP3fu", 
    "/sites/all/themes/blognone42/images/linebutton.png"
  ], 
  "Link": "https://www.blognone.com/node/82581", 
  "News": "ตามรอยซัมซุง Huawei ยอมรับมีแผนพัฒนาระบบปฏิบัติการของตัวเองใช้แทนแอนดรอยด์", 
  "Tags": [
    "Huawei", 
    "Android", 
    "Operating System"
  ], 
  "Time": "12:37"
}