{
  "By": "sunnywalker", 
  "Contents": " ทีมวิจัยจาก Beth Israel Deaconess Medical Center (BIDMC) และ Harvard Medical School (HMS) ร่วมมือกันพัฒนาปัญญาประดิษฐ์ให้สามารถตรวจหาเซลล์มะเร็งจากการอ่านภาพทางพยาธิวิทยาได้ โดยใช้วิธี Deep Learning ซึ่งเป็นวิธีที่ใช้กันในการฝึกให้ปัญญาประดิษฐ์เข้าใจภาษา ศิลปะ และอื่นๆ ทีมวิจัยป้อนข้อมูลรูปภาพทางพยาธิวิทยาเป็นร้อยๆสไลด์ให้ปัญญาประดิษฐ์วินิจฉัยว่า ภาพใดเป็นภาพปกติ และภาพใดมีเซลล์มะเร็งกำลังก่อตัว ปรากฏว่าปัญญาประดิษฐ์สามารถวินิจฉัยถูกต้องถึง 92% แม้จะยังไม่เทียบเท่าได้กับนักพยาธิวิทยาที่สามารถวินิจฉัยได้มากกว่าคือ 96% แต่ทีมวิจัยระบุว่าถือเป็นสัญญาณที่ดี  ภาพจาก เอกสารฉบับเต็ม Deep Learning for Identifying Metastatic Breast Cancer ที่มา - Engadget   ", 
  "Date": "20/June/2016", 
  "Image-Link": [
    "https://www.blognone.com/sites/default/files/styles/thumbnail/public/topics-images/Artificial-intelligence-elon-musk-hawking.jpg?itok=enWxyF0M", 
    "http://i.imgur.com/6OYJSGR.png", 
    "/sites/all/themes/blognone42/images/linebutton.png"
  ], 
  "Link": "https://www.blognone.com/node/82452", 
  "News": "ทีมแพทย์และนักวิจัยใช้วิธี Deep Learning ฝึก AI ให้ตรวจหาเซลล์มะเร็ง", 
  "Tags": [
    "Artificial Intelligence", 
    "Medical", 
    "Health", 
    "Deep Learning"
  ], 
  "Time": "12:40"
}