{
  "By": "nismod", 
  "Contents": " หลังจากเมื่อสัปดาห์ที่แล้วมีข่าวว่า Huawei จะพัฒนาระบบปฏิบัติการของตัวเองเพื่อใช้แทนแอนดรอยด์ ล่าสุด Richard Yu ซีอีโอของ Huawei ออกมายืนยันว่าบริษัทยังตั้งใจจะใช้แอนดรอยด์บนสมาร์ทโฟนต่อไป ตราบเท่าที่แอนดรอยด์ยังคงเป็นระบบปฏิบัติการเปิด ซีอีโอ Huawei โพสต์ลงบน Weibo ระบุว่าแอนดรอยด์ก่อให้เกิดการพัฒนาสมาร์ทโฟน ซึ่งส่งผลดีต่อผู้บริโภค และบริษัทจะยังคงใช้แอนดรอยด์ต่อไป หาก Google ไม่ทำให้แอนดรอยด์เป็นระบบปฏิบัติการปิดเสียก่อน อย่างไรก็ตาม Richard Yu ไม่ได้ปฏิเสธหรือพูดถึงเรื่องระบบปฏิบัติการที่จะพัฒนาขึ้นมาเองแต่อย่างใดครับ ที่มา - Gizmodo China via GSMArena   ", 
  "Date": "27/June/2016", 
  "Image-Link": [
    "https://www.blognone.com/sites/default/files/styles/thumbnail/public/topics-images/huawei.png?itok=6S9mP3fu", 
    "/sites/all/themes/blognone42/images/linebutton.png"
  ], 
  "Link": "https://www.blognone.com/node/82705", 
  "News": "ซีอีโอ Huawei ยืนยันยังคงใช้งานแอนดรอยด์ต่อไป ตราบเท่าที่ยังคงเป็นแพลตฟอร์มเปิด", 
  "Tags": [
    "Huawei", 
    "Android", 
    "Operating System"
  ], 
  "Time": "13:19"
}