{
  "By": "sunnywalker", 
  "Contents": " Hyperkin บริษัทเกม ผลิต Smart Boy ฮาร์ดแวร์เชื่อมต่อกับสมาร์ทโฟนแอนดรอยด์ สามารถเล่น Game Boy ได้จริงในมือถือ ให้ผู้เล่นย้อนวัยกันอีกครั้ง จากที่ตอนแรกดูเหมือนเป็นข่าวลวง แต่ขณะนี้เปิดให้พรีออร์เดอร์แล้วในราคา 60 ดอลล่าร์ ได้ของจริงวันที่ 1 ธันวาคมนี้ ลักษณะการออกแบบ  Smart Boy ชวนให้นึกถึง Game Boy ของ Nintendo เพราะการทำงานของ Smart Boy ไม่ใช่เป็นแค่จอยควบคุม แต่มีแผ่นเกมจริงๆเสียบไว้ที่แท่นด้านหลัง เท่ากับสมาร์ทโฟนเป็นเพียงจอแสดงผลเท่านั้น อย่างไรก็ตามตัวฮาร์ดแวร์ไม่รองรับระบบ iOS แฟนๆ Apple อาจต้องรอไปก่อน  ที่มา - Gizmodo   ", 
  "Date": "20/June/2016", 
  "Image-Link": [
    "https://www.blognone.com/sites/default/files/styles/thumbnail/public/topics-images/android.png?itok=utCl_oOE", 
    "http://i.imgur.com/70bHWNt.png", 
    "/sites/all/themes/blognone42/images/linebutton.png"
  ], 
  "Link": "https://www.blognone.com/node/82464", 
  "News": "Smart Boy จอยเล่นเกมบอยบนสมาร์ทโฟน เปิดให้พรีออร์เดอร์แล้ว", 
  "Tags": [
    "Android", 
    "Games", 
    "Hardware", 
    "Accessories"
  ], 
  "Time": "17:47"
}