{
  "By": "Lamicrosz", 
  "Contents": " นอกจากจะออก Windows 10 รุ่นทดสอบ 14367 แล้ว ทางไมโครซอฟท์ยังได้ประกาศเตรียมถอดฟีเจอร์ Kids Corner ออกไปจาก Windows 10 Anniversary Update ที่กำลังจะมาถึง โดยได้ให้เหตุผลว่า มีผู้ใช้งานฟีเจอร์นี้ค่อนข้างน้อย ทั้งนี้ก็ยังสามารถใช้ Apps Corner ทดแทนได้บ้าง เพราะสามารถตั้งข้อจำกัดการเข้าถึงแอพได้เหมือนกัน Kids Corner ถูกติดตั้งมาครั้งแรกพร้อมกับระบบปฏิบัติการ Windows Phone 8 ที่มา - Windows Experience Blog   ", 
  "Date": "19/June/2016", 
  "Image-Link": [
    "https://www.blognone.com/sites/default/files/styles/thumbnail/public/topics-images/Windows_10_movilw.png?itok=tDLWK0tY", 
    "/sites/all/themes/blognone42/images/linebutton.png"
  ], 
  "Link": "https://www.blognone.com/node/82438", 
  "News": "ไมโครซอฟท์จะถอดฟีเจอร์ Kids Corner ออกไปใน Windows 10 Anniversary Update", 
  "Tags": [
    "Windows 10 Mobile", 
    "Microsoft"
  ], 
  "Time": "21:08"
}