{
  "By": "Lamicrosz", 
  "Contents": " ไมโครซอฟท์ได้เปิดตัว Xbox One S ไปในงาน E3 2016 ที่ผ่านมา โดยมีฟีเจอร์เด่นอย่าง การรองรับการแสดงผลแบบ HDR (High Dynamic Range) ซึ่งยังมีข้อสงสัยว่าจะรองรับ HDR มาตรฐานใด ไมโครซอฟท์เปิดเผยผ่านเว็บไซต์ Polygon ว่า เครื่อง Xbox One S จะรองรับมาตรฐาน HDR10 และไม่ได้กล่าวถึงมาตรฐานของทางฝั่ง Dolby มาตรฐาน HDR10 ถูกใช้อยู่ในโทรทัศน์จาก Samsung และ Sony ส่วนทางฝั่ง Dolby ถูกใช้ใน LG และ Vizio เป็นหลัก ซึ่งการที่ฝั่ง Dolby ต้องจ่ายเงินค่าสิทธิการใช้งานเครื่องเล่นมีเดีย อาจทำให้ไมโครซอฟท์เลือกใช้ HDR10 เพื่อเป็นการลดต้นทุน ที่มา - Polygon    ", 
  "Date": "23/June/2016", 
  "Image-Link": [
    "https://www.blognone.com/sites/default/files/styles/thumbnail/public/topics-images/xbox-big_0.png?itok=5eYWc84O", 
    "https://i.imgur.com/2GmCeY5.jpg", 
    "/sites/all/themes/blognone42/images/linebutton.png"
  ], 
  "Link": "https://www.blognone.com/node/82603", 
  "News": "Xbox One S จะรองรับการแสดงผล HDR ที่มาตรฐาน HDR10", 
  "Tags": [
    "Xbox One", 
    "Microsoft", 
    "Games", 
    "HDR"
  ], 
  "Time": "21:53"
}