{
  "By": "twometre", 
  "Contents": " นำสิ่งที่ดีสู่ชีวิตอีกครั้ง เมื่อ Toshiba ทำฮาร์ดดิสก์ไดรฟ์ขนาด 3.5\" ในความจุ 8TB ออกมาในไลน์ X300 ซึ่งเป็นฮาร์ดดิสก์เกรดสูงสุดของยี่ห้อนี้ (รองลงไปคือ P300 สำหรับผู้ใช้ระดับกลางและ E300 ประหยัดพลังงาน) ใช้งานที่ความเร็วจานหมุน 7,200 รอบต่อนาทีกับการเชื่อมต่อแบบ SATA 6 Gb/s มีหน่วยความจำแคช 128MB และคาดว่าภายในใช้เทคนิคการเก็บข้อมูลแบบเดียวกับไดรฟ์เกรดธุรกิจรุ่น MG04 ที่ความจุ 8TB นี้ X300 คาดว่ามีจานหมุนซ้อนกันอยู่ 5 จานที่จานละ 1.6TB รองรับ NCQ และ Advanced Format ครับ และคาดต่อได้อีกว่า MG04 ซึ่งมีความจุสูงสุดที่ 6TB จะมีรุ่น 8TB ตามออกมาด้วย ด้านราคาของ X300 อยู่ที่ 262 ปอนด์ (ประมาณ 13,700 บาท) กับการรับประกัน 2 ปี ที่มา - The Register    ", 
  "Date": "31/May/2016", 
  "Image-Link": [
    "https://www.blognone.com/sites/default/files/styles/thumbnail/public/topics-images/toshiba.png?itok=uPowT1VD", 
    "//upic.me/i/w5/toshiba_x300_8tb_hdd.jpg", 
    "/sites/all/themes/blognone42/images/linebutton.png"
  ], 
  "Link": "https://www.blognone.com/node/81662", 
  "News": "Toshiba เปิดตัว X300 ฮาร์ดดิสก์ใส่ก๊าซฮีเลียม จุ 8TB ในขนาด 3.5 นิ้ว ", 
  "Tags": [
    "Toshiba", 
    "Hardware", 
    "Harddisk"
  ], 
  "Time": "17:25"
}