{
  "By": "mk", 
  "Contents": " กูเกิลเตือนให้นักพัฒนาที่ใช้ Android Studio รีบอัพเดตเป็นเวอร์ชันใหม่ 2.1.1 เพื่อความปลอดภัย อัพเดตตัวนี้ต่อเนื่องมาจากข่าว IntelliJ พบช่องโหว่ความปลอดภัยร้ายแรง ส่งผลให้ Android Studio ที่พัฒนาต่อมาจาก IntelliJ ต้องอัพเดตตามด้วย ถ้าใครใช้ Android Studio อยู่แล้วสามารถกดอัพเดตจากตัวโปรแกรมได้เลย หรือสามารถดาวน์โหลดใหม่ได้จากหน้าเว็บ Android Studio ที่มา - Android Central    ", 
  "Date": "17/May/2016", 
  "Image-Link": [
    "https://www.blognone.com/sites/default/files/styles/thumbnail/public/topics-images/android-studio.png?itok=uYAyLTTl", 
    "https://i.imgur.com/rIDOJbe.png", 
    "/sites/all/themes/blognone42/images/linebutton.png"
  ], 
  "Link": "https://www.blognone.com/node/81054", 
  "News": "Android Studio ออกเวอร์ชัน 2.1.1 อัพเดตความปลอดภัยตาม IntelliJ", 
  "Tags": [
    "Android Studio", 
    "Security", 
    "IntelliJ", 
    "IDE"
  ], 
  "Time": "09:07"
}