{
  "By": "taqmaninw", 
  "Contents": " Amazon Web Services (AWS) หน่วยธุรกิจด้านคลาวด์ของ Amazon เข้าซื้อ Cloud9 บริการพัฒนาซอฟต์แวร์ (IDE) ผ่านทางบราวเซอร์ โดยหวังนำมาเสริมทัพให้ AWS เหนือกว่าคู่แข่งอย่าง Google Cloud Platform และ Microsoft Azure สำหรับ อนาคตของ Cloud9 ภายหลังการซื้อกิจการ Ruben Daniels ผู้ก่อตั้ง Cloud9 ได้เปิดเผยผ่านบล็อกของบริษัทว่า Cloud9 ยังจะให้บริการต่อไป ทาง VentureBeat คาดการณ์ว่า AWS จะใช้ Cloud9 เข้าถึงกลุ่มลูกค้านักพัฒนา สามารถทดลองใช้โปรแกรมที่มีอยู่ใน AWS Marketplace จากเบราว์เซอร์ได้เลย โดยไม่ต้องสนใจเรื่องการติดตั้งโปรแกรมผ่าน virtual machine แต่อย่างใด ที่มา VentureBeat  ", 
  "Date": "14/July/2016", 
  "Image-Link": [
    "https://www.blognone.com/sites/default/files/styles/thumbnail/public/news-thumbnails/cloud9.png?itok=NjGFt_hH", 
    "/sites/all/themes/blognone42/images/linebutton.png"
  ], 
  "Link": "https://www.blognone.com/node/83453", 
  "News": "AWS เข้าซื้อ Cloud9 บริการ IDE ผ่านเว็บเบราว์เซอร์", 
  "Tags": [
    "AWS", 
    "IDE", 
    "Acquisition"
  ], 
  "Time": "23:23"
}