{
  "By": "nismod", 
  "Contents": " พรรคการเมืองใหญ่ 4 พรรคของนอร์เวย์ ได้ข้อตกลงเห็นชอบร่างกฎหมาย ห้ามขายรถยนต์ที่ใช้น้ำมันภายในประเทศ นับตั้งแต่ปี 2025 เป็นต้นไป อย่างไรก็ตามนโยบายนี้เป็นเพียงร่างกฎหมายที่สมาชิกสภานิติบัญญัติเห็นชอบร่วมกันอย่างไม่เป็นทางการเท่านั้น และต้องรอผ่านกระบวนการเห็นชอบในสภาตามกระบวนการปกติก่อนจึงจะมีผลบังคับใช้ ถึงแม้นอร์เวย์จะเป็นหนึ่งในประเทศที่ผลิตน้ำมันส่งออกมากเป็นอันดับต้นๆ ของยุโรป แต่ก็ถือว่าเป็นประเทศที่ให้ความสำคัญกับพลังงานสะอาดและผลักดันเรื่องนี้มาโดยตลอด โดยนอกจากนอร์เวย์แล้วอินเดียและเนเธอร์แลนด์ก็เป็นอีก 2 ประเทศที่กำลังพิจารณาเรื่องการบังคับใช้รถยนต์ไฟฟ้าแทนรถยนต์เชื้อเพลิงฟอสซิลแบบเดิม ที่มา - Fortune   ", 
  "Date": "6/June/2016", 
  "Image-Link": [
    "https://www.blognone.com/sites/default/files/styles/thumbnail/public/topics-images/norway.png?itok=t8nD9cFZ", 
    "/sites/all/themes/blognone42/images/linebutton.png"
  ], 
  "Link": "https://www.blognone.com/node/81913", 
  "News": "นักการเมืองนอร์เวย์เห็นชอบร่างกฎหมายแบนการขายรถยนต์ที่ใช้น้ำมัน", 
  "Tags": [
    "Norway", 
    "Law", 
    "Automobile"
  ], 
  "Time": "16:59"
}