{
  "By": "Lamicrosz", 
  "Contents": "
ไมโครซอฟท์ออกอัพเดต HoloLens โดยการเพิ่มฟีเจอร์ใหม่อย่าง การทำงานหลายแอพพร้อมกันในเวลาเดียว (Multi-tasking), เพิ่มการนำเข้าข้อมูลด้วยเมาส์ไร้สายแบบบลูทูธ, เพิ่มคำสั่งด้วยเสียงอย่าง “Face me!”, เพิ่มคำสั่งใน Microsoft Edge ที่คนเรียกร้องกันเข้ามา เช่น แท็บ, ปรับปรุงแอพรูปภาพ ให้สามารถปักหมุดรูปภาพได้โดยไม่มีขอบ (without any borders or chrome)
สามารถดูการเปลี่ยนแปลงทั้งหมดได้ที่ Windows Dev Center
ที่มา - Microsoft Device Blog
 ", 
  "Date": "3/June/2016", 
  "Image-Link": "https://www.blognone.com/sites/default/files/badges/badge-contributer.png", 
  "Link": "https://www.blognone.com/node/81779", 
  "News": "ไมโครซอฟท์ออกอัพเดต HoloLens เพิ่มคำสั่งด้วยเสียง, รองรับการทำงานหลายแอพ", 
  "Tags": [
    "HoloLens", 
    "Microsoft", 
    "Augmented Reality", 
    "Virtual Reality"
  ], 
  "Time": "02:19"
}