{
  "By": "twometre", 
  "Contents": "
Micron ผู้ผลิตชิปหน่วยความจำอีกรายเปิดตัว SSD ที่ใช้ชิปเก็บข้อมูล NAND ที่ผลิตในแบบ 3D ในรุ่น TLC 1100 และ MLC 2100 ตามอินเทลที่เปิดตัวไปก่อนหน้าในรุ่น DC P3320 และ P3520 ซึ่งทำงานกับพอร์ต NVMe แต่ไดรฟ์ 1100 นี้จะใช้งานบน SATA 6Gb/s และ M.2 SATA (และ 2100 จะใช้บน NVMe) ซึ่งความเร็วจะต่ำกว่าแต่มีคนใช้แพร่หลายกว่า สเปคที่น่าสนใจของ Micron 1100 มีดังนี้ครับ (ยังไม่มีข้อมูลของ Micron 2100)

ในรุ่น SATA 2.5" มีความจุตั้งแต่ 256GB ถึง 2TB
ความเร็วอ่าน/เขียน 530/500 MB/s (แบบ sequential)
อัตราเขียนข้อมูล 4K สุ่ม 83,000 IOPS / อัตราอ่านข้อมูล 4K สุ่ม 92,000 IOPS
ความทนทานอยู่ที่การเขียนข้อมูลเฉลี่ย 224GB ต่อวัน ในระยะเวลา 5 ปี

อย่างที่ทราบกันว่าชิปแฟลชแบบ TLC จะช้าและทนทานน้อยกว่า MLC แต่เมื่อดูจากสเปคแล้วเทียบกับ SSD M600 ยี่ห้อเดียวกันที่ใช้ชิป MLC รุ่นปี 2014 ผลคือ TLC สมัยใหม่ทนกว่าแล้วครับ
ที่มา - The Register
ด้านราคา แหล่งข่าวยังไม่ระบุ แต่แบรนด์นี้เคยมีผู้นำเข้ามาจำหน่ายในไทยครับ

 ", 
  "Date": "3/June/2016", 
  "Image-Link": "https://www.blognone.com/sites/default/files/badges/badge-writer.png", 
  "Link": "https://www.blognone.com/node/81783", 
  "News": "Micron โชว์ชิป NAND ผลิตแบบ 3D Triple-level เน้นความจุต่อชิปและทนทานกว่า", 
  "Tags": [
    "Micron", 
    "SSD", 
    "Hardware"
  ], 
  "Time": "08:06"
}