{
  "By": "nismod", 
  "Contents": "
Google ออกรายงานประจำเดือนพฤษภาคมเรื่องรถไร้คนขับระบุว่า ระบบ AI ของรถไร้คนขับนั้น เรียนรู้การบีบแตรในสถานการณ์ต่างๆ มากขึ้น โดยในช่วงทดสอบ ทีมวิศวกรให้รถบีบแตรเฉพาะภายในรถเท่านั้น เพื่อไม่ให้รบกวนและสร้างความเข้าใจผิดแก่รถคันอื่น จนกระทั่งเริ่มมั่นใจในระบบ AI มากขึ้นจึงปล่อยเสียงแตรออกสู่ภายนอกตามปกติ
ทีมวิศวกรได้ทดสอบให้ตัวรถพบเจอกับสถานการณ์ที่ควรจะบีบแตรสารพัด ทั้งกรณีที่มีรถวิ่งสวนเลน, รถคันหน้าถอยหลังมา หรือแม้แต่สอนให้แยกแยะสถานการณ์อย่างรถที่วิ่งสวนเลนมา และรถที่พยายามจะกลับรถแบบ Three-point turn ซึ่งความดังของแตรก็จะแตกต่างกันไปตามแต่สถานการณ์ โดยรถจะบีบแตรดังสุดในสถานการณ์ฉุกเฉิน
ทีมพัฒนาระบุด้วยว่า ตั้งใจจะทำให้อัลกอริทึมบนรถเป็นเหมือนคนขับที่มีความอดทน สุภาพและเกรงใจคนอื่น
ที่มา - Google Self-Driving Car Project Monthly Report (PDF) via Engadget

 ", 
  "Date": "3/June/2016", 
  "Image-Link": "https://www.blognone.com/sites/default/files/badges/badge-trainee-shadow.png", 
  "Link": "https://www.blognone.com/node/81785", 
  "News": "รถไร้คนขับของ Google บีบแตรด้วยตัวเองได้แล้ว", 
  "Tags": [
    "Google Self-Driving Car", 
    "Google", 
    "Automobile"
  ], 
  "Time": "08:27"
}