{
  "By": "sunnywalker", 
  "Contents": "
โดยปกติ เกม The Sims มีข้อจำกัดเรื่องรูปร่างหน้าตา ทรงผม เสื้อผ้า และมีเพียงชายกับหญิงเท่านั้น แม้กระทั่งใน The Sims 4 ซึ่งเป็นเวอร์ชั่นล่าสุดก็ตาม จนกระทั่งวันนี้ทางค่ายเกมได้ออกมาประกาศว่าจะทลายกำแพงทางเพศในเกม The Sims 4 เวอร์ชั่นอัพเดต
ผู้เล่นนอกจากจะเลือกตัวละครเป็นเพศทางเลือกได้แล้ว ยังสามารถเลือกเสื้อผ้าและทรงผมได้หลากหลายเข้ากับยุคสมัยมากขึ้น กระโปรงสั้นขึ้น และดูแฟชั่นมากขึ้นด้วย

ภาพจาก The Sims
ที่มา - Kotaku
 ", 
  "Date": "3/June/2016", 
  "Image-Link": "https://www.blognone.com/sites/default/files/badges/badge-contributer.png", 
  "Link": "https://www.blognone.com/node/81782", 
  "News": "The Sims 4 มีตัวละครเพศทางเลือก บวกเสื้อผ้าทรงผมจัดจ้านขึ้น", 
  "Tags": [
    "The Sims", 
    "Gender"
  ], 
  "Time": "09:41"
}