{
  "By": "trinakub", 
  "Contents": "
เรียกได้ว่าเอาจริงสำหรับค่ายเกมใหญ่ยักษ์พ่อมดน้ำแข็ง Blizzard ที่ประกาศว่าจะแบนผู้เล่นที่ใช้โปรแกรมโกงที่เอาเปรียบผู้เล่นอื่นๆ หรือบอทโดยไม่แจ้งให้ทราบล่วงหน้า หลังจากนั้นก็มีผู้เล่นจีนโดนแบนไปทั้งสิ้น 1,596 ID เลยทีเดียว
ร้อนไปถึงผู้เล่นที่ใช้โปรแกรมโกงพยายามที่จะหาวิธีที่จะทำให้กลับไปเล่นใหม่ให้ได้โดยใช้วิธีต่างๆ นานา ทั้งเปลี่ยน Hard Drive IDs, MAC Address, BiosDate หรือแม้กระทั่งซื้อ VPN มาแต่ก็ไม่เป็นผล คราวนี้ Blizzard มาแบบเข้มสุดๆ

ที่มา - Overwatch
 ", 
  "Date": "3/June/2016", 
  "Image-Link": "https://www.blognone.com/sites/default/files/badges/badge-contributer.png", 
  "Link": "https://www.blognone.com/node/81814", 
  "News": "Blizzard เอาจริง แบนผู้เล่น Overwatch จีนที่ใช้โปรแกรมโกงเกมเกือบ 1,600 ราย", 
  "Tags": [
    "Overwatch", 
    "Games", 
    "FPS", 
    "Blizzard"
  ], 
  "Time": "14:06"
}