{
  "By": "osmiumwo1f", 
  "Contents": "
สำหรับใครที่กำลังรอ Rainbow Six Siege ลดราคาอยู่ ตอนนี้ Ubisoft เปิดตัว Rainbow Six Siege Starter Edition โดยตั้งราคาใน Steam ไว้ที่ 449 บาท ซึ่งจะขายตั้งแต่วันที่ 2 - 19 มิถุนายน 2559 ซึ่งมีข้อจำกัดสำคัญดังนี้
ปลดล็อก operator 2 คน โดยสุ่มจากทั้งหมด 6 คน ซึ่งประกอบไปด้วย Rook Sledge Ash Fuze Mute และ Smoke
ได้รับแต้ม R6 600 แต้ม ซี่งสามารถนำไปปลดล็อก operator หรือของในเกมที่สามารถซื้อด้วยแต้ม R6 ได้
สามารถปลดล็อก operator ที่เหลือได้ในราคา 12,500 Renown ยกเว้น operator 4 คนที่มาจาก DLC (ฟรี) ที่ต้องใช้ 25,000 Renown
สำหรับใครที่สนใจโปรดอ่านข้อจำกัดเพิ่มเติมที่นี่ก่อนตัดสินใจซื้อครับ
ที่มา - อีเมลประชาสัมพันธ์

อนึ่ง Activision เคยทำแบบเดียวกันในชื่อ Call of Duty: Black Ops III: Multiplayer Starter Pack ", 
  "Date": "3/June/2016", 
  "Image-Link": "https://www.blognone.com/sites/default/files/badges/badge-contributer.png", 
  "Link": "https://www.blognone.com/node/81817", 
  "News": "อยากเล่นแต่ไม่อยากจ่ายเต็ม? Rainbow Six Siege มี Starter Edition ให้เลือก", 
  "Tags": [
    "Ubisoft", 
    "Games", 
    "Rainbow Six"
  ], 
  "Time": "14:18"
}