{
  "By": "mk", 
  "Contents": " Mozilla ประกาศสร้างระบบแนะนำเว็บไซต์ชื่อ Context Graph เพื่อยกระดับประสบการณ์การท่องเว็บไปอีกขั้น Mozilla บอกว่าการท่องเว็บในปัจจุบันมักตั้งต้นจาก search เพื่อค้นหาเว็บที่ต้องการ จากนั้นกดปุ่ม Back เพื่อกลับไปยังหน้าเดิม สิ่งที่เราแทบไม่ได้ใช้เลยคือปุ่ม Forward ดังนั้นถ้า Mozilla สามารถแนะนำได้ว่าเราควรไปยังหน้าไหนต่อ (โดยอิงจากข้อมูลของคนที่เคย search แบบเดียวกันมาก่อนเรา และลองผิดลองถูกมาก่อนเรา) ย่อมจะส่งผลให้การท่องเว็บเปลี่ยนโฉมไปมาก (และไม่ต้องพึ่งพา Google/Facebook มากเกินไป) Context Graph คือระบบแนะนำ (recommendation engine) ที่จะดึงข้อมูลหลายส่วนมาประกอบกัน เช่น เนื้อหาและโครงสร้างของเว็บเพจ, แผนที่การคลิกลิงก์ของผู้ใช้ (heatmap), ประวัติการท่องเว็บของผู้ใช้ (เราต้องยินยอมด้วย) และใช้เทคนิค machine learning มาวิเคราะห์เพื่อนำเสนอเว็บเพจที่เหมาะสมให้ผู้ใช้ในขั้นสุดท้าย ตอนนี้โครงการ Context Graph ยังเพิ่งเริ่มต้น ผลงานแรกที่มีให้ใช้แล้วคือฟีเจอร์ Activity Stream หรือแสดงประวัติการท่องเว็บย้อนหลังเป็น timeline ให้ดูง่ายๆ ตอนนี้ฟีเจอร์นี้ยังอยู่ในขั้นทดสอบผ่านโครงการ Test Pilot และยังไม่เข้ามาใน Firefox รุ่นหลัก แต่ Mozilla ก็บอกว่าจะมีโครงการย่อยอีกหลายอย่างตามมาในอนาคต ที่มา - Nick Nguyen หน้าตาของฟีเจอร์ Activity Stream    ", 
  "Date": "10/July/2016", 
  "Image-Link": [
    "https://www.blognone.com/sites/default/files/styles/thumbnail/public/topics-images/mozilla.png?itok=cNR87Ht_", 
    "https://i.imgur.com/fxzqSD2.png", 
    "/sites/all/themes/blognone42/images/linebutton.png"
  ], 
  "Link": "https://www.blognone.com/node/83237", 
  "News": "Mozilla ประกาศสร้าง Context Graph ระบบแนะนำเว็บที่เหมาะสมแก่ผู้ใช้", 
  "Tags": [
    "Mozilla", 
    "Firefox", 
    "Browser", 
    "Web"
  ], 
  "Time": "14:05"
}