{
  "By": "nismod", 
  "Contents": " หลังมีข่าวเมื่อต้นเดือนที่แล้วว่า Ensogo ขาดทุนอย่างหนักจนต้องปลดพนักงานออกมากกว่าครึ่งหนึ่ง ผ่านไปเพียงไม่นานนานดูเหมือนพนักงาน Ensogo ในเอเชียตะวันออกเฉียงใต้จะตกงานเพิ่มอีกเป็นแถว เมื่อ Ensogo ประกาศปิดสำนักงานในภูมิภาคและ Kris Marszalek ซีอีโอก็ประกาศลาออกเช่นกัน นอกจากนี้ Ensogo ยังส่งจดหมายถึงคณะกรรมการกำกับหลักทรัพย์ของออสเตรเลียขอระงับการซื้อขายหุ้น (voluntary trading suspension) หลังราคาหุ้นตกลงจนเหลือเพียง 0.5 เหรียญออสเตรเลียและขอหยุดการซื้อขายหุ้นชั่วคราวเมื่อปลายสัปดาห์ที่แล้ว Ensogo ให้เหตุผลของการปิดตัวในเอเชียตะวันออกเฉียงใต้ว่า เพื่อรักษาเงินทุนของบริษัทไว้สำหรับโอกาสในการระดมทุนครั้งใหม่ ที่มา - Tech in Asia   ", 
  "Date": "21/June/2016", 
  "Image-Link": [
    "https://www.blognone.com/sites/default/files/styles/thumbnail/public/topics-images/ensogo.png?itok=qVe8PtFL", 
    "/sites/all/themes/blognone42/images/linebutton.png"
  ], 
  "Link": "https://www.blognone.com/node/82494", 
  "News": "Ensogo ประกาศปิดตัวในภูมิภาคเอเชียตะวันออกเฉียงใต้, ซีอีโอลาออก", 
  "Tags": [
    "Ensogo", 
    "E-commerce"
  ], 
  "Time": "10:18"
}