{
  "By": "nutmos", 
  "Contents": " Walmart ได้ประกาศในงานประชุมผู้ถือหุ้น โดยบอกว่าตอนนี้ทางบริษัทได้จับมือกับบริการใหญ่ 3 บริการ ได้แก่ Uber, Lyft และ Deliv เพื่อเป็นบริการส่งของให้ลูกค้าถึงหน้าบ้าน ลูกค้า Walmart ที่ต้องการใช้บริการเพียงแค่สั่งสินค้าอุปโภคบริโภคออนไลน์และเลือกสถานที่ส่ง จากนั้น Walmart จะเตรียมออร์เดอร์และจะเรียกใช้บริการ Lyft, Uber หรือ Deliv เพื่อให้ส่งของต่อ โดยผู้ใช้ก็จ่ายค่าส่งให้ Walmart เพียง 7-10 ดอลลาร์เท่านั้น และไม่ต้องจ่ายเพิ่มให้ผู้ขับรถ ในตอนเริ่มต้น Walmart จะทดลองใช้ Uber ที่เมือง Phoenix และ Lyft ที่เมือง Denver ก่อน และคาดว่าน่าจะเริ่มทดลองได้ภายใน 2 สัปดาห์ข้างหน้า ที่มา - Walmart, BGR    ", 
  "Date": "4/June/2016", 
  "Image-Link": [
    "https://www.blognone.com/sites/default/files/styles/thumbnail/public/topics-images/walmart.png?itok=WcVkpdXc", 
    "http://i.cubeupload.com/RHClyS.jpeg", 
    "/sites/all/themes/blognone42/images/linebutton.png"
  ], 
  "Link": "https://www.blognone.com/node/81842", 
  "News": "Walmart จับมือ Uber, Lyft, Deliv เพื่อเป็นบริการส่งของถึงบ้านลูกค้า", 
  "Tags": [
    "Walmart", 
    "Uber", 
    "Lyft"
  ], 
  "Time": "07:23"
}