{
  "By": "nrad6949", 
  "Contents": " นอกจากแผนการบังคับให้อัพเดตเป็น Windows 10 แล้ว Microsoft ยังออกมาเปิดเผยในงานสัมมนา WinHEC ว่าบริษัทจะเพิ่มจำนวน Promoted apps (แอพที่มีข้อตกลงกับไมโครซอฟท์ หรือซื้อตำแหน่งโฆษณาเอาไว้แสดงแอพ) จากปัจจุบันที่มีเพียง 5 แอพ กลายเป็น 10 แอพ ตามแผนการนี้ จะมีทั้งแอพที่ถูกติดตั้งเอาไว้แล้ว (ตัวอย่างเช่น Candy Crush) และแอพที่แสดงเป็น Live Tile เอาไว้ เมื่อผู้ใช้คลิกเข้าไปสามารถดาวน์โหลดได้โดยตรง แต่ยังไม่หมดแค่นั้น เพราะนอกจากจะแสดงเป็น Live Tile แล้ว ยังแสดงในหน้า Apps list (All apps) และ Lock screen ของผู้ใช้งานด้วย ใครที่รำคาญสามารถลบแอพจากเครื่องออกไปได้ หรือถ้าอยากเอาให้มั่นใจสามารถตั้งค่าได้จาก Group policy console ครับ ที่มา - Microsoft ผ่าน Engadget    ", 
  "Date": "17/May/2016", 
  "Image-Link": [
    "https://www.blognone.com/sites/default/files/styles/thumbnail/public/topics-images/Windows_logo_Cyan_rgb_D.png?itok=bKOyx4bD", 
    "https://i.imgur.com/vm9EPDn.png", 
    "/sites/all/themes/blognone42/images/linebutton.png"
  ], 
  "Link": "https://www.blognone.com/node/81102", 
  "News": "Microsoft ระบุ อัพเดตหน้าของ Windows 10 จะเพิ่มจำนวน Promoted apps เป็น 10 แอพ", 
  "Tags": [
    "Windows 10", 
    "Microsoft", 
    "Advertising"
  ], 
  "Time": "20:41"
}