{
  "By": "mk", 
  "Contents": " แอปเปิลเปลี่ยนชื่อระบบปฏิบัติการ OS X เป็น macOS ตามข่าวลือก่อนหน้านี้ โดยให้เหตุผลว่าต้องการจัดระเบียบชื่อระบบปฏิบัติการของตัวเองให้เข้าชุดกับ iOS, tvOS, watchOS ด้วย ระบบปฏิบัติการ macOS รุ่นใหม่ใช้ชื่อรุ่นว่า Sierra ครับ ชื่อระบบปฏิบัติการชุดใหม่  ชื่อระบบปฏิบัติการชุดเดิม  ระบบปฏิบัติการใหม่    ", 
  "Date": "14/June/2016", 
  "Image-Link": [
    "https://www.blognone.com/sites/default/files/styles/thumbnail/public/topics-images/macos.png?itok=kMB5nTKs", 
    "http://i.imgur.com/dFRjc23.jpg", 
    "http://i.imgur.com/TX0G73A.jpg", 
    "http://i.imgur.com/rWLzvq9.jpg", 
    "/sites/all/themes/blognone42/images/linebutton.png"
  ], 
  "Link": "https://www.blognone.com/node/82211", 
  "News": "แอปเปิลเปลี่ยนชื่อ OS X เป็น macOS จัดระเบียบชื่อระบบปฏิบัติการ", 
  "Tags": [
    "macOS", 
    "OS X", 
    "Apple", 
    "Operating System"
  ], 
  "Time": "00:41"
}