{
  "By": "Pakin", 
  "Contents": " กูเกิลปรับโฉมเว็บไซต์ Google Fonts ใหม่เป็น Material Design โดยเปลี่ยนมาแสดงผลในรูปแบบตาราง ย้ายแถบเครื่องมือค้นหามาไว้ด้านขวาและกดซ่อนได้ มีตัวเลือกปรับสีหน้าเว็บระหว่างสีขาว, ดำ, น้ำเงิน, เหลือง และเป็น responsive รองรับทุกขนาดหน้าจอ นอกจากนี้ยังเพิ่มฟอนต์ภาษาไทยจากคัดสรรดีมากเข้ามาครบทั้ง 12 ชุด จากเดิมที่มีอยู่เพียง 3 ชุด (ข่าวเก่า) หน้าเว็บ Google Fonts ใหม่เปิดให้ใช้งานแล้ว โดยตอนนี้ต้องเข้าผ่าน fonts.google.com ถ้าเข้า google.com/fonts จะยังเป็นหน้าเว็บเก่าอยู่ครับ ที่มา - @Google Fonts  Check out our new look! Now browsing & choosing fonts is even easier: https://t.co/afFMTLBs3d #GoogleFonts pic.twitter.com/hd2EYembzy — Google Fonts (@googlefonts) June 14, 2016   ", 
  "Date": "15/June/2016", 
  "Image-Link": [
    "https://www.blognone.com/sites/default/files/styles/thumbnail/public/topics-images/Google_2015_logo.svg_.png?itok=bd4RvVLK", 
    "https://i.imgur.com/LzMFRFe.png", 
    "/sites/all/themes/blognone42/images/linebutton.png"
  ], 
  "Link": "https://www.blognone.com/node/82259", 
  "News": "Google Fonts ปรับหน้าเว็บเป็น Material Design, เพิ่มฟอนต์ภาษาไทย", 
  "Tags": [
    "Google", 
    "Font", 
    "Material Design"
  ], 
  "Time": "07:10"
}