{
  "By": "nutmos", 
  "Contents": " Twitter กำลังทดสอบการเพิ่มเนื้อหาจาก Moments ลงบน Timeline โดยตรง โดยตอนนี้ในประเทศที่เปิดให้ใช้งาน Moments มีผู้ใช้กลุ่มเล็กๆ เริ่มได้เห็น Moments แสดงขึ้นมาบน Timeline ทั้งแอพบน iOS และ Android แต่ยังไม่มีการแสดงบนหน้าเว็บ Twitter.com เนื้อหาจาก Moments ที่แสดงบน Timeline จะคล้ายๆ กับการแสดง While You Were Away คือกล่อง Recommend Moments โดยสามารถแตะเพื่อแสดงเนื้อหาของ Moments เพิ่มเติม ตัวกล่องสามารถกดปิดได้ และกล่องนี้จะแสดงน้อยลงเมื่อใช้งาน Twitter นานขึ้น Engadget ได้สอบถามไปยังโฆษกของ Twitter และได้รับการยืนยันว่ากำลังทดสอบอยู่จริง ที่มา - Engadget   ", 
  "Date": "11/June/2016", 
  "Image-Link": [
    "https://www.blognone.com/sites/default/files/styles/thumbnail/public/topics-images/twitter300.png?itok=DkxsrWCR", 
    "/sites/all/themes/blognone42/images/linebutton.png"
  ], 
  "Link": "https://www.blognone.com/node/82140", 
  "News": "Twitter กำลังทดสอบการเพิ่มเนื้อหาจาก Moments ลงบน Timeline", 
  "Tags": [
    "Twitter"
  ], 
  "Time": "07:20"
}