{
  "By": "mk", 
  "Contents": " Anna Fang ซีอีโอของ ZhenFund บริษัท Venture Capital ของจีน ขึ้นเวทีงานสัมมนา Converge ของหนังสือพิมพ์ Wall Street Journal ที่ฮ่องกง พิธีกรถามเธอว่าถ้ารัฐบาลจีนอยากให้นวัตกรรมเติบโตขึ้น 10 เท่า และสามารถทำได้เรื่องเดียว รัฐบาลควรทำอย่างไร คำตอบของ Anna คือขอให้รัฐบาลอยู่เฉยๆ (stay away) จะดีที่สุด เธอยกตัวอย่างกรณีการกู้เงินแบบ P2P (P2P lending) ซึ่งรัฐบาลไม่เข้ามายุ่งเกี่ยวหรือกำกับดูแลเป็นระยะเวลาหนึ่ง ผลออกมาดีเพราะปล่อยให้ตลาดจัดการตัวเอง เธอยังวิจารณ์ระบบการศึกษาของจีนว่ายังไม่เตรียมคนให้พร้อมรับความไม่แน่นอน (uncertainty) ซึ่งเป็นสิ่งที่สตาร์ตอัพต้องพบเจอ วัฒนธรรมเอเชียยังไม่สอนให้คนยอมรับความผิดพลาด ซึ่งต่างจากวัฒนธรรมในซิลิคอนวัลเลย์ อย่างไรก็ตาม ในอีก 5 ปีข้างหน้า สถานการณ์น่าจะดีขึ้น เพราะผู้ประกอบการหลายคนจะเริ่มกิจการที่สองของตัวเอง ซึ่งมีประสบการณ์ผ่านความผิดพลาดในรอบแรกมามากแล้ว ที่มา - Wall Street Journal, ภาพจาก ZhenFund    ", 
  "Date": "10/June/2016", 
  "Image-Link": [
    "https://www.blognone.com/sites/default/files/styles/thumbnail/public/news-thumbnails/zhenfund.png?itok=tmD-LR7Z", 
    "https://i.imgur.com/4IMX9ex.jpg", 
    "/sites/all/themes/blognone42/images/linebutton.png"
  ], 
  "Link": "https://www.blognone.com/node/82087", 
  "News": "VC จีน ZhenFund บอกถ้าอยากส่งเสริมนวัตกรรม รัฐบาลควรอยู่เฉยๆ ", 
  "Tags": [
    "China", 
    "Venture Capital", 
    "Startup"
  ], 
  "Time": "08:26"
}