{
  "By": "mk", 
  "Contents": " Capcom เปิดตัว Resident Evil 7 โดยใช้ชื่อภาคว่า biohazard (เขียนด้วยตัว b เล็ก) ลง PS4, Xbox One และพีซี วางขาย 24 มกราคม 2017 การเปลี่ยนแปลงที่สำคัญของเกมภาคนี้คือเปลี่ยนจากมุมมองบุคคลที่สาม มาเป็นมุมมองบุคคลที่หนึ่ง (ถือเป็นครั้งแรกในซีรีส์ภาคหลัก) เกมจะนำผู้เล่นกลับไปยังรากเหง้าของซีรีส์คือ \"สำรวจแมนชั่นร้าง\" และความตื่นเต้นของฉากเปิดประตูเข้าไปยังห้องต่างๆ รูปแบบการนำเสนอยังเน้นความเหมือนจริง (photorealistic) และถ้ายังหลอนไม่พอ เกมก็รองรับการเล่นผ่าน PlayStation VR ตั้งแต่ต้นจนจบเกมด้วย Capcom บอกข้อมูลเกี่ยวกับเนื้อเรื่องของภาค 7 เพียงว่าเป็นเหตุการณ์ที่เกิดขึ้นหลังภาค 6 และเกิดขึ้นในชนบทของสหรัฐอเมริกา แต่ยังไม่ระบุว่าจะมีตัวละครของภาคเก่าๆ กลับมาหรือไม่ ตอนนี้ผู้เล่น PlayStation Plus สามารถดาวน์โหลดเดโม Resident Evil 7 Teaser: Beginning Hour มาเล่นได้ฟรี เกมเวอร์ชัน PS4 เปิดให้พรีออเดอร์แล้ว ที่มา - Capcom   ", 
  "Date": "15/June/2016", 
  "Image-Link": [
    "https://www.blognone.com/sites/default/files/styles/thumbnail/public/topics-images/resident-evil.jpeg?itok=L6tLowRL", 
    "/sites/all/themes/blognone42/images/linebutton.png"
  ], 
  "Link": "https://www.blognone.com/node/82264", 
  "News": "Resident Evil 7 biohazard กลับสู่แมนชั่นร้างสยองขวัญ เปลี่ยนเป็นมุมมองบุคคลที่หนึ่ง", 
  "Tags": [
    "Resident Evil", 
    "Games", 
    "Capcom"
  ], 
  "Time": "08:41"
}