{
  "By": "magnamonkun", 
  "Contents": " ที่งานแถลงข่าวของโซนี่เช้าวันนี้ Square Enix นำ Trailer ของเกม Final Fantasy XV ตัวใหม่มาให้ชมกัน โดย Trailer ตัวนี้จะเน้นแสดงให้เห็นถึงระบบการขี่นกโจโคโบะ ระบบการต่อสู้ (คนละตัวกับที่แสดงในงานไมโครซอฟท์) และระบบอื่นๆ ที่จะได้เล่นกันในตัวเกมของจริง ของแถมท้าย Trailer คือการประกาศเปิดตัว Final Fantasy XV: VR Experience หรือโหมด VR ให้กับ PlayStation VR โดยเฉพาะ ซึ่งโหมดนี้ผู้เล่นจะได้เล่นเป็น Prompto (Noctis กลายเป็น AI) และมีรูปแบบการบังคับเหมือนเกม FPS ทุกประการ ตัวเกมหลักจะวางขายก่อนในวันที่ 30 กันยายนตามที่ได้ประกาศไปเมื่อต้นปี ส่วนโหมด VR Square Enix ยังไม่ได้แจ้งว่าจะขายเพิ่มเป็น DLC หรือไม่อย่างไร และจะเปิดขายพร้อมกับการวางจำหน่าย PlayStation VR ในเดือนตุลาคมหรือไม่ ที่มา - PlayStation E3 Media Briefing    ", 
  "Date": "14/June/2016", 
  "Image-Link": [
    "https://www.blognone.com/sites/default/files/styles/thumbnail/public/topics-images/final-fantasy.png?itok=J1HjXnRX", 
    "//upic.me/i/n3/screenhunter_801_jun._13_21.48_1024.jpg", 
    "/sites/all/themes/blognone42/images/linebutton.png"
  ], 
  "Link": "https://www.blognone.com/node/82221", 
  "News": "Final Fantasy XV จะมีโหมด VR ให้เล่น", 
  "Tags": [
    "Final Fantasy", 
    "Games", 
    "Square Enix", 
    "PlayStation VR"
  ], 
  "Time": "09:01"
}