{
  "By": "twometre", 
  "Contents": " วงการฟินเทคสะเทือน เมื่อมีข่าวว่านักศึกษาจำนวนมากในจีนที่ใช้แพลตฟอร์มการกู้ยืมเงินออนไลน์ ใช้ภาพเปลือยของตัวเองที่กำลังถือหลักฐานประจำตัวเพื่อใช้เป็นเอกสารค้ำประกันในการยืมเงินแต่ละครั้ง ถ้าหากเบี้ยวชำระ ภาพนี้ก็จะถูกประจานทั่วโลกออนไลน์ การกู้ยืมเงินแบบนี้ สำนักข่าว Nandu Daily รายงานว่า เมื่อผู้กู้ส่งหลักฐานแบบดังกล่าวไป สามารถกู้ยืมเงินได้ถึง 15,000 หยวน (ประมาณ 80,300 บาท) แบ่งจ่ายสูงสุดได้ 36 เดือน ซึ่งยอดเงินที่กู้ยืมได้ก็แตกต่างกันไปตามประวัติการศึกษา โปรไฟล์ดียิ่งกู้ได้เยอะ ขณะเดียวกันก็มีบทสัมภาษณ์ของผู้กู้ที่ระบุว่า โดนดอกเบี้ยร้อยละ 30 ต่อสัปดาห์จากยอดกู้ 500 หยวนตั้งแต่เดือนกุมภาพันธ์ และเปิดเผยอีกว่ายังมีคนทำแบบนี้อีกมากแต่ไม่กล้าบอกใคร (ภาพประกอบอยู่ในที่มา) ที่มา - en.people.cn  ภาพประกอบ   ", 
  "Date": "15/June/2016", 
  "Image-Link": [
    "https://www.blognone.com/sites/default/files/styles/thumbnail/public/topics-images/china.png?itok=DbpIQN62", 
    "//upic.me/i/mx/euro-427533_640.jpg", 
    "/sites/all/themes/blognone42/images/linebutton.png"
  ], 
  "Link": "https://www.blognone.com/node/82267", 
  "News": "\"ค้ำประกันด้วยภาพเปลือย\" วิถีการยืมเงินบนโลกออนไลน์ของผู้ใช้ฝั่งจีน", 
  "Tags": [
    "China", 
    "FinTech"
  ], 
  "Time": "09:15"
}