{
  "By": "nutmos", 
  "Contents": " Firefox กำลังทดสอบฟีเจอร์ใหม่ คือฟีเจอร์การแสดงตัวตนที่แตกต่างกัน (different identities) ภายในเบราว์เซอร์เดียว เพื่ออำนวยความสะดวกให้ผู้ใช้สามารถล็อคอินบัญชีใน social network ค้างไว้ได้หลาย ๆ บัญชีโดยไม่ต้องใช้เบราว์เซอร์หลายตัว และป้องกันการติดตามโฆษณาได้ในระดับหนึ่ง ในฟีเจอร์ตัวตนที่แตกต่างกันของ Firefox นี้จะมี container tab มีตัวตนให้เลือก 4 แบบสำหรับใช้งานในแต่ละโอกาส (ส่วนตัว, ทำงาน, ช้อปปิ้ง, ทำธุรกรรมทางการเงิน) ซึ่งทุกแบบจะเก็บคุกกี้, IndexedDB, แคช และข้อมูลที่เก็บบนตัวเครื่องของตัวเอง แม้จะเปิดฟีเจอร์การแสดงตัวตนที่แตกต่างกัน Firefox ก็ยังคงใช้ข้อมูลหลายอย่างชุดเดียวกัน เช่น ประวัติการเข้าชุม, บุ๊คมาร์ก, รหัสผ่านที่บันทึกไว้ โดย Mozilla บอกว่าจะแยกกันเฉพาะข้อมูลที่เว็บเรียกใช้เท่านั้น ไม่ใช่ข้อมูลที่ผู้ใช้เรียก โดยตัวติดตามโฆษณาก็ยังคงเก็บข้อมูลบางอย่างได้อยู่ดี (เช่นที่อยู่ IP, ระบบปฏิบัติการ ฯลฯ) แม้ว่าจะเปิดใช้ฟีเจอร์นี้ ฉะนั้นฟีเจอร์นี้จะยังไม่ได้มาแทนที่ Tor Browser หรือเครื่องมือที่คล้าย ๆ กัน ตอนนี้ฟีเจอร์การแสดงตัวตนที่แตกต่างกันของ Firefox เปิดให้ทดลองใช้ใน Firefox Nightly แล้ว ที่มา - TechCrunch, Mozilla   ", 
  "Date": "18/June/2016", 
  "Image-Link": [
    "https://www.blognone.com/sites/default/files/styles/thumbnail/public/topics-images/firefox-big.png?itok=LaZCF5df", 
    "/sites/all/themes/blognone42/images/linebutton.png"
  ], 
  "Link": "https://www.blognone.com/node/82402", 
  "News": "Firefox เริ่มทดสอบฟีเจอร์การแสดงตัวตนที่แตกต่างกันในเบราว์เซอร์เดียว", 
  "Tags": [
    "Firefox"
  ], 
  "Time": "11:18"
}