{
  "By": "tanersirakorn", 
  "Contents": " บริษัท Space Data ยื่นฟ้องบริษัท Alphabet บริษัทแม่ของ Google ฐานที่แล็บ Google X ขโมยเทคโนโลยีของบริษัทไปใช้ในบอลลูนกระจายอินเทอร์เน็ต Project Loon Space Data ยื่นคำฟ้องต่อศาล U.S. District Court for Northern California โดยกล่าวว่า Google ใช้ข้อมูลลับที่ Space Data เคยแบ่งกับ Google ภายใต้ข้อตกลงความลับร่วมและเซ็น NDA (เอกสารตกลงไม่เปิดเผยความลับ) เมื่อปี 2550 Space Data ยังกล่าวว่า Google ละเมิดสิทธิบัตรสองชิ้นของบริษัทสองชิ้นชื่อ Airborne constellation of communications platforms and method และ Unmanned lighter-than-air safe termination and recovery methods. ตัวแทน Space Data กล่าวว่า \"Space Data ทุ่มเทเวลา กำลัง และทรัพย์จำนวนมากในการที่จะทำให้บริษัทมั่นใจได้ว่าข้อมูลของบริษัทจะไม่ถูกเปิดเผยหรือทำให้เข้าถึงได้จากสาธารณะ พร้อมกับสงวนและรักษาความลับและความลับทางการค้าของบริษัท\" และเพิ่มเติมว่าบริษัทได้รับอภิสิทธิ์และกำไรทางธุรกิจจำนวนมากจากความลับของบริษัท ตัวแทนของ Google ยังไม่ออกมาแสดงความคิดเห็น ที่มา: ZDNet   ", 
  "Date": "17/June/2016", 
  "Image-Link": [
    "https://www.blognone.com/sites/default/files/styles/thumbnail/public/topics-images/loon.png?itok=ndt-C3ht", 
    "/sites/all/themes/blognone42/images/linebutton.png"
  ], 
  "Link": "https://www.blognone.com/node/82366", 
  "News": "Google ถูกฟ้อง ฐานขโมยเทคโนโลยีไปใช้ใน Project Loon", 
  "Tags": [
    "Google", 
    "Project Loon", 
    "Lawsuit"
  ], 
  "Time": "11:22"
}