{
  "By": "trinakub", 
  "Contents": " เกม MMORPG ที่มีจุดเด่นด้านอิสระในการบิน Revelation Online พัฒนาโดย Pangu Creator Studio จะถูกนำเข้ามายังโลกตะวันตกโดยตัวแทนจำหน่าย My.Com โดยจะเปิดทดสอบ Closed Beta เร็ว ๆ นี้ เกม Revelation Online จะนำเสนอรูปแบบของโหมด PvP ที่มีมากมายหลากหลายรูปแบบ ตั้งแต่ดวลตัวต่อตัวไปจนถึงการทำสงครามที่มีผู้เล่นเข้าร่วมนับร้อยคน ในด้านของ PvE ก็มีดันเจี้ยนที่ต้องใช้ความเป็นทีมเวิร์คของผู้เล่นและกลยุทธ์ต่าง ๆ ในการพิชิตดันเจี้ยน แต่สิ่งที่เป็นจุดเด่นที่สุดของเกมคือความสามารถในการบิน ผู้เล่นจะสามารถบินได้อย่างเป็นอิสระ สามารถผจญภัยไปได้ทุกที่ภายใต้โลก Nuanor ซึ่งผู้เล่นจะต้องใช้ความสามารถนั้นในการไขความลับ และค้นหาความจริงถึงปริศนาของวัตถุโบราณที่ซุกซ่อนอยู่บนโลกแห่ง Nuanor นี้ ความสามารถในการบินภายในเกมไม่ได้ใช้สำหรับการเดินทางเท่านั้น ยังสามารถใช้ในการต่อสู้กลางอากาศได้ และใช้เข้าร่วมอีเว้นท์พิเศษต่าง ๆ ภายในเกม เช่น บุกตะลุยปราสาทลอยฟ้า หรือท้าประลองพิชิตดันเจี้ยนภายในเกม ซึ่งรองรับได้ 5 หรือ 10 คน  ผู้เล่นยังสามารถสัมผัสประสบการณ์ในการต่อสู้กับผู้เล่นอื่น ๆ ด้วยกันได้ โดยภายในเกมจะใช้ระบบ PvP แบบ Open World ซึ่งก็คือทุกที่บนโลกคือสนามต่อสู้นั่นเอง (ขั้นต่ำต้องเลเวล 40 ขึ้นไป) หรือผู้เล่นจะสามารถท้าดวลกับผู้เล่นอื่นแบบตัวต่อตัวก็ได้เช่นกัน (Duel) ระบบ PvP ของเกมยังมีสนามรบจำลอง (Battlegrounds) สนามท้าประลอง (Arena) ตีบุกยึดปราสาท (Castle Seiges) และสงครามแย่งชิงดินแดน (Territorial Wars) ซึ่งทางผู้พัฒนาเองได้สัญญาไว้ว่าจะเพิ่มระบบ PvP แบบ 10 ต่อ 10, 20 ต่อ 20 และ 30 ต่อ 30 เข้ามาภายในเกมด้วย รวมถึงทำระบบสงครามที่สามารถรองรับผู้เล่นข้ามเซิร์ฟเวอร์ได้ถึงพันกว่าคนด้วยกัน  หากสนใจ สามารถสมัครเพื่อเข้าร่วมทดลองเกมในช่วง Closed Beta ได้ที่ ro.my.com ที่มา – siliconera    ", 
  "Date": "11/June/2016", 
  "Image-Link": [
    "https://www.blognone.com/sites/default/files/styles/thumbnail/public/news-thumbnails/Revelation%20Online%20Logo.png?itok=Az7THOEx", 
    "http://i.imgur.com/BKxELe1.jpg", 
    "http://i.imgur.com/QYAQvKU.png", 
    "http://i.imgur.com/oKboxZT.jpg", 
    "/sites/all/themes/blognone42/images/linebutton.png"
  ], 
  "Link": "https://www.blognone.com/node/82145", 
  "News": "เกม Revelation Online เตรียมนำเข้าสู่โซนตะวันตก พร้อมเทรลเลอร์เปิดตัว", 
  "Tags": [
    "Revelation Online", 
    "Games", 
    "MMORPG", 
    "Pangu Creator Studio", 
    "My.Com"
  ], 
  "Time": "11:46"
}