{
  "By": "sunnywalker", 
  "Contents": " Wall Street Journal รายงานว่า Facebook ประกาศตั้งบอร์ด 5 คน เป็นผู้เชี่ยวชาญด้านกฎหมายและจริยธรรม หน้าที่คือ ประเมินผลกระทบที่เกิดขึ้นจากการวิจัย จากในปี 2014 Facebook เก็บข้อมูลจากผู้ใช้เพื่อทำการวิจัยความสัมพันธ์ระหว่างเนื้อหาและความรู้สึกของผู้ใช้ เหตุการณ์ครั้งนั้นถูกตั้งคำถามและวิพากษ์วิจารณ์กันว่า Facebook ล้มเหลวเรื่องจริยธรรมในการทำวิจัย ที่สำคัญนำข้อมูลของผู้ใช้ไปใช้โดยไม่ได้รับอนุญาต ที่มา - FastCompany  ภาพจาก วิกิพีเดีย   ", 
  "Date": "15/June/2016", 
  "Image-Link": [
    "https://www.blognone.com/sites/default/files/styles/thumbnail/public/topics-images/fb-500.png?itok=7KEmyKx1", 
    "http://i.imgur.com/XXGfhlB.jpg", 
    "/sites/all/themes/blognone42/images/linebutton.png"
  ], 
  "Link": "https://www.blognone.com/node/82281", 
  "News": "Facebook ตั้งบอร์ดประเมินผลกระทบจากวิจัย ตรวจสอบการนำข้อมูลส่วนตัวไปใช้งาน", 
  "Tags": [
    "Facebook", 
    "Research", 
    "Privacy"
  ], 
  "Time": "12:03"
}