{
  "By": "trinakub", 
  "Contents": " หลังจากเกม Halo 5: Guardians เปิดตัวบน Xbox One ในเดือนตุลาคม 2015 ที่ผ่านมา ก็มีข่าวลือออกมาเป็นจำนวนมากว่าจะพอร์ตลง PC ด้วย และคาดว่าจะเปิดตัวที่งาน E3 นี้ ล่าสุดตัวแทนจาก Microsoft ประกาศออกมาแล้วว่ายังไม่มีแผนการนำ Halo 5: Guardians มาลง PC “สิ่งที่เราต้องการคือนำเสนอความอลังการของ Halo บน PC แบบเฉพาะมากกว่า อย่างเช่นภาค Halo Wars 2 และภาค Halo 5: Forge ดังนั้นเราจึงไม่มีแผนนำ Halo 5: Guardians มาลง PC ณ ตอนนี้” ถึงจะปฏิเสธการพอร์ต Halo 5: Guardians ลง PC ไปแล้ว แต่ทาง Microsoft ก็เคยพูดว่า “Windows 10 จะเป็นสิ่งที่ช่วยให้แฟรนไชส์ Halo สามารถเดินหน้าต่อไปได้” ดังนั้นแฟน ๆ Halo บน PC คงพอวางใจได้ ทาง Microsoft จะไม่ทอดทิ้ง PC ไปอย่างแน่นอน ที่มา – GameSpot    ", 
  "Date": "12/June/2016", 
  "Image-Link": [
    "https://www.blognone.com/sites/default/files/styles/thumbnail/public/news-thumbnails/halo-logo.jpg?itok=knPjzdTH", 
    "http://i.imgur.com/7eCnipy.jpg", 
    "/sites/all/themes/blognone42/images/linebutton.png"
  ], 
  "Link": "https://www.blognone.com/node/82161", 
  "News": "Microsoft กลบข่าวลือ Halo 5: Guardians ไม่มีแผนทำลง PC แน่นอน", 
  "Tags": [
    "Halo", 
    "Games", 
    "Microsoft"
  ], 
  "Time": "12:11"
}