{
  "By": "nismod", 
  "Contents": " Sony เผยโฉมเทรลเลอร์เกมเพลย์ของ God of War ภาคใหม่ โดยใช้ชื่อว่า God of War เฉยๆ ไม่มีชื่อภาค และคราวนี้จะเดินเรื่องตามตำนานนอร์ส ในแถบสแกดิเนเวีย พร้อมเปลี่ยนโลโก้ตัวโอเมก้าตรงกลาง ให้กลายเป็นวงกลมและอักษรรูนครับ เทรลเลอร์เผยให้เห็น Kratos ที่แก่ตัวลงและมีหนวดเคราพร้อมลูก (?) ออกไล่ล่าสัตว์และต่อสู้กับ Minotaur ซึ่งไม่ทราบเหมือนกันว่าเนื้อเรื่องจะแถให้เชื่อมโยงหลังจบ God of War 3 ได้อย่างไร อย่างไรก็ตามยังคงไม่มีรายละเอียดอื่นๆ เกี่ยวกับตัวเกมออกมา รวมถึงวันวางครับ ที่มา - IGN, PlayStation    ", 
  "Date": "14/June/2016", 
  "Image-Link": [
    "https://www.blognone.com/sites/default/files/styles/thumbnail/public/topics-images/ps4-logo.png?itok=b1ktDHre", 
    "https://c5.staticflickr.com/8/7543/27382744060_db86366afc_z.jpg", 
    "/sites/all/themes/blognone42/images/linebutton.png"
  ], 
  "Link": "https://www.blognone.com/node/82232", 
  "News": "Sony เปิดตัว God of War ภาคใหม่ เมื่อ Kratos ข้ามไปตีกับเทพนอร์ส", 
  "Tags": [
    "PS4", 
    "Games", 
    "Sony"
  ], 
  "Time": "13:00"
}