{
  "By": "mk", 
  "Contents": " ไมโครซอฟท์ออกมาโชว์ความสามารถใหม่ของ Visual Studio 15 รุ่นถัดไป ว่าจะสามารถแยกโมดูลของโปรแกรม และติดตั้งโมดูลเท่าที่จำเป็นต้องใช้งานเพื่อประหยัดพื้นที่ (ตัวแกนของ Visual Studio 15 มีขนาดเพียง 320MB) และเพื่อให้การติดตั้งสะดวกยิ่งขึ้น ไมโครซอฟท์จึงจัดชุดการติดตั้งสำหรับการพัฒนาโปรแกรมแต่ละแนว โดยเรียกว่า stack หรือ workload เบื้องต้นมีทั้งหมด 17 ประเภท ใครใช้งานแบบไหนก็คลิกทีเดียว ติดตั้งเฉพาะส่วนที่ต้องการใช้งานได้ทันที (มีทั้งเทคโนโลยีของไมโครซอฟท์เอง ไปจนถึงเทคโนโลยีของบริษัทอื่นอย่าง Python, Node.js, Cordova)  Universal Windows Platform development Web development (incl. ASP.NET, TypeScript, Azure tooling) Windows desktop app development with C++ Cross-platform mobile development with .NET (incl. Xamarin) .NET desktop application development Linux and IoT development with C++ Cross-platform mobile development with Cordova Mobile app development with C++ (incl. Android, iOS) Office / SharePoint add-in development Python web development (incl. Django and Flask support) Data science and analytical applications (incl. R, F#, Python) Node.js development Cross-platform game development (incl. Unity) Native Windows game development (incl. DirectX) Data storage and processing (incl. SQL, Hadoop, Azure ML) Azure cloud services development and management Visual Studio extension development  หน้าจอติดตั้ง workload จะเป็นดังภาพ ติ๊กถูกทีเดียวก็ได้ใช้งาน workload ที่ต้องการเลย ไม่ต้องติดตั้งไฟล์ประเภทอื่นๆ มาให้เปลืองพื้นที่  ที่มา Visual Studio Blog   ", 
  "Date": "18/June/2016", 
  "Image-Link": [
    "https://www.blognone.com/sites/default/files/styles/thumbnail/public/topics-images/visual-studio.png?itok=4xhSPRT6", 
    "http://i.imgur.com/cf57yMq.png", 
    "/sites/all/themes/blognone42/images/linebutton.png"
  ], 
  "Link": "https://www.blognone.com/node/82406", 
  "News": "ประหยัดพื้นที่บนดิสก์ Visual Studio รุ่นหน้า สามารถติดตั้งเฉพาะโมดูลที่ใช้งานได้แล้ว", 
  "Tags": [
    "Visual Studio", 
    "Microsoft", 
    "Development"
  ], 
  "Time": "14:44"
}