{
  "By": "mk", 
  "Contents": " Injustice: Gods Among Us เป็นเกมไฟติ้งโดยใช้ฮีโร่ของค่าย DC ที่ออกในปี 2013 และประสบความสำเร็จทั้งรายได้และเสียงวิจารณ์ (พัฒนาโดย NetherRealm Studios บริษัทเดียวกับที่ทำ Mortal Kombat ภาครีบูต) ปีนี้ Injustice 2 ได้ฤกษ์เปิดตัว (เกมลง PS4/Xbox One โดยวางขายปี 2017) และทางต้นสังกัดก็เริ่มปล่อยเทรลเลอร์แสดงเกมเพลย์ออกมาแล้ว ตัวละครในภาค Injustice 2 ที่เปิดเผยมีทั้งตัวละครเก่า Superman, Batman, Flash, Aquaman และตัวละครใหม่อย่าง Supergirl, Gorilla Grodd (ศัตรูของ Flash), Atrocitus (ศัตรูของ Green Lantern)  เทรลเลอร์เปิดตัวเกม เทรลเลอร์แสดงเกมเพลย์ ที่มา - Gamespot   ", 
  "Date": "12/June/2016", 
  "Image-Link": [
    "https://www.blognone.com/sites/default/files/styles/thumbnail/public/news-thumbnails/injustice.png?itok=83WS69-H", 
    "https://i.imgur.com/41gmTYW.jpg", 
    "/sites/all/themes/blognone42/images/linebutton.png"
  ], 
  "Link": "https://www.blognone.com/node/82164", 
  "News": "Injustice 2 เกมต่อสู้ของฮีโร่ค่าย DC เปิดตัวเทรลเลอร์ กำหนดออกปี 2017", 
  "Tags": [
    "Games", 
    "Injustice", 
    "Warner Bros."
  ], 
  "Time": "15:01"
}