{
  "By": "trinakub", 
  "Contents": " จากข่าววันก่อนที่เด็กไทยสามารถคว้าแชมป์จากต่างประเทศ กลับบ้านพร้อมเงินรางวัล 1.5 ล้านบาท ถึงวันนี้ ทีม Signature.Trust ได้ไปออกรายการ Levelup HQ เล่าประสบการณ์ยกระดับวงการ E-sport ประเทศไทยในเกม Dota2 พร้อมเส้นทางสู่การเป็นนักกีฬา E-sport มืออาชีพ Signature เป็นหนึ่งในสโมสรเกมที่ใหญ่ที่สุดในประเทศไทย มีทีมเกม ผู้เล่นมืออาชีพ ทีมงาน พร้อมนักพากย์เกมที่มีความสามารถอย่างมากกว่า 20 ชีวิตภายใต้สังกัดนี้ ไม่ว่าจะเป็น Signature.Trust จากเกม (Dota2), Signature.PB จากเกม (Pointblank), Signature.CSGO จากเกม (CsGO), และ Signature.Tafz จากเกม (Special Force 2) และยังมี Signature Academy สำหรับฝึกหัดเด็กใหม่เพื่อขึ้นมาเป็นมืออาชีพอีกด้วย วันนี้ผมนำคลิปที่น้องๆ ทีม Signature.Trust (ทีมจากเกม Dota2) ที่เพิ่งกลับมาพร้อมเงินรางวัลมูลค่า 1.5 ล้านบาท ได้มาออกรายการ Levelup Hq เพื่อบอกเล่าถึงชีวิตการเป็นเกมเมอร์ และประสบการณ์มากมายของพวกเขานั่นเองครับ ที่มา - LevelupHQ   ", 
  "Date": "17/June/2016", 
  "Image-Link": [
    "https://www.blognone.com/sites/default/files/styles/thumbnail/public/news-thumbnails/333333.jpg?itok=GgLv3FhJ", 
    "/sites/all/themes/blognone42/images/linebutton.png"
  ], 
  "Link": "https://www.blognone.com/node/82343", 
  "News": "ทีม Signature.Trust Dota2 กับเส้นทางนักกีฬา E-sport มืออาชีพในประเทศไทย", 
  "Tags": [
    "Dota2", 
    "eSport", 
    "Games"
  ], 
  "Time": "16:04"
}