{
  "By": "vvkungx", 
  "Contents": " Facebook Messenger เตรียมปรับเปลี่ยนดีไซน์ของแอพใหม่อีกครั้ง โดยเปิดแอพครั้งแรก จะพบแท็บหน้าหลักที่เพิ่มเข้ามาใหม่ ซึ่งจะแสดงรายชื่อผู้ใช้ที่กำลังออนไลน์, แจ้งเตือนวันเกิดและรายชื่อผู้ใช้ที่เรากดชื่นชอบไว้ ส่วนแท็บอื่นๆ ประกอบไปด้วยโทร, กลุ่ม, รายชื่อเพื่อนและโปรไฟล์ของผู้ใช้เองตามลำดับ โดยก่อนหน้านี้เมื่อเปิดใช้แอพจะแสดงห้องสนทนาล่าสุดเท่านั้น การปรับเปลี่ยนดีไซน์ในครั้งนี้ Facebook หวังให้เข้าถึงผู้ใช้บน Facebook ของตัวเองได้อย่างรวดเร็ว จนเกิดการสนทนากันในแอพอย่างต่อเนื่องและสร้างแนวทางให้แอพ Messenger มากขึ้นนั่นเอง ที่มา : The Next Web    ", 
  "Date": "16/June/2016", 
  "Image-Link": [
    "https://www.blognone.com/sites/default/files/styles/thumbnail/public/topics-images/messenger-500.png?itok=We0tzOrE", 
    "//upic.me/i/mp/asset-4-796x408.png", 
    "/sites/all/themes/blognone42/images/linebutton.png"
  ], 
  "Link": "https://www.blognone.com/node/82347", 
  "News": "แอพ Facebook Messenger เตรียมเพิ่มแท็บหน้าหลัก, แจ้งเตือนวันเกิดและรายชื่อที่ชื่นชอบ", 
  "Tags": [
    "Facebook Messenger", 
    "Facebook"
  ], 
  "Time": "22:01"
}