{
  "By": "ตะโร่งโต้ง", 
  "Contents": " ในงาน Lenovo Tech World 2016 ที่ผ่านพ้นไปเมื่อคืนนี้ Peter Hortensius ประธานบริหารฝ่ายเทคนิคและรองประธานอาวุโสของ Lenovo ได้ขึ้นพูดบนเวทีในเรื่องนวัตกรรมการคิดค้นใหม่เกี่ยวกับผลิตภัณฑ์สมาร์ทโฟน และสิ่งที่ดูจะเรียกความสนใจจากผู้ร่วมงานและสื่อได้มากที่สุดในช่วงดังกล่าวคงเป็น CPlus สมาร์ทโฟนหน้าจอ 4.26 นิ้ว ที่โค้งงอดัดพันข้อมือจนใช้เป็นนาฬิกาได้ CPlus เป็นเครื่องต้นแบบที่ถูกนำมาโชว์ในงานว่าสมาร์ทโฟนดัดงอจอโค้งได้นั้นเป็นไปได้จริงในด้านการผลิต ตัวสมาร์ทโฟนสามารถรับรู้ได้ว่ามันถูกจับดัดโค้งอยู่ หรือกำลังอยู่ในทรงยืดเหยียดตรงตามปกติ ซึ่งเรื่องนี้จะมีผลให้การแสดงตำแหน่งไอคอน, การแจ้งเตือน และส่วนติดต่อผู้ใช้งานต่างๆ ถูกปรับตำแหน่งให้เหมาะสมต่อการมองเห็นและสั่งการแตกต่างกันไป นอกจากนี้ Lenovo ยังโชว์ Folio แท็บเล็ตที่หน้าจอสามารถพับครึ่งได้ โดยมีการสาธิตยกตัวอย่างสลับการใช้งานเป็นแท็บเล็ตเพื่อดูภาพถ่ายด้วยหน้าจอขนาดใหญ่ จากนั้นก็พับครึ่ง Folio ให้มีขนาดเล็กลงเหมาะแก่การถือด้วยมือเดียวเพื่อใช้งานสนทนาโทรศัพท์ ซึ่งในขณะที่ตัวมันถูกพับครึ่งนั้น Folio จะปรับส่วนติดต่อผู้ใช้งานให้สัมพันธ์กับขนาดหน้าจอที่เปลี่ยนแปลงไปด้วย ในตอนนี้ทั้ง CPlus และ Folio นั้นยังเป็นเพียงอุปกรณ์ต้นแบบที่ถูกสร้างมาเพื่อโชว์ในงานเท่านั้น Lenovo ยังไม่ยืนยันว่าจะพัฒนามันออกมาเป็นสินค้าจริงเมื่อไหร่ ที่มา - CNET, Engadget   ", 
  "Date": "10/June/2016", 
  "Image-Link": [
    "https://www.blognone.com/sites/default/files/styles/thumbnail/public/topics-images/lenovo.png?itok=fPVji8qa", 
    "/sites/all/themes/blognone42/images/linebutton.png"
  ], 
  "Link": "https://www.blognone.com/node/82134", 
  "News": "แค่หน้าจอโค้งงอได้ยังไม่ค่อยตื่นตา Lenovo โชว์เหนือกว่ากับสมาร์ทโฟนงอพันข้อมือได้", 
  "Tags": [
    "Lenovo", 
    "Smartphone"
  ], 
  "Time": "23:06"
}