{
  "By": "nismod", 
  "Contents": " ตลาดอุปกรณ์สวมใส่ดูจะยังคงมีอนาคตสดใสไปอีกหลายปี IDC คาดการณ์ว่าปีนี้ ยอดส่งมอบอุปกรณ์สวมใส่อาจสูงถึงกว่า 101.9 ล้านชิ้น ซึ่งเพิ่มขึ้นจากปีที่แล้วถึง 29% และคาดว่าตลาดอุปกรณ์สวมใส่จะยังคงเติบโตขึ้นในอีก 2-3 ปีข้างหน้าอีกประมาณ 20% โดยยอดส่งมอบในปี 2020 น่าจะอยู่ที่ประมาณ 213.6 ล้านชิ้น อุปกรณ์สวมใส่บนข้อมือด้านสุขภาพ อย่างของ FitBit และ Jawbone ปัจจุบันครองส่วนแบ่งได้มากกว่า 50% ขณะที่อีกราว 40% ตกลงเป็นนาฬิกาอัจฉริยะ แต่ IDC คาดว่าในภาย 2020 สัดส่วนดังกล่าวจะสลับกัน นาฬิกาอัจฉริยะจะขึ้นมาครองส่วนแบ่งตลาดที่ราว 52% ขณะที่อุปกรณ์ด้านสุขภาพจะลดลงไปอยู่ที่ราว 28.5% นอกจากนี้ IDC คาดด้วยว่าอุปกรณ์อัจฉริยะอย่างแว่นตาและเครื่องนุ่งห่มต่างๆ จะมีส่วนแบ่งตลาดเพิ่มขึ้นอยู่ที่ประมาณ 8.8% และ 7.3% ตามลำดับในปี 2020 เช่นกัน โดยปัจจุบันส่วนแบ่งตลาดของทั้งคู่มีไม่ถึง 1% ที่มา - CNET   ", 
  "Date": "17/June/2016", 
  "Image-Link": [
    "https://www.blognone.com/sites/default/files/styles/thumbnail/public/topics-images/logo-idc.png?itok=Xd-1G05W", 
    "/sites/all/themes/blognone42/images/linebutton.png"
  ], 
  "Link": "https://www.blognone.com/node/82383", 
  "News": "IDC คาดปีนี้ยอดส่งมอบอุปกรณ์สวมใส่จะเพิ่มขึ้นปีที่แล้ว 29%, เติบโตคงที่ถึง 2020", 
  "Tags": [
    "IDC", 
    "Wearable Computing"
  ], 
  "Time": "16:05"
}