{
  "By": "trinakub", 
  "Contents": " รายการใหญ่ที่สุดรายการนึงของ Valve นั้นก็คือรายการ Manila Major ที่จะถูกจัดขึ้นที่กลางกรุงมะนิลา ประเทศ ฟิลิปปินส์ 16 ทีมที่เก่งที่สุดในโลกมาแข่งขันกันในรายการนี้ ได้ถูกแบ่งสายเข้า Group ต่างๆเรียบร้อย โดยทุกทีมจะแข่งกันในระบบพบกันหมดภายในกลุ่ม เพื่อแบ่งหาทีมวางในรอบ Grand Final นั่นเอง  ในขณะที่ทุก Group เป็น Group ที่น่าสนใจทั้งนั้น ... แต่ก็ยังมีอยู่ Group นึงที่ดูเหมือนจะโหดกว่า Group อื่นๆ เพราะรวมทีมเต็งๆไปอยู่ Group นั้นซะเกือบหมดอย่าง Group B ที่ประกอบไปด้วย ทีม Wings Gaming , Digital Chaos , Team Secret , Natas Vincere อีกทั้ง ในขณะที่ Team Secret ยังหา Balance ของทีมตัวเองอยู่ ทีม Digital Chaos ก็ขึ้นมาครองอันดับ Top ของ North America ไปแล้ว .... รายการนี้จะเป็นรายการพิสูจน์ตัวเองของ Secret รึปล่าว ?  ใครเป็นแฟนทีมไหนก็ตามเชียร์พวกเขาได้ในการแข่งขัน Manila Major นะครับ  ที่มา - Gosugamers   ", 
  "Date": "29/May/2016", 
  "Image-Link": [
    "https://www.blognone.com/sites/default/files/styles/thumbnail/public/news-thumbnails/14.jpg?itok=aUUlKlWd", 
    "http://i.imgur.com/E7JkDS4.jpg", 
    "http://i.imgur.com/5g2lrtG.jpg", 
    "/sites/all/themes/blognone42/images/linebutton.png"
  ], 
  "Link": "https://www.blognone.com/node/81573", 
  "News": "[Dota2] รายการ Manila Major ประกาศสายกลุ่มเรียบร้อย DC , Secret , Navi อยู่ Group เดียวกัน !", 
  "Tags": [
    "eSport"
  ], 
  "Time": "14:40"
}