{
  "By": "BlackMiracle", 
  "Contents": " เมื่อซัมซุงกำลังพยายามสร้างอารยธรรมโดยการเปิดตัวเมโมรีการ์ดแบบใหม่ในชื่อ UFS สิ่งที่ตามมาคือคำถามว่า \"แล้วใครจะเอาด้วย?\" ซัมซุงจึงต้องพัฒนาสล็อตอ่านการ์ดแบบใหม่ที่รองรับทั้ง UFS ของตน และ microSD ที่เป็นที่แพร่หลาย ซัมซุงเปิดเผยว่า \"การ์ด UFS แบบใหม่นี้ใช้กับสล็อตอ่าน microSD ไม่ได้ อย่างไรก็ตาม พวกเราได้พัฒนาสล็อตแบบใหม่ที่รองรับทั้ง UFS และ microSD โดยเรากำลังร่วมมือกับพาร์ทเนอร์หลายรายเพื่อดันให้พวกเขานำมันไปใช้ในอุปกรณ์ยุคถัดไป\" ทั้งนี้ ยังไม่มีข้อมูลว่าอุปกรณ์ใดจะเป็นตัวแรกที่รองรับการ์ด UFS หรือสล็อตแบบใหม่ดังกล่าว แต่ก็คงไม่น่าแปลกใจนักถ้า Galaxy Note 7 จะเป็นอุปกรณ์ตัวแรกที่มาพร้อมกับเทคโนโลยีใหม่นี้ Blognone ขอย้ำอีกทีว่า UFS ไม่ใช่ microSD นะครับ ที่มา - Droid Life    ", 
  "Date": "12/July/2016", 
  "Image-Link": [
    "https://www.blognone.com/sites/default/files/styles/thumbnail/public/topics-images/j8u2rhG1.jpg?itok=CJuE6qSo", 
    "https://c5.staticflickr.com/8/7350/28035769332_293797ca6b_z.jpg", 
    "/sites/all/themes/blognone42/images/linebutton.png"
  ], 
  "Link": "https://www.blognone.com/node/83294", 
  "News": "ซัมซุงเปิดตัวสล็อตอ่านการ์ดแบบใหม่ที่รองรับทั้ง UFS และ microSD", 
  "Tags": [
    "Samsung", 
    "UFS", 
    "microSD", 
    "Storage"
  ], 
  "Time": "07:39"
}