{
  "By": "nismod", 
  "Contents": " แอคเคาท์ Quora ซึ่งเป็นแพลตฟอร์มที่เปิดพื้นที่ให้ผู้ใช้ได้ตั้งคำถามในประเด็นต่างๆ และร่วมกันตอบ ของ Sundar Pichai ซีอีโอ Google ถูกแฮ็กโดยกลุ่ม OurMine ที่เคยแฮ็กแอคเคาท์ทวิตเตอร์และ Pinterest ของ Mark Zuckerberg เว็บไซต์ The Next Web ได้อีเมลสอบถามไปยังกลุ่ม OurMine และได้รับการตอบกลับมาว่าที่ทางกลุ่มทำไปนั้น เพื่อทดสอบกระบวนการรักษาความปลอดภัยเท่านั้น และไม่ได้เปลี่ยนพาสเวิร์ดหรือข้อมูลใดๆ ทั้งสิ้น โดยการแฮ็กครั้งนี้ OurMine อาศัยช่องโหว่ของ Quora ที่ทางกลุ่มเคยแจ้งไปยัง Quora แล้วแต่ไม่ได้รับการตอบกลับ ที่มา - The Next Web   ", 
  "Date": "27/June/2016", 
  "Image-Link": [
    "https://www.blognone.com/sites/default/files/styles/thumbnail/public/topics-images/sundar.jpeg?itok=WtoAieqF", 
    "/sites/all/themes/blognone42/images/linebutton.png"
  ], 
  "Link": "https://www.blognone.com/node/82699", 
  "News": "แอคเคาท์ Quora ของ Sundar Pichai ถูกแฮ็ก", 
  "Tags": [
    "Sundar Pichai", 
    "Hacking"
  ], 
  "Time": "12:28"
}