{
  "By": "mk", 
  "Contents": " ในระบบ Xbox Live ของไมโครซอฟท์ เกมเมอร์สามารถตั้งชื่อ username (หรือที่เรียกว่า 'gamertag') ได้ตามชอบใจ ปัญหาคือ Xbox Live เปิดมานานเป็นสิบปี ชื่อดีๆ ถูกจับจองไปเกือบหมดแล้ว อย่างไรก็ตาม ไมโครซอฟท์พบว่าชื่อ gamertag จำนวนมากถูกตั้งแล้วไม่ได้ใช้งาน (ส่วนใหญ่เป็นชื่อสมัย Xbox รุ่นแรกสุด) ส่งผลให้ชื่อเสียไปโดยเปล่าประโยชน์ บริษัทจึงเตรียมรีไซเคิลชื่อ gamertag เกือบ 1 ล้านชื่อให้ผู้เล่นมาใช้งานกัน ผู้ที่มีสิทธิจองชื่อรีไซเคิลเหล่านี้ ต้องเป็นสมาชิก Xbox Live Gold มาอย่างน้อย 1 ปี โดยไมโครซอฟท์จะเปิดให้ขอชื่อในวันพุธที่ 18 พฤษภาคมนี้ (ตามเวลาสหรัฐ) และเปิดให้นาน 24 ชั่วโมงเท่านั้น ที่มา - Major Nelson via Ars Technica    ", 
  "Date": "17/May/2016", 
  "Image-Link": [
    "https://www.blognone.com/sites/default/files/styles/thumbnail/public/topics-images/xbox-big_0.png?itok=5eYWc84O", 
    "https://i.imgur.com/PDY9aIN.jpg", 
    "/sites/all/themes/blognone42/images/linebutton.png"
  ], 
  "Link": "https://www.blognone.com/node/81052", 
  "News": "ไมโครซอฟท์จะรีไซเคิลชื่อ Gamertag ที่ไม่ใช้งานในระบบ Xbox Live เกือบ 1 ล้านชื่อ", 
  "Tags": [
    "Xbox LIVE", 
    "Xbox One", 
    "Microsoft", 
    "Games", 
    "Social Network"
  ], 
  "Time": "08:38"
}