{
  "By": "mk", 
  "Contents": " รายได้หลักของ Mozilla มาจากการทำสัญญากับ search engine เพื่อใช้เป็นค่าดีฟอลต์ของ Firefox ซึ่งในอดีต Mozilla ทำสัญญากับกูเกิลมาโดยตลอด แต่ในปี 2014 ก็เปลี่ยนมาเป็นยาฮูแทน โดยมีอายุสัญญา 5 ปี จบปี 2019 แต่ไม่เปิดเผยมูลค่าว่ายาฮูจ่ายให้ Mozilla เท่าไร ล่าสุดเว็บไซต์ Recode อ้างว่าได้เห็นสัญญาดังกล่าว เนื้อหาในสัญญาคือยาฮูจ่ายเงิน 375 ล้านดอลลาร์ต่อปีให้ Mozilla (ประมาณ 1.3 หมื่นล้านบาท) จุดที่น่าสนใจคือในสัญญามีเงื่อนไขที่เป็นประโยชน์กับ Mozilla ด้วยว่าถ้าหากยาฮูถูกซื้อกิจการ (ซึ่งตอนนี้กำลังจะโดน) Mozilla เป็นฝ่ายบอกเลิกสัญญาได้ถ้าไม่ชอบเจ้าของรายใหม่ของยาฮู แต่ยาฮูภายใต้เจ้าของใหม่ยังต้องจ่ายเงินต่อเนื่องจนครบสัญญาอยู่ดี Recode มองว่าเงื่อนไขนี้เกิดจากตอนนั้น ซีอีโอ Marissa Mayer พยายามอย่างมากในการดันธุรกิจ search ของยาฮูให้มาแข่งกับกูเกิลให้ได้ เธอเลยพยายามทำทุกทาง จนกลายเป็นเซ็นสัญญาที่เอื้อประโยชน์กับ Mozilla ไปอย่างมากแทน ที่มา - Recode    ", 
  "Date": "10/July/2016", 
  "Image-Link": [
    "https://www.blognone.com/sites/default/files/styles/thumbnail/public/topics-images/yahoo300.png?itok=UI6QXwjg", 
    "https://farm9.staticflickr.com/8899/18018142849_38ef4c746d_z.jpg", 
    "/sites/all/themes/blognone42/images/linebutton.png"
  ], 
  "Link": "https://www.blognone.com/node/83230", 
  "News": "[ไม่ยืนยัน] ยาฮูต้องจ่ายเงินให้ Mozilla ปีละ 1.3 หมื่นล้านบาท แม้ขายกิจการให้เจ้าของใหม่", 
  "Tags": [
    "Yahoo!", 
    "Mozilla", 
    "Rumor", 
    "Search Engine"
  ], 
  "Time": "09:30"
}