{
  "By": "lew", 
  "Contents": " Razer เปิดตัวแว่น VR ของตัวเอง OSVR เป็นโครงการโอเพนซอร์สมาตั้งแต่ปีที่แล้ว ตอนนี้ก็ประกาศอัพเดตครั้งใหญ่เป็น HDK2 การปรับปรุงใหญ่ที่สุดคือจอภาพ ที่เพิ่มความละเอียดเป็น 2160x1200 พิกเซล แสดงผลที่ 90 เฟรมต่อวินาที ส่วนฟีเจอร์อื่นๆ เหมือนกับ HDK เดิมที่อัพเดตมาหลายรอบจนเป็นรุ่น 1.4 แล้ว เช่น กล้องอินฟราเรดสำหรับจับการเคลื่อนไหวความเร็วสูง, USB 3.0 การปรับปรุงเล็กๆ เช่นโฟมที่ติดกับใบหน้าเปลี่ยนเป็นผ้า microfiber เพื่อความสบายผู้สวมใส่ ราคาเพียง 399 ดอลลาร์ แต่ยังไม่เริ่มวางขาย ส่วนถ้าใครอยากได้รุ่น 1.4 ยังขายอยู่ที่ 299 ดอลลาร์ ที่มา - OSVR, AnandTech    ", 
  "Date": "15/June/2016", 
  "Image-Link": [
    "https://www.blognone.com/sites/default/files/styles/thumbnail/public/topics-images/585K1aKZ.png?itok=dQKYmzkE", 
    "//upic.me/i/aw/osvr-hdk-2-hero.png", 
    "/sites/all/themes/blognone42/images/linebutton.png"
  ], 
  "Link": "https://www.blognone.com/node/82256", 
  "News": "Razer เปิดตัว OSVR HDK2 เพิ่มความละเอียดจอภาพ, แสดงภาพ 90 เฟรมต่อวินาที", 
  "Tags": [
    "Razer", 
    "Virtual Reality", 
    "Open Source"
  ], 
  "Time": "01:32"
}