{
  "By": "sunnywalker", 
  "Contents": " Uber เริ่มให้บริการรถสำหรับผู้ใช้วีลแชร์ที่ลอนดอนแล้ว 55 คัน โดยบริการใหม่นี้มีชื่อว่า UberWav ทางบริษัทบอกว่า ลงทุนกว่า 1 ล้านปอนด์ (ประมาณ 50 ล้านบาท)  ใช้เวลาดำเนินการผลิตและพัฒนา 18 เดือน  ตั้งเป้าขยายจำนวนรถบริการให้ถึง 100 คันภายในเดือนต่อๆไป ตัวรถติดตั้งทางลาดด้านหลังตัวรถเพื่อเป็นที่เก็บวีลแชร์ ผู้ใช้วีลแชร์สามารถพาผู้ร่วมเดินทางมาได้อีกคนหนึ่ง นอกจากนี้ทาง Uber คาดหวังว่าเวลาที่ลูกค้ารอรถจะอยู่ประมาณ 25 นาที ในโซน 1-2 และ 40 นาที ในโซน 3-4  ที่มา-BBC   ", 
  "Date": "11/May/2016", 
  "Image-Link": [
    "https://www.blognone.com/sites/default/files/styles/thumbnail/public/topics-images/uber_0.png?itok=6XhODw2-", 
    "//i.imgur.com/Lv7VKlj.jpg”", 
    "/sites/all/themes/blognone42/images/linebutton.png"
  ], 
  "Link": "https://www.blognone.com/node/80836", 
  "News": "Uber เริ่มให้บริการรถสำหรับผู้ใช้วีลแชร์แล้วที่ลอนดอน ", 
  "Tags": [
    "Uber"
  ], 
  "Time": "11:48"
}