{
  "By": "ตะโร่งโต้ง", 
  "Contents": " Uber ยังคงขยันออกผลิตบริการเพื่อการเดินทางออกมาเรื่อยๆ ครั้งนี้บริการใหม่ของ Uber คือรถยนต์โดยสารที่มีขาตั้งไว้ยึดรถจักรยานให้บริการในชื่อ UberBike เริ่มให้บริการที่แรกใน Amsterdam ประเทศเนเธอร์แลนด์ UberBike เกิดขึ้นมาจากแนวคิดที่ว่าบางทีคนมีจักรยานก็อาจไม่อยากจะขี่มัน เช่นตอนเลิกงานในวันที่อากาศเลวร้าย การขี่จักรยานฝ่าสายฝนกลับบ้านคงไม่ใช่ทางเลือกที่ดีนัก ครั้นจะเรียกรถกลับบ้านตัวเปล่าแล้วจอดจักรยานทิ้งเอาไว้ก็ไม่ใช่ไอเดียที่เข้าท่านัก ดังนั้น Uber จึงเสนอบริการรถโดยสารที่พร้อมจะพาจักรยานของผู้เรียกรถไปด้วยกันได้ อัตราค่าบริการ UberBike นั้นคิดค่าโดยสารตามระยะทางเช่นเดียวกับ UberX เพียงแต่มีการคิดเงินเพิ่มต่างหาก 4 ยูโรสำหรับขาตั้งยึดจักรยานที่เพิ่มขึ้นมา ที่มา - TechCrunch    ", 
  "Date": "4/June/2016", 
  "Image-Link": [
    "https://www.blognone.com/sites/default/files/styles/thumbnail/public/topics-images/uber_0.png?itok=6XhODw2-", 
    "//upic.me/i/gu/uber-uberbike1.png", 
    "/sites/all/themes/blognone42/images/linebutton.png"
  ], 
  "Link": "https://www.blognone.com/node/81850", 
  "News": "UberBike บริการเรียกรถที่พร้อมขนย้ายจักรยานผ่านแอพเปิดตัวแล้วที่ Amsterdam", 
  "Tags": [
    "Uber", 
    "Bicycle"
  ], 
  "Time": "14:40"
}