{
  "By": "nismod", 
  "Contents": " Uber เปิดตัวในประเทศไทยอย่างเป็นทางการในช่วงสงกรานต์ปี 2557 วันนี้ Uber ได้จัดงานครบรอบ 2 ปี ผมเลยนำข้อมูลตัวเลขการเติบโตของผู้ใช้งาน Uber แบบคร่าวๆ มาฝากกันครับ การให้บริการของ Uber ตลอด 2 ปีที่ผ่านมาเติบโตมากขึ้นเรื่อยๆ โดยในปัจจุบันครอบคลุมพื้นที่ส่วนใหญ่ในกรุงเทพ จากในช่วงแรกที่ให้บริการเฉพาะในเขตเมือง โดย Uber ระบุว่ามีผู้โดยสารที่ใช้บริการเป็นประจำอยู่ประมาณ 91,000 คน ขณะที่ผู้ร่วมขับขี่ที่ให้บริการเป็นประจำอยู่ที่ประมาณ 4,000 คน  และด้วยการเติบโตนี้เอง ทำให้ระยะเวลารอรถเฉลี่ยในพื้นที่รอบๆ กรุงเทพเหลือเพียงประมาณ 7 นาที และเขตใจกลางเมืองเฉลี่ยอยู่ที่ประมาณ 5.6 นาที ซึ่ง Chan Park ผู้จัดการทั่วไปประจำภูมิภาคเอเชียตะวันออกเฉียงใต้ของ Uber ระบุว่าเป็นเป้าหมายหลักของบริษัท ที่พยายามจะลดเวลารอของผู้โดยสารให้ได้มากที่สุด  ขณะที่ช่วงเวลาที่มีการเรียกใช้บริการ Uber มากที่สุดคือช่วงเย็นหลังเลิกงานไปจนถึงกลางคืนตลอดทั้งสัปดาห์ ตั้งแต่วันจันทร์ถึงวันเสาร์ ยกเว้นวันอาทิตย์วันเดียวที่มีการใช้บริการเบาบางที่สุด  ขณะที่ประเด็นเรื่องที่ว่า Uber ทำผิดกฎหมาย (ในหลายๆ ประเทศ) หรือไม่ คุณ Chan Park ระบุว่าเทคโนโลยีและแพลตฟอร์มที่ Uber นำมาใช้นี้ค่อนข้างใหม่ ซึ่งแน่นอนว่ายังไม่มีกฎหมายรองรับ และ Uber เองก็กำลังอยู่ระหว่างกระบวนการผลักดันและพูดคุยกับรัฐบาลของไทย ในการคลอดกฎหมายที่รองรับรูปแบบการบริการ ride-sharing ของ Uber นี้ด้วย โดยประเทศในเอเชียตะวันออกเฉียงใต้ที่ Uber ประสบความสำเร็จในการผลักดันกฎหมายลักษณะนี้ไปแล้วคือฟิลิปปินส์และสิงคโปร์  Chan Park ผู้จัดการทั่วไปประจำภูมิภาคเอเชียแปซิฟิก (ซ้ายมือ)   ", 
  "Date": "16/May/2016", 
  "Image-Link": [
    "https://www.blognone.com/sites/default/files/styles/thumbnail/public/topics-images/uber_0.png?itok=6XhODw2-", 
    "https://farm8.staticflickr.com/7025/26953152492_e8700e1c28_z.jpg", 
    "https://farm8.staticflickr.com/7037/26979126301_2021b1d851.jpg", 
    "https://farm8.staticflickr.com/7647/26979031311_7472c0e112_z.jpg", 
    "https://farm8.staticflickr.com/7135/27047470965_3193d7271c_z.jpg", 
    "/sites/all/themes/blognone42/images/linebutton.png"
  ], 
  "Link": "https://www.blognone.com/node/81029", 
  "News": "Uber แถลงการเติบโตหลังให้บริการในประเทศไทยครบ 2 ปี", 
  "Tags": [
    "Uber", 
    "Thailand"
  ], 
  "Time": "17:17"
}