{
  "By": "mk", 
  "Contents": " เมื่อเร็วๆ นี้เราเห็นวิวาทะระหว่าง Microsoft Edge และ Opera ว่าใครเป็นเบราว์เซอร์จอมประหยัดพลังงานกว่ากัน ปัญหาของผลการทดสอบทั้งสองชุดคือวัดผลโดยบริษัทต้นสังกัดเอง จึงมีข้อกังขาเรื่องความน่าเชื่อถือ นิตยสาร PCWorld ในฐานะคนกลางจึงพยายามทดสอบเรื่องนี้ โดยใช้ชุดทดสอบชื่อ EMBC ที่รันเว็บเพจในสภาพแวดล้อมจำลอง (เบราว์เซอร์ติดต่อกับเซิร์ฟเวอร์จำลองที่ปลอมตัวเป็นเว็บเพจจริง มีการเซ็ตแบนด์วิดท์ให้คงที่ จำลองการเลื่อนหน้าจอขึ้นลง เพื่อตัดปัจจัยผันแปรออกจากการทดสอบออกให้หมด) เบราว์เซอร์ที่ทดสอบได้แก่ Chrome 50, Firefox 46, Edge 13.1, Opera 37, IE 11 ทั้งหมดรันบน Windows 10 Home ในพีซีเครื่องเดียวกัน ผลออกมาว่า Edge คว้าแชมป์เรื่องอายุแบตเตอรี่ ตามด้วยอันดับสอง Chrome ที่เฉือน Opera ไปเล็กน้อย, Firefox และ IE อยู่ลำดับท้ายสุด PCWorld บอกว่า Edge เป็นผู้ชนะที่ชัดเจน แต่ก็ไม่ได้ทิ้งห่างคู่แข่งรายอื่นๆ เหมือนกับที่ไมโครซอฟท์ทดสอบไว้ อย่างไรก็ตาม ข้อจำกัดของการทดสอบครั้งนี้คือเป็นการทดสอบเว็บเพจทีละแท็บเท่านั้น (EMBC ยังไม่รองรับการรันหลายแท็บพร้อมกัน) พฤติกรรมจึงแตกต่างจากการใช้งานจริงๆ อยู่บ้าง ที่มา - PCWorld  ผลการทดสอบของ PCWorld    ", 
  "Date": "3/July/2016", 
  "Image-Link": [
    "https://www.blognone.com/sites/default/files/styles/thumbnail/public/topics-images/edge.png?itok=5dNDkxSs", 
    "https://i.imgur.com/5UoS6xr.jpg", 
    "https://i.imgur.com/Mad3NGs.png", 
    "/sites/all/themes/blognone42/images/linebutton.png"
  ], 
  "Link": "https://www.blognone.com/node/82951", 
  "News": "ผลทดสอบโดยคนกลาง Microsoft Edge คว้าแชมป์เบราว์เซอร์ที่ประหยัดพลังงานที่สุด", 
  "Tags": [
    "Microsoft Edge", 
    "Browser", 
    "Benchmark", 
    "Chrome", 
    "Opera", 
    "Firefox"
  ], 
  "Time": "19:26"
}