{
  "By": "mk", 
  "Contents": " AIS ขยับตัวมาลงตลาดคลาวด์เพื่อจับกลุ่มลูกค้าธุรกิจ ใช้ชื่อว่า AIS Business Cloud โดยให้บริการจากศูนย์ข้อมูลของ AIS สองแห่ง เทียบได้กับศูนย์ข้อมูลระดับ Tier IV และมีมาตรฐาน SLA ในการให้บริการ 99.99% จุดเด่นของ AIS Business Cloud คือเชื่อมต่อกับเครือข่ายของ AIS โดยตรง ทั้งเครือข่ายมือถือ 3G/4G, AIS Fibre และบริการอินเทอร์เน็ตสำหรับองค์กร ทำให้สามารถขายบริการคลาวด์แบบ end-to-end ที่ให้บริการจากบริษัทเดียวกันได้ AIS Business Cloud ประกอบด้วย  Infrastructure as a Service (IaaS) โดยจับมือกับ VMware Integrated Backup as a Service จับมือกับ NetApp Software as a Service (SaaS) มีบริการหลายยี่ห้อ เช่น Office 365, Check Point ความปลอดภัยบนมือถือ, WeCloud พื้นที่จัดเก็บข้อมูล Cloud Managed Services บริการให้คำปรึกษาและมอนิเตอร์ระบบโดย AIS    ที่มา - อีเมลประชาสัมพันธ์ AIS   ", 
  "Date": "6/July/2016", 
  "Image-Link": [
    "https://www.blognone.com/sites/default/files/styles/thumbnail/public/topics-images/ais.png?itok=v9BMgBcj", 
    "https://i.imgur.com/J6xb0m2.jpg", 
    "https://i.imgur.com/tL0DMHB.jpg", 
    "/sites/all/themes/blognone42/images/linebutton.png"
  ], 
  "Link": "https://www.blognone.com/node/83090", 
  "News": "AIS ลุยตลาดคลาวด์เพื่อธุรกิจ เปิดตัว AIS Business Cloud การันตี SLA 99.99%", 
  "Tags": [
    "AIS", 
    "Enterprise", 
    "Cloud Computing"
  ], 
  "Time": "19:32"
}