{
  "By": "nismod", 
  "Contents": " เราเห็นข่าวอย่างต่อเนื่องว่าทางเฟซบุ๊กมีการปรับนโยบาย รวมไปถึงฟีเจอร์และลูกเล่นต่างๆ เพื่อกระตุ้นการแชร์คลิปวิดีโอมากยิ่งขึ้น จนเรียกได้ว่าพยายามจะคานอำนาจกับ YouTube ก็ว่าได้ ซึ่งหนึ่งในผู้บริหารของเฟซบุ๊กเองก็มีวิสัยทัศน์เกี่ยวกับประเด็นนี้ว่า ภายในอีกไม่กี่ปีข้างหน้า วิดีโอจะถูกใช้เพื่อสื่อสารแทนที่ข้อความบนแพลตฟอร์มของตัวเอง Nicola Mendelsohn ผู้บริหารของเฟซบุ๊กที่ดูแลภูมิภาคยุโรป, ตะวันออกกลางและแอฟริกามองว่า ภายในอีก 5 ปีข้างหน้า การพิมพ์สเตตัสหรือข้อความลงบนไทม์ไลน์จะลดลงและถูกแทนที่ด้วยวิดีโอ โดยเธอให้เหตผลว่าเป็นเพราะภาพเคลื่อนไหวสามารถส่งสารได้มากกว่าและเร็วกว่าข้อความ ซึ่งเธอมองด้วยว่าการเขียนหรือพิมพ์ข้อความจะยังคงอยู่ ไม่ได้หายไปไหน แต่จะย้ายจากบนกล่องข้อความของเฟซบุ๊ก ไปอยู่บนวิดีโอแทน ที่มา - Quartz   ", 
  "Date": "20/June/2016", 
  "Image-Link": [
    "https://www.blognone.com/sites/default/files/styles/thumbnail/public/topics-images/fb-500.png?itok=7KEmyKx1", 
    "/sites/all/themes/blognone42/images/linebutton.png"
  ], 
  "Link": "https://www.blognone.com/node/82453", 
  "News": "ผู้บริหารเฟซบุ๊กคาด การใช้วิดีโอเพื่อสื่อสารแทนข้อความจะเพิ่มมากขึ้นเรื่อยๆ", 
  "Tags": [
    "Facebook", 
    "Social Media", 
    "Online Video"
  ], 
  "Time": "12:56"
}