{
  "By": "mk", 
  "Contents": " มาถึงตอนนี้ทุกคนคงรู้จัก Azure ในฐานะบริการ \"คลาวด์\" บนเซิร์ฟเวอร์ของไมโครซอฟท์ แต่ในอีกด้าน ไมโครซอฟท์ก็มี \"ซอฟต์แวร์\" ชื่อ Azure Stack สำหรับสร้างระบบคลาวด์ในองค์กร ให้มีความสามารถแบบเดียวกับ Azure (จะมองว่า Azure Stack เหมือนกับ OpenStack ก็ได้) ล่าสุดไมโครซอฟท์ปรับแผน Azure Stack จากเดิมที่ขายซอฟต์แวร์ให้ลูกค้าไปติดตั้งในเซิร์ฟเวอร์องค์กรได้เอง แต่หลังทดสอบแล้วพบว่าไม่ประสบความสำเร็จนัก เพระากระบวนการติดตั้งซับซ้อนเกินไป ไมโครซอฟท์จึงเปลี่ยนรูปแบบมาเป็นจับมือ (co-engineer) กับผู้ผลิตฮาร์ดแวร์เซิร์ฟเวอร์ (ตอนนี้มี HPE, Dell, Lenovo) เพื่อขาย Azure Stack ไปพร้อมกับเซิร์ฟเวอร์เลย ถือเป็นโซลูชันสำเร็จรูปให้กับลูกค้าองค์กรแทน ไมโครซอฟท์ให้เหตุผลว่าการติดตั้ง Azure Stack บนฮาร์ดแวร์แบบจำกัดรุ่น ช่วยให้บริษัทควบคุมคุณภาพและเสถียรภาพของระบบได้ดีขึ้น ในฝั่งของลูกค้าเองก็ง่ายเพราะซื้อโซลูชันมาก็ใช้งานได้ทันที ไม่ต้องปรับแต่งอะไรเพิ่ม สินค้าจะเริ่มวางขายได้จริงช่วงกลางปี 2017 ที่มา - Microsoft    ", 
  "Date": "14/July/2016", 
  "Image-Link": [
    "https://www.blognone.com/sites/default/files/styles/thumbnail/public/topics-images/azure.png?itok=tAgpkNZ6", 
    "https://i.imgur.com/uhbJkFX.png", 
    "/sites/all/themes/blognone42/images/linebutton.png"
  ], 
  "Link": "https://www.blognone.com/node/83416", 
  "News": "ไมโครซอฟท์เปลี่ยนวิธีขาย Azure Stack เป็นการพ่วงไปกับเซิร์ฟเวอร์ของผู้ผลิตแทน", 
  "Tags": [
    "Microsoft Azure", 
    "Cloud Computing", 
    "Microsoft", 
    "Enterprise"
  ], 
  "Time": "10:51"
}