{
  "By": "nrad6949", 
  "Contents": " เว็บไซต์ข่าว Android Headlines รายงานข่าวลือว่า MediaTek เตรียมประกาศข่าวการควบรวมกิจการในวันนี้ หลังจากที่มีการขอพักการซื้อขายหลักทรัพย์ของบริษัทเป็นเวลา 1 วัน (ข่าวลงไว้เมื่อวาน แปลว่าวันนี้อาจจะมีการประกาศ) Android Headlines ระบุว่าตามปกติแล้ว MediaTek จะขอพักการซื้อขายหากมีเรื่องที่เกี่ยวข้องกับการรวมหรือการซื้อกิจการ ตามข่าวลือระบุว่า MediaTek อาจจะประกาศควบรวมกิจการกับแผนกชิปมือถือของ Intel (ที่เพิ่งมีข่าวโดนยกเลิกการผลิตชิปไป) ในปัจจุบันฐานลูกค้าของ MediaTek ส่วนใหญ่มาจากประเทศที่กำลังพัฒนาในเอเชีย เช่นจีนและอินเดีย การเข้าควบรวมหรือซื้อกิจการแผนกชิปมือถือของ Intel อาจจะทำให้สามารถแข่งขันในตลาดโลกได้ดีขึ้น ที่มา - Android Headlines    ", 
  "Date": "13/May/2016", 
  "Image-Link": [
    "https://www.blognone.com/sites/default/files/styles/thumbnail/public/topics-images/mediatek.png?itok=xxVkjLla", 
    "https://i.imgur.com/hFqESXT.png", 
    "/sites/all/themes/blognone42/images/linebutton.png"
  ], 
  "Link": "https://www.blognone.com/node/80926", 
  "News": "ลือ MediaTek เตรียมประกาศข่าวการควบรวมกิจการกับแผนกชิปมือถือของ Intel", 
  "Tags": [
    "MediaTek", 
    "Acquisition", 
    "Taiwan", 
    "Intel"
  ], 
  "Time": "11:01"
}