{
  "By": "BlackMiracle", 
  "Contents": " ข่าวใหญ่มากของเมื่อวานคือไมโครซอฟท์ประกาศเข้าซื้อกิจการ LinkedIn เป็นจำนวนเงินมากถึง 2.6 หมื่นล้านดอลลาร์สหรัฐ และในวันเดียวกันก็มีงาน WWDC 2016 ของแอปเปิลด้วย ในตอนแรกพนักงาน LinkedIn ที่ออฟฟิศสาขาซานฟรานซิสโกมีนัดจัดปาร์ตี้ถ่ายทอดสดงาน WWDC และนั่งดูไปพร้อมๆ กัน แต่พอไมโครซอฟท์ประกาศเข้าซื้อกิจการ ทาง LinkedIn ก็ส่งข้อความหาพนักงานว่าปาร์ตี้ดังกล่าวถูกยกเลิกแล้ว และให้หาทางอื่นดูกันเอาเอง ซึ่งในข้อความดังกล่าวไม่ได้บอกเหตุผลที่ยกเลิก แต่แนะให้เข้าไปดูเว็บไซต์รวมข่าวบริษัทแทน ซึ่งเข้าไปก็เจอประกาศการซื้อกิจการเลย ที่มา - The Next Web     ", 
  "Date": "14/June/2016", 
  "Image-Link": [
    "https://www.blognone.com/sites/default/files/styles/thumbnail/public/topics-images/linkedin.png?itok=PosgiESF", 
    "https://i.imgur.com/B60e4qF.png", 
    "https://i.imgur.com/l8eczZJ.png", 
    "/sites/all/themes/blognone42/images/linebutton.png"
  ], 
  "Link": "https://www.blognone.com/node/82227", 
  "News": "แปรพักตร์ด่วน LinkedIn ยกเลิกการจัดปาร์ตี้ดู WWDC หลังไมโครซอฟท์เข้าซื้อกิจการ", 
  "Tags": [
    "LinkedIn", 
    "Microsoft", 
    "WWDC16"
  ], 
  "Time": "11:13"
}