{
  "By": "nismod", 
  "Contents": " YouTube ยังคงเดินหน้ารักษาการเป็นเจ้าตลาดวิดีโอออนไลน์อย่างต่อเนื่อง และล่าสุดขยับมาเล่นในตลาดภาพยนตร์ออนไลน์บ้างแล้ว หลังเตรียมจะฉายภาพยนตร์ซีรีส์แบบ exclusive เฉพาะทางช่อง Red ในปีหน้า The New York Times รายงานว่า YouTube ซื้อสคริปต์ซีรีส์ที่อิงอยู่กับเนื้อเรื่องของภาพยนตร์ Step Up ที่ฉายในปี 2006 และได้เซ็นสัญญากับสตูดิโอ Lionsgate ในการสร้างซีรีส์ดังกล่าว ซึ่งจะมีความยาว 10 ตอน ตอนละ 45 นาที โดยจะได้ Channing Tatum มาเป็นโปรดิวเซอร์บริหารให้ด้วย ที่มา - The New York Times   ", 
  "Date": "24/June/2016", 
  "Image-Link": [
    "https://www.blognone.com/sites/default/files/styles/thumbnail/public/topics-images/youtube300.png?itok=YF7mGiqj", 
    "/sites/all/themes/blognone42/images/linebutton.png"
  ], 
  "Link": "https://www.blognone.com/node/82626", 
  "News": "YouTube เตรียมนำ Step Up ฉายเป็นซีรีส์ทางช่อง YouTube Red", 
  "Tags": [
    "YouTube", 
    "Online Video"
  ], 
  "Time": "11:22"
}