{
  "By": "magnamonkun", 
  "Contents": " จากข่าวใหญ่ที่ Xbox One เปิดฟีเจอร์ Cross Network Play ให้เล่นเกมแข่งกับคอนโซลอื่นได้ และฝั่งโซนี่เองก็ออกมาสนองในเรื่องนี้ด้วยการบอกเป็นนัยว่า Cross Play กับ Xbox One เป็นไปได้ แต่ต้องดูนโยบายทางธุรกิจเสียก่อน ล่าสุด Andrew House ประธาน Sony Interactive Entertainment ได้ออกมายืนยันแล้วว่า บริษัทจะไม่เปิด Cross Network Play ให้ Xbox One ข้ามมาเล่นด้วยกันได้ House ให้เหตุผลในที่ประชุมผู้ถือหุ้นว่าการที่บริษัทไม่เปิดฟังก์ชั่นนี้ให้ Xbox One มีสาเหตุมาจากการที่บริษัทมองว่าการให้ PlayStation เป็นแพลตฟอร์มปิดนั้นจะถือเป็นผลดีต่อ PS4 ในระยะยาว รวมถึงมันยังส่งผลต่อ Eco-system, ประสบการณ์ในการใช้งาน และกลยุทธ์ทางการตลาดของแบรนด์ PlayStation อีกด้วย จากคำพูดของ House ในครั้งนี้ ทำให้โครงการ Cross Play ของเกม Rocket League ที่นำร่องมาก่อนถูกยกเลิกเหลือเพียงการ Cross Play กันระหว่าง Xbox One และ PC รวมถึงแผน Cross Play ของ Overwatch และ FFXIV: A Realm Reborn ก็ต้องแท้งกันไปตามระเบียบครับ ที่มา - PS4Daily   ", 
  "Date": "7/July/2016", 
  "Image-Link": [
    "https://www.blognone.com/sites/default/files/styles/thumbnail/public/topics-images/playstation_0.png?itok=khP6n8Ij", 
    "/sites/all/themes/blognone42/images/linebutton.png"
  ], 
  "Link": "https://www.blognone.com/node/83097", 
  "News": "โซนี่ยืนยัน ไม่เปิดให้ฟังก์ชัน Cross Play ของ PlayStation ให้ Xbox One", 
  "Tags": [
    "PlayStation", 
    "PS4", 
    "Games", 
    "Xbox One"
  ], 
  "Time": "10:15"
}