{
  "By": "Lamicrosz", 
  "Contents": " คงเป็นเรื่องที่ขาดไปไม่ได้ สำหรับชุดบันเดิลเครื่องคอนโซล คู่กับเกมเรือธงของค่าย ทางไมโครซอฟท์ก็เช่นกัน เนื่องด้วยทางบริษัทได้เปิดตัว Xbox One S Gears of War 4 Limited Edition 2TB Bundle ซึ่งเป็นตัวเครื่องแบบแต่งลายพิเศษครั้งแรกสำหรับ Xbox One S ในชุดบันเดิล ประกอบไปด้วย ตัวเครื่องความจุ 2 TB และคอนโทรลเลอร์มาพร้อมสีแดง และรอยข่วนเสริมความดุดัน, ขาตั้งเครื่อง, ตัวเกม Gears of War 4: Ultimate Edition รองรับฟีเจอร์ Xbox Play Anywhere และสิทธ์ในการเข้าเล่นก่อนในวันที่ 7 ตุลาคม Xbox One S Gears of War 4 Limited Edition 2TB Bundle เปิดให้สั่งจองแล้วในราคา 449 ดอลลาร์สหรัฐฯ (ประมาณ 15,700 บาท) Xbox One S ได้เปิดตัวในงาน E3 2016 ที่ผ่านมา โดยมีขนาดตัวเครื่องที่เล็กและบางลง รองรับการแสดงผลภาพแบบ HDR (High Dynamic Range) และแสดงผลความละเอียด 4K สำหรับการชมภาพยนตร์ Blu-ray รวมไปถึงการปรับปรุงตัวคอนโทรลเลอร์ ที่มา - Xbox Wire    ", 
  "Date": "15/July/2016", 
  "Image-Link": [
    "https://www.blognone.com/sites/default/files/styles/thumbnail/public/topics-images/xbox-big_0.png?itok=5eYWc84O", 
    "http://i.imgur.com/gqHkKu0.png", 
    "/sites/all/themes/blognone42/images/linebutton.png"
  ], 
  "Link": "https://www.blognone.com/node/83496", 
  "News": "ไมโครซอฟท์ออกบันเดิล Xbox One S คู่กับ Gears of War 4", 
  "Tags": [
    "Xbox One", 
    "Microsoft", 
    "Gears of War", 
    "Games"
  ], 
  "Time": "19:33"
}