{
  "By": "mk", 
  "Contents": " Acer เปิดตัวโน้ตบุ๊กใหม่รับ Windows 10 อีก 3 รุ่นรวด แยกเป็น 2-in-1 สองรุ่น และโน้ตบุ๊กปกติหนึ่งรุ่น ดังนี้  Acer Switch V 10 โน้ตบุ๊กราคาถูกแบบ 2-in-1 ถอดจอได้ หน้าจอขนาด 10.1\", ซีพียู Atom, ความจุ 32-64GB, แบตอยู่ได้ 9 ชั่วโมง, มี USB Type-C, ตัวอ่านนิ้วมือที่ใช้ได้กับ Windows Hello, ราคาเริ่มต้น 249 ดอลลาร์ มีให้เลือก 5 สี วางขายในไตรมาสสามของปี Acer Switch One 10 โน้ตบุ๊กราคาถูกแบบ 2-in-1 พับจอ ถอดจอได้, ซีพียู Atom, มีตัวอย่างลายนิ้วมือในตัว, ราคา 199 ดอลลาร์ เริ่มขายเดือนกรกฎาคม Acer TravelMate P2 Series โน้ตบุ๊กสายมาตรฐาน หน้าจอ 14\"-15.6\" ใช้ซีพียู Intel Core 6th gen รุ่นล่าสุด, การ์ดจอ GeForce 940M แยกเป็นสองรุ่นย่อยตามขนาดจอคือ P249/P259 ราคาเริ่มต้น 599 ดอลลาร์  Acer Switch V 10  Acer Switch One 10  Acer TravelMate P2 Series  นอกจากนี้ Acer ยังออกจอมอนิเตอร์รุ่นใหม่ Acer BM320 Monitor ขนาด 32\" ความละเอียด 4K UHD (3840x2160) พร้อมดีไซน์ ZeroFrame แบบไร้ขอบ 3 ด้านมาด้วย  สินค้าทุกตัวจะโชว์ในงาน Computex ที่ไต้หวัน สัปดาห์หน้า ที่มา - Acer, Acer, Windows Experience Blog   ", 
  "Date": "28/May/2016", 
  "Image-Link": [
    "https://www.blognone.com/sites/default/files/styles/thumbnail/public/topics-images/acer.png?itok=2JFequgW", 
    "http://i.imgur.com/muRSwCN.png", 
    "http://i.imgur.com/Uz6qOFe.jpg", 
    "http://i.imgur.com/4wkdkCO.png", 
    "http://i.imgur.com/6Bj3l9k.jpg", 
    "/sites/all/themes/blognone42/images/linebutton.png"
  ], 
  "Link": "https://www.blognone.com/node/81538", 
  "News": "Acer ออกโน้ตบุ๊ก 2-in-1 ใหม่ Switch V 10 และ Switch One 10", 
  "Tags": [
    "Acer", 
    "Hybrid", 
    "Display", 
    "Notebook"
  ], 
  "Time": "13:02"
}