{
  "By": "mk", 
  "Contents": " เกม Call of Duty ตระกูล Black Ops มีโหมดพิเศษ Zombies แยกต่างหากจากโหมดเนื้อเรื่องหลัก แต่ก็ประสบความสำเร็จอย่างสูง และออกฉากใหม่ๆ เพิ่มมาทุกภาคหลักและภาคเนื้อหาเสริม (DLC) รูปแบบการเล่นของโหมด Zombies จะเป็นแนว survival ที่ผู้เล่นต้องเอาตัวรอดจากฝูงซอมบี้จำนวนมาก สำหรับ Call of Duty: Black Ops 3 ภาคล่าสุดที่กำลังจะออกภาค DLC ภาคที่สาม Descent มีฉากมัลติเพลเยอร์เพิ่มเข้ามาอีก 4 ฉาก (Empire, Cryogen, Berserk, Rumble) ส่วนโหมด Zombies ก็มีฉากใหม่หนึ่งฉากชื่อ \"Gorod Krovi\" Gorod Krovi เป็นฉากของเมือง Stalingrad ในรัสเซียปี 1940 แต่อยู่ในจักรวาลคู่ขนาน เมืองนี้ถูกปกครองโดยซอมบี้ หุ่นยนต์ และครั้งแรกของซีรีส์นี้คือ \"มังกร\" เกม DLC ภาคนี้เป็น time exclusive ของ PS4 จะออกขายวันที่ 12 กรกฎาคมนี้ ส่วนภาค Xbox One และพีซียังไม่ระบุวันวางขาย ที่มา - Polygon    ", 
  "Date": "2/July/2016", 
  "Image-Link": [
    "https://www.blognone.com/sites/default/files/styles/thumbnail/public/topics-images/Call-of-duty-logo.png?itok=vOJVUb9T", 
    "https://i.imgur.com/QrTqFOV.jpg", 
    "/sites/all/themes/blognone42/images/linebutton.png"
  ], 
  "Link": "https://www.blognone.com/node/82937", 
  "News": "ฉากใหม่ Call of Duty: Black Ops 3 เปิดโอกาสให้เราได้สู้กับซอมบี้ หุ่นยนต์ และ \"มังกร\"", 
  "Tags": [
    "Call of Duty", 
    "Games"
  ], 
  "Time": "18:12"
}