{
  "By": "nismod", 
  "Contents": " ถ้าพูดถึงกระแสของเกมใหม่ช่วงนี้ หนึ่งในเกมที่กำลังเป็นที่พูดถึงและได้รับความนิยมอย่างมากคงหนีไม่พ้น Overwatch ล่าสุดแม้แต่ Elon Musk นักคิดค้นและซีอีโอของบริษัทเทคโนโลยี ที่ได้รับการยกย่องอย่างขำๆ ว่าเปรียบเสมือน Tony Stark ในโลกแห่งความเป็นจริงนั้น ได้ออกมาทวีตแนะนำเกม FPS ใหม่จากค่าย Blizzard เกมนี้ด้วยครับ เราอาจจะไม่ค่อยเห็น Musk แนะนำหรือพูดเรื่องเกมเท่าไหร่นัก แต่ทวีตล่าสุดเขากลับแนะนำเกมนี้อย่างยิ่ง (Highly recommend) ประกอบกับการที่มีผู้เล่นมากกว่า 7 ล้านคนแล้ว เรียกได้ว่าแทบจะไม่ต้องมีอะไรพิสูจน์อีกแล้วสำหรับคุณภาพของ Overwatch โดย Musk ระบุด้วยว่าเขาเล่นเกมนี้ผ่านเครื่อง PC ที่มา - CNET Highly recommend @PlayOverwatch by the good people of @Blizzard_Ent if you like ultrafast team FPS actionhttps://t.co/GAIamvAPnn — Elon Musk (@elonmusk) June 5, 2016   ", 
  "Date": "6/June/2016", 
  "Image-Link": [
    "https://www.blognone.com/sites/default/files/styles/thumbnail/public/topics-images/overwatch.png?itok=TLgOiXnG", 
    "/sites/all/themes/blognone42/images/linebutton.png"
  ], 
  "Link": "https://www.blognone.com/node/81897", 
  "News": "Elon Musk ทวีตชวนเล่น Overwatch", 
  "Tags": [
    "Overwatch", 
    "Games", 
    "Elon Musk"
  ], 
  "Time": "13:42"
}