{
  "By": "nutmos", 
  "Contents": " Comcast ได้ยืนยันว่าเตรียมจะเปิดให้สตรีมภาพยนตร์ของบริการ Netflix ผ่าน X1 ซึ่งเป็นอุปกรณ์ set-top box ของบริษัทในช่วงท้ายปี 2016 นี้ เพื่อให้ผู้ใช้สามารถเข้าถึงคอนเทนต์ของทั้งสองบริษัทได้สะดวก และตอนนี้ Comcast กำลังทำระบบให้รองรับกับ Netflix อยู่ โดยจะเปิดเผยรายละเอียดในช่วงที่เปิดให้บริการ การที่ Netflix ได้เซ็นสัญญาเป็นพาร์ทเนอร์กับผู้ให้บริการเคเบิลหลายบริษัทนั้น ก็คงเดาได้ไม่ยากว่า Netflix กำลังต้องการขยายบริการให้ครอบคลุมผู้ใช้ที่ไม่ได้มี smart TV หรืออุปกรณ์ประเภท media hub ส่วนฝั่ง Comcast นั้นก็จะได้มี Netflix เป็นตัวเลือกให้ผู้ใช้เพื่อสู้กับแพลตฟอร์มอื่นอย่าง Roku, Verizon และ Dish ตอนนี้ทั้งสองบริษัทยังไม่ได้เปิดเผยสัญญาที่ทำซึ่งกันและกัน แต่ Recode ได้อ้างข้อมูลจากแหล่งข่าวนั้นบอกว่าเหมือนกับสัญญาอื่นที่ Netflix ทำกับบริษัทที่ให้บริการเคเบิลเจ้าอื่น ๆ และตอนนี้ทั้ง Netflix และ Comcast ก็ยังไม่มีใครพูดถึงเรื่องการเก็บเงินว่าใครจะเป็นฝ่ายจัดการ ที่มา - Recode, Engadget   ", 
  "Date": "6/July/2016", 
  "Image-Link": [
    "https://www.blognone.com/sites/default/files/styles/thumbnail/public/topics-images/netflix300.png?itok=u9NKdk4d", 
    "/sites/all/themes/blognone42/images/linebutton.png"
  ], 
  "Link": "https://www.blognone.com/node/83047", 
  "News": "Comcast เตรียมเปิดบริการสตรีมภาพยนตร์ Netflix ผ่าน set-top box", 
  "Tags": [
    "Comcast", 
    "Netflix"
  ], 
  "Time": "00:52"
}