{
  "By": "nismod", 
  "Contents": " สหภาพยุโรปหรือ EU เตรียมจะออกคำแนะนำในวันพรุ่งนี้ ให้กลุ่มประเทศสมาชิกดำเนินการกับบริษัทด้าน Sharing Economy อย่าง Uber และ Airbnb อย่างเป็นมิตรมากยิ่งขึ้น โดยให้การแบนเป็นทางเลือกสุดท้าย ในกรณีที่ไม่มีบทลงโทษที่เบากว่านี้แล้ว หากกลุ่มประเทศสมาชิกต้องการจะปกป้องผลประโยชน์ของบริษัทหรือธุรกิจท้องถิ่น ทาง EU ก็แนะนำว่าควรจะหามาตรการควบคุมเป็นลำดับขั้นไปก่อน เช่นกรณี Airbnb ทางการควรจะกำหนดให้ผู้เช่า Airbnb เช่าได้ไม่เกิน 2-3 วันเท่านั้น อย่างไรก็ตามเงื่อนไขสำคัญของคำแนะนำนี้ คือบริษัทด้าน Sharing Economy จะต้องมีสถานะเป็นนายจ้าง หากลูกจ้างไม่สามารถกำหนดราคาหรือเลือกลูกค้าได้ด้วยตัวเอง ซึ่งเท่ากับว่าเงื่อนไขนี้ส่งผลต่อ Uber โดยตรงที่ต่อสู้เรื่องการไม่ยอมรับคนขับรถในฐานะลูกจ้างมาโดยตลอด ที่มา - Fortune via Engadget   ", 
  "Date": "1/June/2016", 
  "Image-Link": [
    "https://www.blognone.com/sites/default/files/styles/thumbnail/public/topics-images/eu-flag.png?itok=5wwQInGK", 
    "/sites/all/themes/blognone42/images/linebutton.png"
  ], 
  "Link": "https://www.blognone.com/node/81694", 
  "News": "EU เตรียมออกคำแนะนำให้ประเทศสมาชิกเป็นมิตรกับ Uber, Airbnb มากขึ้น", 
  "Tags": [
    "EU", 
    "Uber", 
    "Airbnb", 
    "Sharing Economy"
  ], 
  "Time": "11:21"
}