{
  "By": "ตะโร่งโต้ง", 
  "Contents": " Toshiba และ Western Digital แล้ว เตรียมลงทุนครั้งใหญ่แบบต่อเนื่องภายใน 3 ปีนับจากนี้ เพื่อขยายธุรกิจการผลิตหน่วยความจำแบบแฟลช โดยมูลค่าการลงทุนนั้นสูงถึง 1.7 ล้านล้านเยน (ประมาณ 0.6 ล้านล้านบาท) ก่อนหน้านี้ Toshiba ได้ร่วมลงทุนกับ SanDisk อยู่ก่อนแล้วในการสร้างและดำเนินงานโรงงานในเมือง Yokkaichi จังหวัด Mie และเมื่อ SanDisk ถูก Western Digital ซื้อกิจการไปจนควบรวมกิจการเสร็จสมบูรณ์ไปเมื่อเดือนพฤษภาคมที่ผ่านมา ทาง Western Digital ก็ยังคงสนใจที่จะร่วมมือกับ Toshiba ในการลงทุนขยายโรงงานการผลิตต่อไปอีก เม็ดเงินจากแผนการลงทุนครั้งนี้จะถูกนำไปขยายพื้นที่และติดตั้งเครื่องจักรใหม่ในโรงงานที่ Yokkaichi ซึ่งจะช่วยเพิ่มกำลังการผลิตชิปหน่วยความจำแบบเฟลชให้เป็น 2 เท่าของโรงงานที่ใหญ่ที่สุดของคู่แข่งอย่าง Samsung โดยเป้าหมายสินค้าหลักของโรงงานที่ Yokkaichi จะเน้นหน่วยความจำแบบ 3 มิติ ซึ่งคาดว่าจะมียอดขายเพิ่มขึ้นเรื่อยๆ ในอีก 3 ปีข้างหน้า เชื่อว่าการเพิ่มกำลังการผลิตอย่างรวดเร็วในอีก 2-3 ปีข้างหน้า น่าจะส่งผลช่วยให้หน่วยความจำแบบแฟลชมีราคาจำหน่ายที่ต่ำลงในอีกไม่ช้า ที่มา - Nasdaq   ", 
  "Date": "7/July/2016", 
  "Image-Link": [
    "https://www.blognone.com/sites/default/files/styles/thumbnail/public/topics-images/toshiba.png?itok=uPowT1VD", 
    "/sites/all/themes/blognone42/images/linebutton.png"
  ], 
  "Link": "https://www.blognone.com/node/83127", 
  "News": "Toshiba และ Western Digital เตรียมร่วมกันลงทุนระดับล้านล้านเยน ในธุรกิจหน่วยความจำแบบแฟลช", 
  "Tags": [
    "Toshiba", 
    "Western Digital", 
    "Investment", 
    "Flash Drive"
  ], 
  "Time": "15:18"
}