{
  "By": "arjin", 
  "Contents": " Just Eat ผู้ให้บริการส่งอาหารรายใหญ่ในยุโรป ประกาศความร่วมมือกับ Starship Technologies สตาร์ทอัพด้านหุ่นยนต์จากประเทศเอสโตเนีย เพื่อนำหุ่นยนต์ 6 ล้อ มาให้บริการส่งอาหาร โดยจะเริ่มทดลองในลอนดอนเป็นแห่งแรกเร็วๆ นี้ หุ่นยนต์ที่นำมาใช้งานนี้สามารถเคลื่อนที่ไปยังจุดต่างๆ ได้อัตโนมัติ แต่ก็จะมีคนคอยดูแลอีกขั้นหนึ่ง สามารถข้ามถนน, หลบสิ่งกีดขวางได้, มีกล้องอยู่รอบจำนวน 9 ตัว, มีเซ็นเซอร์ตรวจจับสภาพพื้นที่ และมีระยะเบรก 30 เซนติเมตร ในเบื้องต้นหุ่นยนต์จะสามารถวิ่งส่งอาหารจากร้านไปยังลูกค้า ได้ไม่เกิน 1 ไมล์ (1.6 กิโลเมตร) ด้วยความเร็วราว 4 ไมล์ต่อชั่วโมง เมื่อหุ่นยนต์มาส่งอาหาร ลูกค้าต้องกดรหัสที่ได้รับผ่านแอพเพื่อเปิดฝา จึงสามารถนำอาหารออกได้ จากการทดสอบเบื้องต้นยังไม่พบปัญหาอาหารถูกขโมยระหว่างทาง เนื่องจากหุ่นยนต์มีระบบป้องกันสิ่งนี้อยู่แล้ว ที่มา: VentureBeat    ", 
  "Date": "6/July/2016", 
  "Image-Link": [
    "https://www.blognone.com/sites/default/files/styles/thumbnail/public/news-thumbnails/je-logo-square-250x250.png?itok=AsFcGsrq", 
    "http://i.imgur.com/3IEBDWK.jpg", 
    "/sites/all/themes/blognone42/images/linebutton.png"
  ], 
  "Link": "https://www.blognone.com/node/83053", 
  "News": "Just Eat เปิดตัวหุ่นยนต์ส่งอาหารเดลิเวอรี่ เริ่มที่ลอนดอนเป็นเมืองแรก", 
  "Tags": [
    "Delivery", 
    "Food", 
    "London", 
    "Startup", 
    "Robotics"
  ], 
  "Time": "09:16"
}