{
  "By": "nismod", 
  "Contents": " อาจเป็นสัญญาณเริ่มต้นของการปลดแอกของหุ่นยนต์จากมนุษย์ก็เป็นได้ (ผมก็ว่าไปนั่น) หลังจากเมื่อสัปดาห์ที่แล้ว หุ่นยนต์ของบริษัท Promobot หลบหนีออกจากห้องแล็บวิจัยในเมือง Perm ประเทศรัสเซีย จนสร้างความวุ่นวายบนท้องถนนในบริเวณนั้น วิศวกรของ Promobot ระบุว่าลืมปิดประตูห้องแล็บ ก่อนที่หุ่นยนต์จะออกมาวิ่งอยู่บนท้องถนน จนทำให้การจราจรในบริเวณนั้นชะงักไปชั่วคราว โดยทางทีมวิศวกรระบุว่าหุ่นยนต์ตัวนี้วิ่งไปราว 50 เมตรก่อนที่แบตเตอรี่ของหุ่นยนต์จะหมดลงกลางถนน ทั้งนี้หุ่นยนต์ตัวนี้ถูกสร้างขึ้นสำหรับโปรโมทผลิตภัณฑ์ในงานอีเวนท์ต่าง โดยถูกออกแบบมาให้เคลื่อนที่และมีปฏิสัมพันธ์กับมนุษย์ด้วยตัวเอง ที่มา - Quartz, Promobot   ", 
  "Date": "21/June/2016", 
  "Image-Link": [
    "https://www.blognone.com/sites/default/files/styles/thumbnail/public/topics-images/russia.png?itok=uHDRbaVs", 
    "/sites/all/themes/blognone42/images/linebutton.png"
  ], 
  "Link": "https://www.blognone.com/node/82517", 
  "News": "The rise of Skynet? หุ่นยนต์ในรัสเซียวิ่งออกมาจากห้องแล็บด้วยตัวเอง", 
  "Tags": [
    "Russia", 
    "Robotics"
  ], 
  "Time": "16:41"
}