{
  "By": "nutmos", 
  "Contents": " สำนักข่าว Wall Street Journal รายงานว่า ตอนนี้ Facebook ได้เซ็นสัญญากับสื่อและเหล่าดาราคนดังกว่า 140 สัญญา คิดเป็นเงินจำนวนกว่า 50 ล้านดอลลาร์เพื่อให้สตรีมผ่าน Facebook Live ในปีหน้า เมื่อคิดเป็นจำนวนเงินเฉลี่ยต่อสัญญานั้นก็อยู่ที่ประมาณ 350,000 ดอลลาร์ต่อสัญญา โดยผู้ที่ได้เงินจาก Facebook มากสุดก็ได้แก่ BuzzFeed, New York Times และ CNN ซึ่งแต่ละรายได้รับเงินจำนวน 3 ล้านดอลลาร์ตั้งแต่มีนาคม 2016 - มีนาคม 2017 ส่วนเหล่าดาราคนดังก็มี Kevin Hart, Gordon Ramsey และ Deepak Chopra แม้ว่าสื่อหลายแห่งก็เริ่มจะมาใช้ Facebook Live ในการสตรีมมิ่งอยู่แล้ว แต่การที่ Facebook จ่ายเงินก็เพื่อเป็นการกระตุ้นให้สื่อเหล่านั้นนำคอนเทนต์ที่มีคุณภาพมาลง Facebook Live ซึ่งก็จะทำให้ Facebook มียอดการใช้งานมากยิ่งขึ้นซึ่งก็จะได้เงินจากการโฆษณามากขึ้นด้วยนั่นเอง ที่มา - Wall Street Journal, The Next Web   ", 
  "Date": "22/June/2016", 
  "Image-Link": [
    "https://www.blognone.com/sites/default/files/styles/thumbnail/public/topics-images/fb-500.png?itok=7KEmyKx1", 
    "/sites/all/themes/blognone42/images/linebutton.png"
  ], 
  "Link": "https://www.blognone.com/node/82531", 
  "News": "Facebook จ่ายเงินให้สื่อและคนดังมาใช้ Facebook Live กว่า 50 ล้านดอลลาร์", 
  "Tags": [
    "Facebook Live", 
    "Facebook"
  ], 
  "Time": "07:22"
}