{
  "By": "nutmos", 
  "Contents": " Facebook ได้เพิ่มฟีเจอร์ใหม่สำหรับแอพบน iOS คือฟีเจอร์ทำสไลด์โชว์ โดยจะนำภาพและวิดีโอบนเครื่องมารวมกันและนำมาทำเป็นคลิปสั้น ๆ เพื่อโพสต์ลง Facebook โดยผู้ใช้สามารถปรับแต่งธีมและเพลงของสไลด์โชว์ได้ สไลด์โชว์ของ Facebook จะถูกทำขึ้นโดยอัตโนมัติถ้า 24 ชั่วโมงที่ผ่านมาผู้ใช้ได้ถ่ายรูปหรือบันทึกวิดีโออย่างน้อย 5 ครั้งหรือมากกว่า หรือถ้ามีสไลด์โชว์แสดงขึ้นมาบน News Feed สามารถแตะปุ่ม \"try it\" เพื่อทำสไลด์โชว์ของตัวเองได้ ฟีเจอร์ Slideshow ของ Facebook ก็จะเหมือนกับที่อยู่ในแอพ Moments ซึ่งการที่ Facebook นำฟีเจอร์มาใส่ในแอพหลักก็น่าจะเพื่อให้ผู้ใช้แชร์วิดีโอให้มากขึ้น ที่มา - The Verge    ", 
  "Date": "28/June/2016", 
  "Image-Link": [
    "https://www.blognone.com/sites/default/files/styles/thumbnail/public/topics-images/fb-500.png?itok=7KEmyKx1", 
    "http://i.cubeupload.com/7f22Uq.png", 
    "/sites/all/themes/blognone42/images/linebutton.png"
  ], 
  "Link": "https://www.blognone.com/node/82730", 
  "News": "Facebook นำฟีเจอร์สไลด์โชว์จาก Moments มาใส่แอพหลัก เพื่อให้ผู้ใช้แชร์วิดีโอมากขึ้น", 
  "Tags": [
    "Facebook"
  ], 
  "Time": "07:30"
}