{
  "By": "nutmos", 
  "Contents": " Google ได้อัพเดตภาพถ่ายดาวเทียมสำหรับ Google Earth และ Google Maps ใหม่จากดาวเทียม Landsat 8 ทำให้ได้ภาพถ่ายที่มีรายละเอียดดีขึ้นและสีที่ถูกต้องกว่าเดิม ภาพถ่ายดาวเทียมเดิมที่ Google ใช้นั้นมาจาก Landsat 7 ซึ่งเกิดปัญหาของฮาร์ดแวร์ ทำให้ภาพที่ถ่ายหลังจากปี 2003 ได้รับผลกระทบข้อมูลหายไปจำนวนมาก ซึ่ง Google บอกว่าสามารถเห็นลักษณะความผิดพลาดได้จากภาพที่ถ่ายจาก Landsat 7 ในเมือง Oklahoma ภาพถ่ายดาวเทียมชุดใหม่ของ Google นี้จะถูกประมวลผลด้วย Earth Engine ซึ่งเหมือนกับ API ที่ให้นักวิทยาศาสตร์ใช้ในการติดตามการปกคลุมของต้นไม้บนโลก, ทำนายการระบาดของโรคมาลาเรีย โดย Google เลือกข้อมูลภาพจาก Landsat จำนวน 700 ล้านล้านพิกเซลว่าพิกเซลใดที่ไม่มีเมฆปกคลุมที่ดีที่สุด (ซึ่ง Google บอกว่า 700 ล้านล้านพิกเซลนั้นเยอะระดับ 7 พันเท่าของจำนวนดาวที่คาดการณ์ในทางช้างเผือก หรือประมาณ 70 เท่าของจำนวนกาแลกซีในเอกภพ) สำหรับภาพถ่ายดาวเทียมชุดใหม่ของ Google สามารถเข้าไปชมได้ที่ Google Maps โดยปรับโหมดเป็นดาวเทียม หรือดาวน์โหลด Google Earth เวอร์ชันล่าสุด ที่มา - The Verge, Google Maps  ภาพถ่าย Columbia Glacier, Alaska  ภาพถ่าย New York บนคือภาพจาก Landsat 7 ล่างคือภาพจาก Landsat 8  ภาพถ่าย Oklahoma ที่ถ่ายจาก Landsat 7 ภาพล่างคือภาพที่ถ่ายช่วงมีปัญหาฮาร์ดแวร์   ", 
  "Date": "28/June/2016", 
  "Image-Link": [
    "https://www.blognone.com/sites/default/files/styles/thumbnail/public/topics-images/google-maps.png?itok=9Bwq8SFO", 
    "http://i.cubeupload.com/hzJg1n.jpg", 
    "http://i.cubeupload.com/rm7Glk.png", 
    "http://i.cubeupload.com/pOwd4I.png", 
    "/sites/all/themes/blognone42/images/linebutton.png"
  ], 
  "Link": "https://www.blognone.com/node/82734", 
  "News": "Google อัพเดตภาพถ่ายดาวเทียมชุดใหม่จาก Landsat 8 ให้ Maps และ Earth", 
  "Tags": [
    "Google Maps", 
    "Google Earth"
  ], 
  "Time": "08:59"
}