{
  "By": "advertorial", 
  "Contents": " ตลาดสมาร์ททีวีจอใหญ่ภาพคมชัด มีหลายแบรนด์ที่ออกสินค้ามาแข่งขันกันอย่างน่าสนใจ โดยเฉพาะสมาร์ททีวีคุณภาพระดับ 4K ที่ให้สีสันและความละเอียดมากกว่าทีวี HD ทั่วไป และยังมีบริการ content on demand เปลี่ยนพฤติกรรมการดูทีวีที่ต้องกดเปลี่ยนช่องไปเรื่อยๆ เป็นกดครั้งเดียว ก็ได้ดูเนื้อหารายการที่เราต้องการมากที่สุด Sony Bravia X85D 4K HDR เป็นสมาร์ททีวีตระกูล X รุ่นล่าสุดของ Sony มี 2 ขนาดให้เลือกคือ คือ 55 และ 65 นิ้ว (รุ่นที่รีวิวคือ 65 นิ้ว) จุดแข็งคือ คุณภาพ 4K HDR ที่นอกจากจะคมชัดแล้ว ยังขับแสงสีที่ดีขึ้นด้วยเทคโนโลยีการแสดงภาพแบบ HDR และระบบปฏิบัติการ Android TV ที่เข้าถึงคอนเทนต์และแอพพลิเคชั่นเพื่อความบันเทิงมากมาย  ดีไซน์ สมาร์ททีวีทุกวันนี้คุณภาพดีอย่างเดียวไม่ดึงดูดลูกค้าให้ซื้อ เพราะรูปลักษณ์ภายนอกก็สำคัญไม่แพ้กัน จะเห็นได้จากสมาร์ททีวีแบรนด์ใหญ่มักชูเรื่องดีไซน์เพรียวบาง Sony Bravia X85D บางประมาณ 11 มิลลิเมตร ออกแบบเป็นเลเยอร์ 2 ชั้น เทียบขนาดของจริงแล้วหนากว่าดินสอแท่งบางนิดเดียวเท่านั้น ตัววัสดุเป็นอะลูมิเนียม ไม่เกิดรอยขีดข่วนง่าย  Sony Bravia X85D สามารถตั้งบนขาตั้ง และแขวนบนผนังได้ตามความชอบของผู้ใช้ ในส่วนขาตั้งเป็นแผงด้านหน้าเพรียวบางเรียวเข้าด้านใน ส่วนด้านหลังเป็นแผ่นใหญ่แข็งแรงให้ทีวีไม่ส่ายไปส่ายมา และสามารถจัดการสายเคเบิลให้อยู่ภายในแท่นวางได้ ไม่ระเกะระกะ   ส่วนประกอบด้านหลังอยู่ตรงซ้ายมือของทีวี มีช่องเชื่อมต่อมากมาย  input HDMI 4 ช่อง (ด้านข้าง 3 ด้านหลัง 1) input composite video 2 ช่อง (ด้านข้าง 1 ด้านหลัง 1) input component video 1 ช่อง input RF connection 1 ช่อง input Ethernet 1 ช่อง USB 3 ช่อง LAN 1 ช่อง output เสียง 1 ช่อง output เสียงดิจิทัล 1 ช่อง output หูฟัง 1 ช่อง    คุณภาพระดับ 4K HDR Sony Bravia X85D ใช้ชิปประมวลผล 4K X1 Processor ใช้อัลกอริธึมในการตัดสัญญาณรบกวนและเพิ่มรายละเอียด ทำงานร่วมกับ 4K X-Reality PRO ผลิตภาพที่คมชัด สดใส มีระบบหาเฉดสี-ความสว่างที่ดีที่สุดสำหรับแต่ละพิกเซล หน้าจอความละเอียด 3840x2160 พิกเซล  พร้อมทั้ง Motionflow XR จัดการลำดับภาพที่เคลื่อนไหวเร็ว จอแสดงผล TRILUMINOS ในขณะที่ความคมชัดเพิ่มขึ้น เทคโนโลยี HDR หรือ High Dynamic Range เป็นเทคโนโลยีที่เข้ามารองรับสัญญาณภาพระดับ HDR โดยภาพระดับ HDR จะเข้ามาทำให้การแสดงผลแต่ละพิกเซลดีขึ้น ให้สีดำที่ดำสนิท ส่วนสีสันอื่นสดขึ้น และส่วนภาพที่มีความสว่างและความมืดจะถูกขับให้ชัดเจนขึ้น นอกจากนี้ตัวทีวียังมีเทคโนโลยีที่กล่าวมาข้างต้นที่สามารถเพิ่มประสิทธิภาพของภาพที่ไม่ว่าจะมาจากแหล่งไหนให้ใกล้เคียงกับระดับ 4K HDR มากที่สุดอีกด้วย เมื่อนำเทคโนโลยี 4K กับ HDR มารวมกันจะได้ภาพที่เหนือชั้นกว่าทีวี Full HD แบบเดิมมาก   เปรียบเทียบภาพ SDR (ซ้าย) และ 4K HDR (ขวา) วิดีโออธิบายการทำงาน 4K HDR จาก Sony ระบบปฏิบัติการ Android TV ระบบปฏิบัติการ Android TV เปิดตัวในงาน Google I/O ปี 2014 สร้างความฮือฮาไม่น้อย จนกระทั่งตอนนี้มีทีวีหลายแบรนด์ที่นำระบบปฏิบัติการนี้มาใช้ ซึ่งรวมถึง Sony ที่เป็นแกนหลักสำคัญในการสนับสนุนระบบปฏิบัติการตัวนี้ Android TV มีแถบหน้าจอหลัก 5 แถบ แถบแรกเป็นคอนเทนต์เด่น หรือ คอนเทนต์ที่เคยเปิดเล่นค้างไว้ เช่น ถ้าเราเปิดเพลงจากยูทูบ แล้วกดปุ่ม Home กลับมาที่หน้าหลัก เพลงที่เปิดจะยังคงเล่นต่อไปในฉากหลังหน้า Home เห็นได้จากภาพด้านล่าง  แถบที่ 2-5 เป็น รายการเด่น ช่องต่อเข้า แอพพลิเคชั่นเด่น เกมส์ และปิดท้ายด้วยหน้าจอตั้งค่า   แอพพลิเคชั่นเด่น ขึ้นชื่อว่า Android TV คือโลกของแอพพลิเคชั่นเพื่อความบันเทิงบนสมาร์ททีวี มีแอพหนังให้เลือกดูเพียบไม่ว่าจะเป็น Netflix, Google Play Movies, Monomax นอกจากนี้ยังสามารถดาวน์โหลดแอพเพิ่มเติมได้จาก Google Play Store, Opera TV Store     รีโมท รีโมทของทีวีรุ่นนี้มีปุ่มลัดเข้า Google Play Movies และ Netflix กดเข้าแอพพลิเคชั่นได้ทันทีในครั้งเดียว และแน่นอนว่าสั่งการด้วยเสียงได้ ซึ่งเป็นจุดขายหนึ่งของระบบ Android TV อยู่แล้ว  มีปุ่มต่อตรง Google Play Movies และ Netflix พร้อมทั้งปุ่มคำสั่งเสียงสีขาวตรงกลางด้านบนสุด ควบคุมด้วยสมาร์ทโฟน ผู้ใช้ยังสามารถโหลดแอพ Android Remote TV บนสมาร์ทโฟน เพื่อใช้เป็นรีโมทควบคุมทีวีแทน การใช้สมาร์ทโฟนเป็นรีโมท ช่วยให้พิมพ์ข้อความง่ายขึ้นกว่าการใช้รีโมทจริง และรองรับคำสั่งเสียงด้วยเช่นกัน  รองรับ Google Cast ในตัว Sony Bravia สามารถใช้งานร่วมกับ Google Cast ผ่าน Chrome เพียงดาวน์โหลดส่วนขยาย Google Cast บนพีซี หรือแอพบนสมาร์ทโฟน แล้วส่งคอนเทนต์ต่างๆ จากอุปกรณ์ที่เรามี ขึ้นไปเล่นบนสมาร์ททีวีได้เลย ไม่ต้องซื้ออุปกรณ์แบบ Chromecast เพิ่มเติมอีก   Sony Bravia X85D 4K HDR  มี 2 ขนาด ขนาด 55 นิ้ว ราคา 48,490 บาท ขนาด 65 นิ้ว ราคา 85,990 บาท ทั้งสองราคารวมภาษีมูลค่าเพิ่มแล้ว   ", 
  "Date": "27/June/2016", 
  "Image-Link": [
    "https://www.blognone.com/sites/default/files/styles/thumbnail/public/topics-images/u24Glc4J.png?itok=NWuXBvnU", 
    "http://i.imgur.com/o61GFhS.png", 
    "//i.imgur.com/K1cg2Je.jpg”", 
    "//i.imgur.com/NAjWRu3.jpg”", 
    "//i.imgur.com/B8vdvFb.jpg”", 
    "//i.imgur.com/q0tOFyD.jpg”", 
    "//i.imgur.com/f2KKlTT.jpg”", 
    "//i.imgur.com/WbqZGDX.jpg”", 
    "//i.imgur.com/jgVkOK7.jpg”", 
    "//i.imgur.com/y78xb3n.jpg”", 
    "//i.imgur.com/zyG24D2.jpg”", 
    "//i.imgur.com/F7L1bi0.jpg”", 
    "//i.imgur.com/6RWpJyV.jpg”", 
    "//i.imgur.com/WB64o6N.jpg”", 
    "//i.imgur.com/foYq6Hy.jpg”", 
    "//i.imgur.com/oXBnwc8.jpg”", 
    "//i.imgur.com/TjnAJ8a.jpg”", 
    "//i.imgur.com/wCJYNmG.jpg?1”", 
    "//i.imgur.com/Lgi1nOx.png”", 
    "//i.imgur.com/Uw0oudL.png”", 
    "/sites/all/themes/blognone42/images/linebutton.png"
  ], 
  "Link": "https://www.blognone.com/node/82690", 
  "News": "รีวิว Sony Bravia X85D สมาร์ททีวีภาพระดับ 4K HDR พร้อม Android TV ", 
  "Tags": [
    "Sony", 
    "Bravia", 
    "Advertorial", 
    "TV", 
    "Smart TV", 
    "Review"
  ], 
  "Time": "08:56"
}