{
  "By": "mk", 
  "Contents": " Starbucks กับ Outlook อาจไม่ใช่แบรนด์ที่ดูน่าจะมีความสัมพันธ์กันได้ แต่ Outlook ถือเป็นตัวแทนของโปรแกรมนัดประชุมคุยงาน ส่วน Starbucks ก็เป็นร้านกาแฟที่คนนัดมาพบปะพูดคุยเช่นกัน Starbucks จึงออกส่วนขยาย (add-in) ให้กับ Microsoft Outlook (ใช้ได้กับ Outlook 2013/2016, Outlook เวอร์ชันเว็บสำหรับ Office 365 และ Outlook.com) ความสามารถหลักของมันคือเพิ่มตารางนัดหมาย แล้วเลือกสถานที่เป็นร้าน Starbucks สาขาที่ต้องการได้เลย นอกจากนี้มันยังมีความสามารถรองคือสามารถส่งบัตรของขวัญ Starbucks แบบ eCard ไปให้เพื่อนร่วมงานทางอีเมลได้ด้วย เหมาะสำหรับเวลาองค์กรมีฉลองกันเล็กๆ น้อยๆ แล้วส่งเมลแสดงความยินดี พร้อมแถมบัตร Starbucks ในโอกาสเดียวกัน ที่มา - Office Store, WinSuperSite    ", 
  "Date": "20/June/2016", 
  "Image-Link": [
    "https://www.blognone.com/sites/default/files/styles/thumbnail/public/topics-images/starbucks.png?itok=zcnFASiB", 
    "https://i.imgur.com/M6R3Clj.jpg", 
    "/sites/all/themes/blognone42/images/linebutton.png"
  ], 
  "Link": "https://www.blognone.com/node/82440", 
  "News": "Starbucks ออกส่วนขยายให้ Outlook สำหรับนัดหมายคุยงานกันที่ร้าน Starbucks", 
  "Tags": [
    "Starbucks", 
    "Outlook", 
    "Microsoft Office"
  ], 
  "Time": "08:59"
}