{
  "By": "nutmos", 
  "Contents": " Hasselblad เปิดตัวกล้องรุ่นใหม่ X1D ซึ่งเป็นกล้อง medium format (ขนาดเซนเซอร์ใหญ่กว่าฟิล์ม 35mm ประมาณ 1.7 เท่า) แบบ mirrorless สเปคกล้องคือเป็นเซนเซอร์ 50 ล้านพิกเซลแบบ CMOS, มี ISO ตั้งแต่ 100-25600, รองรับการถ่ายวิดีโอ 1080p ที่ 25 ภาพต่อวินาที ตัวกล้องของ X1D เป็นกล้องแบบ mirrorless จึงต้องใช้เมาท์เลนส์แบบใหม่ที่เรียกว่า XCD ซึ่งมีเลนส์เปิดตัวมาพร้อมกัน 2 ตัวคือ 45mm F3.5 และ 90mm F3.2 และจะมีเลนส์ตัวอื่น เช่น 30mm จะเปิดตัวอีกครั้งในงาน Photokina และ Hasselblad ยังมี adapter ไว้สำหรับเชื่อมต่อกับเลนส์ H ของ Hasselblad ได้ หน้าจอของ X1D จะเป็นแบบสัมผัส 3 นิ้ว 920,000 พิกเซล, มีช่องมองภาพอิเล็กทรอนิกส์ 2.36 ล้านจุด (XGA), มี Wi-Fi และ GPS ในตัว, ช่องเสียบ SD card สองช่อง, ตัวกล้องพร้อมแบตเตอรี่จะมีน้ำหนัก 725 กรัม, บอดี้ซีลกันน้ำกันฝุ่น ตัวกล้อง Hasselblad X1D จะเริ่มส่งมอบให้ผู้ใช้ในเดือนสิงหาคมนี้ โดยมีราคาตามด้านล่าง  ราคาเฉพาะบอดี้กล้อง 8995 ดอลลาร์ (ประมาณ 320,000 บาท) ตัวกล้องพร้อมเลนส์ 45mm F3.5 ราคา 11,290 ดอลลาร์ (ประมาณ 400,000 บาท) ตัวกล้องพร้อมเลนส์ 45mm F3.5 และ 90mm F3.2 ราคา 13,985 ดอลลาร์ (ประมาณ 490,000 บาท) เลนส์ XCD 45mm F3.5 แบบขายแยกราคา 2,295 ดอลลาร์ (ประมาณ 80,000 บาท) เลนส์ XCD 90mm F3.2 แบบขายแยกราคา 2,695 ดอลลาร์ (ประมาณ 90,000 บาท)  ที่มา - dpreview            ", 
  "Date": "24/June/2016", 
  "Image-Link": [
    "https://www.blognone.com/sites/default/files/styles/thumbnail/public/news-thumbnails/7038038180.jpg?itok=Pf6Dfmj2", 
    "http://i.cubeupload.com/8Gm2lj.jpg", 
    "http://i.cubeupload.com/brGY5D.jpg", 
    "http://i.cubeupload.com/VsPUZo.jpg", 
    "http://i.cubeupload.com/Doel3O.jpg", 
    "http://i.cubeupload.com/PgKn0m.jpg", 
    "http://i.cubeupload.com/OvF5WV.jpg", 
    "http://i.cubeupload.com/uOmIqE.jpg", 
    "http://i.cubeupload.com/o8S4US.jpg", 
    "http://i.cubeupload.com/k33N7l.jpg", 
    "/sites/all/themes/blognone42/images/linebutton.png"
  ], 
  "Link": "https://www.blognone.com/node/82616", 
  "News": "Hasselblad เปิดตัว X1D กล้อง medium format แบบ mirrorless ความละเอียด 50 ล้านพิกเซล", 
  "Tags": [
    "Hasselblad", 
    "Medium Format", 
    "Camera"
  ], 
  "Time": "09:47"
}