{
  "By": "nrad6949", 
  "Contents": " เว็บไซต์ข่าว TechCrunch รายงานว่า Benjamin Tedesco นักวิจัยและวิศวกรด้านความปลอดภัย ได้พบเครื่อง skimmer แบบใหม่ที่เอาไปติดตู้ ATM ของธนาคาร กลางกรุงเวียนนา ระหว่างที่เขากำลังเดินเล่น และได้ถ่ายคลิปวิดีโอมาด้วย skimmer แบบใหม่นี้ มีรูปร่างและลักษณะที่เหมือนกับตัวรับบัตรของเครื่อง ATM ที่ออกแบบมาเพื่อแสดงให้เห็นว่ามีความปลอดภัย โดยมีหน้าตาและลักษณะแทบจะเหมือนกับตัวที่ติดอยู่กับเครื่อง ATM เพียงแค่ว่ามีลักษณะแปะกาวที่ดูแล้วไม่แนบเนียนเหมือนกับที่รับบัตรของเครื่องตามปกติ (ดูวิดีโอได้ท้ายข่าว) Tedesco ระบุในคลิปวิดีโอว่าเขาจะนำ skimmer ตัวนี้ที่เอาออกไปลองไปทำวิศวกรรมย้อนกลับ และแนะนำว่าจะต้องตรวจสอบ ATM ทุกครั้งก่อนทำรายการ โดยเขาระบุว่า \"It pays to be paranoid.\" (แต่ก็ไม่แน่เสมอไปถ้าเจอกรณีแบบนี้) ที่มา - LinkedIn ผ่าน TechCrunch   ", 
  "Date": "26/June/2016", 
  "Image-Link": [
    "https://www.blognone.com/sites/default/files/styles/thumbnail/public/topics-images/security-icon.png?itok=JZKobGMz", 
    "/sites/all/themes/blognone42/images/linebutton.png"
  ], 
  "Link": "https://www.blognone.com/node/82674", 
  "News": "นักวิจัยด้านความปลอดภัย พบ skimmer ติดตู้ ATM แบบใหม่ เนียนกว่าเดิม", 
  "Tags": [
    "ATM", 
    "Security"
  ], 
  "Time": "09:58"
}