{
  "By": "nismod", 
  "Contents": " American Express ร่วมมือกับเฟซบุ๊กประกาศเปิดตัว Amex Bot แช็ทบ็อตบน Messenger สำหรับการอัพเดตวงเงินและแจ้งการทำธุรกรรมต่างๆ แบบเรียลไทม์ นอกจากการแจ้งเตือนแล้ว ยังมีข้อมูลสิทธิประโยชน์ต่างๆ สำหรับผู้ถือบัตรอาทิ ร้านอาหาร โรงแรมและเล้าจ์ต่างๆ โดย American Express จะปล่อย Amex Bot ให้ใช้จริงภายใน 1-2 เดือนหน้า เฉพาะผู้ใช้ในสหรัฐบางรายและลูกค้าการ์ด OPEN ที่ต้องการทดลองใช้ ที่มา - Engadget   ", 
  "Date": "24/June/2016", 
  "Image-Link": [
    "https://www.blognone.com/sites/default/files/styles/thumbnail/public/topics-images/messenger-500.png?itok=We0tzOrE", 
    "/sites/all/themes/blognone42/images/linebutton.png"
  ], 
  "Link": "https://www.blognone.com/node/82618", 
  "News": "American Express เปิดตัว Amex Bot อัพเดตธุรกรรมและยอดเงินผ่าน Messenger", 
  "Tags": [
    "American Express", 
    "Chat Bot", 
    "Facebook Messenger"
  ], 
  "Time": "10:29"
}