{
  "By": "nutmos", 
  "Contents": " จากข่าวก่อนหน้านี้ที่บอกว่า ธนาคารหลายแห่งในสหรัฐฯ เตรียมเปิดใช้งาน contactless ATM และตอนนี้ก็มีธนาคารหนึ่งที่เริ่มใช้งานระบบ contactless ATM แล้ว คือ Bank of America สำหรับตู้ ATM ที่รองรับระบบนี้ จะมีรูป NFC ซึ่งผู้ใช้ที่ใช้งาน Apple Pay, Android Pay หรือ Samsung Pay สามารถเลือกบัตรจากอุปกรณ์ที่รองรับ จากนั้นเข้าไปใกล้ ๆ เครื่องรับสัญญาณ และใส่รหัส PIN ที่ตู้ ATM จากนั้นก็ใช้งานเหมือนบัตร ATM ตามปกติ ที่มา - MacRumors, Bank of America     ", 
  "Date": "21/June/2016", 
  "Image-Link": [
    "https://www.blognone.com/sites/default/files/styles/thumbnail/public/topics-images/bank_logo_256x256.png?itok=1rOZv3zp", 
    "http://i.cubeupload.com/XvNiGp.png", 
    "http://i.cubeupload.com/uDShUv.png", 
    "/sites/all/themes/blognone42/images/linebutton.png"
  ], 
  "Link": "https://www.blognone.com/node/82495", 
  "News": "Bank of America เริ่มเปิดให้ใช้งานตู้ ATM แบบ contactless แล้ว", 
  "Tags": [
    "Bank of America", 
    "NFC", 
    "Apple Pay", 
    "Android Pay", 
    "Samsung Pay", 
    "FinTech"
  ], 
  "Time": "10:39"
}