{
  "By": "nutmos", 
  "Contents": " LINE ได้ออกอัพเดตแอพบน iOS เวอร์ชัน 6.4.0 โดยรอบนี้มีฟีเจอร์ที่สำคัญหลายอย่าง โดยฟีเจอร์ที่สำคัญในการอัพเดตครั้งนี้คือรองรับการ backup ประวัติการแชทลงบน iCloud คือเมื่ออัพเดตแล้วเปิดแอพ จะมีการถามให้ backup ลง iCloud ทันทีเลยหรือไม่ หรือถ้าจะเข้าเมนูทีหลังก็ให้ไปที่ Settings > Chats & Voice Calls > Chat History Backup ส่วนฟีเจอร์อื่น ๆ ที่มาในอัพเดตรอบนี้ที่ LINE ได้แจ้งไว้ด้วย ได้แก่  ปาดรายการแชทจากขวามาซ้าย จะเจอตัวเลือก Read หรือทำเครื่องหมายว่าแชทนั้นอ่านแล้ว โดยไม่ต้องกดเข้าไปอ่าน ปาดรายการแชทจากซ้ายมาขวา จะเจอตัวเลือกรูปหมุด เมื่อกดแล้วจะปักหมุดแชทนั้นเอาไว้ด้านบนของรายการแชท เพิ่มฟีเจอร์เมื่อส่งภาพจากแอพอื่นผ่าน LINE จะมีตัวเลือกให้ส่งแบบเต็มความละเอียด หรือถ้าส่งวิดีโอก็จะมีตัวเลือกในการบีบอัด  สำหรับผู้ใช้ LINE บน iOS สามารถอัพเดตได้ทันทีที่ App Store ที่มา - update log ใน App Store    ", 
  "Date": "27/June/2016", 
  "Image-Link": [
    "https://www.blognone.com/sites/default/files/styles/thumbnail/public/topics-images/line300.png?itok=EJ65plDD", 
    "http://i.cubeupload.com/M0injj.png", 
    "/sites/all/themes/blognone42/images/linebutton.png"
  ], 
  "Link": "https://www.blognone.com/node/82700", 
  "News": "LINE ออกอัพเดต 6.4.0 สามารถเก็บข้อความแชทลง iCloud ได้แล้ว", 
  "Tags": [
    "LINE"
  ], 
  "Time": "12:30"
}