{
  "By": "nismod", 
  "Contents": " ปัญหาเรื่องการปิดตัวของ Ensogo ในอาเซียนยังคงคาราคาซังในหลายประเทศ ไม่แต่เฉพาะในประเทศไทย (อ่านความเห็นของเจ้าของร้านอาหารและผลกระทบจากดีล Ensogo ได้ที่เว็บใหม่ในเครือของ Blognone) ล่าสุดทาง Tech in Asia ได้สอบถามไปยัง Ensogo ถึงกรณีการจ่ายเงินชดเชยให้กับพนักงาน และได้รับการตอบกลับว่ายังไม่สามารถเปิดเผยข้อมูลอะไรได้ ขณะที่เรื่องการชดเชยให้กับลูกค้าจำนวนมาก Ensogo ระบุแต่เพียงว่าจะมีการประกาศในเร็วๆ นี้เช่นกัน ที่มา - Tech in Asia   ", 
  "Date": "23/June/2016", 
  "Image-Link": [
    "https://www.blognone.com/sites/default/files/styles/thumbnail/public/topics-images/ensogo.png?itok=qVe8PtFL", 
    "/sites/all/themes/blognone42/images/linebutton.png"
  ], 
  "Link": "https://www.blognone.com/node/82584", 
  "News": "Ensogo ระบุยังไม่มีคำตอบให้เรื่องการชดเชยพนักงานและลูกค้า", 
  "Tags": [
    "Ensogo"
  ], 
  "Time": "13:04"
}