{
  "By": "nismod", 
  "Contents": " ข่าวใหญ่ทั้งการเมืองและเศรษฐกิจของโลกเมื่อปลายสัปดาห์ที่แล้ว คือเรื่องของผลการโหวตประชามติที่ชาวอังกฤษส่วนใหญ่โหวตออกจากการเป็นสมาชิกสหภาพยุโรป ซึ่งหากคนที่ติดตามข่าวน่าจะพอทราบว่า ชาวอังกฤษส่วนใหญ่ที่โหวตให้อยู่เป็นสมาชิกต่อเป็นวัยรุ่น ด้วยเหตุนี้ชาวอังกฤษ 2 คนที่ต้องอกหักจากผลการลงประชามติดังกล่าว จึงคิดค้นแอพ Remainder ขึ้นมา เพื่อหวังให้เป็นช่องทางสำหรับวัยรุ่นที่โหวต Remain ได้หาคู่เดตที่มีความคิดเหมือนกันให้ช่วยบรรเทาความผิดหวังซึ่งกันและกัน โดยขณะนี้ Remainder เปิดระดมทุนอยู่บน Crowdfuner ตั้งเป้าไว้ที่ 5 พันปอนด์ ที่มา - Remainder via Independent   ", 
  "Date": "28/June/2016", 
  "Image-Link": [
    "https://www.blognone.com/sites/default/files/styles/thumbnail/public/topics-images/1280px-Flag_of_the_United_Kingdom.svg_.png?itok=uzQi5eG9", 
    "/sites/all/themes/blognone42/images/linebutton.png"
  ], 
  "Link": "https://www.blognone.com/node/82755", 
  "News": "Remainder แอพหาคู่สำหรับวัยรุ่นชาวอังกฤษที่อกหักมาจาก Brexit", 
  "Tags": [
    "United Kingdom", 
    "Mobile App"
  ], 
  "Time": "14:11"
}