{
  "By": "nutmos", 
  "Contents": " Google ได้เซ็นสัญญากับ LyricFind ซึ่งเป็นบริการสำหรับค้นหาเนื้อเพลงเพื่อนำเนื้อเพลงมาแสดงใน Google Play Music และหน้าผลการค้นหาของ Google โดยเมื่อผู้ใช้ค้นหาเพลงตามด้วยคำว่า lyric ก็จะแสดงเนื้อเพลงจาก LyricFind ให้ทันที โดยไม่ต้องคลิกเข้าไปหาเนื้อเพลงในเว็บไซต์อื่น ๆ และ LyricFind ก็จ่ายเงินที่หารายได้จากเนื้อเพลงให้กับเจ้าของลิขสิทธิ์เพลงอยู่แล้ว Darryl Ballantyne ผู้บริหารของ LyricFinder กล่าวว่าสัญญานี้น่าจะช่วยให้ได้รายได้ที่เหล่าศิลปินและนักแต่งเพลงจะได้นั้นอยู่ที่ประมาณล้านดอลลาร์ โดยการจ่ายเงินจะขึ้นกับการดูข้อมูล คือถ้าผู้ใช้ยิ่งดูเยอะก็จะได้เงินเยอะด้วยเช่นกัน ส่วน Google ก็ทำลิงก์ไปยัง Google Play Music คือผู้ใช้สามารถกดเข้าไปซื้อเพลงได้ทันที สำหรับบริการค้นหาเนื้อเพลงของ Google ผ่าน LyricFind นี้จะเริ่มเปิดให้ใช้บริการตั้งแต่วันนี้เฉพาะในสหรัฐ แม้ว่าสัญญาที่ Google ทำไว้กับ LyricFind จะครอบคลุมทั่วโลกด้วยก็ตาม เรื่องนี้คงจะถือเป็นข่าวร้ายสำหรับเว็บไซต์ค้นหาเนื้อเพลงดัง ๆ อย่าง AZLyrics.com เพราะถ้าผู้ใช้กดเจอเนื้อเพลงจากหน้าค้นหาของ Google เลยก็คงไม่กดเข้าไปหาตามเว็บเหล่านี้อีก ที่มา - Engadget, Billboard, LyricFind    ", 
  "Date": "28/June/2016", 
  "Image-Link": [
    "https://www.blognone.com/sites/default/files/styles/thumbnail/public/topics-images/Google_2015_logo.svg_.png?itok=bd4RvVLK", 
    "http://i.cubeupload.com/Nztt4D.png", 
    "/sites/all/themes/blognone42/images/linebutton.png"
  ], 
  "Link": "https://www.blognone.com/node/82761", 
  "News": "Google เริ่มนำเนื้อเพลงจาก LyricFind มาแสดงบนหน้าค้นหาและ Google Play Music", 
  "Tags": [
    "Google", 
    "Google Play Music", 
    "Google Search"
  ], 
  "Time": "15:12"
}