{
  "By": "gooGof", 
  "Contents": " ผู้ใช้งาน Reddit ชื่อ le_pman ได้พบข้อมูลในหน้าเว็บ Nexus Help ซึ่งแสดงเดือนสุดท้ายที่ Google จะหยุดการอัพเดตเวอร์ชัน Android ให้กับรุ่นต่างๆ ในตระกูล Nexus (มีการระบุถึง Android One และ Google Play edition แต่ไม่มีชื่อรุ่น) ปัจจุบันระยะเวลาการอัพเดตจะแบ่งเป็น 2 ส่วนคือ  การอัพเดตเวอร์ชัน Android นับจากวันที่อุปกรณ์วางขายบน Google Store อย่างน้อย 2 ปี การอัพเดต security patch นับจากการวางขายบน Google Store เป็นเวลา 3 ปี หรือหลังจาก 18 เดือนที่อุปกรณ์นั้นๆ ไม่มีการวางขายบน Google Store แล้ว   ที่มา : Nexus Help ผ่าน reddit/r/Android   ", 
  "Date": "21/June/2016", 
  "Image-Link": [
    "https://www.blognone.com/sites/default/files/styles/thumbnail/public/topics-images/nexus.png?itok=aS4M8JEF", 
    "http://i.imgur.com/W4SKDH5.png", 
    "/sites/all/themes/blognone42/images/linebutton.png"
  ], 
  "Link": "https://www.blognone.com/node/82515", 
  "News": "Google แสดงเวลาสิ้นสุดการอัพเดตเวอร์ชัน Android ในตระกูล Nexus", 
  "Tags": [
    "Google Nexus", 
    "Security", 
    "Android"
  ], 
  "Time": "16:16"
}