{
  "By": "nismod", 
  "Contents": " Airbnb เป็นอีกหนึ่งผู้ให้บริการที่พักแนว Sharing Economy ที่ได้รับผลกระทบทางกฎหมายจากหลายๆ ประเทศอย่างกรณีล่าสุด วุฒิสมาชิกของมลรัฐนิวยอร์กผ่านกฎหมาย ห้ามปล่อยเช่าห้องพักเป็นระยะเวลาน้อยกว่า 30 วันบน Airbnb กฎหมายฉบับนี้ถูกผลักดันเพื่อป้องกันไม่ให้ผู้ที่ไม่มีใบอนุญาต เปิดให้บริการห้องพักในลักษณะเดียวกับโรงแรมผ่านทาง Airbnb โดยผู้ที่ละเมิดครั้งแรกจะถูกปรับไม่เกิน $1,000, ไม่เกิน $5,000 ในครั้งที่สอง และปรับอีกไม่เกิน $7,500 หากละเมิดกฎครั้งที่ 3 กระบวนการต่อไปของการออกกฎหมายฉบับนี้คือ รอให้ผู้ว่าการรัฐเห็นชอบและลงนามออกบังคับใช้เป็นกฎหมายเท่านั้น ที่มา - CNET   ", 
  "Date": "21/June/2016", 
  "Image-Link": [
    "https://www.blognone.com/sites/default/files/styles/thumbnail/public/topics-images/airbnb.png?itok=7ZNGY75J", 
    "/sites/all/themes/blognone42/images/linebutton.png"
  ], 
  "Link": "https://www.blognone.com/node/82518", 
  "News": "รัฐนิวยอร์กผ่านกฎหมาย ห้ามปล่อยเช่าห้องพักระยะสั้นบน Airbnb", 
  "Tags": [
    "Airbnb", 
    "USA", 
    "Law", 
    "Sharing Economy"
  ], 
  "Time": "17:08"
}