{
  "By": "nuntawat", 
  "Contents": " แหล่งข่าวเผยกับเว็บไซต์ Supersite for Windows ว่า ในระบบของ Best Buy นั้นขึ้นสถานะของ Microsoft Band 2 ว่า \"discontinued\" และพนักงานได้รับการแจ้งว่าจะไม่มีการเติมเต็มสต็อกอีก เว็บไซต์ดังกล่าวสอบถามไมโครซอฟท์ และได้รับการชี้แจงว่า ณ เวลานี้  Microsoft Band 2 มีอยู่จำกัด อนึ่ง ไมโครซอฟท์เปิดตัว Microsoft Band ในเดือนตุลาคม 2014 และเปิดตัว Microsoft Band 2 ในเดือนตุลาคมปีก่อน จึงเป็นไปได้ที่บริษัทจะเปิดตัวสายรัดข้อมือรุ่นใหม่ครับ ที่มา: Supersite for Windows   ", 
  "Date": "24/June/2016", 
  "Image-Link": [
    "https://www.blognone.com/sites/default/files/styles/thumbnail/public/topics-images/ms-band.png?itok=tPmQmPJY", 
    "/sites/all/themes/blognone42/images/linebutton.png"
  ], 
  "Link": "https://www.blognone.com/node/82643", 
  "News": "[ลือ] ไมโครซอฟท์หยุดผลิต Microsoft Band 2 แล้ว คาดจะปล่อยรุ่นใหม่", 
  "Tags": [
    "Microsoft Band", 
    "Microsoft", 
    "Rumors"
  ], 
  "Time": "17:50"
}