{
  "By": "sunnywalker", 
  "Contents": " NextGov สำนักข่าวที่นำเสนอเรื่องเทคโนโลยีและรัฐบาล เผยรายงาน ปีที่แล้วรัฐบาลสหรัฐฯลงทุนด้าน IoT (Internet of Things) สูงกว่าปี 2014 ถึง 20% ให้ความสำคัญเรื่องการป้องกันภัยเป็นอันดับหนึ่ง ส่วนองค์กรที่ไม่ได้เกี่ยวกับการป้องกันประเทศแต่ได้ัรับงบประมาณลงทุนสูงคือ NASA มูลค่าลงทุนทั้งหมดในปี 2015 สูง 8.8 พันล้านดอลล่าร์ฯ การลงทุนเรื่องระบบเซนเซอร์ในการป้องกันภัยสูงที่สุด และสูงกว่าปี 2014 ถึง 56% ส่วนระบบคลาวด์ที่สร้างมาเพื่อเก็บข้อมูลเซนเซอร์สูงกว่าปี 2014 ประมาณ 48% หน่วยงานสำคัญที่ดูแลเรื่องนี้คือ หน่วยความมั่นคงมาตุภูมิ ลงทุนเครือข่ายเซนเซอร์เชื่อมต่อชายแดนประเทศและเพนตากอน มีบุคลากรด้านเทคโนโลยีจำนวนมากทำงานเรื่องนี้โดยเฉพาะ นอกเหนือจากระบบป้องกันประเทศ องค์กรที่ได้รับเม็ดเงินลงทุนสูงคือ NASA โดย NASA นำมาลงทุนพัฒนาอุปกรณ์การเชื่อมต่อ เพื่อการสังเกตการณ์บนอวกาศและภาคพื้นดิน เพนตากอน ภาพจาก วิกิพีเดีย ที่มา - Readwrite   ", 
  "Date": "20/June/2016", 
  "Image-Link": [
    "https://www.blognone.com/sites/default/files/styles/thumbnail/public/topics-images/Flag_of_the_United_States.svg_.png?itok=D_Hwf4EE", 
    "http://i.imgur.com/Re6W58L.jpg", 
    "/sites/all/themes/blognone42/images/linebutton.png"
  ], 
  "Link": "https://www.blognone.com/node/82468", 
  "News": "รัฐบาลสหรัฐฯลงทุนเรื่อง IoT สูงขึ้นเรื่อยๆ เน้นด้านการป้องกันประเทศ", 
  "Tags": [
    "USA", 
    "Internet of Things", 
    "Investment"
  ], 
  "Time": "19:40"
}