{
  "By": "mk", 
  "Contents": " ไมโครซอฟท์ให้ข้อมูลกับ Paul Thurrott บล็อกเกอร์สายวินโดวส์ชื่อดัง ว่าจะหยุดผลิต Surface 3 ช่วงสิ้นปี 2016 นี้ และตอนนี้สินค้าในสต๊อกก็มีจำนวนจำกัดแล้ว (ในเว็บ Microsoft Store ตอนนี้เหลือรุ่นย่อยเดียวคือ 64GB/RAM 2GB/Wi-Fi + LTE จากทั้งหมด 4 รุ่นย่อย) ส่วนการเปิดตัว Surface 4 จะเกิดขึ้นเมื่อไรยังไม่ระบุ และ Thurrott เองก็ยอมรับว่าไม่ทราบข่าววงในใดๆ เลยเหมือนกัน ที่มา - Thurrott    ", 
  "Date": "24/June/2016", 
  "Image-Link": [
    "https://www.blognone.com/sites/default/files/styles/thumbnail/public/topics-images/surface-3.png?itok=Ia8CZq-r", 
    "https://i.imgur.com/cNYQQUc.jpg", 
    "/sites/all/themes/blognone42/images/linebutton.png"
  ], 
  "Link": "https://www.blognone.com/node/82646", 
  "News": "ไมโครซอฟท์ประกาศหยุดผลิต Surface 3 สิ้นปีนี้, สต๊อกสินค้าเดิมเริ่มหมดแล้ว", 
  "Tags": [
    "Surface 3", 
    "Microsoft"
  ], 
  "Time": "22:43"
}