{
    "By": "Blltz", 
    "Contents": "\nหลังจาก Xiaomi พลาดเป้ายอดขายปี 2015 ที่ตั้งไว้ราว 80 ล้านเครื่อง (ลดจากตอนแรก 100 ล้านเครื่อง) โดยมีรายงานว่าขายได้ประมาณ 70 ล้านเครื่อง ก็มีรายงานว่าอดีตไฟรุ่งพุ่งแรงจากจีนกำลังปรับแผนการทำตลาดครั้งใหญ่เพื่อรับมือกับยอดขายที่ไม่ถึงเป้านี้แล้ว\nตามรายงานที่อ้างข้อมูลจากเอกสารภายในระบุว่าในปี 2016 นี้ Xiaomi จะเพิ่มหน้าร้านสำหรับวางขายสมาร์ทโฟนของตัวเองเป็นเท่าตัว ขัดกับแนวทางที่ทำตลอดมาคือการขายผ่านออนไลน์ ซึ่งนักวิเคราะห์มองว่าเริ่มถึงขีดจำกัดแล้ว ประกอบกับแรงกดดันจากคู่แข่งในประเทศทำให้ Xiaomi ต้องปรับตัวตามแบบนี้\nเพิ่มเติมจากแหล่งข่าววงในระบุว่า Xiaomi จะเปิดร้าน Mi Home เพิ่มจาก 20 แห่งเป็น 50 แห่งภายในปีนี้ โดยเป็นที่น่ากังวลว่าการที่ Xiaomi ลงมาเปิดหน้าร้านออฟไลน์มากขึ้น จะเพิ่มต้นทุนในการดำเนินงานจนอาจคงราคาย่อมเยาแบบเดิมต่อไปไม่ไหว ซึ่งถ้าหากขึ้นราคาก็จะมีผลกับยอดขายเช่นกัน\nในปี 2015 ที่ผ่านมา คาดกันว่า Xiaomi ยังคงยอดขายจากออนไลน์มากกว่า 60% แต่มีแนวโน้มจะลดลงในปีนี้จากความพยายามในการดันหน้าร้านออฟไลน์มากขึ้น\nที่มา - Reuters\n\nRedmi 2 สมาร์ทโฟนที่น่าจะขายดีสุดในปี 2015 ของ Xiaomi\n", 
    "Date": "22/01/16", 
    "Image-Link": "https://www.blognone.com/sites/default/files/imagecache/news-thumbnail/category_pictures/mi.png", 
    "Link": "https://www.blognone.com/node/76997", 
    "News": "Xiaomi เตรียมแผนผุดร้าน Mi Home เพิ่มเป็นเท่าตัวในปี 2016 ฉุดยอดขายให้ถึงเป้า", 
    "Tags": "China\nMobile\nXiaomi\n", 
    "Time": "0:08"
}