{
    "By": "lew", 
    "Contents": "\nLet's Encrypt บริการออกใบรับรองยืนยันตัวตนของเซิร์ฟเวอร์ฟรีเปิดตัวตั้งแต่ปลายปีที่แล้ว ทำให้ผู้ให้บริการเว็บไซต์ต่างๆ สามารถเปิดให้บริการ HTTPS ได้ฟรีโดยลูกค้าไม่ต้องเสียค่าใบรับรองเพิ่มอีก ตอนนี้บริการโฮสติ้งรายใหญ่อย่าง DreamHost ก็ประกาศรองรับ Let's Encrypt แล้ว\nทาง DreamHost ออกมาประกาศตั้งแต่แรกๆ ว่าสนับสนุน Let's Encrypt แต่เพิ่งอิมพลีเมนต์ระบบสำเร็จโดยลูกค้าเพียงแค่กดเลือกเปิดในหน้าจอคอนฟิกเพียงครั้งเดียวก็จะใช้ HTTPS ได้ทันที ส่วนลูกค้าที่ต้องการใช้ใบรับรองแบบเสียเงินก็ยังเลือกใช้ได้ตามปกติ\nDreamHost มีผู้ใช้กว่าสี่แสนราย การที่บริการโฮสติ้งขนาดใหญ่เช่นนี้เปิดรองรับ Let's Encrypt ก็น่าจะช่วยให้เว็บรองรับ HTTPS เพิ่มขึ้นอย่างรวดเร็ว\nสำหรับในไทย ผมสำรวจโฮสติ้งที่รองรับ Let's Encrypt ล่าสุดมี THZ Hosting, Ruk-Com Hosting, PORAR, bchoice, P&T Hosting\nที่มา - DreamHost\n", 
    "Date": "22/01/16", 
    "Image-Link": "https://www.blognone.com/sites/default/files/imagecache/news-thumbnail/category_pictures/4vBYgpew_0_0.png", 
    "Link": "https://www.blognone.com/node/77016", 
    "News": "DreamHost บริการโฮสติ้งขนาดใหญ่ รองรับ Let's Encrypt แล้ว", 
    "Tags": "HTTPS\nLet's Encrypt\n", 
    "Time": "12:35"
}