{
    "By": "mk", 
    "Contents": "\nChrome 48 เข้าสู่สถานะ stable โดยเวอร์ชันเดสก์ท็อปไม่มีฟีเจอร์ใหม่ เน้นแก้บั๊กและอุดช่องโหว่ ส่วนเวอร์ชัน Android มีฟีเจอร์เพิ่มมาเล็กน้อย เช่น เปิดให้เว็บส่งภาพขึ้นจอ Chromecast, ระบบแจ้งเตือนแบบมีปุ่มตอบโต้ได้\nทีมงาน Chrome ยังประกาศว่ากูเกิลเตรียมใช้อัลกอริทึมบีบอัดข้อมูลตัวใหม่ชื่อ Brotli มาแทนอัลกอริทึมตัวเก่าชื่อ Zopfli โดยมีประสิทธิภาพดีกว่าเดิม 17-25% (ใช้งานได้เฉพาะบน HTTPS) ทางทีมบอกว่า Brotli จะเริ่มใช้งานในเร็วๆ นี้แต่ไม่ได้บอกชัดว่าเปิดใช้ทัน Chrome 48 ด้วยหรือไม่\nที่มา - Chrome Releases, 9to5google\n\n", 
    "Date": "22/01/16", 
    "Image-Link": "https://www.blognone.com/sites/default/files/imagecache/news-thumbnail/category_pictures/chrome-2015.png", 
    "Link": "https://www.blognone.com/node/77002", 
    "News": "Chrome 48 ออกแล้ว เตรียมใช้อัลกอริทึมบีบอัดข้อมูลตัวใหม่ Brotli", 
    "Tags": "Browser\nChrome\nGoogle\n", 
    "Time": "8:32"
}