{
  "By": "nutmos", 
  "Contents": " Google เริ่มสอบถามผู้ใช้เกี่ยวกับไอเดียของ Chromebook Pro ผ่านแอพ Google Opinion Rewards สำหรับ Android (แอพนี้เมื่อตอบคำถามเสร็จจะได้เครดิตสำหรับใช้งานใน Google Play ด้วย) มีผู้ใช้สองคนใน Reddit ที่พูดถึงการถามเกี่ยวกับ Chromebook Pro โดยคนแรกคือ feetextreme ได้โพสต์ภาพหน้าจอที่แสดงคำถามว่า \"How would you think Chromebook Pro is different than a Chromebook?\" กับผู้ใช้อีกคนคือ jellofort ได้บอกเพียงว่า Google แสดงคำถามว่า \"what a Chromebook Pro should be like in my opinion and what type of people would want to use it\" คาดว่า Chromebook Pro นั้นคงจะเป็นคอมพิวเตอร์พกพาระดับสูงที่รัน Chrome OS โดยวางตลาดในตำแหน่งเดียวกับ MacBook Pro หรือ Surface Pro 4 และการถามคำถามแบบนี้ของ Google ก็มีโอกาสเป็นไปได้ที่ Google อาจจะเลือกทำ Chromebook Pro ด้วยตัวเอง หรืออาจจะแค่อยากทราบความเห็นของผู้ใช้เพื่อนำไปพัฒนา Chromebook Pro กับบริษัทอื่น ๆ ก็ได้ ที่มา - VentureBeat   ", 
  "Date": "27/June/2016", 
  "Image-Link": [
    "https://www.blognone.com/sites/default/files/styles/thumbnail/public/topics-images/C720-zoom-big.png?itok=LlppYcGm", 
    "/sites/all/themes/blognone42/images/linebutton.png"
  ], 
  "Link": "https://www.blognone.com/node/82689", 
  "News": "Google เริ่มสอบถามผู้ใช้เกี่ยวกับไอเดียของ Chromebook Pro", 
  "Tags": [
    "Chromebook", 
    "Google"
  ], 
  "Time": "07:24"
}