{
  "By": "nutmos", 
  "Contents": " WhatsApp ก็ได้ประกาศยอดการใช้งานของการสนทนาด้วยเสียงของบริการแล้ว ซึ่งสูงกว่า 100 ล้านครั้งต่อวัน หรือเมื่อคิดเป็นวินาทีคือมีจำนวนคนที่โทรผ่านบริการมากกว่า 1,100 ครั้งต่อวินาที และ WhatsApp สัญญาว่าจะทำให้บริการนี้ดีขึ้นในอีกไม่กี่เดือนถัดไป บริการการสนทนาด้วยเสียง หรือการโทรผ่านอินเทอร์เน็ตของ WhatsApp ทั้งบน iOS และ Android แม้ว่าจะเป็นน้องใหม่ที่เปิดบริการได้เพียง 1 ปีกว่า ๆ แต่ก็ถือว่าเติบโตเร็วมากเนื่องจากจำนวนผู้ใช้ที่มากมายของ WhatsApp นั่นเอง ที่มา - WhatsApp    ", 
  "Date": "24/June/2016", 
  "Image-Link": [
    "https://www.blognone.com/sites/default/files/styles/thumbnail/public/topics-images/whatsapp.png?itok=KzSwXlnq", 
    "http://i.cubeupload.com/KivQrW.gif", 
    "/sites/all/themes/blognone42/images/linebutton.png"
  ], 
  "Link": "https://www.blognone.com/node/82610", 
  "News": "WhatsApp ประกาศมีผู้ใช้บริการสนทนาด้วยเสียงกว่า 100 ล้านคนต่อวัน", 
  "Tags": [
    "WhatsApp"
  ], 
  "Time": "07:50"
}