{
  "By": "nuntawat", 
  "Contents": " ไมโครซอฟท์ปล่อย Windows 10 และ Windows 10 Mobile รุ่นทดสอบ 14372 ให้ Windows Insider กลุ่ม Fast ring แล้ว รุ่นทดสอบนี้เน้นแก้บั๊กเป็นหลัก มี known issue ฝั่งพีซี คือ คลิกการเชื่อมต่อเครือข่ายหรือ VPN ที่ทาสก์บาร์แล้วไม่เข้าหน้าตั้งค่า และเมื่อเปิดใช้โหมดนักพัฒนาจะเจอ error ส่วน known issue ฝั่งโมบายนั้น คือ มีการปรับฟอร์แมตของไฟล์สำรองข้อมูล หากถอยกลับไป Windows 10 Mobile ตัวจริง (รุ่น 10586) แล้วกู้คืนข้อมูลจะไม่คืนค่า Start screen รวมถึงมีปัญหาแบตเตอรี่บนเครื่องใช้ชิปรุ่น 8974 อย่าง Lumia 830, 930 และ 1520 หมดเร็ว และการเชื่อมต่อไวไฟหลุดเอง การนี้ ไมโครซอฟท์ได้เปิดให้ดาวน์โหลดส่วนเสริม (extension) Evernote Web Clipper for Microsoft Edge ด้วย แต่ก็มี known issue อยู่ อาทิ ส่วนเสริมไม่โหลดในบางเว็บไซต์ เป็นต้น ที่มา: Microsoft - Windows Experience Blog   ", 
  "Date": "24/June/2016", 
  "Image-Link": [
    "https://www.blognone.com/sites/default/files/styles/thumbnail/public/topics-images/Windows_logo_Cyan_rgb_D.png?itok=bKOyx4bD", 
    "/sites/all/themes/blognone42/images/linebutton.png"
  ], 
  "Link": "https://www.blognone.com/node/82613", 
  "News": "ไมโครซอฟท์ปล่อย Windows 10/Windows 10 Mobile รุ่นทดสอบ 14372", 
  "Tags": [
    "Windows 10", 
    "Windows 10 Mobile", 
    "Microsoft", 
    "Evernote", 
    "Microsoft Edge"
  ], 
  "Time": "08:37"
}