{
  "By": "mk", 
  "Contents": " แม้ชะตาชีวิตของ Boston Dynamics บริษัทหุ่นยนต์ภายใต้ Alphabet ยังไม่ชัดเจน (ท่ามกลางข่าวว่า Toyota จะซื้อต่อ) แต่ทางทีมวิจัยก็ยังเดินหน้าสร้างหุ่นยนต์ต่อไป หุ่นตัวใหม่ล่าสุดชื่อ SpotMini เป็นหุ่นสุนัขเวอร์ชันใหม่ที่พัฒนาขึ้นจากเดิม จุดเด่นของ SpotMini ที่ต่างจากหุ่นรุ่นก่อนๆ ของ Boston Dynamics คือมันมีหัวแล้ว (ก่อนหน้านี้หุ่นสุนัขของ Boston Dynamics ไม่มีหัวเลย) โดยหัวจะทำหน้าที่เป็นปากคีบใช้หยิบจับของได้ ในคลิปวิดีโอได้สาธิต SpotMini สามารถหยิบกระป๋องน้ำอัดลมที่วางอยู่ในตำแหน่งสูง เพื่อทิ้งลงถังขยะได้ ส่วนของการเคลื่อนไหว ในคลิปสาธิตการวางเปลือกกล้วยดักให้ SpotMini ลื่นล้ม ซึ่งหุ่นยนต์ก็สามารถลุกขึ้นมาได้อย่างไม่ยากอะไร นอกจากนี้ Spotmini ยังออกแบบมาให้เสียงเงียบกว่าหุ่นรุ่นก่อนๆ มาก เป้าหมายของ Boston Dynamics คือสร้างหุ่นที่มีขนาดเล็กลง เสียงเงียบลง สะอาดกว่าเดิม เหมาะสำหรับใช้งานภายในบ้านนั่นเอง ที่มา - Ars Technica   ", 
  "Date": "26/June/2016", 
  "Image-Link": [
    "https://www.blognone.com/sites/default/files/styles/thumbnail/public/topics-images/alphabet-logo.png?itok=9wp0oRvy", 
    "/sites/all/themes/blognone42/images/linebutton.png"
  ], 
  "Link": "https://www.blognone.com/node/82675", 
  "News": "Boston Dynamics โชว์หุ่นยนต์สุนัขรุ่นใหม่ เหยียบเปลือกกล้วยล้มแล้วลุกขึ้นมาได้", 
  "Tags": [
    "Robotics", 
    "Alphabet"
  ], 
  "Time": "13:21"
}