{
  "By": "sunnywalker", 
  "Contents": " มหาวิทยาลัย Dartmouth ที่รัฐ New Hampshire ของสหรัฐ มีผู้หญิงจบการศึกษาด้านวิศวกรรมศาสตร์มากกว่าผู้ชายแล้ว จากผลสำรวจของ AASE (American Society for Engineering Education) ระบุว่าช่วง 2-3 ปีหลังมานี้ผู้หญิงสนใจและศึกษาวิศวกรรมมากขึ้น โดยชั้นเรียนวิศวกรรมที่ Dartmouth มีอัตราส่วนผู้หญิงจบการศึกษา 37% ในปี 2015 ส่วนปีนี้ 2016 ตัวเลขเพิ่มขึ้นมาเป็น 54% สูงกว่าผู้ชายแล้ว และสูงกว่าค่าเฉลี่ยกลางของมหาวิทยาลัยอื่นๆ รวมกัน Joseph Helble คณบดีภาควิศวกรรมบอกว่า เราสามารถสร้างแรงดึงดูดให้คนสนใจเรียนด้านนี้มากขึ้น โดยเฉพาะผู้หญิง โดยให้ใช้ทักษะทางวิศวกรรมแก้ไขปัญหาที่เกิดขึ้นจริง ทำให้รู้ว่าวิศวกรรมเปลี่ยนแปลงสิ่งต่างๆ ได้อย่างไร มหาวิทยาลัย Dartmouth ภาพจาก วิกิพีเดีย ที่มา - Techcrunch   ", 
  "Date": "21/June/2016", 
  "Image-Link": [
    "https://www.blognone.com/sites/default/files/styles/thumbnail/public/topics-images/542px-Heterosexuality_symbol.svg_.png?itok=OFK2f0c4", 
    "http://i.imgur.com/zHLdqvf.jpg", 
    "/sites/all/themes/blognone42/images/linebutton.png"
  ], 
  "Link": "https://www.blognone.com/node/82510", 
  "News": "มหาวิทยาลัย Dartmouth มีผู้หญิงจบการศึกษาวิศวกรรมศาสตร์มากกว่าผู้ชายแล้ว", 
  "Tags": [
    "Gender", 
    "Engineering", 
    "Education"
  ], 
  "Time": "13:32"
}