{
  "By": "mk", 
  "Contents": " NetApp เปิดตัวระบบปฏิบัติการสำหรับอุปกรณ์สตอเรจ ONTAP เวอร์ชัน 9 ของใหม่ในเวอร์ชันนี้มีหลายอย่าง ดังนี้  ออกแบบมาเพื่อสตอเรจแบบแฟลช ทั้งในเรื่องความจุและประสิทธิภาพ ตอนนี้ NetApp มี SSD ขนาด 15TB วางขายแล้ว ซึ่งจะช่วยเร่งการเปลี่ยนผ่านโลกสตอเรจเข้าสู่ยุคของแฟลชให้เร็วขึ้น ติดตั้งและคอนฟิกง่าย ใช้เวลาไม่ถึง 10 นาทีก็รันงานได้แล้ว มีความยืดหยุ่น รองรับสตอเรจทุกประเภท ไม่ว่าจะเป็นฮาร์ดดิสก์ แฟลช คลาวด์ มองเป็นสตอเรจข้อมูลผืนเดียวกัน (unified storage) บริหารจัดการได้จากที่เดียว ปรับปรุงความปลอดภัยของข้อมูลจากปัญหาฮาร์ดแวร์ล้มเหลว มีฟีเจอร์ใหม่ๆ อย่าง  triple-parity RAID  เพิ่มเข้ามา  ที่มา - NetApp    ", 
  "Date": "23/June/2016", 
  "Image-Link": [
    "https://www.blognone.com/sites/default/files/styles/thumbnail/public/topics-images/netapp.png?itok=th3nXYtF", 
    "http://i.imgur.com/FkgYlXy.jpg", 
    "/sites/all/themes/blognone42/images/linebutton.png"
  ], 
  "Link": "https://www.blognone.com/node/82598", 
  "News": "NetApp เปิดตัวซอฟต์แวร์ ONTAP 9 ชูจุดเด่นปรับแต่งมาเพื่อสตอเรชแบบแฟลช", 
  "Tags": [
    "NetApp", 
    "Storage", 
    "Enterprise"
  ], 
  "Time": "19:05"
}