{
  "By": "nismod", 
  "Contents": " YouTube ออกเครื่องมือ YouTube Director suite of product สำหรับเจ้าของธุรกิจที่ต้องการทำวิดีโอโฆษณาธุรกิจของตัวเอง โดยเครื่องมือนี้แบ่งเป็น 3 รูปแบบย่อย   แอพ YouTube Director for Business สำหรับเจ้าของธุรกิจที่ไม่มีทักษะในการตัดต่อวิดีโอ แต่ต้องการทำคลิปด้วยตัวเอง โดยตอนนี้แอพนี้มีให้เฉพาะบน iOS และจำกัดเฉพาะในสหรัฐและแคนาดาก่อน   YouTube Direct Onsite สำหรับคนที่ต้องการทำวิดีโอแบบมืออาชีพ โดยทาง YouTube จะส่งนักถ่ายหนังมืออาชีพไปถ่ายและตัดต่อวิดีโอให้ และจะไม่คิดเงินสำหรับธุรกิจที่ซื้อโฆษณาบน YouTube เกิน $150 ขึ้นไป ตอนนี้บริการนี้จำกัดเฉพาะบางเมืองในสหรัฐก่อน   บริการ YouTube Director automated video สำหรับสร้างวิดีโอโฆษณาขึ้นจากโลโก้หรือสกรีนช็อตของแอพใน App Store หรือ Play Store โดยบริการนี้เปิดให้ทั่วโลกและผู้ที่สนใจต้องติดต่อผ่าน Google เพื่อสอบถามข้อมูลเพิ่มเติม   ที่มา - YouTube Blog   ", 
  "Date": "20/June/2016", 
  "Image-Link": [
    "https://www.blognone.com/sites/default/files/styles/thumbnail/public/topics-images/youtube300.png?itok=YF7mGiqj", 
    "/sites/all/themes/blognone42/images/linebutton.png"
  ], 
  "Link": "https://www.blognone.com/node/82470", 
  "News": "YouTube ออกเครื่องมือสร้างวิดีโอสำหรับธุรกิจที่ต้องการทำโฆษณาเอง", 
  "Tags": [
    "YouTube", 
    "Advertisement", 
    "Online Video"
  ], 
  "Time": "21:01"
}