{
  "By": "nismod", 
  "Contents": " Incipio ผู้ผลิตอุปกรณ์เสริมบนสมาร์ทโฟน ประกาศเข้าซื้อหุ้นของ Skullcandy บริษัทหูฟังหุ้นละ 5.75 เหรียญสหรัฐ เป็นจำนวนเงินทั้งหมด 177 ล้านเหรียญสหรัฐ หลังการเข้าซื้อครั้งนี้ เบื้องต้นยังไม่มีการเปลี่ยนแปลงกับ Skullcandy ใดๆ ทั้งสิ้น ผลิตภัณฑ์และแบรนด์ของ Skullcandy ยังคงเหมือนเดิมทุกอย่าง ยกเว้นแค่การกลายมาเป็นบริษัทลูกของ Incipio เท่านั้น ที่มา - TalkAndroid   ", 
  "Date": "30/June/2016", 
  "Image-Link": [
    "https://www.blognone.com/sites/default/files/styles/thumbnail/public/news-thumbnails/incipio-logo.jpg?itok=iqm7Wt9I", 
    "/sites/all/themes/blognone42/images/linebutton.png"
  ], 
  "Link": "https://www.blognone.com/node/82852", 
  "News": "Incipio ผู้ผลิตอุปกรณ์เสริมสมาร์ทโฟนเข้าซื้อบริษัทหูฟัง Skullcandy กว่า 177 ล้านเหรียญ", 
  "Tags": [
    "Acquisition", 
    "Accessories"
  ], 
  "Time": "13:45"
}