{
  "By": "mk", 
  "Contents": " บริษัท Crytek เจ้าของเอนจินเกม CryEngine อัพโหลดซอร์สโค้ดทั้งหมดของเอนจินขึ้นไปไว้บน GitHub เพื่อให้นักพัฒนาเกมสามารถดูและเปรียบเทียบซอร์สโค้ดได้สะดวก ที่ผ่านมา Crytek เผยแพร่ซอร์สโค้ดของ CryEngine ให้นักพัฒนาอยู่แล้ว เพียงแต่แจกไฟล์เป็นก้อน zip แถมมากับตัวเอนจิน การนำโค้ดขึ้น GitHub เป็นการอำนวยความสะดวกให้นักพัฒนาเกมมากขึ้น นักพัฒนาสามารถเปรียบเทียบดูได้ว่า CryEngine แต่ละเวอร์ชันมีข้อแตกต่างกันอย่างไร การนำซอร์สโค้ดขึ้น GitHub มีจุดประสงค์เพื่อให้นักพัฒนาเข้าถึงโค้ดได้ง่ายเท่านั้น ตัวไลเซนส์ของซอร์สโค้ดยังเป็นของ Crytek ทั้งหมด และบริษัทก็ไม่ได้เปิดรับโค้ดจากนักพัฒนาภายนอก การนำไปใช้งานยังต้องซื้อไลเซนส์ในเชิงพาณิชย์เช่นเดิม ที่มา - CryEngine, VentureBeat CRYENGINE. GIT. NOW!https://t.co/o03vLv1GoA — CRYENGINE (@cryengine) May 24, 2016    ", 
  "Date": "26/May/2016", 
  "Image-Link": [
    "https://www.blognone.com/sites/default/files/styles/thumbnail/public/topics-images/cryengine.png?itok=l0PIpLDR", 
    "https://i.imgur.com/2lby5nw.jpg", 
    "/sites/all/themes/blognone42/images/linebutton.png"
  ], 
  "Link": "https://www.blognone.com/node/81431", 
  "News": "Crytek เปิดซอร์สโค้ดทั้งหมดของ CryEngine ขึ้น GitHub", 
  "Tags": [
    "CryEngine", 
    "Game Engine", 
    "Crytek", 
    "GitHub"
  ], 
  "Time": "11:03"
}