{
  "By": "sunnywalker", 
  "Contents": " P&G บริษัทผลิตสินค้าโภคภัณฑ์ และ Alibaba VR Lab ร่วมมือกันทำแคมเปญการตลาดขายสินค้าโภคภัณฑ์ในคอนเซปต์วาเลนไทน์ โดยมี Yang Yang และ Dilireba ดาราไอดอลของจีนเป็นพรีเซนเตอร์  วิธีการคือ เมื่อสวมใส่ VR แล้วจะได้รับประสบการณ์ใกล้ชิดกับเหล่าไอดอลพวกเขาจะช่วยปลุกคุณจากที่นอน ทำอาหารให้กิน และพาไปชอปปิ้งสินค้าของ P&G ซื้อสินค้าง่ายขึ้นด้วยการคลิกเพิ่มเติมสินค้าเข้ามาในตะกร้า Alibaba ประกาศยุทธศาสตร์โปรโมทการขายสินค้าผ่าน VR ด้วยโปรแกรม \"Buy+\" และฮาร์ดแวร์ของ VR ซึ่งคิดค้นขึ้นใน VR Lab ด้วยเห็นว่าคนรุ่นใหม่มีพัฒนาการทางการสื่อสารผ่านเทคโนโลยีโดยเฉพาะ Virtual Reality ส่วน P&G ก็เล็งเห็นว่าเทคโนโลยีดังกล่าวจะช่วยให้บริษัทเข้าถึงผู้บริโภคมากขึ้นอีกขั้น ที่มา - PRNewswire     ", 
  "Date": "21/May/2016", 
  "Image-Link": [
    "https://www.blognone.com/sites/default/files/styles/thumbnail/public/topics-images/Google-Cardboard.jpg?itok=eNYzQ5vD", 
    "http://i.imgur.com/oGRyarH.jpg", 
    "http://i.imgur.com/N7D4W0r.jpg", 
    "/sites/all/themes/blognone42/images/linebutton.png"
  ], 
  "Link": "https://www.blognone.com/node/81246", 
  "News": "ให้ไอดอลพาไปซื้อสินค้าในโลก VR แคมเปญการตลาดใหม่ของ P&G และ Alibaba", 
  "Tags": [
    "Virtual Reality", 
    "P&G", 
    "Alibaba"
  ], 
  "Time": "12:37"
}