{
  "By": "nismod", 
  "Contents": " PayPal ประกาศปิดการให้บริการในประเทศตุรกีตั้งแต่วันที่ 6 มิถุนายนนี้เป็นต้นไป ทั้งแบบหน้าร้านและออนไลน์ โดยสาเหตุสำคัญมาจากการที่ PayPal ไม่สามารถย้ายระบบและโครงสร้างพื้นฐานด้านไอทีทั้งหมดมาไว้ในประเทศตามกฎหมายฉบับใหม่ได้ จนเป็นเหตุให้ไม่ได้รับการต่อใบอนุญาตประกอบกิจการ โฆษกของ PayPal ระบุว่ายอดเงินของชาวตุรกีที่มีอยู่ในระบบทั้งหมด จะถูกโอนไปยังบัญชีธนาคารของตุรกี ซึ่งการปิดกิจการนี้จะส่งผลกระทบต่อธุรกิจและลูกค้าหลายแสนคนในประเทศ ที่มา - TechCrunch   ", 
  "Date": "1/June/2016", 
  "Image-Link": [
    "https://www.blognone.com/sites/default/files/styles/thumbnail/public/topics-images/paypal-big.png?itok=-2j6sqPS", 
    "/sites/all/themes/blognone42/images/linebutton.png"
  ], 
  "Link": "https://www.blognone.com/node/81697", 
  "News": "PayPal ระงับการให้บริการในตุรกี เหตุกฎหมายไม่เอื้อให้เปิดต่อ", 
  "Tags": [
    "PayPal", 
    "Turkey"
  ], 
  "Time": "11:55"
}