{
  "By": "mk", 
  "Contents": " Zend Framework เฟรมเวิร์คยอดนิยมสำหรับภาษา PHP ออกเวอร์ชันใหม่ Zend Framework 3 หลังพัฒนามานานเกือบ 4 ปี จุดเด่นสำคัญของเวอร์ชันนี้คือรองรับ PHP 7 ที่เปิดตัวเมื่อปลายปีที่แล้ว ของใหม่อย่างอื่นได้แก่การปรับปรุงประสิทธิภาพ (เพิ่มขึ้นสูงสุด 4 เท่าบน PHP 5 และดีขึ้นบน PHP 7 ด้วย), ปรับปรุงเรื่องการแยกแพ็กเกจของตัวเฟรมเวิร์คให้ไม่ซ้ำซ้อน นำมาใช้ซ้ำได้ง่ายขึ้น, ปรับปรุงเอกสารให้พัฒนาขึ้นมาก ในโอกาสเดียวกับที่ Zend Framework 3 ออกตัวจริง ทางบริษัท Rogue Wave Software ก็ประกาศหยุดสนับสนุน Zend Framework เวอร์ชัน 1 ในวันที่ 28 กันยายน 2016 และแนะนำให้ลูกค้าย้ายแอพพลิเคชันมารันบน Zend Framework 2/3 แทน ที่มา - Zend Blog    ", 
  "Date": "4/July/2016", 
  "Image-Link": [
    "https://www.blognone.com/sites/default/files/styles/thumbnail/public/topics-images/zend.png?itok=XgA43I5p", 
    "https://i.imgur.com/NxLq1Te.jpg", 
    "/sites/all/themes/blognone42/images/linebutton.png"
  ], 
  "Link": "https://www.blognone.com/node/82956", 
  "News": "Zend Framework ออกเวอร์ชัน 3, ประกาศหยุดซัพพอร์ตเวอร์ชัน 1", 
  "Tags": [
    "Zend", 
    "PHP", 
    "Framework"
  ], 
  "Time": "09:41"
}