{
  "By": "nrad6949", 
  "Contents": " วันนี้ HP ประกาศเปิดตัว Chromebook 11 G5 ภาคต่อของโน้ตบุ๊กที่ใช้ระบบปฏิบัติการ Chrome OS สำหรับผู้ใช้ทั่วไป โดยมีการปรับปรุงสเปกให้ทันสมัย แบตเตอรี่อยู่ได้นานขึ้น แต่ยังคงมีราคาถูกเช่นเดิม HP ระบุว่ารุ่นนี้ยังคงใช้จอขนาด 11.6 นิ้ว IPS แต่เปลี่ยนหน่วยประมวลผลเป็น Intel Celeron N3060 พร้อมกับปรับปรุงขอบจอให้บางลง และมีตัวเลือกในบางรุ่นเป็นหน้าจอแบบสัมผัสด้วย บริษัทระบุว่าแบตเตอรี่สามารถใช้ได้นาน 12.5 ชั่วโมงในรุ่นที่ไม่ใช่จอสัมผัส ราคาเริ่มต้นอยู่ที่ 189 ดอลลาร์ (ประมาณ 6,600 บาท) โดยจะเริ่มต้นจำหน่ายผ่านคู่ค้าสำหรับบริษัทหรือองค์กรขนาดใหญ่ก่อนในเดือนหน้า ก่อนที่จะเริ่มวางขายทั่วไปในเดือนตุลาคม ที่มา - HP    ", 
  "Date": "28/June/2016", 
  "Image-Link": [
    "https://www.blognone.com/sites/default/files/styles/thumbnail/public/topics-images/hp.png?itok=wwPRX9uc", 
    "https://i.imgur.com/7n5g09o.png", 
    "/sites/all/themes/blognone42/images/linebutton.png"
  ], 
  "Link": "https://www.blognone.com/node/82736", 
  "News": "HP เปิดตัว Chromebook 11 G5 ปรับปรุงสเปก แบตอยู่ได้นานขึ้น ราคาถูกเช่นเดิม", 
  "Tags": [
    "HP", 
    "Chromebook", 
    "Laptop", 
    "Chrome OS"
  ], 
  "Time": "10:17"
}