{
  "By": "mk", 
  "Contents": " Adobe ออกแพตช์ความปลอดภัยให้ Flash ครั้งใหญ่ รอบนี้อุดช่องโหว่ถึง 52 จุด ถือว่าเป็นแพตช์ที่ใหญ่ที่สุดในปีนี้ อย่างไรก็ตาม ช่องโหว่รอบนี้ยังไม่มีรายงานว่าถูกใช้งานจริงแต่อย่างใด เลขเวอร์ชันของ Flash ตอนนี้ขยับขึ้นมาเป็น 22.0.0.209 แล้ว (ของเดิม 22.0.0.192) คนที่ใช้ Chrome, IE, Edge สามารถอัพเดตจากตัวเบราว์เซอร์หรือระบบปฏิบัติการได้โดยตรง ส่วนเบราว์เซอร์ตัวอื่นๆ ก็รีบดาวน์โหลดอัพเดตแยกกันนะครับ ในโอกาสเดียวกัน Adobe ยังออก Acrobat Reader เวอร์ชันใหม่ที่อุดช่องโหว่อีก 30 จุดเช่นกัน เลขเวอร์ชันขยับเป็น 15.017.20050 (DC) และ 11.0.17 (XI) แนะนำให้รีบอัพเดตามครับ ที่มา - Adobe, ThreatPost   ", 
  "Date": "13/July/2016", 
  "Image-Link": [
    "https://www.blognone.com/sites/default/files/styles/thumbnail/public/topics-images/adobe.png?itok=VJhWB1K2", 
    "/sites/all/themes/blognone42/images/linebutton.png"
  ], 
  "Link": "https://www.blognone.com/node/83400", 
  "News": "อัพเดตกันด่วน Adobe ออกแพตช์ความปลอดภัยให้ Flash และ Acrobat Reader", 
  "Tags": [
    "Adobe", 
    "Adobe Flash", 
    "Acrobat", 
    "Security"
  ], 
  "Time": "20:20"
}