{
  "By": "nuntawat", 
  "Contents": " มี CTO จากบริษัทด้านซอฟต์แวร์แห่งหนึ่งลองพอร์ต Windows 95 ลง Apple Watch ของเขาเอง (ศึกษาวิธีการได้จากที่มาของข่าว) ใครอยากรู้ว่าการใช้งาน Windows 95 บน Apple Watch จะเป็นอย่างไร ก็เชิญชมคลิปเดโมที่ท้ายข่าว ที่มา: Tendigi Insights ผ่าน MSPoweruser   ", 
  "Date": "7/May/2016", 
  "Image-Link": [
    "https://www.blognone.com/sites/default/files/styles/thumbnail/public/topics-images/apple-watch.png?itok=OViyBycH", 
    "/sites/all/themes/blognone42/images/linebutton.png"
  ], 
  "Link": "https://www.blognone.com/node/80710", 
  "News": "จะเป็นอย่างไรเมื่อ Apple Watch รัน Windows 95?", 
  "Tags": [
    "Apple Watch", 
    "Hacking", 
    "Windows"
  ], 
  "Time": "12:21"
}