{
  "By": "trinakub", 
  "Contents": "
วันนี้ Tree of Savior อัพเดตแพทใหม่ เราสามารถ matchmaking ลงดันเจี้ยนสำหรับคนที่เล่นอยู่คนละเซิร์ฟเวอร์ โดยเซิร์ฟเวอร์ Telsiai กับ Varena สามารถเจอกันได้แล้วครับ
การอัพเดตยังทำให้เกม optimize ได้ดีขึ้น และใช้ทรัพยากรเครื่องน้อยลงกว่าเดิม ทำให้เกมไหลลื่นมากกว่าเดิมด้วยครับ
สำหรับคนที่อยากจับจ่าย TP ก็มีให้เสียเงินกันแล้วใน Rate ราว 2 บาท ต่อ 1 TP ครับ รายละเอียดเพิ่มเติมของแพทสามารถอ่านได้ที่ treeofsavior.com

ที่มา - treeofsavior.com
 ", 
  "Date": "1/June/2016", 
  "Image-Link": "https://www.blognone.com/sites/default/files/badges/badge-contributer.png", 
  "Link": "https://www.blognone.com/node/81674", 
  "News": "Tree of Savior อัพเดต ลงดันเจี้ยนข้ามเซิร์ฟเวอร์ได้แล้ว ปรับปรุงตัวเกมใหม่ ลื่นกว่าเดิม", 
  "Tags": [
    "Tree of Savior", 
    "Games", 
    "MMO"
  ], 
  "Time": "01:15"
}