{
  "By": "mk", 
  "Contents": " ยุคนี้ใครๆ ก็ออกฮาร์ดแวร์สายเกมมิ่ง ผู้เล่นรายล่าสุดที่เข้าสู่ตลาดคือ AOC ผู้ผลิตจอมอนิเตอร์จากไต้หวัน ประกาศแบรนด์ใหม่ AGON (ย่อมาจาก AOC-Gaming-Outstanding-New) สำหรับทำตลาดกลุ่มเกมเมอร์โดยเฉพาะ สินค้าตัวแรกของแบรนด์ AGON ย่อมเป็นจอมอนิเตอร์ มีทั้งรุ่นความละเอียด QHD และ 4K พ่วงด้วยฟีเจอร์ที่เกมเมอร์ต้องการ เช่น FreeSync/G-Sync, อัตรารีเฟรช 144Hz, AOC Game Mode ตัวช่วยอำนวยความสะดวกสำหรับปรับจอตามเกมประเภทต่างๆ ได้จากรีโมทแยกต่างหาก, Low Blue Light ตัวตัดแสงสีฟ้าเพื่อถนอมสายตา ฝั่งของฮาร์ดแวร์ ยังมีที่แขวนหูฟังไว้ข้างจอ ตัวปรับความสูงของจอแบบมีระยะกำกับด้วย จอรุ่น AG271QX ความละเอียด QHD จะเริ่มขายในเดือนมิถุนายนนี้ ราคา 599 ยูโร ที่มา - AOC Gaming, AOC Gaming    ", 
  "Date": "28/May/2016", 
  "Image-Link": [
    "https://www.blognone.com/sites/default/files/styles/thumbnail/public/news-thumbnails/agon.png?itok=-YBQ4-oF", 
    "//upic.me/i/1y/display.jpg", 
    "/sites/all/themes/blognone42/images/linebutton.png"
  ], 
  "Link": "https://www.blognone.com/node/81549", 
  "News": "AOC เปิดตัวแบรนด์ฮาร์ดแวร์เกมมิ่ง AGON เริ่มทำตลาดด้วยจอมอนิเตอร์", 
  "Tags": [
    "AOC", 
    "Display", 
    "Monitor", 
    "Hardware"
  ], 
  "Time": "18:34"
}