{
  "By": "nrad6949", 
  "Contents": " เมื่อต้นเดือนที่ผ่านมา Bentley ผู้ผลิตรถยนต์หรูจากอังกฤษประกาศเปิดตัวแอพสำหรับควบคุมรถรุ่น Bentayga ที่ใช้งานกับ Apple Watch อย่างเป็นทางการ คุณสมบัติของแอพดังกล่าวนี้จะทำให้เจ้าของรถยนต์ สามารถกำหนดได้ตั้งแต่แอร์และความเย็นในรถ ปรับเบาะที่นั่งและกำหนดการนวดของที่นั่งได้ กำหนดเพลงที่กำลังเล่น รวมถึงดูข้อมูลต่างๆ ของรถได้หมด โดยไม่ต้องขอให้คนขับรถทำให้แม้แต่น้อย บริษัทระบุว่าตัวแอพจะเชื่อมต่อด้วย Bluetooth ของรถยนต์ ทำให้สั่งทำงานได้ตามต้องการ ไม่มีระบุว่าเปิดให้ดาวน์โหลดเมื่อใดและอย่างไร (น่าจะเป็นการให้ดาวน์โหลดจาก Apple Store ตามปกติ) ใครที่มีรถรุ่นนี้และ Apple Watch ลองติดต่อทาง Bentley เพื่อลองใช้งานได้ครับ ที่มา - Bentley     ", 
  "Date": "13/May/2016", 
  "Image-Link": [
    "https://www.blognone.com/sites/default/files/styles/thumbnail/public/news-thumbnails/brand_0.png?itok=XzOg8ZOm", 
    "https://i.imgur.com/9FPhui3.jpg", 
    "https://i.imgur.com/3ZLttY1.jpg", 
    "/sites/all/themes/blognone42/images/linebutton.png"
  ], 
  "Link": "https://www.blognone.com/node/80924", 
  "News": "Bentley เปิดตัวแอพสำหรับควบคุมรถหรูรุ่น Bentayga บน Apple Watch", 
  "Tags": [
    "Luxury", 
    "Automobile", 
    "Bentley"
  ], 
  "Time": "10:29"
}