{
  "By": "nismod", 
  "Contents": " นอกจากฟีเจอร์ VPN ฟรีไม่จำกัดปริมาณข้อมูล และ ระบบบล็อคโฆษณาแล้ว ล่าสุด Opera ได้เพิ่มโหมดประหยัดพลังงานเข้ามาให้เบราว์เซอร์เวอร์ชันเดสก์ท็อป เพื่อช่วยลดการใช้พลังงานจากการใช้งานเบราว์เซอร์บนโน้ตบุ๊คลง ทาง Opera เคลมว่าเบราว์เซอร์เวอร์ชันใหม่นี้ จะช่วยประหยัดแบตเตอรี่ได้เพิ่มขึ้นถึง 50% เมื่อเทียบกับ Chrome หรือ Opera รุ่นเก่า โดยฟีเจอร์สามารถเปิดใช้งานอัตโนมัติ หากสายชาร์จของโน้ตบุ๊คถูกดึงออก หรือแบตเตอรี่ใกล้หมด โหมดประหยัดพลังงานนี้สามารถใช้ได้แล้วใน Opera เวอร์ชัน developer ทั้งบนวินโดวส์, Mac และ Linux ที่มา - Opera, TechCrunch    ", 
  "Date": "12/May/2016", 
  "Image-Link": [
    "https://www.blognone.com/sites/default/files/styles/thumbnail/public/topics-images/opera-500.png?itok=df7AEFnP", 
    "https://farm8.staticflickr.com/7558/26932696236_5605e38811_z.jpg", 
    "/sites/all/themes/blognone42/images/linebutton.png"
  ], 
  "Link": "https://www.blognone.com/node/80890", 
  "News": "Opera เพิ่มโหมดประหยัดพลังงานให้เบราว์เซอร์ ประหยัดแบตเพิ่มขึ้นถึง 50%", 
  "Tags": [
    "Opera", 
    "Browser"
  ], 
  "Time": "15:13"
}