{
  "By": "nismod", 
  "Contents": " ในปีนี้ ภาพยนตร์ที่สร้างจากเกม นอกจาก Warcraft แล้วยังมี Assassin's Creed ที่ได้ Michael Fassbender นักแสดงจากบทแม็กนีโต้ใน X-men และ Steve Jobs คนล่าสุดมารับบทตัวเอก โดยทาง Fox ได้เผยตัวอย่างแรกออกมาให้ชมแล้วครับ ภาพยนตร์เรื่องนี้ Fassbender จะรับบทเป็น Callum Lynch ลูกหลานของ Aguilar สมาชิกขององค์กรนักฆ่าในศตวรรษที่ 15 ก่อนที่ Lynch จะถูกฟื้นฟูความทรงจำ ความรู้และทักษะของบรรพบุรุษของตนขึ้นมา เพื่อจัดการกับองค์กรอัศวิน Templar ในปัจจุบัน Assassin's Creed จะเข้าโรงในช่วงคริสต์มาสปลายปีนี้ครับ ที่มา - Jimmy Kimmel Live, Assassin's Creed Wiki   ", 
  "Date": "12/May/2016", 
  "Image-Link": [
    "https://www.blognone.com/sites/default/files/styles/thumbnail/public/topics-images/Assassin%27s_Creed_Logo.svg_.png?itok=sU87gpLt", 
    "/sites/all/themes/blognone42/images/linebutton.png"
  ], 
  "Link": "https://www.blognone.com/node/80878", 
  "News": "ตัวอย่างภาพยนตร์ Assassin's Creed เผยโฉมแล้ว", 
  "Tags": [
    "Movie", 
    "Assassin’s Creed"
  ], 
  "Time": "12:37"
}