{
  "By": "lew", 
  "Contents": " Arduino SRL ประกาศความร่วมมือกับ Nordic Semiconductor เปิดตัวบอร์ดรุ่นใหม่ Arduino Primo ที่มีการเชื่อมต่อเต็มรูปแบบ Wi-Fi, Bluetooth LE, NFC, และอินฟราเรด ซอฟต์แวร์ภายในมี TCP/IP มาให้ในตัว ความสามารถในการเชื่อมต่อเช่นนี้ทำให้ Arduino Primo สามารถทำตัวเป็น IoT Gateway ได้ในตัว เพราะสามารถเชื่อมต่อ Bluetoot LE แล้วส่งข้อมูลไปยังเซิร์ฟเวอร์ผ่าน Wi-Fi ตัวซีพียูภายในเป็น Cortex-M4F 32 บิต ความสับสนในรอบนี้คือ Arduino ที่ร่วมมือกับทาง Nordic นั้นเป็น Arduino SRL (และถือเว็บ arduino.org) จากอิตาลี ไม่ใช่ Arduino LLC (ที่ใช้เว็บ arduino.cc) การที่ Arduino IDE รองรับบอร์ดนี้ก็ต้องเลือกดาวน์โหลดให้ถูกเว็บ ที่มา - PRNewsWire    ", 
  "Date": "19/May/2016", 
  "Image-Link": [
    "https://www.blognone.com/sites/default/files/styles/thumbnail/public/topics-images/9d19310763171b0d958d23a18b3d7e1c.png?itok=2QMAAdxg", 
    "//upic.me/i/py/368046.jpg", 
    "/sites/all/themes/blognone42/images/linebutton.png"
  ], 
  "Link": "https://www.blognone.com/node/81208", 
  "News": "Arduino Primo บอร์ดใหม่พร้อม Wi-Fi, Bluetooth LE, NFC, และอินฟราเรด จาก Arduino SRL", 
  "Tags": [
    "Arduino", 
    "Internet of Things"
  ], 
  "Time": "20:40"
}