{
  "By": "lew", 
  "Contents": " โครงการ Arduino ได้ตัวแทนจำหน่ายบอร์ด Genuino (แบรนด์สำหรับนอกสหรัฐฯ) อย่างเป็นทางการในไทยรายแรกคือ ThaiEasyElec เว็บขายอุปกรณ์อิเล็กทรอนิกส์ที่หลายคนคงเคยใช้บริการกันบ้างอยู่แล้ว ThaiEasyElec เปิดบริษัทขายอุปกรณ์อิเล็กทรอนิกส์มาตั้งแต่ปี 2004 และเปิดเว็บในปี 2006 และตั้งแต่ปี 2011 ยังมีบริการฝึกอบรมการพัฒนาตั้งแต่ลินุกซ์, Windows CE, ออกแบบบอร์ดด้วย Eagle, และบริการออกแบบบอร์ด งานนี้ถ้าใครอยากซื้อบอร์ดของแท้และสนับสนุนไปถึงโครงการ Arduino ก็มีทางเลือกกันแล้วครับ ที่มา - Arduino    ", 
  "Date": "8/June/2016", 
  "Image-Link": [
    "https://www.blognone.com/sites/default/files/styles/thumbnail/public/topics-images/9d19310763171b0d958d23a18b3d7e1c.png?itok=2QMAAdxg", 
    "//upic.me/i/lk/thaieasyelec-e1465131823705.jpg", 
    "/sites/all/themes/blognone42/images/linebutton.png"
  ], 
  "Link": "https://www.blognone.com/node/82024", 
  "News": "ThaiEasyElec ได้เป็นตัวแทนจำหน่าย Genuino (Arduino) เป็นทางการรายแรกในไทย", 
  "Tags": [
    "Arduino", 
    "Thailand"
  ], 
  "Time": "22:58"
}