{
  "By": "Lamicrosz", 
  "Contents": " Windows Insider โครงการที่เปิดให้กลุ่มผู้ใช้ที่สนใจ ได้ลองของใหม่ๆ ที่จะมาใน Windows 10 ซึ่งเปิดตัวมาตั้งแต่ปลายปี 2014 ล่าสุดหลัง Windows 10 ออกมาได้เกือบปี Gabriel Aul หัวหน้าทีม ได้ก้าวลงจากตำแหน่งแล้ว พร้อมส่งหน้าที่ต่อให้กับ Dona Sarkar Gabriel เผยสาเหตุว่า เนื่องด้วยการที่เขาได้ย้ายงานหลักไปคุมเกี่ยวกับวิศวกรรมระบบ (Engineering Systems) ทำให้หน้าที่ ที่ต้องแบกรับมีเยอะขึ้นและไม่สามารถให้ความสำคัญเต็มที่ ได้ทั้ง 2 อย่าง ซึ่งทางที่ดีที่สุด คือ การส่งต่อหน้าที่ให้กับคนที่สามารถทุ่มเทเวลาให้กับโครงการนี้ได้อย่างเต็มที่ Dona Sarkar เริ่มต้นทำงานให้กับไมโครซอฟท์ในการพัฒนา Windows Vista จนถึง Windows 10 รวมไปถึงในส่วนของ HoloLens ตลอดระยะเวลาที่ผ่านมา ได้มี Windows 10 ที่เปิดให้ทดสอบเป็นจำนวน 35 รุ่น และในส่วนของโทรศัพท์อีก 22 รุ่น ที่มา - Windows Experience Blog @gabeaul Passing the torch to @donasarkar! Or in this case, the big red button!  https://t.co/VRXpbc3iiK pic.twitter.com/EaMu0fpyRV — Windows Insider (@windowsinsider) June 1, 2016 Truthfully, it was hard to let go...@donasarkar #WindowsInsiders pic.twitter.com/kjNf0cDufM — Gabriel Aul (@GabeAul) June 1, 2016   ", 
  "Date": "3/June/2016", 
  "Image-Link": [
    "https://www.blognone.com/sites/default/files/styles/thumbnail/public/topics-images/Windows_logo_Cyan_rgb_D.png?itok=bKOyx4bD", 
    "/sites/all/themes/blognone42/images/linebutton.png"
  ], 
  "Link": "https://www.blognone.com/node/81777", 
  "News": "Gabriel Aul ก้าวลงจากตำแหน่งหัวหน้า Windows Insider, ส่งต่อให้ Dona Sarkar", 
  "Tags": [
    "Windows 10", 
    "Microsoft"
  ], 
  "Time": "01:58"
}