{
  "By": "nrad6949", 
  "Contents": " เว็บไซต์ VentureBeat รายงานสเปกของ Galaxy S7 Active โดยอ้างว่าได้เห็นเอกสารสเปกเต็มอย่างเป็นทางการ สิ่งที่ S7 Active มีความเปลี่ยนแปลงจากรุ่นปกติ คือขนาดที่หนาและใหญ่ขึ้นกว่าเดิม ซึ่งมาพร้อมกับน้ำหนักที่มากกว่าเดิม และแบตเตอรี่ขนาด 4,000 mAh แต่ยังคงขนาดหน้าจอที่ 5.1 นิ้ว ที่ความละเอียด 2K เหมือนกับ S7 รุ่นปกติ ทางเว็บไซต์ระบุว่าจะเปิดตัวกับทาง AT&T ในวันที่ 10 มิถุนายนนี้ ซึ่งต้องติดตามว่าข่าวลือหรือหลุดเรื่องสเปกนี้จะเป็นจริงมากน้อยเพียงใด ที่มา - VentureBeat   ", 
  "Date": "25/May/2016", 
  "Image-Link": [
    "https://www.blognone.com/sites/default/files/styles/thumbnail/public/topics-images/galaxy-s7.PNG?itok=OQMRYc-k", 
    "/sites/all/themes/blognone42/images/linebutton.png"
  ], 
  "Link": "https://www.blognone.com/node/81374", 
  "News": "[ไม่ยืนยัน] VentureBeat รายงานสเปก Galaxy S7 Active แบตใหญ่ขึ้น ทนกว่าเดิม เปิดตัวกับ AT&T", 
  "Tags": [
    "Galaxy S7", 
    "Rumor", 
    "Leak", 
    "Mobile"
  ], 
  "Time": "11:18"
}