{
  "By": "mk", 
  "Contents": " นอกจาก การเปลี่ยนชื่อ OS X เป็น macOS แอปเปิลเปิดตัวระบบปฏิบัติการใหม่สำหรับเครื่องแมค ในชื่อ macOS Sierra (มาจากชื่อภูเขาในสหรัฐอเมริกาเช่นเดิม) มีของใหม่หลายอย่าง ดังนี้  ของใหม่ที่สำคัญคือ Siri ถูกผนวกเข้ามายัง macOS แล้ว ปุ่มเรียกใช้งานจะอยู่ตรงมุมขวาบนของหน้าจอ แอพเกือบทุกตัวจะรองรับการแสดงผลเป็นแท็บ โดยที่นักพัฒนาแทบไม่ต้องแก้โค้ดเลย ซิงก์ไฟล์ลง iCloud โดยอัตโนมัติ และย้ายไฟล์เก่าๆ ขึ้น iCloud ให้เราเสร็จสรรพ เพื่อประหยัดพื้นที่บนเครื่อง Auto Unlock ไม่ต้องปลดล็อคเครื่องแมคด้วยรหัสผ่าน ถ้าสวม Apple Watch ที่เราตั้งค่าไว้ในระยะใกล้กับเครื่องแมค Apple Pay สามารถใช้จ่ายเงินบนเว็บได้แล้ว Universal Clipboard คัดลอกเนื้อหาข้ามอุปกรณ์ Picture in Picture แสดงวิดีโอจากเว็บเป็นกรอบขนาดเล็ก เล่นอยู่ที่มุมจอ สามารถเคลื่อนย้ายตำแหน่งได้ง่าย  macOS Sierra จะออกรุ่นให้นักพัฒนาทดสอบวันนี้, ออกรุ่นเบต้าเดือนกรกฎาคม และออกรุ่นจริงในช่วงฤดูใบไม้ร่วง  หน้าจอเดสก์ท็อปของ Sierra  Siri บน macOS  ปลดล็อคหน้าจอด้วย Apple Watch  ไอคอนแสดงฟีเจอร์ต่างๆ ของ Sierra    ", 
  "Date": "14/June/2016", 
  "Image-Link": [
    "https://www.blognone.com/sites/default/files/styles/thumbnail/public/topics-images/sieera.png?itok=uhm9hFv5", 
    "http://i.imgur.com/rWLzvq9.jpg", 
    "http://i.imgur.com/cigZTvA.jpg", 
    "http://i.imgur.com/GKWXvnm.jpg", 
    "http://i.imgur.com/hd7Y5cR.jpg", 
    "http://i.imgur.com/5TDkSvh.jpg", 
    "/sites/all/themes/blognone42/images/linebutton.png"
  ], 
  "Link": "https://www.blognone.com/node/82214", 
  "News": "แอปเปิลเปิดตัว macOS Sierra สั่งงานด้วยเสียงผ่าน Siri, ปลดล็อคหน้าจอด้วย Apple Watch", 
  "Tags": [
    "Sierra", 
    "macOS", 
    "OS X", 
    "Apple", 
    "Operating System", 
    "Siri"
  ], 
  "Time": "01:43"
}