{
  "By": "nutmos", 
  "Contents": " สำนักข่าว Wall Street Journal รายงานว่า Apple กำลังพูดคุยถึงการเข้าซื้อกิจการสตรีมมิ่งเพลง Tidal ของแรปเปอร์ Jay Z โดยอ้างแหล่งข่าวที่ใกล้ชิดกับเรื่องนี้ ซึ่งการพูดคุยนี้ยังถือว่าเป็นขั้นต้นและยังไม่ใช่ดีลแต่อย่างใด ปัจจุบัน Tidal นั้นถือว่าเป็นบริการที่มีจุดแข็งในการสตรีมมิ่งบางอย่างที่บริการอื่นอย่าง Apple Music หรือ Spotify ไม่มี คือมีไฟล์เสียงแบบ lossless และมีมิวสิควิดีโอแบบ HD ให้รับชม กับการมีความสัมพันธ์กับศิลปินดัง ๆ บางคน เช่น Kanye West, Beyonce และ Madonna โดยเหตุผลเรื่องความสัมพันธ์ของศิลปินดัง ๆ นี้น่าจะเป็นเรื่องหลักของการคิดจะเข้าซื้อ Tidal เพราะจะช่วยให้การทำคอนเทนต์เฉพาะของ Apple Music ที่ Apple หวังไว้นั้นดีขึ้นกว่าเดิม Tidal นั้นไม่ได้มีแต่ Apple เท่านั้นที่สนใจ เพราะก่อนหน้านี้ก็มี Samsung, Google และ Spotify สนใจซื้อหรือเข้าร่วมเป็นพันธมิตรด้วยเช่นกัน โดยตอนนี้โฆษกของ Tidal ได้ออกมาปฏิเสธข่าวลือเรื่องนี้แล้ว ที่มา - MacRumors, Wall Street Journal    ", 
  "Date": "1/July/2016", 
  "Image-Link": [
    "https://www.blognone.com/sites/default/files/styles/thumbnail/public/topics-images/apple-music.png?itok=uxx49Vy7", 
    "http://i.cubeupload.com/QbFDSe.png", 
    "/sites/all/themes/blognone42/images/linebutton.png"
  ], 
  "Link": "https://www.blognone.com/node/82884", 
  "News": "[ลือ] Apple กำลังจะเข้าซื้อบริการสตรีมมิ่ง Tidal เพื่อเสริมทัพ Apple Music", 
  "Tags": [
    "Apple Music", 
    "Tidal", 
    "Apple", 
    "Music Streaming"
  ], 
  "Time": "07:27"
}