{
  "By": "nutmos", 
  "Contents": " Apple ได้ออกอัพเดต iOS 9.3.2 สำหรับ iPhone, iPad และ iPod touch แล้ว โดยรอบนี้ไม่ได้เน้นฟีเจอร์ใหม่ แต่เน้นการแก้บั๊กหลายรายการ โดยมีที่ Apple แจ้งไว้ เช่น  แก้ปัญหาอุปกรณ์ Bluetooth เสียงไม่ดีเมื่อต่อกับ iPhone SE แก้ปัญหาค้นหาข้อมูลในพจนานุกรมแล้วล้มเหลว แก้ปัญหาพิมพ์ที่อยู่อีเมลผ่านคีย์บอร์ดญี่ปุ่น Kana ไม่ได้ใน Mail และ Messages แก้ปัญหาใน VoiceOver เมื่อผู้ใช้เลือกเสียง Alex แต่เวลาอ่านเครื่องหมายวรรคตอนไปอ่านเป็นเสียงคนอื่นแทน แก้ปัญหาเซิร์ฟเวอร์ MDM เมื่อติดตั้งแอพสำหรับธุรกิจ (Custom B2B)  ส่วนฟีเจอร์คือ Apple เปิดให้ใช้ Night Shift แม้จะอยู่ใน Low Power Mode แล้ว (อันนี้ไม่ได้เขียนไว้ในรายการอัพเดตแต่มีตั้งแต่ตอนทดสอบ) ผู้ใช้ iOS สามารถอัพเดตได้ผ่านทาง Settings > General > Software Updates โดยอัพเดตครั้งนี้มีขนาดประมาณไม่เกิน 100MB ที่มา - 9to5Mac   ", 
  "Date": "17/May/2016", 
  "Image-Link": [
    "https://www.blognone.com/sites/default/files/styles/thumbnail/public/topics-images/ios9.png?itok=-j8dqLA2", 
    "/sites/all/themes/blognone42/images/linebutton.png"
  ], 
  "Link": "https://www.blognone.com/node/81051", 
  "News": "Apple ออกอัพเดต iOS 9.3.2 แก้บั๊กหลายรายการ", 
  "Tags": [
    "iOS 9", 
    "iOS", 
    "Apple"
  ], 
  "Time": "08:10"
}