{
  "By": "nutmos", 
  "Contents": " ก่อนหน้านี้มีผู้ใช้จำนวนหนึ่งโพสต์ปัญหาว่า หลังจากอัพเดต MacBook Pro เป็น OS X ล่าสุด พบปัญหาเครื่องค้างแบบสุ่ม ซึ่งหลังจากที่ Apple รับทราบตอนนี้ก็ได้ออกวิธีแก้ปัญหามาแล้ว สำหรับวิธีแก้ปัญหาที่ Apple ระบุไว้ คือ  ใช้ Mac App Store อัพเดต OS X และซอฟต์แวร์ทุกตัวให้เป็นเวอร์ชันล่าสุด ถ้าผู้ใช้ติดตั้ง Flash Player ให้อัพเดตเป็นเวอร์ชันล่าสุดด้วยเช่นกัน  นอกจากนี้ MacRumors ก็ได้รายงานว่า มีผู้ใช้จำนวนหนึ่งยืนยันว่าหลังจากทำตามขั้นตอนของ Apple คืออัพเดตซอฟต์แวร์แล้วก็สามารถแก้ปัญหาเครื่องค้างได้ ที่มา - Apple Support, MacRumors   ", 
  "Date": "7/June/2016", 
  "Image-Link": [
    "https://www.blognone.com/sites/default/files/styles/thumbnail/public/topics-images/macbook-pro.png?itok=l-iJHs18", 
    "/sites/all/themes/blognone42/images/linebutton.png"
  ], 
  "Link": "https://www.blognone.com/node/81944", 
  "News": "Apple ออกวิธีแก้ปัญหา MacBook Pro ค้าง ให้อัพเดต OS X และ Flash Player", 
  "Tags": [
    "MacBook Pro", 
    "OS X", 
    "Apple"
  ], 
  "Time": "11:42"
}