{
  "By": "nismod", 
  "Contents": " เว็บไซต์ Bloomberg รายงานว่ายอดขาย iPhone เมื่อเดือนพฤษภาคมที่ผ่านมาในประเทศจีนอยู่ที่ 10.8% จากจำนวนสมาร์ทโฟนที่ส่งมอบทั้งหมด ลดลงจาก 12% ในช่วงเวลาเดียวกันของปีที่แล้ว สาเหตุส่วนหนึ่งทาง Bloomberg ระบุว่าน่าจะมาจากการที่แอปเปิล ประสบปัญหาด้านกฎหมายและการค้าหลายๆ ด้านในจีนในช่วงหลายเดือนที่ผ่านมา ซึ่งยอดขายที่ลดลงในเดือนที่แล้วของแอปเปิลสวนทางกับผู้ผลิตท้องถิ่นอย่าง Huawei ที่มียอดขายเพิ่มขึ้นถึง 17.3% และ Oppo ที่มีส่วนแบ่งเพิ่มขึ้นเป็นสองเท่า อยู่ที่ราว 11% ด้วยเหตุนี้ทำให้ iPhone ตกลงมาอยู่ในอันดับ 5 ของตลาดส่วนแบ่งสมาร์ทโฟนในจีนเมื่อเดือนที่แล้ว โดยท็อป 4 เป็นผู้ผลิตท้องถิ่นทั้งหมดไล่ไปตั้งแต่ Huawei, Vivo, Oppo และ Xiaomi ที่มีส่วนแบ่งตลาดสมาร์ทโฟนรวมกัน 53% ที่มา - Bloomberg   ", 
  "Date": "8/July/2016", 
  "Image-Link": [
    "https://www.blognone.com/sites/default/files/styles/thumbnail/public/topics-images/apple.png?itok=dltl_31c", 
    "/sites/all/themes/blognone42/images/linebutton.png"
  ], 
  "Link": "https://www.blognone.com/node/83165", 
  "News": "ยอดขาย iPhone เดือนพฤษภาคมในจีนตกลงมาอยู่อันดับ 5", 
  "Tags": [
    "iPhone", 
    "Apple", 
    "Mobile", 
    "China"
  ], 
  "Time": "13:04"
}