{
  "By": "nismod", 
  "Contents": " หลังยกเลิกรุ่นความจุ 32GB ไปใน iPhone 6 จนทำให้รุ่นความจุของ iPhone กระโดดจาก 16GB ไป 64GB ล่าสุด Wall Street Journal รายงานอ้างอิงจากแหล่งข่าววงในว่า แอปเปิลมีแผนจะนำรุ่นความจุ 32GB กลับมาใน iPhone 7 และยกเลิกรุ่นความจุ 16GB แทน นอกจากการยกเลิกความจุรุ่นเล็กสุดแล้ว ทาง GSM Arena ระบุด้วยความจุของ iPhone รุ่นใหม่ทั้ง 2 โมเดลอาจจะแตกต่างกัน โดย iPhone 7 จะมีรุ่น 32GB, 64GB และ 256GB ขณะที่โมเดล Plus จะมีรุ่น 32GB และกระโดดไป 128GB และ 256GB นอกจากนี้โมเดล Plus ยังจะมาพร้อมกล้องคู่ (dual camera) สำหรับการปรับภาพและความลึกของภาพหลังถ่าย ซึ่ง iPhone 7 จะไม่ได้ ที่มา - Wall Street Journal via GSM Arena   ", 
  "Date": "6/July/2016", 
  "Image-Link": [
    "https://www.blognone.com/sites/default/files/styles/thumbnail/public/topics-images/apple.png?itok=dltl_31c", 
    "/sites/all/themes/blognone42/images/linebutton.png"
  ], 
  "Link": "https://www.blognone.com/node/83075", 
  "News": "Wall Street Journal รายงาน iPhone 7 มาพร้อมความจุเริ่มต้น 32GB", 
  "Tags": [
    "Apple", 
    "iPhone", 
    "Rumor", 
    "Mobile"
  ], 
  "Time": "14:12"
}