{
  "By": "mk", 
  "Contents": " สำนักข่าว Nikkei รายงานข่าววงในว่า แอปเปิลกำลังจะปรับมาใช้ระบบการออก iPhone รุ่นเปลี่ยนใหญ่ทุก 3 ปี แทนระบบออกทุก 2 ปีแบบในปัจจุบัน เหตุผลของการปรับมาใช้ระบบรอบ 3 ปี มีทั้งการเปลี่ยนแปลงทางเทคโนโลยีที่ช้าลง และตลาดมือถือที่เริ่มอิ่มตัว คาดว่า iPhone รุ่นที่จะออกขายช่วงปลายปีนี้ หน้าตาจะยังเหมือน iPhone 6/6s โดยจะปรับปรุงเรื่องกล้อง แบตเตอรี่ ตัดช่องเสียบหูฟังออกไป และเพิ่มความสามารถกันน้ำเข้ามา ส่วนรุ่นเปลี่ยนใหญ่คงต้องรอปี 2017 แทน ที่มา - Nikkei Asian Review    ", 
  "Date": "31/May/2016", 
  "Image-Link": [
    "https://www.blognone.com/sites/default/files/styles/thumbnail/public/topics-images/apple.png?itok=dltl_31c", 
    "https://i.imgur.com/gUBNzhT.jpg", 
    "/sites/all/themes/blognone42/images/linebutton.png"
  ], 
  "Link": "https://www.blognone.com/node/81669", 
  "News": "[ข่าวลือ] ปีนี้อาจไม่มี iPhone 7 เพราะแอปเปิลปรับมาใช้รอบออกรุ่นทุก 3 ปี", 
  "Tags": [
    "Apple", 
    "iPhone", 
    "Rumor"
  ], 
  "Time": "21:17"
}