{
  "By": "nuntawat", 
  "Contents": " ไมโครซอฟท์ปรับสเปคขั้นต่ำให้ Windows 10 และ Windows 10 Mobile รุ่น 1607 (ซึ่งน่าจะหมายถึง Anniversary Update) โดย Windows 10 สำหรับพีซีและแท็บเล็ตจะรองรับจอตั้งแต่ 7 นิ้ว เป็นต้นไป (เดิม 8 นิ้ว) แรมขั้นต่ำเป็น 2 กิกะไบต์ (เดิม 1 กิกะไบต์) และระบุความจุในเครื่องของระบบปฏิบัติการรุ่น 32 บิตเป็น 16 กิกะไบต์ ส่วนระบบปฏิบัติการรุ่น 64 บิตเป็น 20 กิกะไบต์ ส่วน Windows 10 Mobile สำหรับมือถือและแท็บเล็ตบนสถาปัตยกรรม ARM นั้น จะรองรับจอขนาดใหญ่สุดถึง 9 นิ้ว (เดิม 8 นิ้ว) และยังปรับ pixel aspect ratio ของกล้องจาก 1:0 เป็น 1:1 และบังคับให้กล้องมีฟีเจอร์ไฟแฟลชอัตโนมัติด้วย จากเดิมแค่แนะนำผู้ผลิตอุปกรณ์รองรับฟีเจอร์นี้เท่านั้น เว็บไซต์ Nokiapoweruser ยังคาดช่วงปล่อย Anniversary Update ว่าเป็นเดือนกรกฎาคมปีนี้ ซึ่งมาจากเลขรุ่น 1607 นั่นเอง ที่มา: MSDN ผ่าน Nokiapoweruser   ", 
  "Date": "23/May/2016", 
  "Image-Link": [
    "https://www.blognone.com/sites/default/files/styles/thumbnail/public/topics-images/Windows_logo_Cyan_rgb_D.png?itok=bKOyx4bD", 
    "/sites/all/themes/blognone42/images/linebutton.png"
  ], 
  "Link": "https://www.blognone.com/node/81266", 
  "News": "Windows 10 Mobile จะรองรับจอ 9 นิ้ว ส่วน Windows 10 จะรองรับจอ 7 นิ้ว", 
  "Tags": [
    "Windows 10", 
    "Windows 10 Mobile", 
    "Microsoft", 
    "Hardware"
  ], 
  "Time": "08:41"
}