{
  "By": "nuntawat", 
  "Contents": " ไมโครซอฟท์ปล่อย Windows 10 Mobile รุ่นทดสอบ 14342 ให้สมาชิก Windows Insider กลุ่ม Fast ring แล้ว โดย Microsoft Edge รองรับท่าปัดเพื่อถอยกลับ/เดินหน้าไปหนึ่งหน้าเว็บ (swipe to back and forward) รวมถึงการ redirect เว็บไซต์ให้เปิดแอปแทน และปรับปรุง Feedback Hub ให้แนะนำ category และ subcategory ตามหัวข้อฟีดแบ็กโดยอัตโนมัติ อย่างไรก็ตาม รุ่นทดสอบนี้ยังมีบั๊กหลายจุด อาทิ หลังติดตั้งอัปเดตแล้วดูเหมือนเครื่องจะค้างที่หน้าจอโลโก้ Windows แต่ที่จริงยังทำงานตามปกติ, การเชื่อมต่อ data กับซิมการ์ดหมายเลขสองไม่ทำงานอย่างถูกต้อง, แอป Settings อาจล่มหากปรับเปลี่ยนค่า Quick Actions เป็นต้น บริษัทยังเพิ่มมือถือ BLU Win HD LTE 150e และ BLU Win JR 130e เข้าโครงการ Windows Insider นอกเหนือจาก Lumia Icon ไปก่อนหน้านี้ ที่มา: Microsoft - Windows Experience Blog   ", 
  "Date": "17/May/2016", 
  "Image-Link": [
    "https://www.blognone.com/sites/default/files/styles/thumbnail/public/topics-images/Windows_10_movilw.png?itok=tDLWK0tY", 
    "/sites/all/themes/blognone42/images/linebutton.png"
  ], 
  "Link": "https://www.blognone.com/node/81069", 
  "News": "ไมโครซอฟท์ปล่อย Windows 10 Mobile รุ่นทดสอบ 14342", 
  "Tags": [
    "Windows 10 Mobile", 
    "Microsoft", 
    "Operating System"
  ], 
  "Time": "11:52"
}