{
  "By": "mk", 
  "Contents": " ใน Windows 10 ไมโครซอฟท์มีแพลตฟอร์ม Windows Hello สำหรับการยืนยันตัวตนด้วย biometric ล้ำๆ อย่างการตรวจจับใบหน้าของผู้ใช้งาน อย่างไรก็ตาม มันกลับไม่มีความสามารถพื้นๆ อย่างการตรวจสอบลายนิ้วมืออยู่ด้วย (บนเดสก์ท็อปมี Windows Biometric Framework มาตั้งแต่ Windows 7 แต่ก็ใช้งานไม่ได้บน Windows 10 Mobile อยู่ดี) ล่าสุดในงานสัมมนา WinHEC ไมโครซอฟท์ประกาศแล้วว่า Windows Hello จะรองรับการตรวจสอบตัวตนด้วยลายนิ้วมือกับเขาบ้างแล้ว ฟีเจอร์นี้จะใช้งานได้ในช่วงฤดูร้อนกลางปีนี้ และใช้กับ Windows 10 Mobile ได้ด้วย (รองรับทั้งแบบแตะ touch และแบบปาด swipe แต่ไมโครซอฟท์แนะนำให้ใช้แบบแตะจะดีกว่า) มือถือ Windows 10 Mobile ตัวแรกที่รองรับการสแกนนิ้วมือคือ HP Elite x3 ที่เปิดตัวไปแล้วตั้งแต่ต้นปี ที่มา - MSPoweruser HP Elite x3 (รุ่นต้นแบบยังไม่มีตัวสแกนลายนิ้วมือด้านหลังเครื่อง    ", 
  "Date": "15/May/2016", 
  "Image-Link": [
    "https://www.blognone.com/sites/default/files/styles/thumbnail/public/topics-images/Windows_10_movilw.png?itok=tDLWK0tY", 
    "https://i.imgur.com/I9dy078.jpg", 
    "/sites/all/themes/blognone42/images/linebutton.png"
  ], 
  "Link": "https://www.blognone.com/node/80990", 
  "News": "ไมโครซอฟท์ยืนยัน Windows Hello จะรองรับการตรวจสอบลายนิ้วมือแล้ว", 
  "Tags": [
    "Windows 10 Mobile", 
    "Fingerprint", 
    "Microsoft", 
    "Windows 10"
  ], 
  "Time": "16:47"
}