{
  "By": "nrad6949", 
  "Contents": " หลังจากเมื่อปลายเดือนที่แล้ว Microsoft ประกาศจัดโปรโมชั่นซื้อ Lumia 950XL แล้วแถม Lumia 950 ไปให้ที่สหรัฐอเมริกาและแคนาดา มาเดือนนี้ Optus ผู้ให้บริการด้านสื่อสารโทรคมนาคมของออสเตรเลีย ประกาศแจก Xbox One พร้อมเกมให้กับผู้ใช้บริการที่ซื้อ Lumia 950 หรือ 950XL แล้ว เงื่อนไขก็คือ ผู้ใช้บริการต้องสมัครใช้บริการรายเดือนไม่ต่ำกว่าเดือนละ 80 ดอลลาร์ออสเตรเลีย (ประมาณ 2,000 บาท) ซึ่งรวมค่าโทรศัพท์มือถือเป็นระยะเวลานาน 2 ปี จะได้รับ Xbox One รุ่น 500 GB พร้อมกับเกมจำนวนหนึ่งไปฟรีๆ (ถ้ายกเลิกก่อนครบสัญญาก็ต้องจ่ายส่วนต่างด้วย) ไม่มีใครทราบว่าโปรโมชั่นนี้มีขึ้นเพื่ออะไร แต่หากดูโปรโมชั่นก่อนหน้าที่มีในสหรัฐอเมริกาและตัวเลขของแผนกมือถือของ Microsoft อาจเป็นไปได้ว่า Optus ต้องการระบายสต็อกของ Lumia 950/950XL ครับ ที่มา - OzBargain    ", 
  "Date": "12/May/2016", 
  "Image-Link": [
    "https://www.blognone.com/sites/default/files/styles/thumbnail/public/topics-images/lumia.png?itok=ziUzXPxl", 
    "https://i.imgur.com/DaxRJkQ.png", 
    "/sites/all/themes/blognone42/images/linebutton.png"
  ], 
  "Link": "https://www.blognone.com/node/80904", 
  "News": "ระบายต่อเนื่อง Optus แถม Xbox One ให้คนซื้อ Lumia 950/950XL ในออสเตรเลีย", 
  "Tags": [
    "Lumia", 
    "Microsoft", 
    "Windows 10 Mobile", 
    "Australia", 
    "Optus"
  ], 
  "Time": "18:11"
}