{
  "By": "trinakub", 
  "Contents": " ล่าสุดทาง Blizzard ประกาศว่าจะร่วมมือกับ Facebook เพื่อนำระบบต่าง ๆ มาใช้ร่วมกับเกมของค่าย Blizzard เพื่อเพิ่มความสะดวกสบายให้แก่ผู้เล่น รายชื่อเกมที่รองรับคือ Overwatch, Hearthstone, World of Warcraft, Heroes of the Storm, Diablo 3 และ StarCraft 2 ฟังก์ชันที่ทาง Blizzard ให้ความสนใจเป็นหลักคือระบบล็อกอินและระบบสตรีมมิ่ง ฝั่งของระบบล็อกอินจะเชื่อมเกมของ Blizzard กับบัญชี Facebook Login ซึ่ง Blizzard ยังมีแผนที่จะนำฟังก์ชันด้านโซเชียลอื่น ๆ เพิ่มเติมเข้ามาในเกมด้วย ส่วนของการสตรีม Blizzard จะเพิ่มระบบ Go Live เข้าไปในเกม กดปุ่มเดียวก็จะขึ้นสตรีมบน timeline ของ Facebook Live ทันที ทำให้เพื่อน ๆ ของผู้เล่นสามารถมารับชมการเล่นเกมและแสดงความคิดเห็นได้แบบสดๆ Gio Hunt รองประธานผู้บริหารการดำเนินงานขององค์กร (Executive Vice President of Corporate Operations) บอกว่าเกมของ Blizzard ออกแบบมาเพื่อเล่นกับเพื่อนๆ และบริษัทกำลังร่วมมือกับ Facebook อย่างใกล้ชิด เพื่อนำระบบนี้ไปประยุกต์ใช้กับ Overwatch, Heroes of the Storm และเกมอื่น ๆ  ที่มา – Polygon   ", 
  "Date": "7/June/2016", 
  "Image-Link": [
    "https://www.blognone.com/sites/default/files/styles/thumbnail/public/topics-images/blizzard.png?itok=RXeU9h8n", 
    "http://i.imgur.com/XJvXuiT.jpg", 
    "/sites/all/themes/blognone42/images/linebutton.png"
  ], 
  "Link": "https://www.blognone.com/node/81930", 
  "News": "Blizzard จับมือ Facebook นำระบบล็อกอินและ Facebook Live มาใช้งานในเกม", 
  "Tags": [
    "Blizzard", 
    "Games", 
    "Facebook Live", 
    "Facebook", 
    "Social Network"
  ], 
  "Time": "01:29"
}