{
  "By": "mk", 
  "Contents": " Blizzard เปิดตัวฮีโร่คนใหม่ของเกม Overwatch คือมือสไนเปอร์หญิง Ana ซึ่งอาวุธของเธอไม่เพียงเป็นสไนเปอร์ระยะไกลสำหรับโจมตีศัตรูเท่านั้น แต่ยังสามารถรักษาเพื่อนร่วมทีมจากระยะไกลได้ด้วย ถือว่าเธออยู่ในคลาส Support นอกจากอาวุธโจมตีระยะไกลแล้ว เธอยังมีลูกดอกสำหรับโจมตีระยะประชิดตัว (คนที่โดนจะหลับ) และมีระเบิดเกรเนดสำหรับโจมตีเป็นพื้นที่ขนาดเล็กด้วย (ระเบิดนี้ทั้งโจมตีศัตรูและรักษาเพื่อนร่วมทีม) ประวัติของ Ana Amari คือเธอเป็นชาวอียิปต์ และเป็นหนึ่งในสมาชิกก่อตั้งกลุ่ม Overwatch (ปัจจุบันอายุ 60 แล้ว) แต่ภายหลังเธอถูกโจมตีจากกลุ่ม Talon จนครอบครัวเสียชีวิตทั้งหมด (เหลือเพียงลูกสาวคือ Pharah) ตัวเธอเองสูญเสียดวงตาขวาไป เธอหายจากโลกไปสักระยะเพื่อรักษาแผลใจ แต่ก็พบว่าไม่สามารถอยู่นิ่งๆ แล้วหวังว่าจะหยุดความขัดแย้งได้ เธอจึงกลับมาร่วมศึกอีกครั้ง ตอนนี้ Ana สามารถเล่นได้แล้วเฉพาะบนพีซี โดยต้องเลือกเป็น Public Test Region (PTR) ก่อน ที่มา - Overwatch, Gamespot   ", 
  "Date": "13/July/2016", 
  "Image-Link": [
    "https://www.blognone.com/sites/default/files/styles/thumbnail/public/topics-images/overwatch.png?itok=TLgOiXnG", 
    "/sites/all/themes/blognone42/images/linebutton.png"
  ], 
  "Link": "https://www.blognone.com/node/83366", 
  "News": "Overwatch เปิดตัวฮีโร่ใหม่ Ana มือสไนเปอร์ที่ทั้งโจมตีและรักษาได้จากระยะไกล", 
  "Tags": [
    "Overwatch", 
    "Games", 
    "Blizzard"
  ], 
  "Time": "09:40"
}