{
  "By": "nismod", 
  "Contents": " วันนี้ LINE ประกาศวันขายหุ้น IPO แล้ว เป็นวันที่ 15 กรกฎาคม (ตรงกับ 14 กรกฎาคมในสหรัฐ) สำหรับตลาดหุ้นทั้งในกรุงโตเกียวและนิวยอร์ก LINE ตั้งราคาเริ่มต้นที่หุ้นละ 26.21 เหรียญสหรัฐและตั้งเป้าว่าจะระดมทุนได้ไม่ต่ำกว่า 917 ล้านเหรียญสหรัฐ ซึ่งอาจทำให้ LINE เป็น IPO ที่ใหญ่ที่สุดของปีนี้ และจะทำให้บริษัทมีมูลค่าเกินกว่า 5 พันล้านเหรียญสหรัฐ LINE มีผู้ใช้รายเดือนอยู่ที่ราว 218.4 ล้านคน แต่ทว่าในช่วงปีที่ผ่านมา จำนวนผู้ใช้รายเดือนเพิ่มขึ้นเพียง 13 ล้านคน ซึ่งถือว่าน้อยมากเมื่อเทียบกับ WhatsApp และ Facebook Messenger ที่มีผู้ใช้รายเดือนเพิ่มขึ้นหลายร้อยล้านคน ที่มา - Tech in Asia, WSJ   ", 
  "Date": "10/June/2016", 
  "Image-Link": [
    "https://www.blognone.com/sites/default/files/styles/thumbnail/public/topics-images/line300.png?itok=EJ65plDD", 
    "/sites/all/themes/blognone42/images/linebutton.png"
  ], 
  "Link": "https://www.blognone.com/node/82122", 
  "News": "LINE ประกาศวันขายไอพีโอ 15 กรกฎาคม ราคาเริ่มต้น $26.21", 
  "Tags": [
    "LINE", 
    "IPO", 
    "Naver"
  ], 
  "Time": "15:01"
}