{
  "By": "lew", 
  "Contents": " คดีฟ้องร้องระหว่างออราเคิลและกูเกิลที่ออราเคิลฟ้องกูเกิลว่าละเมิดสิทธิ์ API ของจาวามาถึงศาลชั้นต้นรอบที่สอง และรอบนี้กูเกิลชนะอีกครั้งเมื่อคณะลูกขุนตัดสินว่าการใช้ API จาวาเป็นการใช้งานโดยธรรม (fair use) คดีนี้จบรอบแรกไปตั้งแต่ปี 2012 เมื่อผู้พิพากษา William Alsup พิพากษาว่า API ไม่ได้รับความคุ้มครองลิขสิทธิ์ ทำให้คดีจบในศาลชั้นต้นไปโดยกูเกิลชนะ แต่ศาลอุทธรณ์กลับคำตัดสินโดยระบุว่า API มีลิขสิทธิ์ ทำให้คดีต้องกลับมาที่ศาลชั้นต้นอีกครั้งเพื่อพิจารณาว่าหาก API มีลิขสิทธิ์แล้ว การใช้งานแบบที่กูเกิลใช้นั้นเป็นการใช้งานโดยธรรมหรือไม่ คณะลูกขุนทั้งสิบคนระบุว่าการใช้งานของกูเกิลเป็นการใช้งานโดยธรรม (ลูกขุนชุดแรกในคดีนี้เสียงแตกในประเด็นนี้)  ArsTechnica ติดตามคดีนี้อย่างละเอียดในการพิจารณารอบที่สองนี้ มีการระบุถึงจุดที่ออราเคิลใช้โจมตีกูเกิล เช่น อีเมลของ Andy Rubin ที่ระบุว่าการใช้งาน API ต้องขอใช้งานจากซัน หรือแม้แต่การที่ทนายออราเคิลโจมตี Jonathan Schwartz อดีตซีอีโอของซันเองว่าเป็นผู้บริหารที่แย่ ที่ไม่ยอมเรียกร้องให้กูเกิลจ่ายค่าใช้งานจาวาแต่แรก EFF ออกมาแสดงความยินดีที่กูเกิลชนะคดีนี้ แต่ระบุว่าที่การพิจารณาแบบที่ผู้พิพากษา Alsup ระบุไว้ว่า API ไม่มีลิขสิทธิ์นั้นดีต่อวงการโดยรวมกว่า ออราเคิลประกาศจะอุทธรณ์คดีนี้ต่อไป ที่มา - ArsTechnica   ", 
  "Date": "27/May/2016", 
  "Image-Link": [
    "https://www.blognone.com/sites/default/files/styles/thumbnail/public/topics-images/Java_logo.png?itok=XQHsMWsY", 
    "https://i.imgur.com/iGlZOSn.jpg", 
    "/sites/all/themes/blognone42/images/linebutton.png"
  ], 
  "Link": "https://www.blognone.com/node/81485", 
  "News": "คดีจาวาบนแอนดรอย์รอบสองจบศาลชั้นต้น กูเกิลชนะ, การใช้ API เป็นการใช้งานโดยธรรม", 
  "Tags": [
    "Android", 
    "Oracle", 
    "Google", 
    "Patent", 
    "Copyright", 
    "Intellectual Property", 
    "Java", 
    "Lawsuit"
  ], 
  "Time": "06:54"
}