{
  "By": "mk", 
  "Contents": " เมื่อต้นปีที่แล้ว ไมโครซอฟท์ซื้อแอพปฏิทิน Sunrise Calendar เพื่อดึงทีมมาพัฒนา Outlook บน iOS และ Android ให้ดีขึ้น วันนี้ไมโครซอฟท์ประกาศหยุดพัฒนา Sunrise Calendar อย่างเป็นทางการ และแอพจะทำงานได้ถึงวันที่ 31 สิงหาคม 2016 เท่านั้น ทางทีม Sunrise บอกว่าเสียใจที่ต้องปิดตัวแอพดั้งเดิมลง แต่ก็ขอให้ผู้ใช้ย้ายไปใช้แอพ Outlook ที่มีฟีเจอร์เทียบเท่ากันแทน ที่มา - Sunrise Blog    ", 
  "Date": "12/May/2016", 
  "Image-Link": [
    "https://www.blognone.com/sites/default/files/styles/thumbnail/public/topics-images/sunrise.png?itok=M4eJKZu_", 
    "https://i.imgur.com/QHzC8l3.png", 
    "/sites/all/themes/blognone42/images/linebutton.png"
  ], 
  "Link": "https://www.blognone.com/node/80866", 
  "News": "ไมโครซอฟท์เลิกทำแอพปฏิทิน Sunrise Calendar ทีมงานย้ายไปพัฒนา Outlook แทน", 
  "Tags": [
    "Sunrise Calendar", 
    "Microsoft", 
    "Outlook"
  ], 
  "Time": "08:01"
}