{
  "By": "nuntawat", 
  "Contents": " เว็บไซต์ Windows Central รายงานว่า ไมโครซอฟท์มีแผนจัดงานเปิดตัวฮาร์ดแวร์ในเดือนตุลาคม แบบเดียวกับปีที่แล้วที่บริษัทเปิดตัว Surface Book, Surface Pro 4, Lumia 950/XL, Lumia 550 และ Microsoft Band 2 โดยบริษัทจะถือโอกาสนี้เปิดตัวอุปกรณ์ Surface รุ่นปรับปรุงจากรุ่นปัจจุบัน และอาจเปิดตัว Microsoft Band 3 ซึ่งอาจอยู่บนแพลตฟอร์ม Windows 10 ในส่วนของโครงการพีซีออลอินวัน Surface มีข่าวว่ามีอย่างน้อยสองรุ่นในแผน รุ่นหนึ่งจะคล้ายพีซีออลอินวันในท้องตลาด ส่วนอีกรุ่นเป็นอุปกรณ์เสริมพร้อมหน้าจอขนาดใหญ่สำหรับการต่อมือถือรองรับ Continuum for phones ฟีเจอร์ชูโรงผู้ใช้องค์กรของ Windows 10 Mobile สำหรับปีหน้าจะเห็นการเปิดตัว Surface รุ่นใหม่ แต่ไม่แน่ชัดว่าจะสัมพันธ์กับอัพเดต Windows 10 โค้ดเนม Redstone 2 ได้อย่างไร จึงเป็นไปได้ที่ไมโครซอฟท์จะเปิดตัว Surface รุ่นใหม่พร้อมกับอัพเดต Redstone 3 ซึ่งมีแผนว่าจะได้รับการเปิดตัวในฤดูร้อน อย่างไรก็ตามการคาดการณ์นี้ก็ขัดแย้งกับข่าวของเว็บไซต์ ZDNet ที่ว่า Surface รุ่นใหม่ซึ่งจะมาพร้อมกับซีพียูอินเทล โค้ดเนม Kaby Lake จะไม่เปิดตัวจนกว่าจะถึงฤดูใบไม้ร่วง Windows Central เสริมว่า ไมโครซอฟท์จะปล่อยอัพเดต Redstone 2 ให้ Windows Insider ในเร็ววันนี้ โดยเลขรุ่นทดสอบเป็นการภายในล่าสุดอยู่ในช่วง 148xx ครับ ที่มา: Windows Central, ZDNet   ", 
  "Date": "7/July/2016", 
  "Image-Link": [
    "https://www.blognone.com/sites/default/files/styles/thumbnail/public/topics-images/MSFT_logo_rgb_C-Gray.png?itok=j3hJhqua", 
    "/sites/all/themes/blognone42/images/linebutton.png"
  ], 
  "Link": "https://www.blognone.com/node/83104", 
  "News": "[ลือ] ไมโครซอฟท์เปิดตัว Surface รุ่นปรับปรุงปีนี้, คาดเปิดตัวรุ่นใหม่พร้อม Redstone 3 ปีหน้า", 
  "Tags": [
    "Surface", 
    "Microsoft", 
    "Rumors", 
    "Microsoft Band", 
    "All-in-One"
  ], 
  "Time": "08:30"
}