{
  "By": "nuntawat", 
  "Contents": " ผ่านมาเพียงสองวัน ไมโครซอฟท์ก็ปล่อย Windows 10/Windows 10 Mobile รุ่นทดสอบ 14367 ให้ Windows Insider กลุ่ม Fast ring มีรายละเอียดดังนี้ Windows 10  เพิ่มคีย์บอร์ดชอร์ตคัตบน Feedback Hub เพิ่มภาษาที่รองรับ handwriting recognition อีก 23 ภาษา อาทิ อินโดนีเซีย มาเลย์ (ยังไม่มีภาษาไทย) เพิ่มเครื่องมือช่วยลง Windows ใหม่แบบ clean install เข้าถึงได้จากแอป Settings แก้บั๊กและปรับปรุงต่างๆ จำนวนมาก อาทิ การซิงก์การแจ้งเตือนจากมือถือไปพีซีผ่าน Cortana เสถียรขึ้นและเร็วขึ้น, แก้บั๊กใช้งาน Desktop App Converter Preview ไม่ได้ (ต้องดาวน์โหลดแอปรุ่นใหม่จากที่นี่) เป็นต้น Known issue คือ Narrator ไม่เปิดเมื่อเปิดการใช้งานจาก Settings app > Ease of access > Narrator  Windows 10 Mobie  แก้บั๊กจำนวนมาก อาทิ สามารถติดตั้งแอปลงมือถือด้วย Visual Studio 2015 Update 2 ได้แล้ว, การแจ้งเตือนไม่ปรากฏใน Cortana, Microsoft Edge ลดการใช้พลังงานลงหากรันแบบเบื้องหลัง, Battery Saver ไม่ทำงานหากคลิกเปิดการใช้เมื่อมีการแจ้งเตือนตอนที่แบตเตอรี่เหลือ 20%, ตัวเลือก \"3G Only\" และ\"Only 3G or 4G\" ไม่ทำงาน ทำให้เครื่องไปใช้เครือข่าย 2G แทน เป็นต้น Known issue ยังคงเป็นการใช้ดาต้าบนเครื่องสองซิมมีปัญหา  ที่มา: MIcrosoft - Windows Experience Blog   ", 
  "Date": "17/June/2016", 
  "Image-Link": [
    "https://www.blognone.com/sites/default/files/styles/thumbnail/public/topics-images/Windows_logo_Cyan_rgb_D.png?itok=bKOyx4bD", 
    "/sites/all/themes/blognone42/images/linebutton.png"
  ], 
  "Link": "https://www.blognone.com/node/82359", 
  "News": "ไมโครซอฟท์ปล่อย Windows 10/Windows 10 Mobile รุ่นทดสอบ 14367", 
  "Tags": [
    "Windows 10", 
    "Windows 10 Mobile", 
    "Microsoft"
  ], 
  "Time": "08:58"
}