{
  "By": "mk", 
  "Contents": " ใกล้เข้ามาเรื่อยๆ กับ Windows 10 Anniversary Update วันที่ 2 สิงหาคม ฝั่งของไมโครซอฟท์เลยขยันออก Build ใหม่ของ Windows Insider Fast ring ตอนนี้เลขเวอร์ชันขยับมาเป็น 14383 แล้ว (รุ่นก่อนหน้านี้ 14379) สถานะตอนนี้ของ Windows 10 Insider คือไม่มีอัพเดตฟีเจอร์ใหม่แล้ว เน้นแก้บั๊กอย่างเดียวทั้งบนรุ่นเดสก์ท็อปและรุ่นมือถือ (รายการแก้ไขอ่านกันเองตามลิงก์) การเปลี่ยนแปลงที่สำคัญคือใน Build นี้ ไมโครซอฟท์เอาข้อความ watermark ที่มุมขวาล่างของเดสก์ท็อปออกแล้ว แสดงให้เห็นว่าเข้าใกล้สถานะตัวจริงเต็มที ไมโครซอฟท์บอกว่ายังจะออก Insider Build ตามมาอีกจำนวนหนึ่งภายในเดือนนี้ ใครที่เป็นสมาชิก Insider ก็ต้องช่วยกันทดสอบและแจ้งบั๊กครับ ที่มา - Microsoft   ", 
  "Date": "8/July/2016", 
  "Image-Link": [
    "https://www.blognone.com/sites/default/files/styles/thumbnail/public/topics-images/Windows_logo_Cyan_rgb_D.png?itok=bKOyx4bD", 
    "/sites/all/themes/blognone42/images/linebutton.png"
  ], 
  "Link": "https://www.blognone.com/node/83153", 
  "News": "ไมโครซอฟท์ออก Windows 10 Insider Build 14383 ทั้งบนเดสก์ท็อปและมือถือ", 
  "Tags": [
    "Windows 10", 
    "Windows 10 Mobile", 
    "Microsoft"
  ], 
  "Time": "09:02"
}