{
  "By": "mk", 
  "Contents": " ไมโครซอฟท์เปิดตัว Flow บริการเชื่อมต่อระหว่างแอพสองตัว ลักษณะเดียวกับ IFTTT ที่หลายคนอาจเคยใช้งานมาแล้ว ไมโครซอฟท์อธิบายว่า Flow คือบริการ automated workflow ที่ช่วยให้ทำงานอัตโนมัติได้สะดวกขึ้น ตามเงื่อนไขที่ระบุไว้ ปัจจุบันมันรองรับแอพจำนวน 35 ตัว ครอบคลุมแอพดังๆ อย่าง Twitter, OneDrive, Dropbox, Google Drive, Slack, GitHub, Mailchimp, Salesforce, Sharepoint เป็นต้น Flow เคยเป็นฟีเจอร์ชื่อ Logic Flow ภายใต้โครงการ Microsoft PowerApps แอพสำหรับสร้างแอพในองค์กร แต่ไมโครซอฟท์ตัดสินใจแยกโครงการ Flow ออกมาต่างหาก และไม่จำเป็นต้องลงทะเบียน PowerApps ก็สามารถใช้งานได้ ที่มา - Microsoft    ", 
  "Date": "4/May/2016", 
  "Image-Link": [
    "https://www.blognone.com/sites/default/files/styles/thumbnail/public/news-thumbnails/flow.jpg?itok=jLWdCEHN", 
    "https://i.imgur.com/2vmlqp1.png", 
    "/sites/all/themes/blognone42/images/linebutton.png"
  ], 
  "Link": "https://www.blognone.com/node/80589", 
  "News": "Microsoft Flow บริการ Workflow อัตโนมัติ ลักษณะเดียวกับ IFTTT", 
  "Tags": [
    "Microsoft", 
    "IFTTT"
  ], 
  "Time": "09:17"
}