{
  "By": "nrad6949", 
  "Contents": " Phone Area รายงานว่า Microsoft ได้ปล่อยแอพ Ringtone Maker รุ่นใหม่ที่ออกแบบมาให้รันบน Windows 10 Mobile อย่างเป็นทางการ หลังจากอยู่ในสถานะทดสอบมาได้พักหนึ่ง แอพดังกล่าวนี้จะทำให้ผู้ใช้สามารถตัดเพลงแล้วนำเอามาเป็นริงโทนโทรศัพท์มือถือได้อย่างสะดวก ทั้งนี้แอพนี้เคยมีอยู่แล้วบน Windows Phone 7 และ 8 แต่ได้รับการปรับปรุงใหม่เพื่อให้รองรับกับ Windows 10 Mobile อย่างเต็มที่ ใครสนใจก็สามารถไปดาวน์โหลดกันได้ครับ ที่มา - Phone Arena    ", 
  "Date": "16/May/2016", 
  "Image-Link": [
    "https://www.blognone.com/sites/default/files/styles/thumbnail/public/topics-images/Windows_10_movilw.png?itok=tDLWK0tY", 
    "https://i.imgur.com/IAyQSxn.jpg", 
    "/sites/all/themes/blognone42/images/linebutton.png"
  ], 
  "Link": "https://www.blognone.com/node/81006", 
  "News": "Microsoft ปล่อยแอพ Ringtone Maker สำหรับ Windows 10 Mobile เป็นทางการแล้ว", 
  "Tags": [
    "Windows 10 Mobile", 
    "Microsoft", 
    "App"
  ], 
  "Time": "09:27"
}