{
  "By": "nrad6949", 
  "Contents": " ที่ผ่านมาเรามักจะได้ยินข่าวความพยายามของ Microsoft ในการพัฒนาเทคโนโลยีการสัมผัสแบบสามมิติ หรือ 3D Touch (ลองดูข่าวเก่า) ล่าสุด Microsoft Research แผนกวิจัยของ Microsoft ได้ออกมาสาธิต 3D Touch แบบใหม่ที่เรียกว่า Pre-Touch Sensing โดยระบุว่าจะเข้ามาช่วยเปลี่ยนวิธีการมีปฏิสัมพันธ์กับสมาร์ทโฟนใหม่หมด Pre-Touch อาศัยหลักการของสนามแม่เหล็กที่สร้างจากหน้าจอในการตรวจจับนิ้วมือ ซึ่งข้อดีคือในบางบริบทเราสามารถดัดแปลงแอพให้สอดคล้องกับความต้องการเหล่านี้ได้ ตัวอย่างเช่น พอเราจะเข้าไปแตะหน้าจอระหว่างเล่นวิดีโอก็จะปรากฏตัวควบคุมขึ้นมา (ปกติต้องแตะหน้าจอหนึ่งที ก่อนที่จะแตะอีกครั้ง) นอกจากนั้นเทคโนโลยีนี้ยังสามารถสัมผัสการจับด้านข้างของเครื่องได้ด้วย ทำให้สามารถมีปฏิสัมพันธ์ได้หลากหลาย (ลองดูจากวิดีโอท้ายข่าว) เทคโนโลยีนี้ยังอยู่ในห้องวิจัยเท่านั้น และไม่แน่ใจว่าจะออกสู่ตลาดจริงๆ หรือไม่ แต่ก็มีโอกาสเช่นกันที่ผลิตภัณฑ์ในอนาคตของไมโครซอฟท์ อาจจะมีเทคโนโลยีเหล่านี้เข้าไปผนวกรวมด้วย ที่มา - Neowin    ", 
  "Date": "7/May/2016", 
  "Image-Link": [
    "https://www.blognone.com/sites/default/files/styles/thumbnail/public/topics-images/MSFT_logo_rgb_C-Gray.png?itok=j3hJhqua", 
    "https://i.imgur.com/W5HZN1W.png", 
    "/sites/all/themes/blognone42/images/linebutton.png"
  ], 
  "Link": "https://www.blognone.com/node/80706", 
  "News": "Microsoft Research สาธิต 3D Touch แบบใหม่ ใช้งานแบบสัมผัสได้สะดวกขึ้น", 
  "Tags": [
    "Microsoft Research", 
    "Microsoft", 
    "Research"
  ], 
  "Time": "10:43"
}