{
  "By": "magnamonkun", 
  "Contents": " ดูเหมือนว่านโยบายการบังคับอัพเดท Windows 10 เริ่มส่งผลลบเป็นบริเวณกว้าง ไล่ตั้งแต่เคสเล็กๆ จนถึงเคสใหญ่เคสนี้ที่ทำให้ Rami Ismail ผู้ก่อตั้งร่วมของ Vlambeer เกือบตกเครื่องบิน เพราะเช็คเอาท์ออกจากโรงแรมไม่ได้ Ismail ระบายความรู้สึกผ่านทวิตเตอร์ว่า ระหว่างที่เขาเร่งรีบไปสนามบินเพราะเหลือเวลาอีกชั่วโมงครึ่งก่อนที่เครื่องจะออก ปรากฎว่าทางโรงแรมที่ Ismail พักอยู่ไม่สามารถเช็คเอาท์ได้เนื่องจากคอมพิวเตอร์ที่โรงแรมใช้งาน กำลังอยู่ในระหว่างการอัพเดทเป็น Windows 10 ซึ่งใช้เวลาเป็นชั่วโมงกว่าการอัพเดทเสร็จสิ้น และยังไม่รู้ว่าการอัพเดทจะเสร็จสิ้นลงในเวลากี่โมงด้วย อย่างไรเสีย เรื่องนี้จบลงด้วยดี เพราะทางโรงแรมยินดีให้เขาคืนกุญแจห้อง กรอกชื่อและหมายเลขห้องใส่กระดาษทิ้งไว้ และจะทำเรื่องเช็คเอาท์ย้อนหลังให้โดยไม่คิดค่าใช้จ่ายครับ ที่มา - Kotaku  I woke up all chill and relaxed and then I accidentally booked a flight departing in an hour and a half so now I'm packing in a hurry. — Rami Ismail (@tha_rami) May 24, 2016 My hotel can't check me out because their computer decided to just go for it & is currently in the middle of updating itself to Windows 10. — Rami Ismail (@tha_rami) May 24, 2016   ", 
  "Date": "25/May/2016", 
  "Image-Link": [
    "https://www.blognone.com/sites/default/files/styles/thumbnail/public/topics-images/Windows_logo_Cyan_rgb_D.png?itok=bKOyx4bD", 
    "//upic.me/i/03/upgrading.jpg", 
    "/sites/all/themes/blognone42/images/linebutton.png"
  ], 
  "Link": "https://www.blognone.com/node/81376", 
  "News": "Rami Ismail: \"ผมเกือบตกเครื่อง เพราะ Windows 10 ทำผมเช็คเอาท์ไม่ได้\"", 
  "Tags": [
    "Windows 10", 
    "Microsoft", 
    "Vlambeer"
  ], 
  "Time": "11:34"
}