{
  "By": "nuntawat", 
  "Contents": " ผ่านมาเพียงสองวัน ไมโครซอฟท์ก็ปล่อย Windows 10 และ Windows 10 Mobile รุ่นทดสอบ 14379 ให้สมาชิก Windows Insider กลุ่ม Fast ring รายละเอียดมี อาทิ Windows 10  แก้บั๊ก Action Center อาจล่มหลังยกเลิก (dismiss) การแจ้งเตือนจำนวนมาก แก้บั๊กโน้ตจากแอป Sticky Notes ไม่รับอินพุตจากคีย์บอร์ดหลังจากย่อ (minimize) และเปิดแอปขึ้นอีกครั้ง Known issue: ใช้ Continuum จากมือถือผ่านพีซีด้วยแอป Connect ไม่ได้  Windows 10 Mobile  แก้บั๊กอัตราส่วนของภาพใน live tile สูญหายไปหากภาพต้องถูกย่อ (shrunk) ทำให้ภาพดูยืดออกเกินความเป็นจริง Known issue (เหมือนรุ่นทดสอบที่แล้ว): เปิดไฟล์ PDF บน Microsoft Edge แต่ไม่สามารถมีปฏิสัมพันธ์อย่างการเลื่อนดูกับซูมได้ แบตเตอรี่ของมือถือรุ่นเก่าอย่าง Lumia 830, 930 และ 1520 หมดเร็ว ไวไฟตัดการเชื่อมต่อ  ไมโครซอฟท์กล่าวว่าที่ทำงานจะเริ่มหยุดยาวเพื่อเฉลิมฉลองวันชาติในวันที่ 4 ก.ค. นี้ จึงเป็นที่คาดว่าจะไม่มีการปล่อยรุ่นทดสอบใหม่ออกมาในช่วงไม่กี่วันข้างหน้าครับ ที่มา: Microsoft - Windows Experience Blog   ", 
  "Date": "1/July/2016", 
  "Image-Link": [
    "https://www.blognone.com/sites/default/files/styles/thumbnail/public/topics-images/Windows_logo_Cyan_rgb_D.png?itok=bKOyx4bD", 
    "/sites/all/themes/blognone42/images/linebutton.png"
  ], 
  "Link": "https://www.blognone.com/node/82894", 
  "News": "ไมโครซอฟท์ปล่อย Windows 10/Windows 10 Mobile Build 14379", 
  "Tags": [
    "Windows 10", 
    "Windows 10 Mobile", 
    "Microsoft", 
    "Operating System"
  ], 
  "Time": "12:21"
}