{
  "By": "nismod", 
  "Contents": " ไมโครซอฟท์ประกาศปิดเว็บพอร์ทัล MSN.com ในประเทศจีน ช่วงต้นเดือนหน้า เพื่อที่จะเน้นการให้บริการกับผลิตภัณฑ์อื่นๆ อย่าง Windows 10, คลาวด์สตอเรจ รวมไปถึงการวิจัยและพัฒนาในศูนย์ Microsoft Research ของภูมิภาคเอเชียแปซิฟิก ที่ตั้งอยู่ในกรุงปักกิ่ง นอกจากนี้ไมโครซอฟท์กำลังอยู่ระหว่างการขยายฐานธุรกิจซอฟต์แวร์และการบริการคลาวด์ ของฝั่งเอ็นเตอร์ไพรส์ในประเทศจีนด้วย โดยในช่วง 5 เดือนที่ผ่านมา ไมโครซอฟท์มีลูกค้าที่หันมาใช้ Microsoft Azure เพิ่มขึ้นเป็น 65,000 บริษัท จากที่มีอยู่ 50,000 บริษัทเมื่อปลายปีที่แล้ว โดยตลาดคลาวด์โซลูชันในจีน ถูกคาดหมายว่ายังโตได้อีกเรื่อยๆ ในอีก 3-4 ปีข้างหน้า ซึ่งคู่แข่งสำคัญของไมโครซอฟท์ นอกจาก AWS ยังมีผู้ให้บริการท้องถิ่นอย่าง Alibaba และ Tencent อยู่ด้วย ที่มา - TechCrunch   ", 
  "Date": "10/May/2016", 
  "Image-Link": [
    "https://www.blognone.com/sites/default/files/styles/thumbnail/public/topics-images/msn.png?itok=D7_alA4N", 
    "/sites/all/themes/blognone42/images/linebutton.png"
  ], 
  "Link": "https://www.blognone.com/node/80810", 
  "News": "ไมโครซอฟท์ปิด MSN.com ในจีน เพื่อเน้นการให้บริการผลิตภัณฑ์อื่นๆ ", 
  "Tags": [
    "Microsoft", 
    "China", 
    "MSN"
  ], 
  "Time": "17:09"
}