{
  "By": "nismod", 
  "Contents": " ไมโครซอฟท์ประกาศเข้าซื้อ LinkedIn ด้วยมูลค่ากว่า 26.2 พันล้านเหรียญสหรัฐ ซึ่งถือเป็นดีลที่แพงที่สุดที่เคยมีมา โดยปัจจุบันการเจรจาข้อตกลงอยู่ในขั้นตอนสุดท้ายแล้ว และคาดว่าการเจรจาทั้งหมดจะเสร็จสิ้นก่อนปลายปีนี้ การเข้าซื้อครั้งนี้ LinkedIn จะมีฐานะเป็นบริษัทลูกของไมโครซอฟท์ Jeff Weiner จะยังคงเป็นซีอีโอของบริษัทเช่นเดิมและโครงสร้างองค์กรจะยังคงเหมือนเดิมทุกอย่าง Satya Nadella ระบุว่าจะนำ LinkedIn มาเป็นส่วนหนึ่งในกลุ่มซอฟต์แวร์การจัดการขององค์กรร่วมกับ Microsoft Office 365 และ Microsoft Dynamics ที่มา - Microsoft News Center via Venture Beat   ", 
  "Date": "13/June/2016", 
  "Image-Link": [
    "https://www.blognone.com/sites/default/files/styles/thumbnail/public/topics-images/linkedin.png?itok=PosgiESF", 
    "/sites/all/themes/blognone42/images/linebutton.png"
  ], 
  "Link": "https://www.blognone.com/node/82206", 
  "News": "Microsoft เข้าซื้อ LinkedIn มูลค่ากว่า 26.2 พันล้านเหรียญสหรัฐ", 
  "Tags": [
    "LinkedIn", 
    "Microsoft", 
    "Acquisition"
  ], 
  "Time": "20:38"
}