{
  "By": "Lamicrosz", 
  "Contents": " Larry Hryb หรือที่หลายคนรู้จักกันในชื่อ Major Nelson หนึ่งในทีมงานของแผนก Xbox จากไมโครซอฟท์ยืนยันผ่าน Reddit เว็บไซต์กระดานสนทนาชื่อดังของต่างประเทศ ว่าระบบ Xbox One Backward Compatibility ระบบที่ทำให้เราสามารถเล่นเกมของเครื่อง Xbox 360 ได้บน Xbox One ตัวระบบได้รองรับเกมที่มีจำนวนมากกว่า 2 แผ่นขึ้นไปแล้ว เกมแรกที่ประเดิมความสามารถนี้คือ Deus Ex: Human Revolution Director's Cut จากค่าย Square Enix ซึ่งหลังจากนี้คงมีเกมอื่นตามมาอีกแน่นอน ที่มา - Reddit   ", 
  "Date": "15/May/2016", 
  "Image-Link": [
    "https://www.blognone.com/sites/default/files/styles/thumbnail/public/topics-images/xbox-big_0.png?itok=5eYWc84O", 
    "/sites/all/themes/blognone42/images/linebutton.png"
  ], 
  "Link": "https://www.blognone.com/node/80992", 
  "News": "Xbox One Backward Compatibility รองรับเกม Xbox 360 ที่มีหลายแผ่นแล้ว", 
  "Tags": [
    "Xbox One", 
    "Microsoft", 
    "Games", 
    "Xbox 360"
  ], 
  "Time": "20:53"
}