{
  "By": "mk", 
  "Contents": " ไมโครซอฟท์ประกาศปลดพนักงานในธุรกิจฮาร์ดแวร์สมาร์ทโฟนรวม 1,850 ตำแหน่ง โดยแบ่งเป็น 1,350 ตำแหน่งในฟินแลนด์ (พนักงาน Nokia เดิม) และ 500 ตำแหน่งในประเทศอื่นๆ เหตุผลของการปลดเพื่อลดค่าใช้จ่ายของธุรกิจสมาร์ทโฟน โดยไมโครซอฟท์จะใช้เงินปรับโครงสร้างรอบนี้ 950 ล้านดอลลาร์ (ประมาณ 200 ล้านดอลลาร์เป็นค่าชดเชยให้พนักงาน) ซีอีโอ Satya Nadella (ที่มาเมืองไทยวันนี้) ยืนยันว่าไมโครซอฟท์จะยังอยู่ในธุรกิจสมาร์ทโฟนต่อไป แต่จะไปเน้นลูกค้าภาคธุรกิจที่ให้ความสำคัญกับความปลอดภัย ความสามารถในการจัดการ และฟีเจอร์ Continuum แทน เมื่อไม่นานมานี้ Nokia ก็เพิ่งประกาศปลดพนักงาน 1,000 ตำแหน่งในฟินแลนด์เช่นกัน ที่มา - Microsoft    ", 
  "Date": "25/May/2016", 
  "Image-Link": [
    "https://www.blognone.com/sites/default/files/styles/thumbnail/public/topics-images/MSFT_logo_rgb_C-Gray.png?itok=j3hJhqua", 
    "http://i.imgur.com/nCURxBw.jpg", 
    "/sites/all/themes/blognone42/images/linebutton.png"
  ], 
  "Link": "https://www.blognone.com/node/81409", 
  "News": "ไมโครซอฟท์ปลดพนักงานฝ่ายสมาร์ทโฟนลงอีก 1,850 ตำแหน่ง", 
  "Tags": [
    "Microsoft", 
    "Smartphone"
  ], 
  "Time": "21:12"
}