{
  "By": "mk", 
  "Contents": " ไมโครซอฟท์ประกาศตั้งทีมลงทุนชื่อ Microsoft Ventures เพื่อลงทุนในสตาร์ตอัพระยะแรก ที่ผ่านมา ไมโครซอฟท์มีเอี่ยวกับสตาร์ตอัพอยู่ 2 ทางคือการลงทุนในบริษัทสตาร์ตอัพที่เปิดมาระยะหนึ่งแล้ว กับโครงการ Microsoft Accelerator ที่ช่วยบ่มเพาะบริษัทเกิดใหม่ ยังขาดเครื่องมือสำหรับสนับสนุนสตาร์ตอัพระยะที่อยู่ตรงกลาง ซึ่ง Microsoft Ventures เข้ามาเติมเต็มช่องว่างตรงนี้ เบื้องต้น Microsoft Ventures จะโฟกัสไปที่เมืองซานฟรานซิสโก ซีแอทเทิล นครนิวยอร์ก และกรุงเทลอาวีฟของอิสราเอล ก่อนจะขยายไปยังภูมิภาคอื่นๆ ในอนาคต ส่วนธุรกิจที่ไมโครซอฟท์สนใจก็สอดคล้องกับตัวธุรกิจหลัก ตั้งแต่คลาวด์ที่ต่อยอด Azure, ต่อยอด Windows/HoloLens หรือสร้างผลิตภัณฑ์เกี่ยวกับ Office 365 ก่อนหน้านี้ กูเกิลก็เคยตั้งหน่วยลงทุนชื่อ Google Ventures มาแล้ว และขยายมาเป็น Google Capital ที่ลงทุนในบริษัทระยะถัดมาด้วย ที่มา - Microsoft   ", 
  "Date": "1/June/2016", 
  "Image-Link": [
    "https://www.blognone.com/sites/default/files/styles/thumbnail/public/topics-images/MSFT_logo_rgb_C-Gray.png?itok=j3hJhqua", 
    "/sites/all/themes/blognone42/images/linebutton.png"
  ], 
  "Link": "https://www.blognone.com/node/81717", 
  "News": "ไมโครซอฟท์ตั้งหน่วยลงทุนสตาร์ตอัพ Microsoft Ventures", 
  "Tags": [
    "Microsoft", 
    "Startup", 
    "Venture Capital"
  ], 
  "Time": "21:19"
}