{
  "By": "nuntawat", 
  "Contents": " Lenovo ประเทศญี่ปุ่น ร่วมกับ Microsoft ประเทศญี่ปุ่นและ SoftBank เปิดตัว SoftBank 503LV มือถือ Windows 10 Mobile สเปคเป็นดังนี้  หน้าจอ 5 นิ้ว ที่ความละเอียด HD ชิป Qualcomm Snapdragon 617 พร้อมซีพียูแปดคอร์ที่ 1.5 กิกะเฮิรตซ์ แรม 3 กิกะไบต์ หน่วยความจำภายใน 32 กิกะไบต์ รองรับ microSD กล้องหลัก 8 ล้านพิกเซล ส่วนกล้องหน้า 5 ล้านพิกเซล รองรับ 4G LTE และ Bluetooth 4.0 แบตเตอรี่ 2250 มิลลิแอมป์-ชั่วโมง ตัวเครื่องบาง 7.6 มม. และเบาเพียง 144 กรัม Windows 10 Mobile รองรับ Continuum for phones  SoftBank 503LV จะเข้าสู่ตลาดเดือนตุลาคมนี้ แต่ยังไม่มีการเปิดเผยราคาครับ ที่มา: Micrrosoft Japan ผ่าน MSPoweruser    ", 
  "Date": "14/July/2016", 
  "Image-Link": [
    "https://www.blognone.com/sites/default/files/styles/thumbnail/public/topics-images/lenovo.png?itok=fPVji8qa", 
    "http://i.imgur.com/osxwePj.png", 
    "/sites/all/themes/blognone42/images/linebutton.png"
  ], 
  "Link": "https://www.blognone.com/node/83449", 
  "News": "Lenovo ร่วมกับ Microsoft และ SoftBank เปิดตัว SoftBank 503LV มือถือ Windows 10 Mobile", 
  "Tags": [
    "Lenovo", 
    "Windows 10 Mobile", 
    "Mobile", 
    "Japan", 
    "SoftBank", 
    "Microsoft"
  ], 
  "Time": "21:23"
}