{
  "By": "nrad6949", 
  "Contents": " แม้จะเป็นหนึ่งในเกมที่ได้รับความนิยมทั่วโลกสำหรับ Minecraft เกมที่ Microsoft ได้มาจากการซื้อกิจการของ Mojang แต่เกมดังกล่าวนี้กลับไม่มีให้ดาวน์โหลดในประเทศจีนด้วยข้อจำกัดทางกฎหมาย แต่ตอนนี้ Microsoft จะส่ง Minecraft บุกตลาดจีนอย่างเป็นทางการ หลังจากที่บรรลุข้อตกลงกับ NetEase บริษัทเผยแพร่ซอฟต์แวร์ในประเทศจีน (software publisher) เป็นระยะเวลา 5 ปี สาเหตุที่ทำให้ Microsoft ไม่สามารถขอรับการอนุมัติเพื่อให้เผยแพร่ Minecraft ในประเทศจีนได้ เพราะเหตุผลจากขั้นตอนทางกฎหมายที่บริษัทผู้เผยแพร่เกมจะต้องขออนุญาตจากหน่วยงานต่างๆ มากถึง 6 หน่วยงาน และคำขอเหล่านั้นส่วนมากบริษัทต่างชาติมักจะขอไม่ได้  จึงต้องทำงานกับบริษัทเผยแพร่ซอฟต์แวร์ท้องถิ่นนั่นเอง ที่มา - ArsTechnica    ", 
  "Date": "22/May/2016", 
  "Image-Link": [
    "https://www.blognone.com/sites/default/files/styles/thumbnail/public/topics-images/minecraft-logo.png?itok=wUsaULhq", 
    "https://i.imgur.com/2XAWgyF.jpg", 
    "/sites/all/themes/blognone42/images/linebutton.png"
  ], 
  "Link": "https://www.blognone.com/node/81260", 
  "News": "Microsoft ประกาศร่วมมือกับบริษัทท้องถิ่น ส่ง Minecraft บุกตลาดจีน", 
  "Tags": [
    "Minecraft", 
    "Microsoft", 
    "China"
  ], 
  "Time": "22:19"
}