{
  "By": "Phantip", 
  "Contents": " ไมโครซอฟท์ ประเทศไทย เปิดรับสมัครนักศึกษาเข้าร่วมโครงการ Microsoft Student Partner หรือ MSP เพื่อเฟ้นหานักศึกษาระดับอุดมศึกษาที่ชื่นชอบและใฝ่เรียนรู้ในเทคโนโลยีจากทั่วโลก ให้มีโอกาสได้เข้ามาพัฒนาตนเองกับโครงการ MSP FY17 MSP เป็นโครงการที่เกิดขึ้นจากความตั้งใจที่จะสนับสนุนน้องๆ นักศึกษาในรั้วมหาวิทยาลัยให้ได้มีโอกาสเรียนรู้เทคโนโลยีใหม่ๆ จากไมโครซอฟท์ แสดงความสามารถ และนำประสบการณ์ความรู้ที่ได้ไปแบ่งปันให้เพื่อนร่วมสถาบันและชุมชน เพื่อสร้างสังคมแห่งการเรียนรู้ร่วมกัน เช่น การจัดงานเชิงวิชาการแบ่งปันความรู้ การส่งเสริมให้เพื่อนๆ เข้าแข่งขัน Imagine Cup การรับสิทธิ์เข้าร่วมโครงการแจกซอฟต์แวร์ฟรี DreamSpark  โดยการสมัครจะแบ่งเป็น 2 สายตามความสนใจของผู้สมัคร ได้แก่  Business Lead สำหรับผู้ที่ชอบบริหารจัดการและการวางแผนเชิงกลยุทธ์ในการจัดกิจกรรม Technical Evangelist สำหรับผู้ที่ชอบเรียนรู้และแบ่งปันความรู้เทคโนโลยีใหม่ๆ  โครงการเปิดรับสมัครตั้งแต่วันนี้ - 30 มิ.ย.นี้ นักศึกษาที่สนใจอยากเข้าร่วมเป็นส่วนหนึ่งของโครงการ MSP FY17 สามารถดูรายละเอียดได้ที่ Microsoft Student Partners Thailand ที่มา - Microsoft Student Partners Thailand   ", 
  "Date": "1/June/2016", 
  "Image-Link": [
    "https://www.blognone.com/sites/default/files/styles/thumbnail/public/topics-images/MSFT_logo_rgb_C-Gray.png?itok=j3hJhqua", 
    "http://i.imgur.com/puPYApD.jpg", 
    "/sites/all/themes/blognone42/images/linebutton.png"
  ], 
  "Link": "https://www.blognone.com/node/81719", 
  "News": "ไมโครซอฟท์ ประเทศไทย เปิดรับนักศึกษาโครงการ Microsoft Student Partners ปี 2016", 
  "Tags": [
    "Microsoft", 
    "Thailand", 
    "Education"
  ], 
  "Time": "22:18"
}