{
  "By": "trinakub", 
  "Contents": " เตรียมเงินกันให้พร้อม! เทศกาลลดราคาเกมประจำปี 2559 ของเครื่อง Xbox กำลังจะเริ่มต้นขึ้นแล้ว ปีนี้มีกำหนดการเป็นวันอังคารที่ 5 กรกฎาคม ระยะเวลาลดราคานานถึงหนึ่งสัปดาห์ด้วยกัน การลดราคาครั้งนี้มีเกมเข้าร่วมถึง 250 กว่าเกม พร้อมกับมีดีลเกม Windows 10 และเครื่อง Xbox One ด้วย ทาง Microsoft จะเปิดเผยรายละเอียดเพิ่มเติมของราคาที่ลดไปในวันที่ 3 กรกฎาคมนี้ ตอนนี้ Microsoft บอกเพียงว่าเกม Xbox จะลดราคาสูงถึง 60% และจะมีบางเกมที่ลดมากกว่านั้น และยิ่งไปกว่านั้นสำหรับผู้ที่สมัคร Xbox Live Gold จะได้รับส่วนลดเพิ่มอีก 10% ด้วย เกมที่ลดราคาจะมีเกมใหม่ ๆ ได้แก่ Doom, Quantum Break, Mirror's Edge Catalyst, Dark Souls III และ The Division's Underground DLC รวมอยู่ด้วย ส่วนเกม Xbox 360 ที่สามารถเล่นบน Xbox One ได้ ก็จะลดราคาด้วยเช่นกัน ได้แก่ The Witcher 2, South Park: The Stick of Truth และ Deus Ex: Human Revolution เป็นต้น ทางด้าน PC เองก็มีรายชื่อเกมที่ลดราคาออกมาบางส่วน ได้แก่ Quantum Break, Rise of the Tomb Raider และ Gears of War: Ultimate Edition เครื่อง Xbox One เองก็ปรับราคาลงเหลือแค่ 280 ดอลลาร์สหรัฐเท่านั้น และจะขายคู่กับเกม Quantum Break, Gears of War และอีกหนึ่งเกมที่ผู้ซื้อสามารถเลือกได้ ที่มา - GameSpot   ", 
  "Date": "2/July/2016", 
  "Image-Link": [
    "https://www.blognone.com/sites/default/files/styles/thumbnail/public/topics-images/xbox.png?itok=Kznca_K_", 
    "/sites/all/themes/blognone42/images/linebutton.png"
  ], 
  "Link": "https://www.blognone.com/node/82942", 
  "News": "Xbox เทศกาลลดกระหน่ำประจำปี 2559 เริ่มต้นอาทิตย์หน้าแล้ว!", 
  "Tags": [
    "Xbox", 
    "Games", 
    "Windows 10", 
    "Microsoft"
  ], 
  "Time": "23:27"
}