{
  "By": "nismod", 
  "Contents": " ถึงแม้จะยังอยู่เพียงในขั้นทดลอง แต่ผู้บริหาร Baidu ก็ออกมาสัญญาเชิงบลัฟเรียบร้อยแล้วว่า รถยนต์ไร้คนขับของบริษัทจะไม่มีวันเกิดอุบัติเหตุเหมือนกับกรณีของ Tesla Model S ที่เป็นเหตุให้มีผู้เสียชีวิต Wang Jin รองประธานอาวุโสของ Baidu ออกมาให้สัมภาษณ์กับสื่อท้องถิ่นของจีน อธิบายว่าเพราะกล้องและเซ็นเซอร์บนรถ Tesla Model S ถูกติดตั้งต่ำเกินไปและไม่มีประสิทธิภาพเพียงพอ ทำให้เซ็นเซอร์ตรวจไม่พบรถบรรทุก ที่มีท้องรถยกสูงได้ โดยผู้บริหาร Baidu ยืนยันว่ารถไร้คนขับของบริษัท ใช้เซ็นเซอร์เรด้าร์ที่สามารถแยกแยะวัตถุได้จากสี ทำให้อุบัติเหตุที่เกิดขึ้นกับ Model S จะไม่มีวันเกิดกับ Baidu ขณะเดียวกันจำนวนของเซ็นเซอร์บนรถก็มีจำนวนมากกว่าและมีราคาแพงกว่าที่ใช้บนรถของ Tesla ด้วย กว่าจะได้พิสูจน์ว่ารถไร้คนขับของ Baidu จะดีจริงอย่างที่ผู้บริหารบลัฟหรือไม่ คงต้องรอกันอีกอย่างน้อยๆ ก็ 5 ปีล่ะครับ ที่มา - people.cn   ", 
  "Date": "6/July/2016", 
  "Image-Link": [
    "https://www.blognone.com/sites/default/files/styles/thumbnail/public/topics-images/nKvSnUFU.png?itok=fnqUzD2Q", 
    "/sites/all/themes/blognone42/images/linebutton.png"
  ], 
  "Link": "https://www.blognone.com/node/83069", 
  "News": "ผู้บริหาร Baidu สัญญา รถไร้คนขับจะไม่เกิดอุบัติเหตุเหมือน Tesla", 
  "Tags": [
    "Baidu", 
    "Tesla Motors", 
    "Autonomous", 
    "Self-Driving Car"
  ], 
  "Time": "11:35"
}