{
  "By": "BlackMiracle", 
  "Contents": " ช่วงเดือนที่ผ่านมามีอุบัติเหตุกับรถ Tesla อย่างน้อยสองครั้ง ครั้งแรกเป็นข่าวใหญ่ที่ระบบ Autopilot ของ Tesla Model S ของนาย Joshua D. Brown ทำงานผิดพลาดและชนกับรถบรรทุก (กรณีที่ 1) จากนั้นก็มีอีกข่าวหนึ่งเป็น Tesla Model X ชนกับที่กั้นริมทางในรัฐเพนซิลเวเนีย ซึ่งผู้ขับคือนาย Albert Scaglione อ้างว่าสาเหตุของอุบัติเหตุคือระบบ Autopilot แต่ตอนนั้น Tesla Motors ก็ออกมาบอกทันทีว่ายังไม่มีรายงานที่บ่งชี้ว่าระบบ Autopilot ถูกเปิดใช้งานอยู่ (กรณีที่ 2) ล่าสุด Elon Musk ซีอีโอของ Tesla Motors ได้ทวีตยืนยันกรณีที่ 2 แล้วว่า Tesla Model X คันดังกล่าวไม่ได้ใช้งานระบบ Autopilot อยู่ ณ เวลาที่เกิดอุบัติเหตุ โดยดูจาก log ในคอมพิวเตอร์ของรถเอง และเขายังเสริมอีกว่าถ้าเปิดใช้ Autopilot คงไม่เกิดเหตุการณ์อย่างนี้แน่นอน ที่มา - @elonmusk Onboard vehicle logs show Autopilot was turned off in Pennsylvania crash. Moreover, crash would not have occurred if it was on. — Elon Musk (@elonmusk) July 14, 2016   ", 
  "Date": "15/July/2016", 
  "Image-Link": [
    "https://www.blognone.com/sites/default/files/styles/thumbnail/public/topics-images/tesla.png?itok=J6-e8z4s", 
    "/sites/all/themes/blognone42/images/linebutton.png"
  ], 
  "Link": "https://www.blognone.com/node/83473", 
  "News": "พิสูจน์แล้ว อุบัติเหตุ Tesla ที่รัฐเพนซิลเวเนียไม่ได้เกิดจากระบบ Autopilot", 
  "Tags": [
    "Tesla Motors", 
    "Electric Car", 
    "Automobile"
  ], 
  "Time": "13:40"
}