{
  "By": "vvkungx", 
  "Contents": " การนำภาพที่เอียงมาปรับแต่งบน Photoshop เพื่อหวังให้มันตรงและมีองค์ประกอบของภาพที่ยังสมบูรณ์อยู่ ปัญหาอย่างหนึ่งคือ เมื่อเราครอปภาพแบบนี้จะทำให้องค์ประกอบบริเวณขอบข้างของภาพหายไปเนื่องจากต้องมีการเอียงภาพเกิดขึ้น ทำให้ล่าสุด Adobe Photoshop CC เตรียมออกฟีเจอร์ปรับแต่งส่วนที่หายไปเพิ่มเติมในอัพเดตเวอร์ชั่นหน้า ฟีเจอร์นี้ของ Photoshop มีชื่อว่า Content-Aware Crop ผู้ใช้สามารถครอปภาพด้วยเครื่องมือครอปโดยใช้เครื่องมือแนวเส้นตรงในการปรับแต่ง เมื่อลากเส้นในตำแหน่งที่เราต้องการให้ภาพตรง ระบบจะเอียงภาพให้ตรงอัตโนมัติ จากนั้นเลือก Content-Aware ระบบจะขยายความกว้างของภาพออกมาแล้วกด Enter ก็จะทำให้ภาพที่เราต้องการออกมาตรงและมีองค์ประกอบครบถ้วนดังเดิมโดยไม่ต้องตัดต่อเอง (ดูวิธีที่ใช้งานได้ที่คลิปท้ายข่าว) สำหรับฟีเจอร์ตัวนี้จะมาพร้อมกับอัพเดตในตัวถัดไปของ Photoshop CC ครับ ที่มา : Gizmodo   ", 
  "Date": "27/May/2016", 
  "Image-Link": [
    "https://www.blognone.com/sites/default/files/styles/thumbnail/public/topics-images/adobe.png?itok=VJhWB1K2", 
    "/sites/all/themes/blognone42/images/linebutton.png"
  ], 
  "Link": "https://www.blognone.com/node/81479", 
  "News": "Adobe Photoshop CC เตรียมเพิ่มฟีเจอร์ครอปภาพแล้วปรับแต่งส่วนที่หายไปอัตโนมัติ", 
  "Tags": [
    "Photoshop", 
    "Adobe", 
    "Creative Cloud", 
    "Image Editing"
  ], 
  "Time": "00:35"
}