{
  "By": "trinakub", 
  "Contents": " Skullgirls เกม Indie Fighting กำลังจะมีตัวเกมเวอร์ชัน Mobile ทำลงเครื่อง iOS และ Android ภายในสิ้นปีนี้แล้ว ซึ่งตัวเกมบนมือถือนี้จะพัฒนาโดย Lab Zero ผู้ให้กำเนิดซีรี่ส์นี้เช่นเดิม และจะได้สตูดิโอ Hidden Variable มาร่วมพัฒนาด้วย (ผลงานที่ผ่านมา Tic Tactics, Up & Up!, Gab It! และ Threes) ตัวเกม Skullgirls เวอร์ชัน Mobile จะทำหน้าที่เป็นตัวเสริมที่ทำให้ซีรี่ส์นี้มีความสมบูรณ์มากยิ่งขึ้น โดยจะดำเนินเรื่องราวเป็นภาคก่อนหน้าเวอร์ชัน PC ภายในภาคนี้จะนำเสนอรูปแบบการเล่นที่มีความเป็น RPG มากขึ้น ซึ่งจะมีระบบการจัดตั้งทีม ระบบปรับแต่งตัวละคร ระบบ Fight Assist และจะมีตัวละครลับกับท่าไม้ตายใหม่ ๆ ให้ผู้เล่นได้ปลดล็อกระหว่างเล่นด้วย วันจำหน่ายยังไม่ได้กำหนดออกมาแน่ชัด แต่เป็นภายในสิ้นปีนี้แน่นอน ซึ่งผู้ที่สนใจสามารถสมัครเพื่อเข้าร่วมทดสอบ Closed Beta ได้ที่หน้าเว็บไซต์ของทาง Hidden Variable ที่มา – DualShockers   ", 
  "Date": "4/July/2016", 
  "Image-Link": [
    "https://www.blognone.com/sites/default/files/styles/thumbnail/public/news-thumbnails/Skullgirls%20Logo.png?itok=0Ui5kViH", 
    "/sites/all/themes/blognone42/images/linebutton.png"
  ], 
  "Link": "https://www.blognone.com/node/82954", 
  "News": "เกม Skullgirls เปิดตัวเวอร์ชัน Mobile ลง iOS และ Android ภายในสิ้นปีนี้", 
  "Tags": [
    "Skullgirls", 
    "iOS", 
    "Android", 
    "Games"
  ], 
  "Time": "00:17"
}