{
  "By": "nrad6949", 
  "Contents": " Chris Burns หัวหน้าบรรณาธิการเว็บไซต์ข่าวไอที SlashGear ออกมาแสดงความเห็นผ่านข้อเขียนของเขาล่าสุดในเว็บไซต์ว่า Apple ควรเอาอย่างแนวทางของ Chrome OS ของ Google ที่ทำให้แอพจากฝั่งอุปกรณ์พกพา ขึ้นมาทำงานได้อยู่ในระบบปฏิบัติการคอมพิวเตอร์ตั้งโต๊ะ ซึ่งในกรณีของ Apple คือการนำเอาแอพจากฝั่ง iOS ขึ้นมารันอยู่บน OS X นั่นเอง Burns ระบุว่า การมาของ iPad Pro ทำให้ Apple ตระหนักได้ว่าต้องรองรับการใช้สองแอพพร้อมกับผ่านคุณสมบัติการแบ่งหน้าจอ (split screen) ซึ่งทำให้แอพ iOS หลายตัว สามารถปรับขนาดที่เหมาะสมให้เหมือนกับหน้าตาแบบต่างๆ ได้ และนั่นทำให้เมื่อหากเอามารันบน OS X แบบ native มันก็จะสามารถทำงานแบบหน้าต่างได้โดยไม่ติดปัญหาอะไร อย่างไรก็ตาม Burns ระบุว่าความท้าทายคือการต้องเปลี่ยนแนวทางการทำงานของการสัมผัส (touch) บนอุปกรณ์อย่าง MacBook ใหม่ รวมไปถึงการควบคุมความสามารถในระดับอุปกรณ์ (hardware) ซึ่ง Apple มีความสามารถเพียงพอที่จะทำ และหากกลัวว่าประสบการณ์จะแย่ ก็คัดเลือกแอพจำนวนหนึ่งให้มาอยู่บน OS X ก่อนก็ได้ เขามองว่าทั้งหมดนี้ Apple แทบจะไม่ต้องมีอะไรเสียเลยด้วยซ้ำ ที่มา - SlashGear    ", 
  "Date": "25/May/2016", 
  "Image-Link": [
    "https://www.blognone.com/sites/default/files/styles/thumbnail/public/topics-images/ios_0.png?itok=tXITKZqN", 
    "https://i.imgur.com/ccDLjCK.jpg", 
    "/sites/all/themes/blognone42/images/linebutton.png"
  ], 
  "Link": "https://www.blognone.com/node/81411", 
  "News": "หัวหน้าบรรณาธิการ SlashGear ชี้ Apple ควรเอาอย่าง Chrome OS นำแอพ iOS ขึ้นบน OS X", 
  "Tags": [
    "iOS", 
    "Apple", 
    "OS X", 
    "SlashGear"
  ], 
  "Time": "22:31"
}