{
  "By": "mk", 
  "Contents": " LINE ประเทศไทย เปิดตัวแอพใหม่ LINE MAN อย่างเป็นทางการ แอพตัวนี้สร้างขึ้นเพื่อต่อยอด วิสัยทัศน์ Beyond Chat ไปไกลกว่าการแชท แนวคิดคือเชื่อมต่อโลกออนไลน์กับออฟไลน์เข้าด้วยกัน (Online-to-Offline หรือ O2O) LINE MAN คือแอพเรียกผู้ช่วยส่วนตัวมาช่วยทำงานให้เรา (LINE พาร์ทเนอร์กับ Lalamove ที่เชี่ยวชาญเรื่องนี้อยู่แล้ว) ในระยะเบื้องต้น \"มนุษย์ LINE\" ช่วยงานเราได้ 3 อย่าง  เมสเซนเจอร์ รับส่งสินค้า-ส่งของ ซื้ออาหาร สามารถสั่งให้ทีมงานของ LINE MAN ไปต่อคิวร้านอาหารชื่อดัง จากรายชื่อร้านของ Wongnai แทนการไปซื้อเอง (คิดค่าส่งตามระยะทาง เพิ่มจากค่าอาหารปกติ) นอกจากนี้ แอพ Wongnai ยังอัพเดตให้สามารถสั่งซื้อผ่าน LINE MAN ได้ด้วยเช่นกัน ซื้อของร้านสะดวกซื้อ ทีมงาน LINE MAN จะไปซื้อของในร้านสะดวกซื้อใกล้บ้านของเราให้  ตอนนี้แอพเปิดให้ดาวน์โหลดแล้วบน App Store และ Play Store ส่วนบริการยังจำกัดเฉพาะพื้นที่กรุงเทพเท่านั้น   ที่มา - อีเมลประชาสัมพันธ์ LINE Thailand   ", 
  "Date": "12/May/2016", 
  "Image-Link": [
    "https://www.blognone.com/sites/default/files/styles/thumbnail/public/news-thumbnails/lineman.png?itok=sr42E0wr", 
    "https://i.imgur.com/1IPF0bP.png", 
    "https://i.imgur.com/6z2UaQL.jpg", 
    "/sites/all/themes/blognone42/images/linebutton.png"
  ], 
  "Link": "https://www.blognone.com/node/80896", 
  "News": "แอพเรียกเมสเซนเจอร์ LINE MAN เปิดตัวแล้ว รับส่งของ ซื้ออาหาร-สินค้าจาก 7-11", 
  "Tags": [
    "LINE", 
    "Wongnai", 
    "Lalamove"
  ], 
  "Time": "16:41"
}