{
  "By": "nutmos", 
  "Contents": " Square ได้ออกรายงานข้อมูลของการจ่ายเงินด้วยบัตรเครดิตสำหรับเมืองพอร์ตแลนด์ ซึ่งเป็นเมืองที่มีเครื่องรับการจ่ายเงินผ่านบัตรเครดิตระบบ NFC ของ Square เยอะที่สุดในสหรัฐฯ และมียอดการใช้จ่ายผ่านบริการกระเป๋าเงินมือถือเช่น Apple Pay สูงกว่าค่าเฉลี่ยของประเทศ ในรายงานเผยว่า การให้ทิปของลูกค้า คือ 67% สำหรับผู้ใช้บัตรเครดิตแบบรูดธรรมดา, 71% สำหรับผู้ใช้บัตรเครดิตแบบ EMV และ 73% สำหรับผู้ใช้ระบบ contactless payment นอกจากนี้ทาง Square ยังได้เผยร้าน 5 อันดับแรกที่มีการจ่ายเงินผ่าน NFC สูงที่สุด ส่วนใหญ่มักจะเป็นร้านกาแฟ และเมื่อแยกประเภทกาแฟที่จ่ายเงินผ่าน NFC มากที่สุดแล้ว อันดับหนึ่งคือลาเต้ ตามมาด้วยเอสเพรสโซ่, กาแฟธรรมดา, อเมริกาโน่, คาปูชิโน่, มอคค่า และเครื่องดื่มเย็น ที่มา - Square    ", 
  "Date": "9/July/2016", 
  "Image-Link": [
    "https://www.blognone.com/sites/default/files/styles/thumbnail/public/topics-images/square.png?itok=7Eg2GJ-H", 
    "http://i.cubeupload.com/KbHw4F.png", 
    "/sites/all/themes/blognone42/images/linebutton.png"
  ], 
  "Link": "https://www.blognone.com/node/83202", 
  "News": "ข้อมูลจาก Square เผย คนที่จ่ายเงินผ่าน NFC มีโอกาสให้ทิปสูงกว่าบัตรเครดิตประเภทอื่น", 
  "Tags": [
    "Contactless Payment", 
    "Square", 
    "NFC"
  ], 
  "Time": "07:42"
}