{
  "By": "nrad6949", 
  "Contents": " เมื่อวันพฤหัสที่ผ่านมา Samsung ได้จัดงานเปิดตัว Galaxy C5 โทรศัพท์มือถือรุ่นใหม่ล่าสุดของตัวเองที่ใช้ตัวเครื่องเป็นโลหะที่ประเทศจีนอย่างเป็นทางการ ถือเป็นสมาร์ทโฟนตัวใหม่ล่าสุดของ Samsung ในปีนี้ ตัวเครื่องของ Galaxy C5 ใช้แนวทางการออกแบบเป็นโลหะทั้งเครื่อง (ภาพดูได้ท้ายข่าว) มาพร้อมกับหน้าจอ Super AMOLED ขนาด 5.2 นิ้ว ที่ความละเอียด 1080p, แรม 4 GB, พื้นที่เก็บข้อมูล 32 หรือ 64 GB และรองรับทั้ง 2G/3G/4G (สเปกเต็มอ่านท้ายข่าว) มีตัวอ่านลายนิ้วมือมาให้ด้วย (รองรับ Samsung Pay) มีสีดำเข้ม เทา ทองชมพู และสีทอง วางขายเฉพาะในประเทศจีนเท่านั้นในตอนนี้ ส่วนราคาเปิดจองอยู่ที่ 2,199 หยวน สำหรับรุ่น 32 GB และ 2,399 หยวน สำหรับรุ่น 64 GB ตามลำดับ ของเริ่มจัดส่งในวันที่ 17 มิถุนายนนี้ ที่มา - Samsung ผ่าน SamMobile (1, 2)   Samsung Galaxy C5  กว้าง 7.2 ซม., ยาว 14.59 ซม., หนา 6.7 มม., หนัก 143 กรัม หน่วยประมวลผลแบบ 8 แกน ไม่ระบุผู้ผลิต (SamMobile ระบุว่าเป็น Qualcomm Snapdragon 617) ทำงานที่ความถี่ 1.5 GHz และ 1.2 GHz แรม 4 GB, หน่วยความจำ 32 หรือ 64 GB, รองรับ microSD ที่ความจุสูงสุด 128 GB หน้าจอ Super AMOLED ขนาด 5.2 นิ้ว ความละเอียด Full HD (1080p) กล้องหน้า 8 เมกะพิกเซล f/1.9, กล้องหลัง 16 เมกะพิกเซล f/1.9 พร้อมแฟลชสองสี รองรับทั้ง 2G (GSM: 850/900/1800/1900, CDMA: CDMA800), 3G (UMTS: 850/900/1900/2100, CDMA: BC0, TD-SCDMA: 1880/2010), 4G LTE (FDD: Band 1/3/7/8, TDD: Band 38/39/40/41) พร้อมรองรับสองซิมแบบ Hybrid มีตัวอ่านลายนิ้วมือ ใช้งานกับ Samsung Pay ได้ Wi-Fi (802.11 a/b/g/n), Bluetooth 4.2, NFC, ANT+, GPS, Glonass, Beidou, USB 2.0 แบตเตอรี่ความจุ 2,600 mAh    ", 
  "Date": "29/May/2016", 
  "Image-Link": [
    "https://www.blognone.com/sites/default/files/styles/thumbnail/public/topics-images/j8u2rhG1.jpg?itok=CJuE6qSo", 
    "https://i.imgur.com/rnP1M00.png", 
    "https://i.imgur.com/5rzbUT5.jpg", 
    "/sites/all/themes/blognone42/images/linebutton.png"
  ], 
  "Link": "https://www.blognone.com/node/81568", 
  "News": "Samsung เปิดตัว Galaxy C5 ในจีน รวมทุกแรงบันดาลใจของสมาร์ทโฟนชื่อดัง", 
  "Tags": [
    "Samsung", 
    "Galaxy C", 
    "China"
  ], 
  "Time": "13:06"
}