{
  "By": "nuntawat", 
  "Contents": " ไมโครซอฟท์เผยว่า จะปล่อยอัพเกรดจาก Windows 7 หรือ Windows 8.1 เป็น Windows 10 ฟรีต่อไป สำหรับผู้บกพร่องทางร่างกายที่ใช้เทคโนโลยีด้าน accessibility ในการใช้งาน Windows ไม่ได้สิ้นสุดการอัพเกรดฟรีในวันที่ 29 ก.ค. ตามกลุ่มลูกค้าอื่น ไมโครซอฟท์ระบุว่า การปล่อยอัพเกรดฟรีนี้เป็นส่วนหนึ่งของการเดินตามวิสัยทัศน์ด้าน accessibility บน Windows 10 โดยบริษัทจะเผยรายละเอียดข้อเสนออัพเกรดฟรีข้างต้นในอนาคต ที่มา: Microsoft Accessibility Blog   ", 
  "Date": "7/May/2016", 
  "Image-Link": [
    "https://www.blognone.com/sites/default/files/styles/thumbnail/public/topics-images/Windows_logo_Cyan_rgb_D.png?itok=bKOyx4bD", 
    "/sites/all/themes/blognone42/images/linebutton.png"
  ], 
  "Link": "https://www.blognone.com/node/80715", 
  "News": "ไมโครซอฟท์จะปล่อยอัพเกรดเป็น Windows 10 ฟรีต่อไป สำหรับผู้ใช้เทคโนโลยี accessibility", 
  "Tags": [
    "Windows 10", 
    "Microsoft", 
    "Accessibility"
  ], 
  "Time": "18:16"
}