{
  "By": "nrad6949", 
  "Contents": " UPS บริษัทจัดส่งพัสดุและไปรษณีย์เอกชนรายใหญ่ของสหรัฐอเมริกา ประกาศเปิดบริการติดตามพัสดุและไปรษณีย์ (tracking) ผ่านระบบ GPS สำหรับลูกค้าของตนเองอย่างเป็นทางการเมื่อวันพุธที่ผ่านมา โดยเรียกว่า Follow My Delivery UPS ระบุว่าบริการนี้จะระบุตำแหน่งของพัสดุและไปรษณีย์จาก GPS ที่ติดอยู่ที่รถคนขับได้โดยตรง เมื่อสถานะของพัสดุหรือไปรษณีย์ชิ้นนั้นอยู่ในสถานะ \"เพื่อการจัดส่ง\" (out for delivery) ทำให้ลูกค้าทั้งผู้ส่งและผู้รับ ติดตามสถานะของการส่งได้ดีขึ้น รวมถึงรู้แน่นอนว่าสิ่งของดังกล่าวอยู่ที่ตำแหน่งใดแล้ว บริการนี้มีสำหรับลูกค้าที่ลงทะเบียนในระบบ UPS My Choice และสำหรับพัสดุที่ส่งในบริการ UPS Air และ UPS Worldwide Express รวมถึงต้องใช้ผ่านแอพ UPS Mobile App ที่มีอยู่ 16 ประเทศทั่วโลก และมีทั้งบนแพลตฟอร์ม Android และ iOS บริษัทระบุว่าจะขยายบริการ Follow My Delivery ให้ครอบคลุมถึงบริการระดับอื่นในอนาคตด้วย ที่มา - UPS ผ่าน The Verge    ", 
  "Date": "14/May/2016", 
  "Image-Link": [
    "https://www.blognone.com/sites/default/files/styles/thumbnail/public/news-thumbnails/LogoSliderWEB-03.jpg?itok=mG4cm2pi", 
    "https://i.imgur.com/jeufmXc.jpg", 
    "/sites/all/themes/blognone42/images/linebutton.png"
  ], 
  "Link": "https://www.blognone.com/node/80966", 
  "News": "UPS เปิดบริการ Follow My Delivery ติดตามพัสดุและไปรษณีย์ที่ส่งโดยใช้ GPS", 
  "Tags": [
    "UPS", 
    "GPS"
  ], 
  "Time": "08:10"
}