{
  "By": "nuntawat", 
  "Contents": " เมื่อสัปดาห์ที่ผ่านมา รัฐบาลอินเดียประกาศให้มือถือทุกเครื่องที่วางขายในประเทศตั้งแต่ 1 ม.ค. ปีหน้าเป็นต้นไป ต้องมีปุ่มที่ผู้ใช้กดครั้งเดียวสามารถโทรขอความช่วยเหลือจากเจ้าหน้าที่ของรัฐ (authority) ได้ทันที สำหรับสมาร์ทโฟนที่ไม่สามารถเพิ่มปุ่มข้างต้นได้ ผู้ผลิตต้องเพิ่มฟังก์ชันดังกล่าวในปุ่มเปิด-ปิดเครื่อง โดยให้กดติดต่อกันสามครั้งเพื่อขอความช่วยเหลือ ส่วนฟีเจอร์โฟนนั้นให้เพิ่มลงปุ่ม 5 หรือ 9 แทน การประกาศนี้มีขึ้นหลังรัฐบาลตั้งเบอร์ 112 เพื่อการติดต่อขอความช่วยเหลือเร่งด่วน ทั้งตำรวจ รถฉุกเฉิน และหน่วยดับเพลิง ได้จากที่เดียว นอกจากนั้น รัฐบาลอินเดียยังบังคับให้มือถือทุกเครื่องที่วางขายตั้งแต่ 1 ม.ค. 2018 เป็นต้นไป ต้องมากับ GPS ที่มา: Windows Central   ", 
  "Date": "3/May/2016", 
  "Image-Link": [
    "https://www.blognone.com/sites/default/files/styles/thumbnail/public/topics-images/800px-Flag_of_India.svg_.png?itok=nE0Iaxck", 
    "/sites/all/themes/blognone42/images/linebutton.png"
  ], 
  "Link": "https://www.blognone.com/node/80543", 
  "News": "อินเดียบังคับให้มือถือที่ขายตั้งแต่ต้นปีหน้าต้องมีปุ่มขอความช่วยเหลือจากเจ้าหน้าที่ของรัฐ", 
  "Tags": [
    "India", 
    "GPS", 
    "Mobile"
  ], 
  "Time": "08:49"
}