{
  "By": "sunnywalker", 
  "Contents": " DeepMind ปัญญาประดิษฐ์จาก Google ที่สร้างความฮือฮามาแล้วตอนชนะแชมป์โลกเกมโกะ ลี ซีดอล ล่าสุดให้ลองเล่นเกมฟุตบอลชื่อว่า ant soccer โดย DeepMind สามารถควบคุมตัวมดเลี้ยงลูกฟุตบอลและเตะเข้าประตูได้ ซึ่งมีความซับซ้อนกว่าเพราะต้องวางแผน และเรียนรู้วิธีวิ่งในเกม คล้ายๆกับคนเวลาเล่นเกมครั้งแรก ต้องเรียนรู้วิธีวิ่ง กระโดด Google ระบุว่า ความสำเร็จนี้เป็นผลมาจากการพัฒนาซอฟต์แวร์ Gorilla เป็น ระบบ deep reinforcement learning ช่วยให้ระบบคลาวด์บนแพลตฟอร์ม Google ฝึกฝน AI ได้เร็วขึ้น ระบบดังกล่าวยังเรียนรู้เกี่ยวกับการทดลอง และความผิดพลาดจากการทดลอง DeepMind นำระบบนี้ และทักษะ Deep Learning มาประสานกัน หาข้อสรุปจากข้อมูลใหม่ Google บอกเพิ่มเติมว่าระบบ deep reinforcement learning นี้สามารถแก้ปัญหาในหุ่นยนต์อย่างการเคลื่อนไหว การเคลื่อนที่ได้ ที่มา - Venture Beat   ", 
  "Date": "20/June/2016", 
  "Image-Link": [
    "https://www.blognone.com/sites/default/files/styles/thumbnail/public/topics-images/NzcXa05I.png?itok=igDFOi9m", 
    "/sites/all/themes/blognone42/images/linebutton.png"
  ], 
  "Link": "https://www.blognone.com/node/82454", 
  "News": "Google เผยความสามารถใหม่ของ DeepMind เรียนรู้วิธีเล่นเกมฟุตบอลได้ ", 
  "Tags": [
    "DeepMind", 
    "Games", 
    "Football", 
    "Google"
  ], 
  "Time": "13:37"
}