{
  "By": "nismod", 
  "Contents": " eBay อีคอมเมิร์ซยักษ์ใหญ่ของสหรัฐฯ ได้เข้าซื้อกิจการ Expertmaker บริษัทที่เชี่ยวชาญด้านการจัดการและวิเคราะห์ Big Data สำหรับการจัดการข้อมูลสินค้าจำนวนมหาศาลของตัวเอง โดยไม่มีการเปิดเผยตัวเลข ซึ่งทาง eBay ก็ได้ใช้บริการของ Expertmaker มาซักระยะก่อนการเข้าซื้อแล้วด้วยซ้ำไป Expertmaker จะมาอยู่ภายใต้ฝ่าย Structured Data Initiative ของ eBay โดยการเข้าซื้อครั้งนี้ไม่มีการปลดพนักงาน Expertmaker แต่อย่างใด แถมพนักงานทุกคนยังคงได้รับอนุญาตให้ทำงานอยู่ที่ออฟฟิศเดิมด้วย ที่มา - Techcrunch   ", 
  "Date": "6/May/2016", 
  "Image-Link": [
    "https://www.blognone.com/sites/default/files/styles/thumbnail/public/topics-images/ebay.png?itok=J_By0Pt8", 
    "/sites/all/themes/blognone42/images/linebutton.png"
  ], 
  "Link": "https://www.blognone.com/node/80685", 
  "News": "eBay เข้าซื้อกิจการบริษัทที่เชี่ยวชาญการจัดการ Big Data", 
  "Tags": [
    "eBay", 
    "Acquisition", 
    "Big Data"
  ], 
  "Time": "14:57"
}