{
    "By": "mk", 
    "Contents": "\n@evleaks ยอดนักปล่อยภาพหลุดชื่อดัง (ปัจจุบันเขาไปเขียนให้เว็บ VentureBeat) โพสต์ภาพเรนเดอร์ของ Samsung Galaxy S7 และ Galaxy S7 edge ที่หน้าตายังคล้ายกับ Galaxy S6 มาก\nตามข่าวบอกว่า Galaxy S7 จะใช้หน้าจอขนาด 5.1\" เท่าเดิม ส่วน Galaxy S7 edge ใช้หน้าจอขนาด 5.5\" มือถือทั้งสองรุ่นใช้จอละเอียด QHD 2560x1440 แต่จะมีฟังก์ชัน Always-on Display (AOD) เพิ่มเข้ามา ให้สามารถแสดงผลหน้าจอได้ตลอดเวลาโดยไม่เปลืองแบตเตอรี่มากนัก (น่าจะคล้าย Glance Screen ของฝั่ง Lumia) ส่วนแบตเตอรี่จะเพิ่มขนาดขึ้นเป็น 3000 mAh และ 3600 mAh ตามลำดับ (รุ่นก่อน 2550 mAh และ 2600 mAh)\nที่มา - VentureBeat\nhttps://t.co/JT6X0g8sBu pic.twitter.com/J78eezrU5o\n— Evan Blass (@evleaks) January 29, 2016\n\n", 
    "Date": "30/01/16", 
    "Image-Link": "https://www.blognone.com/sites/default/files/imagecache/news-thumbnail/category_pictures/samsung-big.png", 
    "Link": "https://www.blognone.com/node/77279", 
    "News": "ภาพหลุด Samsung Galaxy S7 และ S7 edge หน้าตายังเหมือน Galaxy S6", 
    "Tags": "Galaxy S7\nLeak\nMobile\nSamsung\n", 
    "Time": "8:28"
}