{
    "By": "nutmos", 
    "Contents": "\nก่อนหน้านี้ Apple เคยแจ้งว่าจะปิดบริการ iTunes Radio ฟังฟรีมีโฆษณาที่ยังให้บริการอยู่ 2 ประเทศคือสหรัฐอเมริกาและออสเตรเลีย (เพราะเป็นประเทศที่มี iTunes Radio มาก่อน Apple Music) ในวันที่ 29 มกราคมนี้ และตอนนี้ก็ถึงเวลาแล้วที่ Apple จะปิดบริการ\nเท่ากับว่าต่อไปนี้หากใครต้องการฟัง iTunes Radio ก็ต้องจ่ายเงินสมัคร Apple Music ซึ่งจะทำให้เหลือเพียงแค่ Beats 1 อย่างเดียวที่เป็นสถานีวิทยุฟังฟรีมีโฆษณาของ Apple\nที่มา - AppleInsider\n", 
    "Date": "30/01/16", 
    "Image-Link": "https://www.blognone.com/sites/default/files/imagecache/news-thumbnail/category_pictures/apple-music.jpg", 
    "Link": "https://www.blognone.com/node/77278", 
    "News": "หมดเวลาฟรี! Apple ปิดบริการ iTunes Radio ฟรีมีโฆษณาแล้ว", 
    "Tags": "Apple\nApple Music\niTunes Radio\n", 
    "Time": "7:45"
}