{
    "By": "nutmos", 
    "Contents": "\nสำนักข่าวต่างประเทศรายงานว่า Google กำลังเตรียมตัวเปิดบริการโทรศัพท์กับ Google Fiber หรือที่ตอนนี้เรียกกันว่า Google Fiber Phone โดยตอนนี้ Google เริ่มส่งคำเชิญไปถึงผู้ใช้งาน Google Fiber ที่เป็นสมาชิกในโครงการ Trusted Tester (กลุ่มผู้ที่พร้อมจะทดลองบริการใหม่ๆ) ให้ทดลองใช้งานเป็นกลุ่มแรก\nGoogle Fiber Phone จะเป็นบริการที่คล้ายๆ Google Voice และคาดว่าน่าจะมีฟีเจอร์ต่างๆ ของ Google Voice มาด้วยอย่าง การถอดความข้อความเสียง (voicemail transcription), การสกรีนการโทรศัพท์ตามช่วงเวลาในแต่ละวัน\nถ้า Google Fiber จะเปิดบริการโทรศัพท์จริง เท่ากับว่าบริการผ่านสายไฟเบอร์ของ Google จะรวม 3 บริการได้เลยคือโทรศัพท์, โทรทัศน์ และอินเทอร์เน็ตความเร็วสูง\nที่มา - The Washington Post\n", 
    "Date": "30/01/16", 
    "Image-Link": "https://www.blognone.com/sites/default/files/imagecache/news-thumbnail/category_pictures/fiber-m.png", 
    "Link": "https://www.blognone.com/node/77282", 
    "News": "Google เตรียมเปิดตัวบริการโทรศัพท์ผ่าน Google Fiber", 
    "Tags": "Google\nGoogle Fiber\n", 
    "Time": "9:53"
}