{
  "By": "arjin", 
  "Contents": " Twilio ผู้ให้บริการ API บนคลาวด์สำหรับติดต่อกับโทรศัพท์และ SMS ได้ไอพีโอเข้าตลาดหลักทรัพย์นิวยอร์กไปเรียบร้อยแล้ว โดยราคาหุ้นไอพีโออยู่ที่ 15 ดอลลาร์ต่อหุ้น และปิดการซื้อขายในวันแรกที่ 28.53 ดอลลาร์ เพิ่มขึ้นมากกว่า 90% ทำให้บริษัทมีมูลค่ากิจการตามราคาหุ้น 2.03 พันล้านดอลลาร์ บริการของ Twilio ทำให้นักพัฒนาแอพสามารถเรียกใช้ API เพื่อต่อสายโทรศัพท์ หรือส่งข้อความสั้นไปยังลูกค้าได้ โดยมีลูกค้ารายสำคัญอย่างเช่น Uber รวมอยู่ด้วย ไอพีโอของ Twilio ที่ปรับราคาเพิ่มขึ้นจากราคาจองยังส่งสัญญาณบวก สำหรับหุ้นกลุ่มอุตสาหกรรมเทคโนโลยีและสตาร์ทอัพ ที่ชะลอตัวในการเข้าตลาดหุ้นที่ผ่านมา อาจทำให้กลับเข้ามาเป็นที่สนใจอีกครั้ง ที่มา: VentureBeat ภาพ Twilio    ", 
  "Date": "24/June/2016", 
  "Image-Link": [
    "https://www.blognone.com/sites/default/files/styles/thumbnail/public/news-thumbnails/download_6.png?itok=qM64ngRj", 
    "http://i.imgur.com/Ybo7wME.jpg", 
    "/sites/all/themes/blognone42/images/linebutton.png"
  ], 
  "Link": "https://www.blognone.com/node/82620", 
  "News": "Twilio เข้าตลาดหุ้นวันแรก ราคาปรับเพิ่มขึ้นกว่า 90% ส่งสัญญาณบวกต่อว่าที่หุ้นกลุ่มไอทีในอนาคต", 
  "Tags": [
    "Twilio", 
    "IPO"
  ], 
  "Time": "10:45"
}