{
  "By": "mk", 
  "Contents": " ไมโครซอฟท์พัฒนาแว่น HoloLens ของตัวเองมาได้ระยะหนึ่ง มาถึงวันนี้ก็ได้เวลาเปิดแพลตฟอร์มซอฟต์แวร์ Windows Holographic ให้ผู้ผลิตฮาร์ดแวร์รายอื่นๆ ใช้งานได้ด้วย ไมโครซอฟท์บอกว่าวางตัว HoloLens ไว้ลักษณะเดียวกับ Surface นั่นคือเป็นตัวผลักดันขีดจำกัดของฮาร์ดแวร์ แต่ก็ยินดีเปิดกว้างให้พาร์ทเนอร์รายอื่นๆ สร้างฮาร์ดแวร์ลักษณะเดียวกัน โดยอิงอยู่บนแพลตฟอร์มซอฟต์แวร์ของไมโครซอฟท์ รายชื่อบริษัทฮาร์ดแวร์ที่เข้าร่วมพัฒนา Windows Holographic ได้แก่ Intel, AMD, Qualcomm, HTC, Acer, ASUS, CyberPowerPC, Dell, Falcon Northwest, HP, iBuyPower, Lenovo, MSI อีกสักพักเราคงได้เห็นฮาร์ดแวร์จากบริษัทเหล่านี้ออกสู่ตลาดครับ ไมโครซอฟท์เรียกแพลตฟอร์ม Windows Holographic ว่าเป็น Mixed Reality ชูจุดเด่นเหนือกว่า Virtual Reality ตรงที่ผนวกวัตถุและสภาพแวดล้อมในโลกจริงเข้ามาด้วย ที่มา - Windows Experience Blog   ", 
  "Date": "2/June/2016", 
  "Image-Link": [
    "https://www.blognone.com/sites/default/files/styles/thumbnail/public/topics-images/hololens.png?itok=I3-347Zr", 
    "/sites/all/themes/blognone42/images/linebutton.png"
  ], 
  "Link": "https://www.blognone.com/node/81733", 
  "News": "ไมโครซอฟท์เปิดแพลตฟอร์ม Windows Holographic ให้บริษัทอื่นสร้างแว่นแบบ HoloLens", 
  "Tags": [
    "HoloLens", 
    "Microsoft", 
    "Virtual Reality", 
    "Augmented Reality"
  ], 
  "Time": "10:01"
}