{
  "By": "mk", 
  "Contents": " กระแส Pokemon Go ระบาดไปทุกหย่อมหญ้า ถึงขนาด Satya Nadella ซีอีโอของไมโครซอฟท์ยังออกมาพูดว่ารูปแบบการเล่นของ Pokemon Go นั้นเหมาะมากสำหรับแว่น HoloLens ของไมโครซอฟท์ เขาบอกว่าความนิยมของ Pokemon Go จะส่งผลให้คนสนใจ HoloLens มากขึ้นด้วย ถึงแม้การเล่นเกมแนวนี้บนมือถือจะมีจุดเด่นตรงมีคนใช้มือถือจำนวนมาก แต่การเล่นด้วยแว่น HoloLens ก็จะได้ประสบการณ์ augmented reality ที่ดีกว่า Satya ยังชมเกมแนวนี้ว่าถือเป็นตัวอย่างของแอพพลิเคชันใหม่ๆ บนแพลตฟอร์มใหม่ๆ ด้วย ที่มา - MSPowerUser    ", 
  "Date": "13/July/2016", 
  "Image-Link": [
    "https://www.blognone.com/sites/default/files/styles/thumbnail/public/topics-images/hololens.png?itok=I3-347Zr", 
    "https://i.imgur.com/yN6zCiA.jpg", 
    "/sites/all/themes/blognone42/images/linebutton.png"
  ], 
  "Link": "https://www.blognone.com/node/83402", 
  "News": "Satya Nadella บอก Pokemon Go นี่เหมาะกับ HoloLens มากเลย", 
  "Tags": [
    "HoloLens", 
    "Microsoft", 
    "Pokemon", 
    "Augmented Reality", 
    "Satya Nadella"
  ], 
  "Time": "22:10"
}