{
  "By": "Lamicrosz", 
  "Contents": " Sebastian Moritz ผู้จัดการกลุ่มชุมชนผู้เล่น Battlefield ในประเทศเยอรมนี กล่าวในวิดีโอสตรีมสดบน Twitch เผยว่า การทดสอบ Battlefield 1 รอบเบต้า จะเปิดให้ผู้เล่นทั่วไปได้ทดสอบช่วงหลังงาน Gamescom 2016 ที่จะมีขึ้นในวันที่ 17-21 สิงหาคม จึงเป็นไปได้ที่จะมีการเปิดให้ลองกัน ในช่วงระหว่างปลายเดือนสิงหาคมและเดือนกันยายน Battlefield 1 ในขณะนี้ อยู่ในขั้นตอนการทดสอบแบบปิด เฉพาะผู้ที่ได้รับเชิญเท่านั้น และยังไม่มีรายละเอียดในส่วนของโหมดและแผนที่ในเวอร์ชันเบต้า ที่มา - VG24/7    ", 
  "Date": "16/July/2016", 
  "Image-Link": [
    "https://www.blognone.com/sites/default/files/styles/thumbnail/public/topics-images/bf1.jpg?itok=uk4QjL0s", 
    "http://i.imgur.com/oLKyGuN.jpg", 
    "/sites/all/themes/blognone42/images/linebutton.png"
  ], 
  "Link": "https://www.blognone.com/node/83497", 
  "News": "Battlefield 1 จะเปิดทดสอบเบต้า ช่วงหลังงาน Gamescom 2016", 
  "Tags": [
    "Battlefield", 
    "EA", 
    "Games"
  ], 
  "Time": "06:06"
}