{
  "By": "nrad6949", 
  "Contents": " Amazon ประกาศอัพเกรดความสามารถใหม่ให้กับ Amazon Echo ลำโพงอัจฉริยะที่เป็นผู้ช่วยส่วนตัวในเวลาเดียวกันของบริษัท ให้สามารถติดตามความคืบหน้าการจัดส่งของจาก Amazon ที่สั่งซื้อเอาไว้ได้แล้ว Amazon ระบุว่าผู้ใช้งานเพียงแค่ถามว่า \"Alexa, where's my stuff?\" ก็จะได้ข้อมูลและรายละเอียดต่างๆ ที่เกี่ยวข้องทั้งหมด รวมถึงหากต้องการข้อมูลเพิ่มเติมก็สามารถที่จะกดดูได้จากแอพ Alexa บนสมาร์ทโฟนได้เช่นกัน ใครที่มี Amazon Echo สามารถลองความสามารถนี้ได้แล้วตั้งแต่บัดนี้ ที่มา - Recode    ", 
  "Date": "16/May/2016", 
  "Image-Link": [
    "https://www.blognone.com/sites/default/files/styles/thumbnail/public/topics-images/amazon300.png?itok=pDQ3CyTi", 
    "https://upic.me/i/yf/deviceheroimg.png", 
    "/sites/all/themes/blognone42/images/linebutton.png"
  ], 
  "Link": "https://www.blognone.com/node/81012", 
  "News": "Amazon เพิ่มคุณสมบัติให้ Amazon Echo สามารถติดตามของที่ส่งจาก Amazon ได้แล้ว", 
  "Tags": [
    "Amazon Echo", 
    "Amazon"
  ], 
  "Time": "10:35"
}