{
  "By": "nismod", 
  "Contents": " ประกาศโครงการไปเมื่อเดือนสิงหาคมปี 2014 ล่าสุด Faster โครงการวางสายเคเบิลข้ามมหาสมุทรแปซิฟิก ถูกติดตั้งเสร็จสิ้นและจะเริ่มใช้งานในวันนี้ (30 มิถุนายน 59) เคเบิล Faster มีความยาวทั้งหมดกว่า 9,000 กิโลเมตร เชื่อมโยงอินเทอร์เน็ตจากชายฝั่งตะวันตกของสหรัฐอย่าง Los Angeles, ย่าน Bay Area, Portland และ Seattle เข้ากับจังหวัดชิบะและจังหวัดมิเอะของญี่ปุ่น ด้วยความเร็วกว่า 60 Tbps โดยใช้สายเคเบิลใยแก้ว 6 คู่ โครงการนี้เป็นการร่วมทุนระหว่าง Google, Singtel, Global Transit, KDDI, China Mobile International และ China Telecom Global โดยมีบริษัท NEC เป็นผู้ติดตั้งและดำเนินงาน ที่มา - Singtel    ", 
  "Date": "30/June/2016", 
  "Image-Link": [
    "https://www.blognone.com/sites/default/files/styles/thumbnail/public/topics-images/internet.png?itok=AUrTaUgF", 
    "https://c8.staticflickr.com/8/7448/27917331311_369d8c229d_z.jpg", 
    "/sites/all/themes/blognone42/images/linebutton.png"
  ], 
  "Link": "https://www.blognone.com/node/82856", 
  "News": "Faster สายเคเบิลข้ามมหาสมุทรแปซิฟิกความเร็ว 60 Tbps ติดตั้งเสร็จและพร้อมใช้งานแล้ว", 
  "Tags": [
    "Submarine cable", 
    "Cable", 
    "Internet", 
    "Google"
  ], 
  "Time": "14:56"
}