{
  "By": "pe3z", 
  "Contents": " TeslaCrypt ซึ่งรู้จักกันว่าเป็นหนึ่งในสายพันธุ์ของมัลแวร์เรียกค่าไถ่ที่ยังคงมีการแพร่กระจายและสร้างความเสียหายต่อเนื่องมาตลอดระยะเวลาหลายปีได้ประกาศปิดโครงการและหยุดการแพร่กระจายแล้ว อ้างอิงจากการค้นพบโดยนักวิจัยด้านความปลอดภัยจาก ESET โดยยังมีการเผยแพร่กุญแจลับสำหรับถอดรหัสไฟล์ออกมาด้วย อ้างอิงจากกุญแจลับสำหรับถอดรหัสไฟล์ ผู้ที่ถูก TeslaCrypt ทำการเข้ารหัสโดยมีการเปลี่ยนนามสกุลไฟล์เป็น .xxx, .ttt, .micro, .mp3 หรือไฟล์ที่ไม่มีนามสกุลนั้นสามารถทำการดาวน์โหลดโปรแกรม TeslaDecoder ได้จากแหล่งที่มาเพื่อทำการถอดรหัสไฟล์ได้ทันที ในกรณีที่มีการถูกเข้ารหัสไฟล์แต่ยังไม่ทราบว่าถูกเข้ารหัสไฟล์โดยมัลแวร์เรียกค่าไถ่ประเภทใด สามารถตรวจสอบประเภทของมัลแวร์เรียกค่าไถ่ที่ทำการเข้ารหัสไฟล์ได้ผ่านบริการ ID Ransomware ครับ ที่มา - Bleeping Computer   ", 
  "Date": "19/May/2016", 
  "Image-Link": [
    "https://www.blognone.com/sites/default/files/styles/thumbnail/public/topics-images/security-icon.png?itok=JZKobGMz", 
    "/sites/all/themes/blognone42/images/linebutton.png"
  ], 
  "Link": "https://www.blognone.com/node/81175", 
  "News": "มัลแวร์เรียกค่าไถ่ TeslaCrypt ปิดโครงการ เริ่มเผยแพร่กุญแจถอดรหัสไฟล์", 
  "Tags": [
    "Ransomware", 
    "Security"
  ], 
  "Time": "07:22"
}