{
  "By": "mk", 
  "Contents": " Doom ตำนานแห่งวงการเกม FPS ออกภาคใหม่แล้ว โดยทิ้งห่างจากภาคหลักภาคล่าสุด Doom 3 เป็นเวลาถึง 12 ปี Doom ภาคใหม่ปี 2016 ใช้ชื่อสั้นๆ ว่า \"Doom\" ไม่มีเลขภาค ตอนแรกมันถูกเรียกว่า Doom 4 และใช้เวลาพัฒนานานถึง 8 ปี (ประกาศทำปี 2008 ออกปี 2016) รูปแบบเกมยังเหมือนเดิมคือต่อสู้ สาดกระสุนใส่บรรดาปีศาจและมอนสเตอร์ทั้งหลาย เน้นเกมเพลย์แบบรวดเร็ว รุนแรง สะใจ เหมือนเกมภาคต้นฉบับ (สโลแกนของภาคนี้คือ Fight Like Hell) เกมวางขายแล้วบน 3 แพลตฟอร์มคือพีซี PS4, Xbox One ราคาชุดมาตรฐาน 59.99 ดอลลาร์ และมีชุด Collector's Edition แถมฟิกเกอร์ด้วย ในราคา 119.99 ดอลลาร์  ที่มา - Windows Central   ", 
  "Date": "13/May/2016", 
  "Image-Link": [
    "https://www.blognone.com/sites/default/files/styles/thumbnail/public/topics-images/doom.jpg?itok=hQ8wkg45", 
    "https://i.imgur.com/QdoWjdc.jpg", 
    "/sites/all/themes/blognone42/images/linebutton.png"
  ], 
  "Link": "https://www.blognone.com/node/80945", 
  "News": "12 ปีผ่านไป - Doom ภาคใหม่วางขายแล้ว", 
  "Tags": [
    "Doom", 
    "Games", 
    "id Software"
  ], 
  "Time": "14:19"
}