{
  "By": "twometre", 
  "Contents": " พอเห็นข่าวนี้อาจต้องเปลี่ยนชุดความคิดเดิม ที่ว่าการ์ด reference design จากผู้ผลิตจีพียูจะต้องมีราคาถูกกว่าการ์ด non-ref ที่ผู้ผลิตกราฟิกการ์ดแต่ละรายไปผลิต โอเวอร์คล็อกจีพียูและเม็ดแรม รวมถึงเลือกชุดระบายความร้อนเอง NVIDIA กับการ์ดใหม่สองรุ่นอย่าง GTX 1070 และ 1080 มากับสองราคาคือราคาปกติ และราคาแบบ Founder Edition ที่แพงกว่า ซึ่งเป็นชื่อใหม่ของการ์ดแบบ reference design นั่นเอง สเปคความเร็วก็ตรงตามสเปค NVIDIA ครับ สาเหตุที่ NVIDIA ตั้งราคาการ์ด Founder Edition ให้สูงกว่าปกติกว่าสามพันบาท อาจเป็นเพราะต้นทุนระบบระบายความร้อนที่สวยงาม พาความร้อนด้วยเทคนิค vapor chamber และอาจมีจำหน่ายเป็นจำนวนจำกัดสำหรับนักสะสมก็เป็นได้ สรุปอีกที GTX 1080 จะเริ่มวางจำหน่าย 27 พ.ค., GTX 1070 จะมา 10 มิ.ย. ครับ ที่มา - PC World     ", 
  "Date": "10/May/2016", 
  "Image-Link": [
    "https://www.blognone.com/sites/default/files/styles/thumbnail/public/topics-images/nvidia.png?itok=4a7uUr5h", 
    "//upic.me/i/fu/gallery-2-large.jpg", 
    "//upic.me/i/kk/gtx1080.jpg", 
    "/sites/all/themes/blognone42/images/linebutton.png"
  ], 
  "Link": "https://www.blognone.com/node/80780", 
  "News": "NVIDIA ชี้ GeForce GTX 1080 และ 1070 'Founder Edition' จะแพงกว่าแบรนด์ผลิตเอง", 
  "Tags": [
    "NVIDIA", 
    "GPU", 
    "Hardware"
  ], 
  "Time": "08:14"
}