{
  "By": "lew", 
  "Contents": " เมื่อวานนี้พนักงานสอบสวนกองบังคับการปราบปรามการกระทำความผิดเกี่ยวกับอาชญากรรมทางเทคโนโลยี (บก.ปอท.) ขออนุมัติหมายจับนางสาวหนึ่งนุช ชาญกิจ จากข้อหาทำความผิดตามประมวลกฎหมายอาญามาตรา 112 และพ.ร.บ.คอมพิวเตอร์มาตรา 14 ข้อกล่าวหาระบุถึงการแชตระหว่างผู้ใช้เฟซบุ๊ก Burin Intin และ Nuengnuch Chakij โดยผู้ใช้ Burin ได้ลงข้อความเจ้าหน้าที่ระบุว่ามีความผิดอย่างชัดเจน พร้อมกับลงข้อความต่อมาว่า \"อย่าว่าผมนะที่คุยแบบนี้\" และผู้ใช้ Nuengnuch ได้ตอบกลับว่า \"จ้า\" เจ้าหน้าที่ระบุว่าหมายถึงการยอมรับ และถูกตีความว่ามีส่วนร่วมในการนำข้อมูลเข้าระบบคอมพิวเตอร์ พนักงานสอบสวนไม่อนุญาตให้ประกันตัวในชั้นสอบสวน ที่มา - Thai Lawyer for Human Rights    ", 
  "Date": "7/May/2016", 
  "Image-Link": [
    "https://www.blognone.com/sites/default/files/styles/thumbnail/public/topics-images/2000px-Flag_of_Thailand.svg_.png?itok=p3x8mdMM", 
    "//upic.me/i/e4/img_2016-05-06-191430.jpg", 
    "/sites/all/themes/blognone42/images/linebutton.png"
  ], 
  "Link": "https://www.blognone.com/node/80707", 
  "News": "แนวทางใช้พ.ร.บ.คอมฯ ใหม่ ตอบกลับแชตว่า \"จ้า\" ตั้งข้อหาร่วมกันนำข้อมูลเข้าสู่ระบบคอมพิวเตอร์", 
  "Tags": [
    "Thailand", 
    "Crime", 
    "Law"
  ], 
  "Time": "11:25"
}