{
  "By": "nuntawat", 
  "Contents": " ไมโครซอฟท์ปล่อย Windows 10 Mobile รุ่นทดสอบ 14371 ให้ Windows Insider กลุ่ม Fast ring แล้ว นอกจากจะปล่อยแอป Wallet รุ่น 2.0 ที่รองรับ NFC Tap to Pay ให้ Lumia 950, 950 XL และ 650 แล้ว Windows รุ่นทดสอบล่าสุดนี้ยังแก้ไขข้อบกพร่องมากมาย อาทิ  แก้บั๊กที่อาจทำให้ pitch เปลี่ยนเมื่อเปิดให้เลื่อนแทร็กเพลงอัตโนมัติ ขณะฟังเพลงนามสกุล ALAC ที่ถูกสตรีมจาก OneDrive ผ่านแอป Groove Music แก้บั๊กกดดูการแจ้งเตือนใน Action Center ขณะ Action Center ถูกเปิดบนล็อกสกรีนที่โชว์ Enter Pin อยู่ แล้วไม่มีการตอบสนอง แก้บั๊กคำแรกของเสียงพูดนำทางถูกตัดขณะฟังผ่านอุปกรณ์เชื่อมต่อบลูทูธ แก้บั๊กปิด cellular data ขณะไม่มีการเชื่อมต่ออินเทอร์เน็ตแล้วเครื่องค้าง แก้บั๊กแอปไม่ถูกลบจากทาสก์บาร์ขณะต่อ Continuum หากแอปดังกล่าวล่ม แก้บั๊กปุ่มกล้องปรากฎบน navigation bar บนล็อกสกรีน แทนที่จะเป็นปุ่มย้อนกลับในบางกรณีที่ต้องการปุ่มย้อนกลับ อาทิ หน้าโทรฉุกเฉิน  ที่มา: Microsoft - Windows Experience Blog   ", 
  "Date": "22/June/2016", 
  "Image-Link": [
    "https://www.blognone.com/sites/default/files/styles/thumbnail/public/topics-images/Windows_10_movilw.png?itok=tDLWK0tY", 
    "/sites/all/themes/blognone42/images/linebutton.png"
  ], 
  "Link": "https://www.blognone.com/node/82534", 
  "News": "ไมโครซอฟท์ปล่อย Windows 10 Mobile รุ่นทดสอบ 14371", 
  "Tags": [
    "Windows 10 Mobile", 
    "Microsoft", 
    "Operating System"
  ], 
  "Time": "08:14"
}