{
  "By": "nuntawat", 
  "Contents": " เว็บไซต์ MSPoweruser เผยภาพเอกสารภายในไมโครซอฟท์ เสนอให้เปลี่ยนการแสดงผล Action Center บน Windows 10 Mobile โดยแยกปุ่มเข้าแอปกับปุ่มเปิด-ปิด (toggle switch) ออกจากกัน โดยปุ่มเข้าแอปจะมีไอคอนเป็นวงกลม และเพิ่มแถบปรับความสว่างหน้าจอเข้าไป (ดูภาพท้ายข่าว) MSPoweruser คาดว่า หากไมโครซอฟท์อนุมัติให้มีการปรับการแสดงผล Action Center บน Windows 10 Mobile จริง ก็น่าจะได้เห็นใน Redstone 2 ที่ลือกันว่าบริษัทจะเน้นทำ Windows 10 Mobile ที่มา: MSPoweruser     ", 
  "Date": "10/July/2016", 
  "Image-Link": [
    "https://www.blognone.com/sites/default/files/styles/thumbnail/public/topics-images/Windows_10_movilw.png?itok=tDLWK0tY", 
    "http://i.imgur.com/YTuk68C.jpg", 
    "http://i.imgur.com/fROf7qP.jpg", 
    "/sites/all/themes/blognone42/images/linebutton.png"
  ], 
  "Link": "https://www.blognone.com/node/83239", 
  "News": "หลุดเอกสารภายในไมโครซอฟท์ เสนอให้เปลี่ยนการแสดงผล Action Center บน Windows 10 Mobile", 
  "Tags": [
    "Windows 10 Mobile", 
    "Leaks", 
    "Microsoft", 
    "Operating System"
  ], 
  "Time": "16:45"
}