{
  "By": "nuntawat", 
  "Contents": " Dona Sarkar หัวหน้าโครงการ Windows Insider ยืนยันผ่านทวิตเตอร์ว่า ไมโครซอฟท์จะเริ่มปล่อย Anniversary Update ให้ Windows 10 Mobile วันที่ 2 ส.ค. นี้ (พร้อมกับพีซี) แต่คงต้องใช้เวลากว่ามือถือทุกเครื่องจะได้รับอัพเดต ต่อมาโฆษกไมโครซอฟท์ได้ชี้แจงกับเว็บไซต์ MSPoweruser ว่า พีซีกับมือถือจะเป็นกลุ่มแรกที่ได้รับ Anniversary Update แต่การปล่อยนั้นจะค่อยเป็นค่อยไปเพื่อทำให้มั่นใจว่าลูกค้าจะได้รับประสบการณ์ที่ดีเยี่ยมจากการอัพเดต ที่มา: @A_Deerslayer, MSPoweruser @A_Deerslayer It will start to roll out 8/2. It will take some time since there are a *lot* of machines globally to update. — Dona Sarkar (@donasarkar) 29 มิถุนายน 2559   ", 
  "Date": "30/June/2016", 
  "Image-Link": [
    "https://www.blognone.com/sites/default/files/styles/thumbnail/public/topics-images/Windows_10_movilw.png?itok=tDLWK0tY", 
    "/sites/all/themes/blognone42/images/linebutton.png"
  ], 
  "Link": "https://www.blognone.com/node/82877", 
  "News": "ไมโครซอฟท์ยืนยัน ปล่อย Anniversary Update ให้ Windows 10 Mobile วันที่ 2 ส.ค. นี้", 
  "Tags": [
    "Windows 10 Mobile", 
    "Microsoft", 
    "Operating System"
  ], 
  "Time": "21:55"
}