{
  "By": "nismod", 
  "Contents": " หนึ่งในฟีเจอร์เด่นๆ ของ Android M ที่เปิดตัวไปเมื่อกลางปีที่แล้วคือฟีเจอร์ Now on Tap ด้วยการกดปุ่มโฮมค้างที่ทำให้ Google Now ล้ำไปอีกขั้น ด้วยการเดาว่าเราต้องการความช่วยเหลืออะไร ก่อนที่จะแสดงข้อมูลหรือแอพพลิเคชันที่เกี่ยวข้องขึ้นมาให้ โฆษณาที่ Google ปล่อยออกมาแสดงความสามารถของ Now on Tap อย่างการหาข้อมูลร้านอาหารและลงบันทึกในปฏิทิน หากมีเพื่อนชวนไปทานร้านอาหาร รวมไปถึงค้นหาข้อมูลของนักร้อนที่เราไม่รู้จักบนทวิตเตอร์ โดยที่เราไม่ต้องเสียเวลาพิมพ์ชื่อแม้แต่น้อย ซึ่งการที่ Google เพิ่งออกโฆษณานี้มา ทั้งๆ ที่ Android M ก็ออกมาซักพักแล้ว อาจเป็นเพราะยังมีผู้ใช้ฟีเจอร์นี้ไม่มากนักก็เป็นได้ ที่มา - Android Authority   ", 
  "Date": "11/May/2016", 
  "Image-Link": [
    "https://www.blognone.com/sites/default/files/styles/thumbnail/public/topics-images/Google_2015_logo.svg_.png?itok=bd4RvVLK", 
    "/sites/all/themes/blognone42/images/linebutton.png"
  ], 
  "Link": "https://www.blognone.com/node/80850", 
  "News": "Google ปล่อยโฆษณาโชว์ความสามารถ Now on Tap", 
  "Tags": [
    "Google", 
    "Google Now", 
    "Marshmallow"
  ], 
  "Time": "17:26"
}