{
  "By": "advertorial", 
  "Contents": " TCL แบรนด์เครื่องใช้ไฟฟ้ายักษ์ใหญ่จากจีน เปิดตัวสมาร์ททีวีหลายซีรีส์ในประเทศไทยไปเมื่อกลางเดือนที่ผ่านมา หนึ่งในนั้นคือ Q7700 ซึ่งซีรีส์ Q นี้เป็นหนึ่งในซีรีส์สมาร์ททีวีระดับไฮเอนต์ในกลุ่ม UHD TV 4K แบบจอแบนของ TCL ที่โดดเด่นด้วยสีสันและความคมชัดของหน้าจอ พร้อมด้วยระบบปฏิบัติการแอนดรอยด์ที่ทำงานอยู่เบื้องหลัง รูปลักษณ์ภายนอก Q7700 มีขนาดหน้าจอใหญ่สะใจถึง 55 นิ้ว ดีไซน์ออกไปในแนวเรียบแต่หรู ขณะที่ความโดดเด่นคงหนีไม่พ้นความบางของตัวเครื่อง ที่บางเพียง 9.9 มิลลิเมตร แทบไม่แตกต่างกับขนาดของดินสอ รวมถึงมีขอบหน้าจอ (bezel) ที่เล็กมากเช่นกัน    ใต้โลโก้จะมีไฟสีขาวแสดงการสแตนด์บายของเครื่องไว้ด้วย  ขาตั้ง เป็นทรงกิ่งไม้ที่มีความแข็งแรง ทนทานและที่สำคัญคือรองรับตัวเครื่องได้อย่างมั่นคง ไม่ทำให้ทีวีล้มได้ง่ายๆ  ด้านหลังของตัวเครื่องเป็นโลหะ มีพอร์ตมาตรฐานมาให้ครบถ้วนทั้ง USB 2.0. USB 3.0, HDMI, VGA, Component, AV, RJ45 รวมถึงพอร์ตต่อกับสายเคเบิลหรือเสาอากาศ   สีสันและความคมชัดที่สะดุดตา QUHD เป็นชื่อรุ่นที่ทาง TCL ตั้งขึ้นมา เพื่อชูความโดดเด่นของหน้าจอทีวี ที่นอกจากจะมีความละเอียดสูงกว่า FullHD ถึง 4 เท่าแล้ว ยังมาพร้อมกับเทคโนโลยี Wide Color Gamut ของ TCL เองที่ครอบคลุมความกว้างของสีได้มากกว่าทีวี OLED ทั่วไป  นอกจากนี้ยังมาพร้อมกับเทคโนโลยี Black Crystal Panel ที่ช่วยลดการสะท้อน กระจายและการหักเหของแสงจากภายนอก อย่างแสงไฟในห้องหรือแสงแดด ช่วยคงความคมชัดและมิติของภาพเอาไว้อย่างสมบูรณ์แบบ   Home Entertainment เพียงปลายนิ้วมือ ระบบปฏิบัติการของ Q7700 ตัวนี้เป็นระบบปฏิบัติการที่ TCL พัฒนาขึ้นมาบนฐานของแอนดรอยด์ 5.1.1 บนชิพประมวลผลแบบ 64bit ที่เร็วที่สุดของ TCL ทำให้ Q7700 เป็นคลังของความบันเทิงได้ไม่สิ้นสุด ทั้งแอพพลิเคชันภาพยนตร์ที่มีมาให้ในเครื่อง หรือหากจะชมผ่านแอพพลิเคชันอย่าง Netflix หรือ YouTube ก็สามารถโหลดมาเล่นได้อย่างไม่มีปัญหา   และแน่นอนว่าเกมก็มีให้เล่นเช่นกัน แค่ต่อเมาส์เข้ากับพอร์ท USB ด้านหลังก็สนุกแบบเต็มอิ่มบนหน้าจอขนาด 55 นิ้วได้แล้ว   สมาร์ททีวีรุ่นนี้ยังมาพร้อมกับเทคโนโลยี High Motion rate ที่ทำให้การเคลื่อนไหวของภาพลื่นไหล ไม่มีสะดุดและดูสมจริงเป็นธรรมชาติ  สำหรับผู้ที่สนใจ TCL QUHD TV 55Q7700 ตัวนี้วางจำหน่ายแล้วตามตัวแทนจำหน่ายและร้านเครื่องใช้ไฟฟ้าทั่วประเทศ สนนอยู่ที่ราคา 34,990 บาท   ", 
  "Date": "31/May/2016", 
  "Image-Link": [
    "https://www.blognone.com/sites/default/files/styles/thumbnail/public/topics-images/tcl.png?itok=iJmP-_8q", 
    "https://c3.staticflickr.com/8/7621/27334951546_e5f510c17d_z.jpg", 
    "https://c2.staticflickr.com/8/7504/27297844761_1e75a489bc_z.jpg", 
    "https://c5.staticflickr.com/8/7439/27334945236_8973c04145_z.jpg", 
    "https://c1.staticflickr.com/8/7302/26760994104_b6018d0d8b_z.jpg", 
    "https://c1.staticflickr.com/8/7434/27334945336_cbc79efed3_z.jpg", 
    "https://c7.staticflickr.com/8/7769/27334945606_0b5c06d41b_z.jpg", 
    "https://c4.staticflickr.com/8/7339/27297844571_79152a17c5_z.jpg", 
    "https://c1.staticflickr.com/8/7453/27334947296_a86f2a56ee_z.jpg", 
    "https://c3.staticflickr.com/8/7395/27334948106_e6a64308cd_z.jpg", 
    "https://c3.staticflickr.com/8/7747/26760994434_348086577a_z.jpg", 
    "https://c5.staticflickr.com/8/7453/26760992244_86460589b5_z.jpg", 
    "https://c3.staticflickr.com/8/7392/26760993834_ca66e26546_z.jpg", 
    "https://c3.staticflickr.com/8/7042/27334952146_b30afeaef6_z.jpg", 
    "https://c5.staticflickr.com/8/7461/27334946396_814557dc26_z.jpg", 
    "https://c1.staticflickr.com/8/7392/27334951816_556da604fd_z.jpg", 
    "/sites/all/themes/blognone42/images/linebutton.png"
  ], 
  "Link": "https://www.blognone.com/node/81652", 
  "News": "รีวิว TCL QUHD TV 55Q7700 สมาร์ททีวี 4K ราคาประหยัด", 
  "Tags": [
    "TCL", 
    "Smart TV", 
    "Advertorial"
  ], 
  "Time": "14:05"
}