{
  "By": "lew", 
  "Contents": " กูเกิลหวนคืนวงการแชตอีกครั้งด้วยแอปสองตัวพร้อมกัน คือ Allo สำหรับการแชต และ Duo สำหรับการโทรแบบวิดีโอ Allo เป็นแอปที่มาพร้อมกับฟีเจอร์หลักๆ สำหรับแอปแชตสมัยใหม่ รองรับการส่งอีโมจิและสติกเกอร์ นอกจากนั้นยังสามารถ \"ตะโกน\" ด้วยการขยายฟอนต์ในแชตได้ (MSN Plus กลับมาเกิดใหม่แล้ว) และยังมีความช่วยเหลือจากกูเกิล เสนอคำตอบที่ใช้บ่อย เช่นรูปน่ารัก หรือเมื่อคุยถึงสถานที่กินข้าวก็แนะนำร้านอาหารให้ในแชต กระบวนการแนะนำใช้บัญญาประดิษฐ์วิเคราะห์ประโยคที่ผู้ใช้กำลังคุยกัน ในกรณีที่ต้องการความเป็นส่วนตัวสูง Allo มีโหมด Incognito ปรับให้เป็นการแชตเข้ารหัสแบบ end-to-end Duo เป็นแอปแชตแบบวิดีโออย่างเดียว ทำงานผ่านเบอร์โทรศัพท์ และการโทรทั้งหมดเข้ารหัสแบบ end-to-end ความสามารถสำคัญคือการแสดงวิดีโอก่อนที่ปลายทางจะรับสายได้ ทำให้รู้ทันทีว่าใครโทรมา นอกจากนี้กูเกิลยังระบุว่าตัวแอปทำงานได้เร็วแม้ความเร็วเครือข่ายจะไม่ดีนัก ทั้งสองแอปจะเปิดให้ดาวน์โหลดหน้าร้อนนี้ ที่มา - Google Research  Allo lets you communicate with anyone in your phonebook—both Android and iOS. #IO16 pic.twitter.com/nhpxGJDRGP — Google (@google) May 18, 2016   ", 
  "Date": "19/May/2016", 
  "Image-Link": [
    "https://www.blognone.com/sites/default/files/styles/thumbnail/public/topics-images/allo_0.png?itok=ukKO1hCb", 
    "//upic.me/i/yu/ciwb6yuveaemaeo1.jpg", 
    "/sites/all/themes/blognone42/images/linebutton.png"
  ], 
  "Link": "https://www.blognone.com/node/81168", 
  "News": "กูเกิลเปิดตัวแอปแชต Allo, แอปโทรวิดีโอ Duo", 
  "Tags": [
    "Allo", 
    "Google", 
    "Google I/O", 
    "Instant Messenger"
  ], 
  "Time": "01:36"
}