{
  "By": "nutmos", 
  "Contents": " Waze บริการแผนที่และนำทางของ Google ประกาศทดสอบบริการคาร์พูลใน Bay Area ที่ San Francisco หลังจากที่เคยทดสอบมาก่อนหน้านี้ในอิสราเอล ผู้ที่สามารถใช้บริการของ Waze ได้นี้คือพนักงาน Google จำนวนหนึ่ง รวมถึงบริษัทบางแห่งที่ถูกเลือกใน Bay Area เช่น Adobe, Walmart Global eCommerce และ University of California, San Francisco โดยผู้ใช้จะต้องโหลดแอพ Waze Rider เพื่อเริ่มใช้บริการ วิธีจับคู่ของ Waze คือฝ่ายคนนั่งจะเป็นคนเลือกก่อนว่าจะเดินทางจากจุดไหนไปจุดไหนในแอพ Waze Rider ส่วนฝ่ายคนขับจะเป็นฝ่ายเลือกว่าจะรับผู้ใช้คนไหนในแอพหลักของ Waze โดยผู้ที่นั่งจะต้องจ่ายให้คนขับเป็นจำนวนเงิน 54 เซนต์ต่อไมล์ และ Waze จะไม่หักส่วนแบ่งใดๆ ที่มา - SFGate, CNET   ", 
  "Date": "17/May/2016", 
  "Image-Link": [
    "https://www.blognone.com/sites/default/files/styles/thumbnail/public/topics-images/waze.png?itok=3OWhPRS_", 
    "/sites/all/themes/blognone42/images/linebutton.png"
  ], 
  "Link": "https://www.blognone.com/node/81100", 
  "News": "Waze เริ่มทดสอบบริการคาร์พูลใน San Francisco", 
  "Tags": [
    "Waze", 
    "Google", 
    "Transportation", 
    "San Francisco"
  ], 
  "Time": "20:08"
}