{
  "By": "magnamonkun", 
  "Contents": " แม้ว่าเพิ่งจะมีข่าวลือของ Galaxy Note 6 ไปหมาดๆ แต่ข้อมูลล่าสุดดูเหมือนว่าซัมซุงตั้งใจไม่ใช้เลข 6 เป็นเลขรุ่นของ Galaxy Note ตัวถัดไปแล้ว แต่จะข้ามไปยังเลข 7 เลย ETNews รายงานข่าวที่ได้จากผู้บริหารฝ่ายการตลาดระดับสูงว่าในปีนี้ซัมซุงอาจจะตั้งชื่อ Galaxy Note รุ่นใหม่ว่า \"Galaxy Note 7\" แทนการใช้เลข 6 เป็นเลขรุ่น เพื่อเป็นการป้องกันข้อครหาจากผู้ใช้ว่า Galaxy Note เป็นรุ่นที่มีเทคโนโลยีที่ต่ำกว่า Galaxy S ที่มีเลขรุ่นสูงกว่า ดังนั้นเพื่อเป็นการลดข้อครหา การเปลี่ยนเลขมาใช้เลขเท่ากันจึงเป็นเรื่องดีที่สุด ชื่อของ Galaxy Note จะเป็นเลข 7 จริงหรือไม่ คงต้องรอดูกันในงานเปิดตัวเดือนสิงหาคมนี้ครับ ที่มา - Phandroid   ", 
  "Date": "8/June/2016", 
  "Image-Link": [
    "https://www.blognone.com/sites/default/files/styles/thumbnail/public/topics-images/j8u2rhG1.jpg?itok=CJuE6qSo", 
    "/sites/all/themes/blognone42/images/linebutton.png"
  ], 
  "Link": "https://www.blognone.com/node/82002", 
  "News": "[ข่าวลือ] Galaxy Note รุ่นถัดไป จะใช้เลข \"7\" ห้อยชื่อรุ่น", 
  "Tags": [
    "Samsung", 
    "Mobile", 
    "Galaxy Note", 
    "Rumor"
  ], 
  "Time": "14:26"
}