{
  "By": "nismod", 
  "Contents": " คณะกรรมการการค้าของสหรัฐฯ (FTC) ส่งจดหมายเปิดผนึกไปยัง 8 บริษัทไอทีชั้นนำในสหรัฐ ไล่ไปตั้งแต่ Apple, BlackBerry, Google, HTC, Microsoft, Samsung, LG และ Motorola ให้รายงานถึงนโยบายและกระบวนการแก้ปัญหาช่องโหว่ด้านความปลอดภัยและการอัพเดตแพทช์บนสมาร์ทดีไวซ์ ให้กับทาง FTC ประเด็นสำคัญที่บริษัทไอทีเหล่านี้ จะต้องรายงานแก่ FTC คือรายละเอียดของอุปกรณ์ที่วางขายตั้งแต่ปี 2013, ช่องโหว่ที่อุปกรณ์เหล่านั้นได้รับผลกระทบ, รายละเอียดว่าได้แก้ปัญหาช่องโหว่เหล่านั้นหรือไม่และเมื่อไหร่ และปัจจัยที่ส่งผลต่อการติดสินใจอัพเดต (หรือไม่อัพเดต) แพทช์เพื่ออุดช่องโหว่ด้านความปลอดภัย FTC ระบุว่าเพื่อต้องการศึกษานโยบายและกระบวนการรักษาความปลอดภัยของบริษัทเหล่านี้ รวมถึงเป็นการกระตุ้นให้ทั้ง 8 บริษัทยังคงดูแลข้อมูลและรักษาความปลอดภัยให้กับผู้ใช้อย่างเต็มที่ ที่มา - Network World   ", 
  "Date": "10/May/2016", 
  "Image-Link": [
    "https://www.blognone.com/sites/default/files/styles/thumbnail/public/topics-images/ftc.png?itok=BSUYmHPI", 
    "/sites/all/themes/blognone42/images/linebutton.png"
  ], 
  "Link": "https://www.blognone.com/node/80801", 
  "News": "FTC สั่งให้ 8 บริษัทไอทีเปิดเผยกระบวนการอัพเดตแพตช์ด้านความปลอดภัย", 
  "Tags": [
    "FTC", 
    "Apple", 
    "BlackBerry", 
    "Google", 
    "HTC", 
    "Microsoft", 
    "Samsung", 
    "LG", 
    "Motorola"
  ], 
  "Time": "14:38"
}