{
  "By": "mk", 
  "Contents": " HP ประกาศผลประกอบการไตรมาสล่าสุด (ไตรมาส 2/2016 ตามปีงบประมาณ นับถึง 30 เมษายน 2016) รายได้ 11.6 พันล้านดอลลาร์ ลดลง 11% จากไตรมาสเดียวกันของปีก่อน กำไร 730 ล้านดอลลาร์ ลดลง 10% ธุรกิจทุกสายของ HP ต่างมีรายได้ลดลง ไม่ว่าจะเป็นธุรกิจพีซีคอนซูเมอร์ (Personal System) รายได้ลดลง 10% หรือธุรกิจเครื่องพิมพ์ลดลงถึง 16% ปีที่แล้ว HP ตัดสินใจแยกบริษัทเป็น HP สำหรับขายพีซี-เครื่องพิมพ์ และ HPE ที่เน้นขายโซลูชันสำหรับองค์กร เพื่อแก้ปัญหารายได้จากธุรกิจพีซีที่ตกลงตามสภาพอุตสาหกรรม ข่าวนี้คงแสดงให้เห็นว่าธุรกิจพีซีตกลงจริงๆ ตามที่ HP คาดไว้ ที่มา - HP, ภาพจาก @HP    ", 
  "Date": "26/May/2016", 
  "Image-Link": [
    "https://www.blognone.com/sites/default/files/styles/thumbnail/public/topics-images/hp.png?itok=wwPRX9uc", 
    "https://i.imgur.com/dMPqpcO.jpg", 
    "/sites/all/themes/blognone42/images/linebutton.png"
  ], 
  "Link": "https://www.blognone.com/node/81457", 
  "News": "ธุรกิจพีซีขาลง ผลประกอบการ HP ไตรมาสล่าสุดตกลง 10%", 
  "Tags": [
    "HP", 
    "Financial Report"
  ], 
  "Time": "14:56"
}