{
  "By": "mk", 
  "Contents": " ช่วงหลังมานี้ ผู้ผลิตเราเตอร์ในบ้าน มักอำนวยความสะดวกให้ลูกค้าเข้าไปคอนฟิกอุปกรณ์ผ่านโดเมนเนม แทนการเข้าเว็บแบบ local ผ่านหมายเลขไอพีอย่างในอดีต (การเข้าเว็บผ่านโดเมนไม่ได้ออกสู่อินเทอร์เน็ตจริงๆ แต่เมื่อผู้ใช้ในเครือข่าย local เข้าเว็บดังกล่าว เราเตอร์จะส่งไปยังหน้าคอนฟิกอัตโนมัติ) ตัวอย่างของ TP-Link ผู้ผลิตเราเตอร์จากจีน ใช้วิธีจดโดเมน tplinklogin.net และ tplinkwifi.net โดยแปะโดเมนไว้บนตัวเครื่องเลย อย่างไรก็ตาม มีคนค้นพบว่าบริษัทลืมต่ออายุโดเมน tplinklogin.net และโดเมนกลายเป็นของคนอื่นไปแล้ว (โดเมน tplinkwifi.net ยังเป็นของ TP-Link) ปัจจุบันโดเมน tplinklogin.net ยังเป็นหน้าประกาศขายโดเมนอยู่ ฝั่งของผู้ใช้เราเตอร์ TP-Link คงไม่มีปัญหาในเรื่องนี้เพราะเราเตอร์จะส่งเข้าเว็บ local เสมอ แต่ก็มีความเสี่ยงว่าโดเมนนี้จะถูกใช้เป็น phishing ดักข้อมูลจากผู้ใช้คนอื่นๆ ได้ในอนาคต ที่มา - Computerworld    ", 
  "Date": "5/July/2016", 
  "Image-Link": [
    "https://www.blognone.com/sites/default/files/styles/thumbnail/public/topics-images/TP-LINK_logo.svg_.png?itok=sqstDyok", 
    "https://i.imgur.com/fhmCHeM.jpg", 
    "/sites/all/themes/blognone42/images/linebutton.png"
  ], 
  "Link": "https://www.blognone.com/node/83045", 
  "News": "TP-Link ไม่ได้เป็นเจ้าของโดเมน tplinklogin.net สำหรับตั้งค่าเราเตอร์อีกแล้ว", 
  "Tags": [
    "TP-Link", 
    "Wireless Router", 
    "Domain Name"
  ], 
  "Time": "22:08"
}