{
  "By": "nismod", 
  "Contents": " ถึงแม้ Google Glass รุ่นแรกดูจะไม่ประสบความสำเร็จในภาพรวมมากนัก แต่ก็ใช่ว่าจะไม่สามารถใช้งานได้และไม่มีใครใช้เลย เมื่อพนักงานของโบอิ้ง บริษัทผลิตเครื่องบินระดับโลกออกมาเปิดเผยว่า ใช้ Google Glass ในขั้นตอนการวางสายไฟและเคเบิลบนเครื่องบิน เนื่องจากการวางสายไฟและเคเบิลนั้นทั้งซับซ้อนและยุ่งยาก พนักงานจึงจำเป็นต้องเปิดคู่มือไฟล์ PDF บนแล็บท็อปทุกๆ ครั้งที่วางสายไฟและเคเบิล ซึ่ง Google Glass ได้เข้ามาช่วยอำนวยความสะดวกในขั้นตอนนี้ ซึ่งช่วยลดระยะเวลาในการทำงานลงไปได้ถึง 25% และลดความผิดพลาดลงไปได้ถึง 50% อย่างไรก็ตามซอฟต์แวร์ที่ใช้ในการทำงานบน Google Glass ทางโบอิ้งได้ว่าจ้างให้บริษัท APX Labs บริษัทที่ผลิตซอฟต์แวร์สำหรับแว่นตาอัจฉริยะเป็นผู้พัฒนา โดย Jason DeStories วิศวกรฝ่ายวิจัยและพัฒนาของ Boeing Research and Technology ระบุว่าปัญหาเดียวในการใช้งาน Google Glass ที่ต้องแก้ตอนนี้คือเรื่องความปลอดภัยของโซลูชันในการปกป้องกันข้อมูล ที่มา - CIO via The Verge   ", 
  "Date": "15/July/2016", 
  "Image-Link": [
    "https://www.blognone.com/sites/default/files/styles/thumbnail/public/topics-images/Google_2015_logo.svg_.png?itok=bd4RvVLK", 
    "/sites/all/themes/blognone42/images/linebutton.png"
  ], 
  "Link": "https://www.blognone.com/node/83469", 
  "News": "พนักงานโบอิ้งเผยใช้ Google Glass ในการประกอบเครื่องบิน", 
  "Tags": [
    "Google Glass", 
    "Google", 
    "Boeing", 
    "Wearable Computing"
  ], 
  "Time": "12:34"
}