{
  "By": "mk", 
  "Contents": " ข่าวเล็กๆ ในงาน Google I/O 2016 ที่น่าจะเป็นประโยชน์สำหรับนักพัฒนาสาย Android คือกูเกิลออกแอพ Google Play Developer Console (เรียกย่อๆ ว่า Play Console) เพื่อให้นักพัฒนาสามารถดูสถิติของแอพตัวเองได้ตลอดเวลา ไม่จำเป็นต้องเปิดหน้าเว็บ Developer Console อีกต่อไป รูปแบบการใช้งานก็คล้ายๆ กับแอพกลุ่มเดียวกันของกูเกิลอย่าง Google Analytics หรือ Google AdSense บนมือถือ ที่แสดงกราฟและสถิติต่างๆ อย่างละเอียด แต่ออกแบบให้ดูง่ายบนจอของโทรศัพท์ นอกจากนี้กูเกิลยังปรับปรุงระบบหลังบ้านของ Google Play อีกหลายจุด เช่น เพิ่มหมวด Google Play Early Access สำหรับแอพที่ต้องการผู้ทดสอบ, มีระบบตอบข้อความผู้รีวิว โดยเปิด API เชื่อมต่อกับระบบบริการลูกค้ายอดนิยมอย่าง Zendesk เป็นต้น ที่มา - Android Developers Blog   ", 
  "Date": "21/May/2016", 
  "Image-Link": [
    "https://www.blognone.com/sites/default/files/styles/thumbnail/public/news-thumbnails/console.png?itok=cVexkQA-", 
    "/sites/all/themes/blognone42/images/linebutton.png"
  ], 
  "Link": "https://www.blognone.com/node/81245", 
  "News": "กูเกิลออกแอพ Google Play Developer Console ให้นักพัฒนาดูสถิติแอพบนมือถือ", 
  "Tags": [
    "Google Play", 
    "Developer", 
    "Mobile App", 
    "Google I/O"
  ], 
  "Time": "10:32"
}