{
  "By": "twometre", 
  "Contents": " Barrie Kirk ผู้เชี่ยวชาญด้านความปลอดภัยในรถยนต์กล่าวกับสื่อของแคนาดาว่าในอนาคตเมื่อมีรถยนต์ไร้คนขับแพร่หลายเมื่อไร อัตราการมีเพศสัมพันธ์บนรถยนต์ก็จะสูงขึ้น สิ่งที่น่าเป็นห่วงคือเมื่อสมองกลต้องการการตัดสินใจอย่างฉับพลันจากคนขับที่ไม่ได้จดจ่อกับเส้นทางก็อาจจะเกิดปัญหาได้ ในกรณีนี้ทางการแคนาดาจึงกำลังพิจารณาให้มีกล่องดำช่วยบันทึกเหตุการณ์หากมีอุบัติเหตุ ข่าวไม่ได้บอกว่าเหตุใดผู้เชี่ยวชาญถึงออกมาให้ความเห็นว่าต้องเป็นเรื่องเพศสัมพันธ์เท่านั้น แต่ในอดีตที่ผ่านมามีการออกแบบรถยนต์ให้เอื้อต่อการทำกิจกรรมแบบนั้นอยู่บ้างในบางตลาดเช่นออสเตรเลีย ที่มา - The Register  ภาพประกอบ   ", 
  "Date": "5/May/2016", 
  "Image-Link": [
    "https://www.blognone.com/sites/default/files/styles/thumbnail/public/topics-images/car-99123_960_720.png?itok=JmY4hvDs", 
    "//upic.me/i/by/gself.jpg", 
    "/sites/all/themes/blognone42/images/linebutton.png"
  ], 
  "Link": "https://www.blognone.com/node/80634", 
  "News": "กูรูชี้ เมื่อรถยนต์ขับได้เอง ผู้ใช้จะมีเพศสัมพันธ์ในรถมากขึ้น", 
  "Tags": [
    "Automobile", 
    "Artificial Intelligence", 
    "Self-Driving Car", 
    "Sex"
  ], 
  "Time": "07:17"
}