{
  "By": "nutmos", 
  "Contents": " Apple ได้ออก Public Beta ของ iOS 10 และ macOS Sierra ให้ผู้ใช้ทั่วไปที่สนใจทดสอบทุกคนเข้าไปลงทะเบียนทดสอบได้แล้ว ซึ่งในช่วงก่อนหน้านี้ Apple ได้เปิดให้ทดสอบเฉพาะนักพัฒนาผ่าน Apple Developer Program เท่านั้น สำหรับผู้ใช้ที่ต้องการทดสอบ iOS และ macOS เวอร์ชันเบต้า จะต้องไปลงทะเบียนโดยใช้ Apple ID ก่อนที่ Apple Beta Software Program แต่ถ้าใครเคยทดสอบเวอร์ชันเบต้าไปก่อนหน้านี้ผ่าน Apple Beta Software Program ก็สามารถล็อกอินด้วยบัญชีเดิมได้ทันที การทดสอบซอฟต์แวร์เบต้านั้น Apple บอกว่าแอพต่าง ๆ อาจจะไม่ได้ทำงานได้ดีเหมือนที่หวังไว้ จึงควรแบคอัพข้อมูลทุกครั้งก่อนจะเริ่มติดตั้งและใช้งานซอฟต์แวร์เบต้า ที่มา - 9to5Mac (1), (2)    ", 
  "Date": "8/July/2016", 
  "Image-Link": [
    "https://www.blognone.com/sites/default/files/styles/thumbnail/public/topics-images/ios10.png?itok=sLxwnpuP", 
    "http://i.cubeupload.com/mD837b.png", 
    "/sites/all/themes/blognone42/images/linebutton.png"
  ], 
  "Link": "https://www.blognone.com/node/83151", 
  "News": "Apple เปิด Public Beta ของ iOS 10 และ macOS Sierra ให้ผู้ใช้ที่สนใจได้ทดสอบแล้ว", 
  "Tags": [
    "iOS 10", 
    "macOS", 
    "Sierra", 
    "Apple"
  ], 
  "Time": "07:15"
}