{
  "By": "ตะโร่งโต้ง", 
  "Contents": " ต่อเนื่องจากข่าวเมื่อ 2 เดือนก่อนเรื่องป้ายโฆษณาข้างทางด่วนของ Dentsu ที่จะเปลี่ยนเนื้อหาอิงตามผู้ที่ขับรถผ่าน ตอนนี้ก็มีข้อมูลจากการทดลองใช้งานเปิดเผยว่าระบบของป้ายดังกล่าวสามารถแยกแยะยี่ห้อ, โมเดล และปีที่ผลิตของรถที่แตกต่างกันได้ 200 รุ่นแล้ว โดยมีความแม่นยำในการระบุข้อมูลของรถถึง 94% Couldian ซึ่งเป็นหนึ่งใน 3 บริษัทไอทีที่ร่วมพัฒนาป้ายโฆษณาอัจฉริยะของ Dentsu นี้ เปิดเผยว่าทีมพัฒนาได้ทำการสอนให้ปัญญาประดิษฐ์รู้จักจำแนกภาพของรถยนต์ยี่ห้อและรุ่นต่างๆ โดยใช้ภาพถ่ายรถยนต์จากเว็บขายรถมือสองหลายแสนภาพ โดยมีภาพรถยนต์ที่แตกต่างกันทั้งยี่ห้อ, โมเดล และปีที่ผลิตของรถ ปะปนกันไป (เฉลี่ยแล้วปัญญาประดิษฐ์จะได้เรียนรู้ภาพรถยนต์แต่ละรุ่นประมาณ 4,000 ภาพ) หลังผ่านการทดสอบมาตั้งแต่ช่วงต้นปี Dentsu จะเปิดใช้งานป้ายโฆษณาอัจฉริยะนี้อย่างเป็นทางการในช่วงปลายปีนี้ โดยจะรับลงโฆษณาแบบเน้นกลุ่มเป้าหมายอิงตามข้อมูลรถของผู้ขับขี่สัญจรไปมา ที่มา - CNN Money    ", 
  "Date": "30/June/2016", 
  "Image-Link": [
    "https://www.blognone.com/sites/default/files/styles/thumbnail/public/news-thumbnails/Dentsu%20%28thumbnail%29_0.png?itok=9dLPqMgR", 
    "//upic.me/i/ly/dentsu-smartbillboardbasedonpassingbycars1.jpg", 
    "/sites/all/themes/blognone42/images/linebutton.png"
  ], 
  "Link": "https://www.blognone.com/node/82882", 
  "News": "เผยข้อมูลป้ายโฆษณาอัจฉริยะของ Dentsu แยกแยะรุ่นของรถได้แม่นยำ 94%", 
  "Tags": [
    "Advertising", 
    "Dentsu", 
    "Deep Learning", 
    "Artificial Intelligence"
  ], 
  "Time": "23:47"
}