{
  "By": "nutmos", 
  "Contents": " สำนักข่าว Reuters รายงานข้อมูลจากแหล่งข่าวว่า Amazon เตรียมเปิดตัวบริการสตรีมเพลงใหม่ของบริษัท เพื่อวางตัวเป็นคู่แข่งกับ Apple Music และ Spotify บริการสตรีมมิ่งใหม่ของ Amazon นี้จะเก็บค่าสมัครสมาชิกที่ 9.99 ดอลลาร์ต่อเดือน โดยแหล่งข่าวบอกว่าตอนนี้ Amazon ได้อยู่ในขั้นตอนสุดท้ายของการเจรจากับเจ้าของลิขสิทธิ์เพลงแล้ว จึงมีโอกาสที่จะเปิดตัวภายนในช่วงปลายของฤดูร้อนหรือต้นฤดูใบไม้ร่วง ปัจจุบัน Amazon มี Prime Music อยู่แล้ว คาดว่าเมื่อเปิดบริการสตรีมมิ่งใหม่ Prime Music น่าจะเป็นบริการที่มีเพียงความสามารถพื้นฐาน และหากต้องการใช้งานบริการสตรีมมิ่งได้เต็มรูปแบบจริงๆ ให้ใช้บริการใหม่นี้ ที่มา - Business Insider   ", 
  "Date": "11/June/2016", 
  "Image-Link": [
    "https://www.blognone.com/sites/default/files/styles/thumbnail/public/topics-images/amazon300.png?itok=pDQ3CyTi", 
    "/sites/all/themes/blognone42/images/linebutton.png"
  ], 
  "Link": "https://www.blognone.com/node/82139", 
  "News": "[ไม่ยืนยัน] Amazon เตรียมเปิดตัวบริการสตรีมเพลงใหม่", 
  "Tags": [
    "Amazon", 
    "Music Streaming", 
    "Online streaming"
  ], 
  "Time": "07:00"
}