{
  "By": "nutmos", 
  "Contents": " ปัญหาอย่างหนึ่งของผู้ใช้บริการสตรีมมิ่งก็คือ เมื่อผู้ใช้เดินทางออกไปต่างประเทศแล้ว คอนเทนต์ที่เห็นในบริการก็จะเป็นคอนเทนต์เหมือนของประเทศที่เดินทางไป รวมถึงภาษาก็จะเป็นภาษาต่างประเทศด้วยเช่นกัน ตอนนี้ EU ได้ออกกฎใหม่ โดยมีใจความสำคัญคือบริการที่บอกรับสมาชิกทั้งหลายจะต้องแสดงเนื้อหาให้ผู้ใช้เหมือนกับอยู่ที่บ้าน แม้ว่าจะเดินทางไปประเทศใดก็ตามในประเทศสมาชิกเป็นการชั่วคราว เช่น หากนักเดินทางชาวอังกฤษเดินทางไปสเปนในช่วงลาพักร้อน ก็ต้องได้ดูเนื้อหาของ Netflix เหมือนกับตอนอยู่บ้านที่อังกฤษทุกประการ เมื่อกฎนี้ออกมาแล้วผู้ให้บริการจะต้องเปลี่ยนวิธียืนยันตัวตนของผู้ใช้ เนื่องจากไม่สามารถใช้วิธีตรวจสอบด้วยที่อยู่ได้อีกต่อไปแล้ว ซึ่งมีบริการที่กระทบเต็มๆ เช่น Netflix, Sky, Canal+ โดยคาดว่ากฏนี้น่าจะบังคับใช้ได้ในปี 2017 พร้อมกับการยกเลิกค่าบริการโรมมิ่ง ซึ่งอยู่ในแผนการทลายกำแพงออนไลน์ในสหภาพยุโรป ที่มา - Engadget, Reuters   ", 
  "Date": "15/May/2016", 
  "Image-Link": [
    "https://www.blognone.com/sites/default/files/styles/thumbnail/public/topics-images/eu-flag.png?itok=5wwQInGK", 
    "/sites/all/themes/blognone42/images/linebutton.png"
  ], 
  "Link": "https://www.blognone.com/node/80988", 
  "News": "EU เตรียมออกกฏ ผู้ให้บริการสตรีมมิ่งต้องให้ผู้ใช้เห็นคอนเทนต์เหมือนอยู่บ้าน แม้จะเดินทางไปต่างประเทศ", 
  "Tags": [
    "EU", 
    "Online streaming"
  ], 
  "Time": "07:26"
}