{
  "By": "nutmos", 
  "Contents": " Google ได้ออกอัพเดตแอพ Google Search บน iOS เวอร์ชัน 15.1 ซึ่ง Google ได้อธิบายไว้ว่า แอพเวอร์ชันใหม่นี้จะมีฟีเจอร์ที่สำคัญ ดังนี้  ความเร็ว: เมื่อเปิดแอพหรือค้นหา ทุกอย่างจะโหลดเร็วกว่าเดิมเล็กน้อย ซึ่ง Google บอกว่าสามารถประหยัดเวลาให้ผู้ใช้แอพนี้ได้รวมกว่า 6.5 ล้านชั่วโมงต่อปี AMP: แอพ Google บน iOS สามารถใช้งาน AMP ได้แล้ว โดยจะทำให้บทความต่างๆ โหลดเร็วขึ้นอย่างเห็นได้ชัด เพียงคลิกบทความที่มีรูปสายฟ้าพร้อมโลโก้ AMP บทความก็จะโหลดขึ้นมาทันที Now Card: สามารถแสดงไฮไลต์กีฬาได้แล้ว คือเมื่อผู้ใช้ได้รับ Card ที่มาพร้อมกับไฮไลต์ของกีฬา สามารถแตะและกดปุ่ม Play เพื่อเปิดดูได้จากแอพเลย  สำหรับแอพ Google บน iOS เวอร์ชันใหม่ สามารถดาวน์โหลดได้ผ่าน App Store ที่มา - Google Inside Search   ", 
  "Date": "28/May/2016", 
  "Image-Link": [
    "https://www.blognone.com/sites/default/files/styles/thumbnail/public/topics-images/Google_2015_logo.svg_.png?itok=bd4RvVLK", 
    "/sites/all/themes/blognone42/images/linebutton.png"
  ], 
  "Link": "https://www.blognone.com/node/81530", 
  "News": "Google ออกอัพเดตแอพ Google Search บน iOS เพิ่มความเร็วและรองรับ AMP", 
  "Tags": [
    "Google", 
    "Google Search", 
    "AMP"
  ], 
  "Time": "08:46"
}