{
  "By": "mk", 
  "Contents": " วันนี้ AMD เปิดตัวผลิตภัณฑ์ชุดใหญ่ ฝั่งของหน่วยประมวลผลรหัส A รุ่นที่เจ็ด มีสองสายคือ ตลาดล่าง A9/A6/E2 รหัส Stoney Ridge และตลาดบน FX/A12/A10 รหัส Bristol Ridge แพลตฟอร์ม Bristol Ridge ใช้คอร์ Excavator แบบเดียวกับในแพลตฟอร์ม Carrizo รุ่นก่อนหน้า ตัวซีพียูออกมาทั้งหมด 6 รุ่นย่อย (ซีรีส์ละ 2 รุ่นย่อย แบ่งตามระดับ TDP) ได้แก่  AMD FX 9830P รุ่นท็อปสุด ความถี่สูงสุด 3.7GHz, TDP 35W, จีพียู R7 AMD FX 9800P ความถี่สูงสุด 3.6GHz, TDP 15W, จีพียู R7 AMD A12 9730P ความถี่สูงสุด 3.5GHz, TDP 35W, จีพียู R7 AMD A12 9700P ความถี่สูงสุด 3.4GHZ, TDP 15W, จีพียู R7 AMD A10 9630P ความถี่สูงสุด 3.3GHz, TDP 35W, จีพียู R5 AMD A10 9600P ความถี่สูงสุด 3.3GHz, TDP 15W, จีพียู R5  ตัว A10 จะด้อยกว่ารุ่นพี่ตรงกราฟิกระดับ R5 (เท่ากับตัว A9 ที่คนละสถาปัตยกรรมย่อยกัน) ในขณะที่กราฟิก R7 ของ FX/A12 จะได้ฟีเจอร์ระดับสูงอย่าง Dual Graphic และ Eyefinity ด้วย ที่มา - AMD, AnandTech     ", 
  "Date": "1/June/2016", 
  "Image-Link": [
    "https://www.blognone.com/sites/default/files/styles/thumbnail/public/topics-images/amd.png?itok=6OE1UWFO", 
    "http://i.imgur.com/THgq7xx.jpg", 
    "http://i.imgur.com/tF0c3GO.jpg", 
    "/sites/all/themes/blognone42/images/linebutton.png"
  ], 
  "Link": "https://www.blognone.com/node/81708", 
  "News": "AMD เปิดตัว APU รุ่นที่เจ็ด FX, A12, A10 รหัส Bristol Ridge", 
  "Tags": [
    "AMD", 
    "CPU", 
    "Processor", 
    "AMD FX"
  ], 
  "Time": "16:33"
}