{
  "By": "nismod", 
  "Contents": "
Google ประกาศเปิดศูนย์วิจัยและพัฒนา Machine Learning ในทวีปยุโรป ซึ่งตั้งอยู่ที่เมืองซูริค ประเทศสวิตเซอร์แลนด์ เพื่อดึงตัวผู้เชี่ยวชาญจากมหาวิทยาลัยดังๆ ในยุโรปมาร่วมงานได้ง่ายมากขึ้น
Google ระบุว่าศูนย์นี้จะเน้นไปที่การพัฒนา Machine Intelligence หรือการวิจัยและพัฒนาโครงสร้างพื้นฐานของ Machine Learning รวมไปถึงการใช้งานจริง, Natural Language Processing & Understanding ซึ่งนักวิจัยจะได้ทำงานร่วมกับนักภาษาศาสตร์ เพื่อพัฒนาการเข้าใจภาษาธรรมชาติของปัญญาประดิษฐ์ให้มากขึ้น และ Machine Perception หรือการทำความเข้าใจและตีความภาพ, เสียง, วิดีโอและเพลงของปัญญาประดิษฐ์
ทั้งนี้ศูนย์วิจัยของ Google ที่เมืองซูริคแห่งนี้ ไม่ได้มีแค่เฉพาะการพัฒนา Machine Learning แต่เพียงอย่างเดียว แต่ยังเป็นศูนย์วิจัยและพัฒนา Knowledge Graph และเอ็นจินที่ใช้ใน Allo ด้วย
ที่มา - TechCrunch
 ", 
  "Date": "17/June/2016", 
  "Image-Link": "https://www.blognone.com/sites/default/files/badges/badge-trainee-shadow.png", 
  "Link": "https://www.blognone.com/node/82367", 
  "News": "Google เปิดศูนย์วิจัยและพัฒนา Machine Learning ในทวีปยุโรป", 
  "Tags": [
    "Google", 
    "Machine Learning", 
    "Europe"
  ], 
  "Time": "11:33"
}