{
  "By": "BlackMiracle", 
  "Contents": " เมื่อวานโมโตโรลาได้ปล่อยอัพเดตซอฟต์แวร์ให้กับ Moto 360 (2nd Gen) และ Moto 360 Sport หลังจากอัพเดตครั้งสุดท้ายตั้งแต่เดือนกุมภาพันธ์ที่ผ่านมา ซึ่งมีรายการเปลี่ยนแปลงดังนี้  ปรับการคำนวณแคลอรีในแอพ Moto Body ใหม่ โดยนำอัตราการเต้นของหัวใจเข้ามาเป็นตัวแปรในการคำนวณด้วย ปรับปรุงการวัดอัตราการเต้นของหัวใจในแอพ Moto Body ใหม่ ก่อนหน้านี้วัดเสร็จแล้วหยุดเลย แต่ตอนนี้จะวัดต่อเนื่องไปเรื่อยๆ และแสดงผลแบบเรียลไทม์ อัพเดตแพตช์ความปลอดภัยเป็นของเดือนพฤษภาคม แก้บั๊กต่างๆ  หลังจากอัพเดตแล้ว นาฬิกาจะเป็นเวอร์ชัน MWD49B ครับ ที่มา - Motorola    ", 
  "Date": "9/June/2016", 
  "Image-Link": [
    "https://www.blognone.com/sites/default/files/styles/thumbnail/public/topics-images/motorola.png?itok=Pff47JHy", 
    "https://i.imgur.com/G7b3YJZ.jpg?1", 
    "/sites/all/themes/blognone42/images/linebutton.png"
  ], 
  "Link": "https://www.blognone.com/node/82039", 
  "News": "โมโตโรลาปล่อยอัพเดตให้ Moto 360 (2nd Gen) และ Moto 360 Sport", 
  "Tags": [
    "Moto 360", 
    "Motorola", 
    "Wearable Computing", 
    "Android Wear"
  ], 
  "Time": "09:21"
}