{
  "By": "nrad6949", 
  "Contents": " เมื่อสัปดาห์ที่ผ่านมา Google ประกาศออกอัพเดตย่อยให้กับ Android Wear โดยปรับรุ่น Android Wear เป็น 1.5 (รุ่นใหม่ 2.0 ยังไม่ออกตัวจริงแต่อย่างใด) Google ระบุแต่เพียงว่าอัพเดตนี้ออกเพื่อเป็นการปรับปรุงระบบ (improve system health) แต่ทางเว็บไซต์ Ausdroid ระบุว่าอัพเดตตัวนี้นอกจากจะปรับปรุงเรื่องของความปลอดภัย (security patch) ให้เป็นรุ่นล่าสุด (1 พฤษภาคม) แล้ว ยังนำเมนู restart กลับคืนมาด้วย หลังจากถูกถอดออกไป อัพเดตนี้มีให้กับผู้ใช้ Android Wear ทุกรุ่นที่วางจำหน่ายในขณะนี้ครับ ที่มา - Google Product Forums ผ่าน Ausdroid   ", 
  "Date": "21/June/2016", 
  "Image-Link": [
    "https://www.blognone.com/sites/default/files/styles/thumbnail/public/topics-images/android-wear.png?itok=3cTHcWDj", 
    "/sites/all/themes/blognone42/images/linebutton.png"
  ], 
  "Link": "https://www.blognone.com/node/82501", 
  "News": "Google ออกอัพเดตย่อย Android Wear 1.5 เน้นปรับปรุงความปลอดภัยระบบ", 
  "Tags": [
    "Android Wear", 
    "Wearable Computing", 
    "Google", 
    "Security"
  ], 
  "Time": "11:53"
}