{
  "By": "nutmos", 
  "Contents": " ก่อนหน้านี้ไม่นานนักมีข่าวลือที่ว่า WhatsApp อาจขยายการใช้งานครอบคลุม Windows และ OS X ซึ่งตอนนี้ WhatsApp ก็ได้ออกแอพสำหรับ Windows และ OS X อย่างเป็นทางการแล้ว ตัวแอพ WhatApp บน Windows และ OS X นั้นจะมีลักษณะคล้าย WhatsApp Web คือเป็นเพียงส่วนเสริมของ WhatsApp บนโทรศัพท์เท่านั้น และวิธีเข้าใช้งานก็ต้องสแกน QR Code เหมือนกัน WhatsApp บนเดสก์ท็อปนั้น จะสามารถใช้งานได้บน Windows 8 หรือใหม่กว่า และ OS X 10.9 หรือใหม่กว่าเท่านั้น ดาวน์โหลดได้ที่ WhatsApp ที่มา - WhatsApp    ", 
  "Date": "11/May/2016", 
  "Image-Link": [
    "https://www.blognone.com/sites/default/files/styles/thumbnail/public/topics-images/whatsapp.png?itok=KzSwXlnq", 
    "http://i.cubeupload.com/e1Ez4h.jpg", 
    "/sites/all/themes/blognone42/images/linebutton.png"
  ], 
  "Link": "https://www.blognone.com/node/80825", 
  "News": "WhatsApp ออกบนแอพเดสก์ท็อปสำหรับ Windows และ OS X", 
  "Tags": [
    "WhatsApp", 
    "Instant Messenger"
  ], 
  "Time": "07:31"
}