{
    "By": "arjin", 
    "Contents": "\nอินเทลรายงานผลประกอบการประจำไตรมาสที่ 4 ของปี 2015 มีรายได้ 14,914 ล้านดอลลาร์ เพิ่มขึ้น 1% เมื่อเทียบกับช่วงเวลาเดียวกันในปีที่แล้ว และมีกำไรสุทธิ 3,613 ล้านดอลลาร์\nรายได้จากธุรกิจ Data Center ยังคงมีการเติบโต แต่ด้วยอัตราที่ลดลง เฉพาะส่วนนี้มีรายได้ 4,300 ล้านดอลลาร์ โดยนักวิเคราะห์มองว่าองค์กรเริ่มชะลอการสั่งซื้อเซิร์ฟเวอร์ใหม่ เพื่อเตรียมย้ายการทำงานไปอยู่บนคลาวด์แทน\nสำหรับส่วนธุรกิจพีซีรายได้ลดลงไปเล็กน้อย อยู่ที่ 8,760 ล้านดอลลาร์ ซึ่งดีกว่าตัวเลขยอดขายพีซีที่ Gartner รายงาน\nที่มา: Reuters\n", 
    "Date": "15/01/16", 
    "Image-Link": "https://www.blognone.com/sites/default/files/imagecache/news-thumbnail/category_pictures/intel.png", 
    "Link": "https://www.blognone.com/node/76753", 
    "News": "ผลประกอบการอินเทล ไตรมาส 4/2015 กลุ่มธุรกิจ Data Center เริ่มมีการเติบโตที่ลดลง", 
    "Tags": "Financial Report\nIntel\n", 
    "Time": "9:42"
}