{
    "By": "Blltz", 
    "Contents": "\nภารกิจซอยแหลกของ Xiaomi ยังคงดำเนินมาถึงปี 2016 หลังจากเพิ่งเปิดตัวรุ่นเล็กตัวใหม่อย่าง Redmi 3 และกำลังจะเปิดตัวเรือธง Mi 5 ในเดือนหน้า วันนี้ออกมาเปิดตัว Redmi Note 3 รุ่นใหม่ที่ปรับสเปคไปจากรุ่นเดิมหลายอย่าง\nเปรียบเทียบกับ Redmi Note 3 รุ่นแรกที่เปิดตัวมาเมื่อปลายปีก่อนแล้ว รุ่นใหม่มีการเปลี่ยนแปลงมากสุดคือเปลี่ยนไปใช้ซีพียู Snapdragon 650 (อดีต Snapdragon 618) หกคอร์ความถี่ 1.8GHz (เป็น Cortex-A72 สองคอร์ และ Cortex-A53 อีกสี่คอร์) เพิ่ม Sunlight Display สำหรับการใช้งานในที่แดดจ้า และรองรับ 4G+ (LTE-A) ส่วนสเปคที่เหลือเท่ากับรุ่นปกติ มีสองโมเดลความจุ 16GB/2GB และ 32GB/3GB\nสำหรับราคาของ Redmi Note 3 รุ่นใหม่เริ่มต้นมาแพงกว่ารุ่นปกติเล็กน้อย รุ่นความจุ 16GB/2GB เปิดราคามาที่ 999 หยวน (ราว 5,500 บาท) แพงกว่า 100 หยวน ส่วนรุ่น 32GB/3GB ยังไม่เปิดราคาออกมา แต่ถ้าอิงจากฐานราคาเดิมน่าจะอยู่ที่ 1,199 หยวนหรือประมาณ 6,600 บาทครับ\nที่มา - MIUI\n\n", 
    "Date": "15/01/16", 
    "Image-Link": "https://www.blognone.com/sites/default/files/imagecache/news-thumbnail/news-thumbnails/r3n.png", 
    "Link": "https://www.blognone.com/node/76746", 
    "News": "Xiaomi เปิดตัว Redmi Note 3 รุ่น Snapdragon 650 เพิ่ม Sunlight Display และ 4G+", 
    "Tags": "China\nMobile\nPhablet\nXiaomi\n", 
    "Time": "8:38"
}