{
    "By": "lew", 
    "Contents": "\nเมื่อวานนี้กลุ่มแฮกเกอร์ BLINK HACKER GROUP (BHG) อ้างความรับผิดชอบต่อการทำเว็บศาลยุติธรรมไทย ล่มจนใช้งานไม่ได้ช่วงหนึ่ง ล่าสุดทาง BHG ก็ออกมาปล่อยฐานข้อมูลขนาด 1.09 กิกะไบต์ ระบุว่าเป็นฐานข้อมูลที่ได้จากการเจาะเซิร์ฟเวอร์\nนอกจากเนื้อหาบนเว็บไซต์แล้ว BHG ยังระบุว่าข้อมูลยังมีระบบจัดการภายใน เช่น ข้อมูลบุคคลากร, เงินเดือน, สวัสดิการ, งบประมาณ, การวางแผน อย่างไรก็ดีข้อมูลหลายส่วนเป็นข้อมูลที่เปิดเผยได้อยู่แล้ว ยังไม่แน่ชัดว่ามีข้อมูลความลับอะไรหรือไม่\nไฟล์ที่หลุดออกมาคือ mis_db.sql.gz มีขนาดหลังบีบอัดแล้ว 111.8MB ค่าแฮช 4c2cc51b93b1daa34c18d135765fa8e6c9edc52d\nที่มา - Softpedia\n", 
    "Date": "15/01/16", 
    "Image-Link": "https://www.blognone.com/sites/default/files/imagecache/news-thumbnail/category_pictures/thailand.png", 
    "Link": "https://www.blognone.com/node/76760", 
    "News": "กลุ่มแฮกเกอร์เจาะเว็บศาลยุติธรรม ปล่อยฐานข้อมูลสู่สาธารณะ", 
    "Tags": "Hacking\nSecurity\nThailand\n", 
    "Time": "11:52"
}