{
    "By": "mk", 
    "Contents": "\nบริษัท Fixstars Corporation จากญี่ปุ่น เปิดตัว SSD ขนาดใหญ่สะใจ 10TB และ 13TB ในชื่อรุ่น Fixstars SSD-10000M และ SSD-13000M ตามลำดับ\nSSD ทั้งสองรุ่นมีความเร็วการอ่าน 540 MB/s, การเขียนต่อกัน (sequential write) สูงสุด 520 MB/s ตลอดอายุการใช้งาน อุปกรณ์ชุดนี้เน้นตลาดลูกค้าองค์กรที่รูปแบบเนื้องานต้องการอ่าน/เขียนไฟล์ลงสตอเรจแบบต่อกันไปเรื่อยๆ เช่น สตรีมมิ่ง, ตัดต่อวิดีโอ, ภาพกราฟิก CG เป็นต้น\nไดรฟ์ SSD ของ Fixstars มีขนาด 2.5 นิ้วมาตรฐาน ใช้หน่วยความจำ NAND Flash ของ Toshiba และใช้ตัวคอนโทรลเลอร์ของ Fixstars เอง\nราคาก็แน่นอนว่าไม่ถูกครับ รุ่น 13TB ขายตัวละ 19,000 ดอลลาร์ หรือประมาณ 7 แสนบาท เริ่มวางขายในสหรัฐเดือนกุมภาพันธ์นี้\nที่มา - Fixstars, ExtremeTech\n\n", 
    "Date": "15/01/16", 
    "Image-Link": "https://www.blognone.com/sites/default/files/imagecache/news-thumbnail/category_pictures/fixstars.png", 
    "Link": "https://www.blognone.com/node/76764", 
    "News": "[ใหญ่ฟัดโลก] Fixstars เปิดตัวไดรฟ์ SSD ความจุ 13TB ราคาตัวละ 7 แสนบาท", 
    "Tags": "Fixstars\nSSD\nStorage\n", 
    "Time": "13:09"
}