{
    "By": "nismod", 
    "Contents": "\nหลังจาก AnTuTu ปล่อยแอพเบนช์มาร์คของตัวเองลง iOS สำหรับการเปรียบเทียบสมรรถภาพของสมาร์ทโฟนแบบข้ามแพลตฟอร์ม ทำให้ iPhone 6s /6s Plus กลายเป็นสมาร์ทโฟนที่แรงที่สุดในปี 2015 ที่มีคะแนนนำโด่งถึง 132,620 คะแนน\nส่วนอันดับสอง ตามมาห่างๆคือ Huawei Mate 8 ที่คะแนน 92,746 อันดับ 3 คือ Meizu Pro 5 ที่ 86,214 คะแนน โดย Samsung Galaxy Note 5 และ Galaxy S6 Edge+ ตามมาที่อันดับ 4 และอันดับ 5 ที่ 83,364 และ 82,087 คะแนนตามลำดับ\nทั้งนี้ AnTuTu คำนวนผลคะแนนเบนช์มาร์ค จากการเฉลี่ยคะแนนการทดสอบทั้งหมด 500 ครั้ง\nที่มา - AnTuTu via GSM Arena\n\n", 
    "Date": "15/01/16", 
    "Image-Link": "https://www.blognone.com/sites/default/files/imagecache/news-thumbnail/category_pictures/antutu.png", 
    "Link": "https://www.blognone.com/node/76781", 
    "News": "iPhone 6s เป็นสมาร์ทโฟนที่แรงที่สุดในปี 2015 จากการจัดอันดับโดย AnTuTu", 
    "Tags": "AnTuTu\nBenchmark\niPhone 6s\nMobile\n", 
    "Time": "17:55"
}