{
  "By": "trinakub", 
  "Contents": " BioShock: The Collection คือการนำเกม BioShock, BioShock 2 และ BioShock Infinite มา Remaster ใหม่ให้อยู่ในรูปแบบของความละเอียด 1080p และสามารถรองรับเฟรมเรตได้ถึง 60 fps บนทุกแพลตฟอร์มด้วยกัน (แต่สำหรับบน PC จะไม่มีภาค BioShock Infinite รวมอยู่ด้วย ด้วยเหตุผลที่ว่าตัวเกมผ่านมาตรฐานของเกมคอนโซลในยุคสมัยนี้แล้ว และสามารถเล่นได้อย่างลื่นไหลในการตั้งค่าระดับสูง) ล่าสุดทาง 2K Games ประกาศวันวางจำหน่ายเกม BioShock: The Collection ออกมาแล้ว ราคาขาย 59.99 ดอลลาร์สหรัฐ วันจำหน่ายจะจำแนกตามโซนต่าง ๆ ดังนี้  โซน North America: วันที่ 13 กันยายน 2559 โซน Australia: วันที่ 15 กันยายน 2559 ทั่วโลก: วันที่ 16 กันยายน 2559  แพลตฟอร์มที่เกมรองรับได้แก่ PlayStation 4, Xbox One และ PC   BioShock ภาคแรกมีฉาก Challenge Rooms ซึ่งเป็นฉาก Exclusive สำหรับเครื่อง PS3 เดิม และ Museum of Orphaned Concepts gallery ที่ปรากฏในเกมเวอร์ชัน Ultimate Rapture Edition เท่านั้น รวมอยู่ด้วย BioShock 2 จะไม่มีโหมด Multiplayer หรือ Fall of Rapture รวมอยู่ด้วย แต่จะมี DLC The Protector Trials และ DLC Minerva’s Den อยู่ใน Collection แทน BioShock Infinite จะมี DLC Clash in the Clouds, DLC Burial at Sea และ Columbia’s Finest pack รวมอยู่ด้วย  ที่มา – IGN   ", 
  "Date": "1/July/2016", 
  "Image-Link": [
    "https://www.blognone.com/sites/default/files/styles/thumbnail/public/news-thumbnails/BioShock%20Logo.jpg?itok=o43l1uIJ", 
    "http://i.imgur.com/JD5DK25.jpg", 
    "/sites/all/themes/blognone42/images/linebutton.png"
  ], 
  "Link": "https://www.blognone.com/node/82872", 
  "News": "BioShock: The Collection ประกาศวันวางจำหน่าย", 
  "Tags": [
    "BioShock", 
    "Games", 
    "Xbox One", 
    "PS4"
  ], 
  "Time": "06:47"
}