{
  "By": "mk", 
  "Contents": " ไมโครซอฟท์ประกาศปิดบริการ Project Spark \"เกมสร้างเกม\" ที่เปิดตัวมาตั้งแต่ปี 2014 (เล่นได้ทั้งบน Windows และ Xbox One) โดยให้เหตุผลว่าทีมพัฒนาย้ายไปทำเกมอื่นในสังกัด Microsoft Studios แทนแล้ว ตอนนี้เกมไม่สามารถดาวน์โหลดได้แล้ว และคนที่เล่นอยู่จะมีเวลาถึงวันที่ 12 สิงหาคม 2016 ในการดาวน์โหลดข้อมูลที่สร้างไว้ในเกมกลับมาเก็บไว้ ส่วนคนที่ยังมีเครดิตสำหรับซื้อของในเกม จะสามารถใช้เครดิตสำหรับซื้อของอย่างอื่นบน Xbox Store หรือ Windows Store ได้แทน ที่มา - Project Spark, Kotaku   ", 
  "Date": "15/May/2016", 
  "Image-Link": [
    "https://www.blognone.com/sites/default/files/styles/thumbnail/public/topics-images/MSFT_logo_rgb_C-Gray.png?itok=j3hJhqua", 
    "/sites/all/themes/blognone42/images/linebutton.png"
  ], 
  "Link": "https://www.blognone.com/node/80987", 
  "News": "ไมโครซอฟท์ปิดบริการ Project Spark เกมที่ใช้สร้างเกม", 
  "Tags": [
    "Microsoft", 
    "Games"
  ], 
  "Time": "07:23"
}