{
  "By": "Elysium", 
  "Contents": " หลังจากที่ Steam ปรับนโยบายความปลอดภัยใหม่ โดยการซื้อหรือแลกเปลี่ยนไอเทมระหว่างผู้ใช้จะถูกยื้อไว้เป็นเวลา 15 วัน ซึ่งสามารถยกเลิกข้อจำกัดนี้ได้ด้วยการใช้ Steam Guard Mobile Authenticator ที่ก่อนหน้านี้มีบน Play store และ App Store เท่านั้น ทำให้ผู้ใช้ Windows Phone ประสบปัญหาอย่างมาก แต่วันนี้ Valve ก็ปล่อยแอพ Steam ลง Windows Store แล้ว โดยผู้ใช้ Windows Phone สามารถดาวน์โหลดได้จากลิงก์นี้ ที่มา - WinBeta ตัวแอพประกอบไปด้วย  Steam Guard สำหรับรับรหัสยืนยันแบบสองขั้นตอน Confirmations สำหรับยืนยันการซื้อหรือแลกเปลี่ยนไอเทมระหว่างผู้เล่น Chat สำหรับสนทนาระหว่างเพื่อน Store หน้าร้าน Steam (ที่ผู้เขียนคิดว่าเหมือน Web-app)     ", 
  "Date": "29/June/2016", 
  "Image-Link": [
    "https://www.blognone.com/sites/default/files/styles/thumbnail/public/topics-images/steam.png?itok=APMuxEYH", 
    "https://i.imgur.com/iYfWY2X.jpg", 
    "/sites/all/themes/blognone42/images/linebutton.png"
  ], 
  "Link": "https://www.blognone.com/node/82792", 
  "News": "Valve ปล่อยแอพ Steam สำหรับ Windows Phone แล้ว", 
  "Tags": [
    "Steam", 
    "Valve", 
    "Windows Phone"
  ], 
  "Time": "09:36"
}