{
  "By": "mk", 
  "Contents": " ตรงตามข่าวหลุดทุกประการ ไมโครซอฟท์เปิดตัว Xbox One S คอนโซลรุ่นใหม่ที่มีขนาดเครื่องเล็กลงจากเดิม 40%, ใส่ฮาร์ดดิสก์ได้สูงสุด 2TB, ไม่ต้องมีพาวเวอร์ซัพพลายแยก เปลี่ยนดีไซน์เครื่องมาใช้สีขาว ปรับพอร์ต USB หนึ่งพอร์ตและปุ่ม pairing มาไว้ด้านหน้าเครื่อง เพื่อให้กดง่ายขึ้น, เพิ่มช่อง IR blaster สำหรับควบคุมด้วยรีโมท ในแง่สเปกเครื่องยังไม่ระบุชัด บอกแค่ว่ารองรับการแสดงผลภาพ HDR (High Dynamic Range) ทั้งเกมและวิดีโอ (เกมที่รองรับตอนนี้คือ Gears of War 4 และ Scalebound) และแสดงผลระดับ 4K เฉพาะการชมภาพยนตร์แบบสตรีมมิ่งและ Blu-ray สิ่งที่เพิ่มเข้ามายังมี Xbox Wireless Controller ที่มีระยะทำการไกลขึ้นสองเท่า, รองรับการเชื่อมต่อผ่าน Bluetooth ในตัว, ปรับผิวสัมผัสด้านหลังจับได้กระชับมือกว่าเดิม, ถอดพอร์ต Kinect ออก แต่ยังสามารถใช้งานได้ผ่านตัวแปลงเป็น USB (แจกตัวแปลงฟรีสำหรับคนที่มี Kinect for Xbox One อยู่แล้ว)  ราคา Xbox One S แบ่งออกเป็น 3 ความจุ  รุ่นต่ำสุด 500GB ราคา 299 ดอลลาร์ รุ่น 1TB ราคา 349 ดอลลาร์ รุ่น 2TB ราคา 399 ดอลลาร์ จะเริ่มวางขายเป็นรุ่นแรกในเดือนสิงหาคมนี้ คอนโทรลเลอร์ขายตัวละ 59.99 ดอลลาร์  ที่มา - Xbox Wire   ", 
  "Date": "13/June/2016", 
  "Image-Link": [
    "https://www.blognone.com/sites/default/files/styles/thumbnail/public/topics-images/xbox-big_0.png?itok=5eYWc84O", 
    "https://i.imgur.com/2GmCeY5.jpg", 
    "/sites/all/themes/blognone42/images/linebutton.png"
  ], 
  "Link": "https://www.blognone.com/node/82209", 
  "News": "Xbox One S เปิดตัว ขนาดเล็กลง 40%, ใส่ฮาร์ดดิสก์ได้ 2TB, รองรับ HDR", 
  "Tags": [
    "Xbox One", 
    "Microsoft", 
    "Games", 
    "E3"
  ], 
  "Time": "23:54"
}