{
  "By": "tekkasit", 
  "Contents": " พบกันเป็นประจำทุกสัปดาห์แรกของเดือน กับ Android Security Update สำหรับอัพเดตรอบเดือนมิถุนายน 2016 กูเกิลแก้ช่องโหว่ถึง 21 จุด มีระดับความร้ายแรงตั้งแต่ขั้นวิกฤต (critical) จนถึงปานกลาง (moderate) ในบรรดาช่องโหว่ระดับวิกฤตทั้ง 6 จุด มีช่องโหว่เกี่ยวกับไดรเวอร์ของชิป Qualcomm เป็นหลัก (Video, Sound, GPU และ Wi-Fi) และรวมถึงพระเอกประจำงานอย่างช่องโหว่ของ mediaserver (ตัวเดิมที่เคยมีปัญหา StageFright) ด้วย ข่าวดีคือ กูเกิลบอกว่ายังไม่พบว่ามีการใช้งานช่องโหว่พวกนี้ในแอพที่ขึ้น Play Store สำหรับผู้ใช้ Nexus 7 (2013), Nexus 9, Nexus Player, Pixel C, Nexus 5, Nexus 6, Nexus 5X และ Nexus 6P จะได้อัพเดตความปลอดภัยเป็น Security Patch Level of June 1, 2016 (MOB30M/MTC19V/MXC89H) ใครรอไม่ไหวก็สามารถดาวน์โหลด factory image หรือ OTA กันก่อนได้ กูเกิลบอกว่าส่งแพตช์เหล่านี้ให้พาร์ทเนอร์แล้วก่อนวันที่ 2 มิถุนายน ส่วนผู้ผลิตรายไหนจะอัพเดตปิดช่องโหว่พวกนี้เมื่อไรก็ตามไปภาวนากันเองครับ ที่มา: Android Security, Android Central    ", 
  "Date": "7/June/2016", 
  "Image-Link": [
    "https://www.blognone.com/sites/default/files/styles/thumbnail/public/topics-images/nexus.png?itok=aS4M8JEF", 
    "https://i.imgur.com/6kBJg5g.jpg", 
    "/sites/all/themes/blognone42/images/linebutton.png"
  ], 
  "Link": "https://www.blognone.com/node/81936", 
  "News": "กูเกิลออกแพตช์ความปลอดภัย Nexus รอบเดือนมิถุนายน 2016", 
  "Tags": [
    "Google Nexus", 
    "Security", 
    "Android"
  ], 
  "Time": "08:15"
}