{
  "By": "nutmos", 
  "Contents": " Facebook ได้เพิ่มฟีเจอร์ใหม่สำหรับแอพบน Android คือรองรับการจัดการ SMS ของตัวเครื่องผ่านแอพ Messenger หลังจากที่ทดสอบมาได้สักพัก เมื่อ Facebook Messenger รองรับการจัดการ SMS แล้ว จะไม่ใช่เพียงแค่การนำข้อความธรรมดามาอ่านหรือตอบผ่านแอพเท่านั้น แต่ยังสามารถส่งสติ๊กเกอร์, ข้อความเสียง หรือแบ่งปันที่อยู่ผ่าน SMS ได้ รวมถึงสามารถใช้ chat heads ได้ด้วย Facebook เริ่มปล่อยฟีเจอร์นี้ให้ประเทศส่วนใหญ่แล้ววันนี้ ที่มา - Facebook ของ David Marcus     ", 
  "Date": "15/June/2016", 
  "Image-Link": [
    "https://www.blognone.com/sites/default/files/styles/thumbnail/public/topics-images/messenger-500.png?itok=We0tzOrE", 
    "http://i.cubeupload.com/HdXe7D.jpg", 
    "http://i.cubeupload.com/Om03Wc.jpg", 
    "/sites/all/themes/blognone42/images/linebutton.png"
  ], 
  "Link": "https://www.blognone.com/node/82258", 
  "News": "Facebook Messenger สามารถจัดการ SMS บน Android ได้แล้ว", 
  "Tags": [
    "Facebook Messenger", 
    "Facebook"
  ], 
  "Time": "07:05"
}