{
  "By": "sunnywalker", 
  "Contents": " Facebook เตรียมดำเนินการให้ระบบ Safety Check เสถียรขึ้นและใช้งานง่ายกว่าเดิม  รวมทั้งเพิ่มฟีเจอร์ให้ครอบคลุม 80 ภาษา และฟีเจอร์กลุ่มผู้ประสบภัยที่ช่วยให้ได้รับความช่วยเหลือด้านน้ำอาหารได้ง่ายขึ้น ระบบ Safety Check คือฟีเจอร์ที่ช่วยให้ผู้ใช้รู้ว่าเพื่อนของคุณปลอดภัยในเหตุการณ์วิกฤตเช่นแผ่นดินไหว ซึนามิ เป็นต้น และในเหตุการณ์โจมตีปารีสเมื่อเดือน พ.ย. 2015 เป็นครั้งแรกที่ระบบ Safety Check ทำงานนอกเหนือจากเหตุการณ์ทางธรรมชาติ แต่ก็ถูกตั้งคำถามเมื่อระบบนี้กลับไม่ทำงานเมื่อเกิดเหตุระเบิดในกรุง Beirut ทั้งที่เกิดก่อน Paris Attack แค่วันเดียว ในอีกสองสามสัปดาห์ข้างหน้า Facebook จะทำการเปิดรับฟังความเห็นว่าเมื่อใดพวกเขาต้องการใช้ระบบ Safety Check และจะมีการทดลองใช้ระบบ วิธีการทำงานคือ ต้องมีกลุ่มคนจำนวนหนึ่งโพสต์เกี่ยวกับเหตุการณ์วิกฤต และเมื่อเหตุการณ์นั้นได้รับการยืนยันว่าเกิดขึ้นจริง จะถามพวกเขาว่าต้องการทำเครื่องหมายว่าตนเองปลอดภัยหรือไม่  ที่มา - Techcrunch   ", 
  "Date": "3/June/2016", 
  "Image-Link": [
    "https://www.blognone.com/sites/default/files/styles/thumbnail/public/topics-images/fb-500.png?itok=7KEmyKx1", 
    "http://i.imgur.com/SMTslzb.pngFacebook ", 
    "/sites/all/themes/blognone42/images/linebutton.png"
  ], 
  "Link": "https://www.blognone.com/node/81791", 
  "News": "Facebook พยายามทำให้ Safety Check เสถียรมากขึ้น", 
  "Tags": [
    "Facebook", 
    "Safety"
  ], 
  "Time": "09:16"
}