{
  "By": "nismod", 
  "Contents": " เฟซบุ๊กได้รองรับวิดีโอแบบ 360 องศามาซักพักแล้ว ล่าสุดก็ประกาศรองรับความสามารถเดียวกันนี้ในรูปภาพแล้ว โดยผู้ใช้สามารถใช้นิ้วเลื่อนเพื่อดูมุมอื่นๆ ของรูปภาพ หรือขยับสมาร์ทโฟนเพื่อเลื่อนภาพก็ได้เช่นกัน ผู้ใช้สามารถสังเกตว่าเป็นภาพนิ่งแบบ 360 องศาได้จากไอคอนเข็มทิศเล็กๆ บริเวณขวามือของรูปภาพ โดยภาพลักษณะนี้สามารถถ่ายได้จากแอพพลิเคชันหรือกล้องที่ถ่ายภาพได้ 360 องศา และสำหรับผู้ใช้สมาร์ทโฟนของซัมซุง และมี Gear VR อยู่ในมือ สามารถดูภาพ 360 องศาผ่านแว่น VR ได้ด้วยการเลือก \"View in VR\" ซึ่งรองรับทั้งรูปภาพและวิดีโอ ความสามารถใหม่นี้รองรับแล้วทั้งบนหน้าเว็บและบนสมาร์ทโฟนทั้ง iOS และแอนดรอยด์ แต่ต้องอัพเดตเป็นเวอร์ชันล่าสุดก่อนครับ ที่มา- FB Newsroom, Mark Zuckerberg   Today we're starting to roll out 360 photos worldwide across Facebook. These are similar to 360 videos -- you can tilt... Posted by Mark Zuckerberg on Thursday, June 9, 2016    ", 
  "Date": "10/June/2016", 
  "Image-Link": [
    "https://www.blognone.com/sites/default/files/styles/thumbnail/public/topics-images/fb-500.png?itok=7KEmyKx1", 
    "/sites/all/themes/blognone42/images/linebutton.png"
  ], 
  "Link": "https://www.blognone.com/node/82094", 
  "News": "เฟซบุ๊กประกาศรองรับภาพ 360 องศา ปรับหมุนได้รอบทิศทางเหมือนวิดีโอ", 
  "Tags": [
    "Facebook"
  ], 
  "Time": "09:55"
}