{
  "By": "nismod", 
  "Contents": " รัฐบาลเวียดนามได้บล็อคการเข้าถึงเฟซบุ๊กในช่วงสุดสัปดาห์ที่ผ่านมา โดยสาเหตุสำคัญคือรัฐบาลพยายามปิดกั้นการรวมตัวประท้วงด้านสิ่งแวดล้อมของประชาชน ที่ใช้ทั้งเฟซบุ๊กและอินสตาแกรมเป็นช่องทางในการนัดหมายและเผยแพร่รูปภาพการประท้วง ชาวเวียดนามได้ออกมาประท้วงหลังโรงงาน Formosa Plastics ปล่อยของเสียลงสู่แม่น้ำ จนส่งผลกระทบต่อสิ่งมีชีวิตในน้ำและพื้นที่การเกษตรในบริเวณใกล้เคียง รวมถึงโจมตีรัฐบาลที่ไม่จัดการเรื่องนี้ อย่างไรก็ตามสื่อต่างประเทศคาดว่ารัฐบาลเวียดนามจะยกเลิกการบล็อคแล้ว แต่ยังไม่มีรายงานยืนยันครับ ที่มา - Digital Trend, TechCrunch   ", 
  "Date": "18/May/2016", 
  "Image-Link": [
    "https://www.blognone.com/sites/default/files/styles/thumbnail/public/topics-images/fb-500.png?itok=7KEmyKx1", 
    "/sites/all/themes/blognone42/images/linebutton.png"
  ], 
  "Link": "https://www.blognone.com/node/81127", 
  "News": "เฟซบุ๊กถูกบล็อคในเวียดนาม หลังถูกใช้เป็นช่องทางรวมตัวประท้วงด้านสิ่งแวดล้อม", 
  "Tags": [
    "Facebook", 
    "Vietnam", 
    "Environment"
  ], 
  "Time": "10:25"
}