{
  "By": "nutmos", 
  "Contents": " ปกติแล้ว เว็บ Facebook บนมือถือนั้นจะสามารถเปิดแชทได้จากปุ่มข้อความ ซึ่งตอนนี้ Facebook เริ่มที่จะผลักดันให้ผู้ใช้ไปดาวน์โหลด Facebook Messenger แทน โดยผู้ใช้หลายคนเมื่อเข้าหน้าแชทของ Facebook จะถูก redirect เข้าไปให้ดาวน์โหลดแอพ Messenger ซึ่งถ้าจะไม่ดาวน์โหลดจะต้องย้อนกลับมา และเมื่อกลับมาแล้วจะมีข้อความแสดงว่า \"Your conversation are moving to Messenger.\" Facebook ยังอนุญาตให้ผู้ใช้กดปุ่มกากบาทมุมบนขวาเพื่อดูรายการข้อความได้ แต่เมื่อแตะรายการสนทนาแล้วก็จะเจอการ redirect อีกรอบ และเมื่อกดกลับมาก็จะเจอหน้าเชิญชวนและต้องกดกากบาทเพื่อปิดอีกรอบก่อนจะใช้งานส่งข้อความได้ จากท่าทีการบังคับแบบนี้ ก็ค่อนข้างชัวร์ว่า Facebook เริ่มที่จะผลักดันให้ผู้ใช้ไปใช้แอพ Messenger มากขึ้นเรื่อยๆ เหมือนที่ทำบนแอพหลักของ Facebook มาแล้ว ที่มา - Android Police   ", 
  "Date": "3/June/2016", 
  "Image-Link": [
    "https://www.blognone.com/sites/default/files/styles/thumbnail/public/topics-images/messenger-500.png?itok=We0tzOrE", 
    "/sites/all/themes/blognone42/images/linebutton.png"
  ], 
  "Link": "https://www.blognone.com/node/81813", 
  "News": "ผู้ใช้ Facebook Chat บนเว็บมือถือเริ่มโดนบังคับให้ดาวน์โหลดแอพ Messenger แล้ว", 
  "Tags": [
    "Facebook Messenger", 
    "Facebook"
  ], 
  "Time": "13:37"
}