{
  "By": "nismod", 
  "Contents": " เรื่องอาวุธปืนยังคงเป็นประเด็นที่หลอกหลอนชาวอเมริกันอย่างต่อเนื่อง และถึงแม้เฟซบุ๊กจะมีมาตรการปิดกั้นการขายอาวุธปืน รวมถึงแบนผู้ใช้ที่ขายอาวุธปืนบนเว็บไซต์แล้วก็ตาม แต่ดูเหมือนการโฆษณาขายปืนบนแพลตฟอร์มยังทำได้ ทำให้ Edward Markey วุฒิสมาชิกจากรัฐแมสซาชูเซตส์ สังกัดพรรคเดโมแครต ได้ส่งจดหมายเปิดผนึก ถึง Mark Zuckerberg และ Kevin Systrom ซีอีโอของเฟซบุ๊กและอินสตาแกรม สอบถามถึงความเข้มงวดกวดขันในการจัดการซื้อขายอาวุธปืน Edward Markey ระบุว่าโซเชียลมีเดีย ได้กลายเป็นช่องทางของการซื้อขายอาวุธปืนแบบผิดกฎหมาย ซึ่งตัวเขาเองต้องการให้การค้าขายอาวุธปืนเหล่านี้ หมดไปทั้งแบบออนไลน์และออฟไลน์ พร้อมทั้งถามคำถามหลายข้อ อาทิ มาตรการต่างๆ ที่เกี่ยวข้องกับการห้ามซื้อขายอาวุธปืน, จำนวนผู้ใช้ที่ถูกแบน รวมถึงทั้งสองบริษัทได้ช่วยเหลือเจ้าหน้าที่ เมื่อถูกร้องขอเรื่องการสืบสวนการซื้อขายอาวุธปืนมากน้อยแค่ไหน ที่มา - BBC  สว. Edward Markey จาก markey.senate.gov   ", 
  "Date": "15/July/2016", 
  "Image-Link": [
    "https://www.blognone.com/sites/default/files/styles/thumbnail/public/topics-images/fb-500.png?itok=7KEmyKx1", 
    "https://c8.staticflickr.com/9/8862/27704045183_59606585d9_z.jpg", 
    "/sites/all/themes/blognone42/images/linebutton.png"
  ], 
  "Link": "https://www.blognone.com/node/83478", 
  "News": "สว.สหรัฐส่งจดหมายถามเฟซบุ๊กและอินสตาแกรม เหตุใดยังพบการขายอาวุธปืนบนเว็บ", 
  "Tags": [
    "Facebook", 
    "Instagram", 
    "USA"
  ], 
  "Time": "15:12"
}