{
  "By": "lew", 
  "Contents": " Facebook Messenger เตรียมทดสอบโหมดเข้ารหัสปลายทางถึงปลายทาง (end-to-end) โดยใช้โปรโตคอลของ Open Whisper System เรียกว่า Secret Conversations สามารถกำหนดระยะเวลาก่อนข้อความจะหายไปได้ ข้อความใน Secret Conversations สามารถตั้งเวลาลบข้อความได้ การแชตข้อความลับจะรองรับเฉพาะข้อความปกติเท่านั้น ไม่รองรับภาพเคลื่อนไหว, วิดีโอ, หรือฟีเจอร์อื่น (น่าสนใจว่าเฟซบุ๊กพูดข้ามภาพถ่ายปกติไป โดยไม่ระบุว่าสามารถส่งแบบลับได้หรือไม่) ข้อจำกัดอีกอย่างหนึ่งคือข้อความลับจะสามารถอ่านได้บนอุปกรณ์เดียวเท่านั้น เฟซบุ๊กจะเปิดฟีเจอร์นี้ให้กลุ่มผู้ใช้จำกัด และจะเพิ่มผู้ใช้ตลอดช่วงหน้าร้อน แต่น่าจะเปิดตัวพร้อมๆ กันทั้ง iOS และแอนดรอยด์ (ภาพหน้าจอแจกสื่อมีทั้งสองรุ่น) โดยเฟซบุ๊กรวบรวมข้อมูลจากผู้ใช้ตั้งแต่ฟังก์ชั่นการใช้งาน, ประสิทธิภาพ, และกระบวนการแจ้งเนื้อหาที่มีปัญหาต่างๆ รวมถึงความเห็นจากผู้เชี่ยวชาญ รายละเอียดของโปรโตคอลระดับสูงอยู่ใน Secret Conversations Whitepaper ที่มา - Facebook     ", 
  "Date": "8/July/2016", 
  "Image-Link": [
    "https://www.blognone.com/sites/default/files/styles/thumbnail/public/topics-images/messenger-500.png?itok=We0tzOrE", 
    "//upic.me/i/k7/secretconv-nwsrm-final.jpg", 
    "//upic.me/i/i8/secretconversationandroidscenario2.jpg", 
    "/sites/all/themes/blognone42/images/linebutton.png"
  ], 
  "Link": "https://www.blognone.com/node/83182", 
  "News": "Facebook Messenger เตรียมทดสอบโหมดเข้ารหัสปลายทางถึงปลายทาง", 
  "Tags": [
    "Facebook Messenger", 
    "Encryption", 
    "Security", 
    "Privacy", 
    "Facebook"
  ], 
  "Time": "22:16"
}