{
  "By": "mk", 
  "Contents": " หนึ่งในแอพพลิเคชันยอดฮิตที่ทำงานได้บนแทบทุกแพลตฟอร์มคือแอพเล่นมัลติมีเดีย VLC โดยแพลตฟอร์มล่าสุดที่ VLC กำลังจะเดินทางไปถึงคือแว่น HoloLens ของไมโครซอฟท์ VLC เพิ่งเปิดตัวแอพเวอร์ชัน Universal Windows Platform (UWP) เมื่อไม่นานมานี้ การปรับแต่งแอพ UWP ให้ทำงานได้ดีบน HoloLens จึงไม่ใช่เรื่องยากมากนัก และล่าสุด Thomas Nigro หนึ่งในทีมพัฒนาของ VLC ก็โพสต์วิดีโอสาธิตการทำงานบนโลก holographic ให้เราได้ดูกัน ที่มา - WinBeta   ", 
  "Date": "17/June/2016", 
  "Image-Link": [
    "https://www.blognone.com/sites/default/files/styles/thumbnail/public/topics-images/vlc.png?itok=Xsma48uL", 
    "/sites/all/themes/blognone42/images/linebutton.png"
  ], 
  "Link": "https://www.blognone.com/node/82392", 
  "News": "Run Anywhere ตัวจริง - VLC ทำงานบน HoloLens ได้แล้ว", 
  "Tags": [
    "VLC", 
    "UWP", 
    "HoloLens"
  ], 
  "Time": "19:43"
}