{
  "By": "mk", 
  "Contents": " เราเพิ่งเห็นข่าว HTC เปิดตัว One M9 Prime Camera Edition ที่โปแลนด์ แต่ปฏิบัติการซอยรุ่นย่อยยังไม่จบลงแค่นั้น เพราะยังมี HTC One M9+ Prime Camera Edition อีกรุ่นเปิดตัวที่อินเดีย (ถ้าหาความแตกต่างไม่เจอ มันมี + เพิ่มเข้ามาครับ) จุดต่างกันของสเปกมีเพียงอย่างเดียวคือหน้าจอใหญ่ขึ้นเป็น 5.2\" (รุ่นปกติ 5\") ส่วนสเปกข้างในเหมือนกันคือ MediaTek Helio X10, แรม 2GB, ความจุ 16GB, แบตเตอรี่ 2,840 mAh, กล้องเป็น 13MP เท่ากับตัว M9 Prime Camera ราคาขาย 23,990 รูปี หรือประมาณ 13,000 บาท ที่มา - GSMArena    ", 
  "Date": "31/May/2016", 
  "Image-Link": [
    "https://www.blognone.com/sites/default/files/styles/thumbnail/public/topics-images/htc.png?itok=5TBfl4iq", 
    "https://i.imgur.com/giqxA3W.jpg", 
    "/sites/all/themes/blognone42/images/linebutton.png"
  ], 
  "Link": "https://www.blognone.com/node/81629", 
  "News": "ซอยไม่มีที่สิ้นสุด HTC One M9+ Prime Camera Edition เปิดตัวในอินเดีย", 
  "Tags": [
    "HTC One", 
    "HTC", 
    "India"
  ], 
  "Time": "09:11"
}