{
  "By": "nutmos", 
  "Contents": " Adobe ได้ออกอัพเดต Lightroom for Mobile สำหรับทั้ง iOS และ Android ในรอบเดือนกรกฎาคม โดยบน iOS จะเป็นเวอร์ชัน 2.4 และบน Android จะเป็นเวอร์ชัน 2.1 ซึ่งในการอัพเดตครั้งนี้ฟีเจอร์ใหม่ที่สำคัญเพิ่มเข้ามาหลายอย่าง ได้แก่ Raw Technology Preview สำหรับ iOS: ให้ผู้ใช้นำเข้าภาพไฟล์ RAW ที่ถ่ายจากกล้องเข้ามายัง iPhone, iPad จากนั้นก็สามารถแก้ไขภาพและแชร์ได้ทันที ซึ่งการใช้ไฟล์ภาพ RAW จะช่วยให้การปรับรายละเอียดต่าง ๆ ภายในภาพดีขึ้น โดยเทคโนโลยีที่ใช้จัดการไฟล์ RAW บน Lightroom for Mobile นั้นเป็นแบบเดียวกับ Lightroom บนเดสก์ท็อป และไฟล์ RAW ที่ทำการแก้ไขจะสามารถซิงค์ไปยัง Lightroom บนอุปกรณ์อื่นได้ด้วย  Linear and Radial Selections สำหรับ iOS: สามารถแก้ไฟล์โดยใช้เครื่องมือ linear selection และ radial selection แบบบน Lightroom เวอร์ชันเดสก์ท็อปได้แล้ว ซึ่งเป็นฟีเจอร์ที่เรียกร้องกันมามากรองจากการรองรับไฟล์ RAW  โหมด Pro ของกล้องในแอพสำหรับ Android: ตัวกล้องใน Lightroom บน Android จะมีความสามารถใหม่คือโหมด Pro ซึ่งจะช่วยให้ผู้ใช้สามารถควบคุมความเร็วชัตเตอร์, ISO, สมดุลแสงขาว และการโฟกัสได้ด้วยตัวเอง  วิดเจ็ต Lightroom Camera สำหรับ Android: เมื่อกดแล้วจะสามารถเรียกใช้ตัวกล้องของแอพ Lightroom ทันที เพื่อความสะดวกและรวดเร็วในการถ่ายภาพ รองรับการส่งออกไฟล์ขนาดเต็มสำหรับ Android: ถ้า Lightroom ได้รับไฟล์เข้ามาเป็นขนาดเต็มก็จะสามารถส่งออกไฟล์เป็นขนาดเต็มได้เช่นกัน (จากเดิมจะจำกัดขนาดในการส่งออกไฟล์ไว้) ที่มา - Lightroom Journal   ", 
  "Date": "14/July/2016", 
  "Image-Link": [
    "https://www.blognone.com/sites/default/files/styles/thumbnail/public/topics-images/lightroom.png?itok=WL5UhcG8", 
    "http://i.cubeupload.com/MZ1rff.jpg", 
    "http://i.cubeupload.com/rJrkYV.jpg", 
    "http://i.cubeupload.com/c9mFKp.jpg", 
    "/sites/all/themes/blognone42/images/linebutton.png"
  ], 
  "Link": "https://www.blognone.com/node/83408", 
  "News": "Lightroom for Mobile ออกอัพเดต: รองรับ RAW บน iOS, ปรับกล้องได้ละเอียดขึ้นบน Android", 
  "Tags": [
    "Lightroom", 
    "Adobe"
  ], 
  "Time": "07:53"
}