{
  "By": "BlackMiracle", 
  "Contents": " Panasonic เปิดตัวเลนส์ไพรม์ระดับโปรตัวใหม่สำหรับกล้องระบบ Micro 4/3 โดยคราวนี้เป็นเลนส์กว้างและสว่างเป็นพิเศษ อีกทั้งยังแปะตรา Leica อีกด้วย ตัวเลนส์สามารถกันน้ำกันฝุ่นได้ในระดับหนึ่ง มันใช้ระบบโฟกัสภายในและติดตั้ง stepping motor เพื่อการทำงานที่เงียบ ภายในประกอบด้วยชิ้นเลนส์จำนวน 15 ชิ้น จัดเป็น 12 กลุ่มเลนส์ เลนส์ Panasonic Lumix G Leica DG Summilux 12mm f/1.4 มีสเปกเต็มดังนี้  ทางยาวโฟกัส 12 มม. รูรับแสงกว้างสุดที่ f/1.4 รูรับแสงแคบสุดที่ f/16 มีวงแหวนปรับรูรับแสงที่ตัวเลนส์ กลีบรูรับแสง 9 กลีบ ชิ้นเลนส์ 15 ชิ้น จัดเป็น 12 กลุ่มเลนส์ ประกอบด้วยเลนส์ aspherical 2 ชิ้น, เลนส์ ED 1 ชิ้น และเลนส์ UED สำหรับลด Chromatic Aberration จำนวน 2 ชิ้น โฟกัสใกล้สุด 20 ซม. น้ำหนัก 335 กรัม ยาว 7 ซม. ใช้ฟิลเตอร์ขนาด 62 มม. มีฮู้ดแบบกลมมาให้ในกล่อง  เปิดราคามาที่ 1,299 ดอลลาร์สหรัฐ หรือราว 46,000 บาท ยังไม่รวมภาษี สามารถสั่งซื้อล่วงหน้าได้แล้วที่ Amazon, BHPhoto และ Adorama และจะเริ่มส่งของราวกลางเดือนสิงหาคมครับ ที่มา - DPReview        ", 
  "Date": "15/June/2016", 
  "Image-Link": [
    "https://www.blognone.com/sites/default/files/styles/thumbnail/public/topics-images/panasonic.png?itok=gNWLNGOK", 
    "https://i.imgur.com/7Kapwkj.jpg", 
    "https://i.imgur.com/QTshJ3G.jpg", 
    "https://i.imgur.com/sBtylS6.jpg", 
    "https://i.imgur.com/YNSMyMk.jpg", 
    "https://i.imgur.com/IbNxbEM.jpg", 
    "/sites/all/themes/blognone42/images/linebutton.png"
  ], 
  "Link": "https://www.blognone.com/node/82285", 
  "News": "Panasonic เปิดตัวเลนส์ Leica DG Summilux 12mm f/1.4", 
  "Tags": [
    "Panasonic", 
    "Leica", 
    "Photography", 
    "Mirrorless", 
    "Camera"
  ], 
  "Time": "12:58"
}