{
  "By": "advertorial", 
  "Contents": " ในยุคที่สมาร์ทโฟนผสานเข้าเป็นส่วนหนึ่งของวิถีชีวิตที่เคลื่อนที่อย่างรวดเร็ว Samsung จึงตั้งใจสรรค์สร้างสมาร์ทโฟนที่จะช่วยให้คุณเก็บเกี่ยวทุกเรื่องราวในชีวิตไว้เป็นภาพความทรงจำที่คมชัด ด้วยเทคโนโลยีการถ่ายภาพที่ถูกถ่ายถอดพัฒนาลงสู่ผลิตภัณฑ์สมาร์ทโฟน Galaxy เสมอมา และแน่นอนว่า Samsung Galaxy S7 และ S7 egde ซึ่งใช้ระบบถ่ายภาพแบบเดียวกัน ก็ถูกสร้างขึ้นด้วยเทคโนโลยีการถ่ายภาพทั้งในด้านฮาร์ดแวร์และซอฟต์แวร์ที่รวบรวมมาเพื่อผู้ใช้อย่างเต็มที่ เปลี่ยนปัญหา noise ให้เป็นเรื่องเล็กน้อย  ปัญหาการถ่ายภาพในสภาวะแสงน้อยที่คงแทบไม่มีใครไม่เคยเจอคือเรื่อง noise ในภาพถ่าย Samsung หาทางลดปัญหานี้ด้วยการปรับขนาดรูรับแสงของกล้องทั้งด้านหน้าและด้านหลังใน Galaxy S7 และ S7 edge ให้กว้างขึ้นเป็น f/1.7 (ดีขึ้นกว่า Galaxy S6 edge ที่มีขนาดรูรับแสง f/1.9) ทำให้การถ่ายภาพในเวลาที่แสงไม่เป็นใจจึงไม่ใช่ปัญหาอีกต่อไป (และคงไม่ต้องสงสัยว่าเทียบกับกล้องที่มีขนาดรูรับแสง f/2.2 แล้วจะเป็นอย่างไร) ไม่เพียงแค่การปรับปรุงขนาดของรูรับแสงเท่านั้น สมาร์ทโฟนรุ่นล่าสุดจาก Samsung ยังมีขนาดพิกเซลของเซ็นเซอร์รับภาพที่ใหญ่กว่าเดิมเป็น 1.4 ไมโครเมตร ทำให้แต่ละพิกเซลสามารถรับแสงได้มากขึ้นในทุกสภาวการณ์ และถ้าคิดว่า Galaxy S6 ซึ่งถ่ายภาพในที่มืดได้ดีแล้ว Galaxy S7 และ S7 edge จะยิ่งเหนือกว่าขึ้นไปอีก เพราะพิกเซลขนาดใหญ่สามารถรับแสงได้มากกว่า Galaxy S6 ถึง 56%  ", 
  "Date": "4/July/2016", 
  "Image-Link": [
    "https://www.blognone.com/sites/default/files/styles/thumbnail/public/topics-images/galaxy-s7.PNG?itok=OQMRYc-k", 
    "//upic.me/i/lv/advertorial-samsunggalaxys7s7edgecamera1.jpg"
  ], 
  "Link": "https://www.blognone.com/node/82719", 
  "News": "หลากลูกเล่นกับเทคโนโนโลยีใหม่กล้อง Samsung Galaxy S7 ให้คุณถ่ายง่ายๆ ได้ภาพงามๆ", 
  "Tags": [
    "Advertorial", 
    "Samsung", 
    "Galaxy S7", 
    "Camera", 
    "Photography"
  ], 
  "Time": "16:13"
}