{
  "By": "nrad6949", 
  "Contents": " สำนักข่าว NBC ของสหรัฐอเมริกา รายงานว่า Mark Zuckerberg ได้ทำการเข้าซื้อบ้านที่อยู่รอบบ้านหลังใหม่ที่เมือง Palo Alto จำนวน 4 หลัง เป็นเงินกว่า 30 ล้านดอลลาร์สหรัฐ หลังจากที่เตรียมจะปลูกบ้านหลังใหม่มูลค่ากว่า 7 ล้านดอลลาร์สหรัฐ การซื้อบ้านดังกล่าวนี้เกิดขึ้น หลังจากที่มีคนทราบว่า Zuckerberg ได้ซื้อบ้านที่เมืองดังกล่าวในปี 2011 และมีหนึ่งในนักพัฒนาอสังหาริมทรัพย์ ระบุว่าเตรียมจะสร้างบ้านขนาดใหญ่ในที่ดินซึ่งติดกับบ้านหลังใหม่ของเขา โดยระบุว่าจะขายให้กับคนที่อยากอยู่หลังบ้านของ Zuckerberg ซึ่งทำให้เขาลงทุนซื้อบ้านรอบๆ ทั้งหมด 4 หลัง พร้อมยื่นคำขอกับทางเมืองว่าจะทุบบ้านทั้งหมดทิ้ง (รวมถึงบ้านที่เขาซื้อ) และสร้างบ้านใหม่ที่มีขนาดเล็กลง เพื่อให้ได้ความเป็นส่วนตัวมากที่สุด ด้านหนึ่งในว่าที่เพื่อนบ้านของ Zuckerberg ให้สัมภาษณ์กับสื่อท้องถิ่นโดยไม่เปิดเผยตัวตน แสดงความกังวลว่าเขาจะสร้างบ้านเพียงอย่างเดียว หรือสร้างเพื่อรับรองแขกของ Zuckerberg ด้วย ซึ่งอาจทำให้มีปัญหาด้านจราจรและความปลอดภัยตามมา ที่มา - NBC News   ", 
  "Date": "29/May/2016", 
  "Image-Link": [
    "https://www.blognone.com/sites/default/files/styles/thumbnail/public/topics-images/zuck.png?itok=kocAZM9K", 
    "/sites/all/themes/blognone42/images/linebutton.png"
  ], 
  "Link": "https://www.blognone.com/node/81564", 
  "News": "NBC เผย Zuckerberg ยอมลงทุนกว่า 30 ล้านดอลลาร์ สำหรับบ้านใหม่เพื่อให้ได้ความเป็นส่วนตัว", 
  "Tags": [
    "Mark Zuckerberg", 
    "Privacy"
  ], 
  "Time": "11:11"
}