{
  "By": "nismod", 
  "Contents": " หลังผ่านกำหนดเส้นตายวันที่ 16 พฤษภาคม ที่ธนาคารแห่งประเทศไทยบังคับให้ทุกธนาคารเปลี่ยนบัตรทีเอ็มเป็นแบบชิป ซึ่งได้สร้างความสับสนให้กับประชาชนทั่วไป ถึงการคิดค่าธรรมเนียมการเปลี่ยนบัตรและค่าธรรมเนียมรายปีแบบใหม่ของแต่ละธนาคาร โดยเฉพาะกรณีที่บางธนาคารระบุว่ายินดีเปลี่ยนให้ฟรีโดยไม่เสียค่าใช้จ่าย แต่มีเงื่อนไขและประเภทของบัตรที่ไม่มีการเปิดเผยให้กับประชาชนทั่วไปได้รับทราบ ล่าสุดธนาคารแห่งประเทศไทยได้เผยแพร่ตารางอัตราค่าธรรมเนียมในการเปลี่ยนบัตรแต่ละธนาคารในทุกๆ ประเภทบัตร โดยข้อมูลเป็นข้อมูลที่อัพเดตล่าสุด ณ วันที่ 23 พฤษภาคมครับ สามารถดาวน์โหลดหรือเข้าไปดูได้ที่นี่เลยครับ ที่มา - Bank of Thailand   ", 
  "Date": "24/May/2016", 
  "Image-Link": [
    "https://www.blognone.com/sites/default/files/styles/thumbnail/public/topics-images/bot.png?itok=GTizUwNb", 
    "/sites/all/themes/blognone42/images/linebutton.png"
  ], 
  "Link": "https://www.blognone.com/node/81347", 
  "News": "ธนาคารแห่งประเทศไทยออกตารางค่าธรรมเนียมเปลี่ยนบัตรชิปทุกธนาคาร", 
  "Tags": [
    "Bank of Thailand", 
    "Banking", 
    "Thailand"
  ], 
  "Time": "17:29"
}