{
  "By": "mk", 
  "Contents": " เดือนที่แล้วตอนออก SharePoint Server 2016 ไมโครซอฟท์ประกาศไว้ว่าจะออกแอพ SharePoint บนสมาร์ทโฟนทั้งสามระบบปฏิบัติการ วันนี้แอพ SharePoint for iOS ออกตัวจริงแล้ว คนที่องค์กรใช้งาน SharePoint สำหรับงานเอกสารภายใน ก็สามารถดาวน์โหลดแอพตัวนี้เพื่อเข้าถึงเอกสารและไฟล์จากอินทราเน็ตขององค์กรได้ทันที สามารถใช้ได้ทั้งกับ SharePoint Server 2013/2016 ที่ติดตั้งในองค์กร หรือจะเป็น SharePoint Online ที่อยู่ภายใต้ Office 365 ก็ได้เช่นกัน ไมโครซอฟท์บอกว่ากำลังพัฒนา SharePoint เวอร์ชัน Android และ UWP อยู่ โดยจะออกตามมาภายในปีนี้ ที่มา - Office Blogs    ", 
  "Date": "22/June/2016", 
  "Image-Link": [
    "https://www.blognone.com/sites/default/files/styles/thumbnail/public/topics-images/sharepoint.png?itok=hWMoVTm3", 
    "https://i.imgur.com/f59mHz3.jpg", 
    "/sites/all/themes/blognone42/images/linebutton.png"
  ], 
  "Link": "https://www.blognone.com/node/82535", 
  "News": "ไมโครซอฟท์ออกแอพ SharePoint for iOS แล้ว เวอร์ชัน Android/UWP กำลังตามมา", 
  "Tags": [
    "SharePoint", 
    "Mobile App", 
    "Microsoft", 
    "iOS", 
    "Enterprise"
  ], 
  "Time": "08:21"
}