{
  "By": "nrad6949", 
  "Contents": " เมื่อเดือนที่แล้ว Telstra บรรษัทโทรคมนาคม และ Deakin University มหาวิทยาลัยในออสเตรเลีย ประกาศเปิดตัว Haptics-enabled Robotics (HER) ที่ทั้งสององค์กรร่วมกันพัฒนาขึ้น โดยเป็นหุ่นยนต์สำหรับงานด้านอัลตร้าซาวด์ (sonographer) สำหรับการใช้วินิจฉัยโรคจากทางไกล หุ่นยนต์ดังกล่าวนี้จะสามารถทำให้แพทย์ สามารถวินิจฉัยอาการป่วยที่ปกติต้องใช้อัลตร้าซาวด์ในการตรวจหา แต่มากกว่านั้นคือมันสามารถทดสอบอาการป่วยต่างๆ ด้วยการลองกดหรือคลึงบริเวณที่แพทย์ต้องการตรวจ โดยแพทย์สามารถรู้สึกได้แบบเดียวกับการตรวจแบบเดิมที่คนไข้ต้องพบแพทย์ ทั้งหมดนี้ถูกส่งผ่านคลื่นโทรศัพท์ไร้สายแบบ 4G ได้ทันที ทำให้การเอาไปใช้งานในสถานที่ห่างไกล สามารถทำได้โดยง่าย ตัวอุปกรณ์ดังกล่าวนี้ยังเป็นต้นแบบอยู่ แต่มีการเริ่มทดลองใช้ไปบ้างแล้ว โดยยังไม่ระบุเวลาที่จะวางจำหน่ายจริง ที่มา - Telstra, Deakin University ผ่าน The Register    ", 
  "Date": "21/June/2016", 
  "Image-Link": [
    "https://www.blognone.com/sites/default/files/styles/thumbnail/public/topics-images/telstra.png?itok=WRffOUjN", 
    "https://i.imgur.com/BrRhI4S.jpg", 
    "/sites/all/themes/blognone42/images/linebutton.png"
  ], 
  "Link": "https://www.blognone.com/node/82484", 
  "News": "Telstra และ Deakin University เปิดตัวหุ่นยนต์อัลตร้าซาวด์ สำหรับการวินิจฉัยทางไกล", 
  "Tags": [
    "Health", 
    "Robotics", 
    "Telstra", 
    "Australia"
  ], 
  "Time": "08:24"
}