{
  "By": "nuntawat", 
  "Contents": " Ed Fries ซึ่งทำงานกับไมโครซอฟท์เมื่อปี 1998 และนำทีมพัฒนา Xbox และต่อมาก็ได้ลาออกในปี 2004 ได้ให้สัมภาษณ์กับเว็บไซต์ IGN เมื่อ Fries ถูกถามว่าไมโครซอฟท์เคยคิดซื้อกิจการนินเทนโดหรือไม่ เขาก็ตอบว่าเมื่อตอนมีแนวคิดทำ Xbox บริษัทได้เชิญชวนให้นินเทนโดมาเป็นคู่ค้า แต่ก็ถูกปฏิเสธ ต่อมา บิล เกตส์ ก็ได้พบกับโซนี่เพื่อเชิญเป็นคู่ค้า แต่ก็ถูกปฏิเสธเช่นกัน ส่วนการซื้อนินเทนโดนั้นเขาไม่เคยได้ยินเรื่องดังกล่าว เมื่อหาคู่ค้าไม่ได้ ไมโครซอฟท์จึงพัฒนา Xbox เอง และเปิดตัวในเดือนพฤศจิกายน 2001 ปัจจุบันนี้ Fries ตั้งสตาร์ทอัพชื่อ Finger Prints และกำลังพัฒนา World of Warcraft และ Minecraft ให้อยู่ในรูปสามมิติ ที่มา: IGN ผ่าน WinBeta   ", 
  "Date": "25/June/2016", 
  "Image-Link": [
    "https://www.blognone.com/sites/default/files/styles/thumbnail/public/topics-images/xbox.png?itok=Kznca_K_", 
    "/sites/all/themes/blognone42/images/linebutton.png"
  ], 
  "Link": "https://www.blognone.com/node/82650", 
  "News": "อดีตผู้สร้าง Xbox เผย ไมโครซอฟท์เคยเจรจานินเทนโดกับโซนี่แต่ล้มเหลว", 
  "Tags": [
    "Xbox", 
    "Microsoft", 
    "Nintendo", 
    "Sony"
  ], 
  "Time": "08:57"
}