{
  "By": "mk", 
  "Contents": " ในปี 2015 กูเกิลเคยเปิดตัวโครงการ Expeditions เทคโนโลยี VR เพื่อการศึกษา โครงการนี้เป็นการนำ Google Cardboard ไปใช้ในห้องเรียน ให้เด็กๆ สามารถไปเที่ยวชมสถานที่สำคัญของโลกได้จากแว่น VR โดยมีระบบควบคุมชั้นเรียนผ่านแท็บเล็ต ที่ผ่านมา Expeditions เป็นโครงการนำร่องของกูเกิลกับโรงเรียนบางแห่งเท่านั้น แต่ล่าสุดกูเกิลเปิดแอพ Expedition ให้ทุกคนดาวน์โหลดได้จาก Play Store แล้ว และสัญญาว่าจะออกเวอร์ชัน iOS ตามมา นอกจากนี้ กูเกิลยังจับมือกับห้าง Best Buys ออกชุดคิต Google Expeditions Kits ให้โรงเรียนที่อยากให้ VR เพื่อการศึกษา สามารถซื้อไปใช้งานได้ทันที ชุดนี้ประกอบด้วยอุปกรณ์สำหรับนักเรียน 30 คน (ใช้แว่น VR ของ Mattel), อุปกรณ์สำหรับครู, เราเตอร์ไร้สายจาก TP-Link ขายยกชุดในราคา 9,999 ดอลลาร์ ที่มา - Official Google Blog    ", 
  "Date": "28/June/2016", 
  "Image-Link": [
    "https://www.blognone.com/sites/default/files/styles/thumbnail/public/news-thumbnails/expedition.png?itok=UorH0Hfa", 
    "https://i.imgur.com/RE0xFrj.jpg", 
    "/sites/all/themes/blognone42/images/linebutton.png"
  ], 
  "Link": "https://www.blognone.com/node/82737", 
  "News": "กูเกิลเปิดให้ดาวน์โหลด Expeditions แอพ VR เพื่อการศึกษา, เตรียมออกเวอร์ชัน iOS", 
  "Tags": [
    "Google", 
    "Virtual Reality", 
    "Education"
  ], 
  "Time": "10:33"
}