{
  "By": "sunnywalker", 
  "Contents": " เมื่อวันจันทร์ 20 มิถุนายน ที่ผ่านมาเกิดเหตุการณ์คนขับรถแท็กซี่ในมาเลเซียกว่า 50 คน เข้าทำร้ายรถ Uber คันหนึ่ง ทันทีที่รับผู้โดยสารชาวอิหร่านสองคนจากสถานี KL Sentral โดยผู้โดยสารทั้งสองถูกลากลงจากรถ และหนึ่งในกลุ่มโจมตีนำหินทุ่มใส่กระจกรถแตก ลูกค้าทั้งสองคนถูกนำตัวไปรักษาที่โรงพยาบาล เจ้าหน้าที่ตำรวจระบุว่า เมื่อเหยื่อสามารถระบุตัวผู้ต้องสงสัยได้ ตำรวจจะสอบสวนทันที และไม่ปล่อยให้ผู้ที่เกี่ยวข้องลอยนวล อีกทั้งเตือนคนขับแทกซี่อื่นๆ ที่จะใช้ความรุนแรงว่าจะต้องถูกลงโทษตามกฎหมายด้วยเช่นกัน  ที่มา - Free Malaysia Today   ", 
  "Date": "24/June/2016", 
  "Image-Link": [
    "https://www.blognone.com/sites/default/files/styles/thumbnail/public/topics-images/uber_0.png?itok=6XhODw2-", 
    "http://i.imgur.com/OnVTfr4.png", 
    "/sites/all/themes/blognone42/images/linebutton.png"
  ], 
  "Link": "https://www.blognone.com/node/82619", 
  "News": "เหตุเกิดที่มาเลเซีย คนขับแท็กซี่กว่า 50 คน ทำร้ายคนขับและผู้โดยสาร Uber", 
  "Tags": [
    "Uber", 
    "Malaysia"
  ], 
  "Time": "10:38"
}