{
  "By": "nutmos", 
  "Contents": " SoundCloud ถือเป็นบริการสตรีมมิ่งที่ทำให้ผู้ใช้ได้รู้จักศิลปินใหม่ ๆ มากยิ่งขึ้น โดยให้ผู้ใช้นำเพลงมาฝาก ตอนนี้ได้เพิ่มฟีเจอร์ใหม่คือ Suggested Track หรือระบบแนะนำเพลงให้กับผู้ใช้ Suggested Track นั้นเป็นฟีเจอร์ที่ SoundCloud บอกว่าใช้ machine learning algorithm เพื่อนำเพลงหรือเสียงใหม่ ๆ มาแนะนำโดยจะดูตามเพลงที่เคยเล่นหรือเคยไลค์ไว้บน SoundCloud โดยมีวิธีเข้าถึง Suggested Track สำหรับเว็บจะมีแท็บ Discover ที่เพิ่มเข้าไปในหน้าโฮม ส่วนบนแอพจะอยู่ในการค้นหา SoundCloud บอกว่าผู้ใช้ที่เพิ่งเริ่มใช้งาน SoundCloud นั้นอาจจะไม่ได้เห็นการแนะนำเพลงที่เยอะนัก ซึ่งระบบจะคอยเรียนรู้ข้อมูลจากผู้ใช้อยู่เรื่อย ๆ โดยผู้ใช้ก็เพียงฟังหรือไลค์เพลงสักไม่กี่เพลง ระบบก็จะเริ่มแนะนำเพลงมาให้เยอะขึ้น ที่มา - SoundCloud   ", 
  "Date": "23/June/2016", 
  "Image-Link": [
    "https://www.blognone.com/sites/default/files/styles/thumbnail/public/topics-images/soundcloud.png?itok=ISwPn83T", 
    "/sites/all/themes/blognone42/images/linebutton.png"
  ], 
  "Link": "https://www.blognone.com/node/82575", 
  "News": "SoundCloud เพิ่มระบบ Suggested Track แนะนำเพลงให้ผู้ใช้", 
  "Tags": [
    "SoundCloud"
  ], 
  "Time": "11:01"
}