{
  "By": "lew", 
  "Contents": " ดร.ทักษิณ ชินวัตร เข้านั่งตำแหน่งผู้อำนวยการบริษัท Scentrics Information Security Technologies Limited ตั้งแต่ปลายเดือนพฤษภาคมปีที่แล้ว และตอนนี้บริษัทนี้กำลังหาทุนเพิ่มเติม Scentrics ระบุว่ามีเทคโนโลยีเข้ารหัสสำหรับการส่งต่อข้อความที่ปลอดภัย แต่ยังสามารถถอดรหัสได้เมื่อได้รับคำร้องขอจากเจ้าหน้าที่ โดยตอนนี้มีรายงานว่าลูกค้ารายแรกของบริษัทคือผู้ให้บริการสื่อสารรายหนึ่งในสิงคโปร์ ที่ซื้อเทคโนโลยีนี้ไปเป็นส่วนหนึ่งของโครงการ Smart Nation ของรัฐบาล บริษัทนี้ก่อตั้งมาตั้งแต่ปี 2008 โดยทำงานร่วมกับนักวิจัยจาก University College London เมื่อปี 2014 บริษัทระบุว่าได้รับสิทธิบัตรสำหรับโปรโตคอลเข้ารหัส, จัดการกุญแจเข้ารหัส, และการกระจายกุญแจเข้ารหัสที่อัตโนมัติเต็มรูปแบบ หนังสือพิมพ์ The Telegraph รายงานว่าดร.ทักษิณเข้าถือหุ้นในบริษัทนี้ด้วยและทำหน้าที่หาทุนเพิ่มเติมเพื่อให้บริษัทมีมูลค่าเกินพันล้านปอนด์ ข้อมูลจากเว็บรัฐบาลอังกฤษระบุว่าดร.ทักษิณนั่งตำแหน่งผู้บริหารบริษัทในอังกฤษเฉพาะ Scentrics ที่เดียวเท่านั้น ที่มา - The Telegraph   ", 
  "Date": "20/June/2016", 
  "Image-Link": [
    "https://www.blognone.com/sites/default/files/styles/thumbnail/public/topics-images/1280px-Flag_of_the_United_Kingdom.svg_.png?itok=uzQi5eG9", 
    "/sites/all/themes/blognone42/images/linebutton.png"
  ], 
  "Link": "https://www.blognone.com/node/82457", 
  "News": "ทักษิณเข้าบริหารสตาร์ตอัพด้านความปลอดภัยไซเบอร์ในอังกฤษ บริษัทกำลังหาทุนเพิ่ม", 
  "Tags": [
    "Thaksin Shinawatra", 
    "United Kingdom", 
    "Startup", 
    "Security"
  ], 
  "Time": "14:44"
}