{
  "By": "nismod", 
  "Contents": " ธนาคารแห่งประเทศไทย ร่วมกับกสทช. ลงนามในบันทึกข้อตกลงร่วม เพื่อศึกษาหาแนวทางร่วมกัน ในการยกระดับความปลอดภัยด้าน Cyber Security และการยืนยันตัวตนบนสมาร์ทโฟน เพื่อป้องกันการถูกสวมรอยทำธุรกรรมทางการเงิน ขณะที่การให้บริการพร้อมเพย์ ที่จะผูกกับเบอร์โทรศัพท์นั้น ทางกสทช. ระบุว่าภายในเดือนธันวาคมนี้ จะเชื่อมโยงข้อมูลลายนิ้วมือของผู้ใช้โทรศัพท์มือถือทั้งแบบรายเดือนและเติมเงินเข้ากับฐานข้อมูลเดิมที่มีอยู่ ผ่านโอเปอเรเตอร์เจ้าต่างๆ เพื่อความปลอดภัยในการใช้บริการพร้อมเพย์มากยิ่งขึ้นด้วย แต่จะไม่บังคับเหมือนการลงทะเบียนซิม ที่มา - โพสต์ทูเดย์, ผู้จัดการออนไลน์   ", 
  "Date": "22/June/2016", 
  "Image-Link": [
    "https://www.blognone.com/sites/default/files/styles/thumbnail/public/topics-images/bot.png?itok=GTizUwNb", 
    "/sites/all/themes/blognone42/images/linebutton.png"
  ], 
  "Link": "https://www.blognone.com/node/82549", 
  "News": "ธปท.- กสทช. ร่วมมือยกระดับความปลอดภัยการใช้งานพร้อมเพย์ เล็งใช้ลายนิ้วมือยืนยันตัวตน", 
  "Tags": [
    "Bank of Thailand", 
    "NBTC", 
    "Thailand", 
    "Mobile Payment", 
    "Banking"
  ], 
  "Time": "14:52"
}