{
  "By": "nismod", 
  "Contents": " วันนี้ HP ประเทศไทยเปิดตัวโน้ตบุ๊กในซีรีส์ Pavilion และ Envy ใหม่ประจำปีนี้ รวมถึงโน้ตบุ๊กระดับไฮเอนด์สุดบางที่เป็นที่พูดถึงอย่าง Spectre ที่บางเพียง 10.4 มิลลิเมตรและหนักเพียง 1.13 กิโลกรัม โดย HP ระบุว่ารุ่นที่นำเข้ามาจำหน่ายในประเทศไทยก่อนเป็นรุ่นท็อปสุดคือใช้ซีพียู Intel Core i7 ขณะที่รุ่น Core i5 จะตามเข้ามาในภายหลัง  สำหรับสเปคดูได้ในข่าวเปิดตัว โดย Spectre จะวางจำหน่ายในราคา 69,990 บาท พร้อมแถมสายอแดปเตอร์แปลง USB-C 3.1 เป็นพอร์ต USB 3.0, HDMI และ VGA            ต่อกันที่ Pavilion รุ่นใหม่ที่มีการออกแบบลวดลายภายในแบบใหม่ มาพร้อมซีพียู Intel 4 แกนไม่ระบุรุ่น จีพียู NVIDIA GTX 950/960 บนหน้าจอ IPS 2 ขนาดคือ 14 นิ้วและ 15.6 นิ้ว (มีรุ่นหน้าจอสัมผัส) ความละเอียด FHD และ 4K รองรับทั้ง HDD และ SSD ลำโพงของ B&O Play คีย์บอร์ด Backlit ราคาจำหน่ายเริ่มต้น 22,690 บาท มี 2 สีคือสีเทาและสีทอง (rose gold)    ปิดท้ายที่ Pavilion x360 รุ่นใหม่ที่มีการออกแบบลวดลายใหม่เช่นกัน มาพร้อมซีพียู Intel รุ่น บนหน้าจอ IPS ความละเอียด HD และ FHD ตัวเลือกฮาร์ดดิสก์ HDD หรือ SSD ลำโพงคู่ B&O พร้อมพอร์ต USB 3.0 สองพอร์ต, USB 2.0 หนึ่งพอร์ต รวมถึงพอร์ต HDMI และพอร์ต SD Card บาง 19.8 มิลลิเมตร หนัก 1.58 กิโลกรัม ราคาจำหน่ายเริ่มต้น 15,900 บาท      ", 
  "Date": "21/June/2016", 
  "Image-Link": [
    "https://www.blognone.com/sites/default/files/styles/thumbnail/public/topics-images/hp.png?itok=wwPRX9uc", 
    "https://c5.staticflickr.com/8/7198/27777667796_508fdb0978_z.jpg", 
    "https://c8.staticflickr.com/8/7246/27813660135_17fd7f8cc3_z.jpg", 
    "https://c5.staticflickr.com/8/7769/27777539396_7101d96c56_z.jpg", 
    "https://c6.staticflickr.com/8/7661/27736482341_df43122614_z.jpg", 
    "https://c7.staticflickr.com/8/7045/27710841342_2528c3a698_z.jpg", 
    "https://c8.staticflickr.com/8/7275/27812156015_790b6a49ee_z.jpg", 
    "https://c4.staticflickr.com/8/7448/27736401731_c63cdb9591_z.jpg", 
    "https://c7.staticflickr.com/8/7454/27779044926_cd26db19a7_z.jpg", 
    "https://c8.staticflickr.com/8/7235/27736426271_aa7ccca84a_z.jpg", 
    "https://c5.staticflickr.com/8/7059/27200128164_eb4e97829c_z.jpg", 
    "https://c1.staticflickr.com/8/7451/27710862472_61a53f819f_z.jpg", 
    "https://c5.staticflickr.com/8/7281/27533830700_604353fc5b_z.jpg", 
    "https://c2.staticflickr.com/8/7087/27736581241_e65e327a9c_z.jpg", 
    "https://c3.staticflickr.com/8/7139/27200204474_27ed63b81d_z.jpg", 
    "https://c2.staticflickr.com/8/7427/27812256065_da6b0df275_z.jpg", 
    "https://c7.staticflickr.com/8/7428/27200659094_f43134b6fd_z.jpg", 
    "https://c6.staticflickr.com/8/7387/27736625541_3e2c4a8510_z.jpg", 
    "https://c6.staticflickr.com/8/7376/27812310365_59f3f847c7_z.jpg", 
    "/sites/all/themes/blognone42/images/linebutton.png"
  ], 
  "Link": "https://www.blognone.com/node/82516", 
  "News": "HP ประเทศไทยเปิดตัว Spectre และ Pavilion รุ่นใหม่", 
  "Tags": [
    "HP", 
    "Spectre", 
    "Pavilion", 
    "Envy", 
    "Notebook"
  ], 
  "Time": "16:19"
}