{
  "By": "nismod", 
  "Contents": " หลังจากที่ Uber ขยายความร่วมมือกับ Alipay ไปทั่วโลก ล่าสุด Grab ก็ประกาศจับมือกับ Alipay เพิ่มช่องทางการจ่ายเงินบนรถแท็กซีในเอเชียตะวันออกเฉียงใต้แล้ว ถึงแม้ความร่วมมือนี้จะพุ่งเป้าไปที่กลุ่มนักท่องเที่ยวชาวจีนที่เดินทางมาเที่ยวในอาเซียนเป็นหลัก แต่ทาง TechCrunch มองว่าด้วยข้อจำกัดของ Grab ที่ให้บริการผ่านแท็กซี่ท้องถิ่น ทำให้ภาษากลายเป็นอุปสรรคสำคัญที่ทำให้ความร่วมมือครั้งนี้ ไม่ก่อให้เกิดประโยชน์ต่อ Grab อย่างมีนัยสำคัญมากนัก ตรงกันข้ามกับ Uber ที่มีการให้บริการในหลากหลายประเทศมากกว่า ทั้งนี้ผมลองดูในแอพ Grab และก็พบว่ามีตัวเลือกจ่ายเงินผ่าน Alipay เพิ่มเข้ามาแล้วเรียบร้อยครับ ที่มา - TechCrunch   ", 
  "Date": "21/June/2016", 
  "Image-Link": [
    "https://www.blognone.com/sites/default/files/styles/thumbnail/public/topics-images/grab_0.png?itok=cZumEDP8", 
    "/sites/all/themes/blognone42/images/linebutton.png"
  ], 
  "Link": "https://www.blognone.com/node/82520", 
  "News": "Grab จับมือ Alipay เพิ่มช่องทางจ่ายเงินในเอเชียตะวันออกเฉียงใต้", 
  "Tags": [
    "Grab", 
    "Alipay"
  ], 
  "Time": "18:14"
}