{
  "By": "mk", 
  "Contents": " เดือนที่แล้ว Microsoft เปิดตัว Flow บริการ Workflow อัตโนมัติ ลักษณะเดียวกับ IFTTT โดยบริการตัวนี้เริ่มจากเวอร์ชันเว็บก่อนเป็นอย่างแรก วันนี้ Microsoft Flow เวอร์ชันแอพมือถือออกเรียบร้อยแล้ว โดยออกเวอร์ชัน iOS มาก่อนใคร (App Store) และเวอร์ชัน Android กำลังจะตามมาในเร็วๆ นี้ ความสามารถของแอพสามารถควบคุม flow การทำงานได้โดยตรง และมีระแบบแจ้งเตือนเมื่อเกิดเหตุการณ์สำคัญด้วย ในประกาศของไมโครซอฟท์ไม่มีคำว่า Windows แม้แต่คำเดียว ที่มา - Microsoft Flow   ", 
  "Date": "22/June/2016", 
  "Image-Link": [
    "https://www.blognone.com/sites/default/files/styles/thumbnail/public/news-thumbnails/flow.png?itok=Ou9ESm84", 
    "/sites/all/themes/blognone42/images/linebutton.png"
  ], 
  "Link": "https://www.blognone.com/node/82555", 
  "News": "Microsoft Flow ออกแอพบน iOS แล้ว, Android กำลังมา, Windows ไม่มีแม้แต่เอ่ยถึง", 
  "Tags": [
    "Microsoft", 
    "Mobile App"
  ], 
  "Time": "18:46"
}