{
  "By": "mk", 
  "Contents": " เกม Mighty No. 9 วางจำหน่ายแล้วเมื่อวานนี้ และวันนี้ก็มีสื่อฝรั่งหลายรายออกบทความรีวิวกันมาแล้ว ผลเป็นไปตามความคาดหมายคือคะแนนไม่ดีสมกับความคาดหวังของแฟนๆ  Gamespot ให้ 5/10 จากเสียงพากย์ภาษาอังกฤษที่แย่ ออกแบบฉากไม่น่าประทับใจ รูปแบบการนำเสนอไม่สมคุณภาพ  IGN ให้ 5.6/10 โดยเป็นผลมาจากกราฟิกที่ไม่สวยงาม ปัญหาเฟรมเรท เฉลี่ยแล้วเกมห่วยกว่าเกมแอ๊คชั่น 2D ทั่วไปด้วยซ้ำ และไม่ต้องพูดถึงว่าจะไปสืบทอดตำนาน Rockman GameRadar ให้ 2.5/5 ชมโหมดการเล่นที่หลากหลาย แต่วิจารณ์เรื่องบอสไม่ฉลาด ปัญหาเสียงพากย์ ไม่สมราคาเกมที่ระดมทุนบน Kickstarter ได้เยอะขนาดนี้ อีกทั้งพัฒนาโดยผู้สร้าง Rockman EGM ให้ 7.5/10 ชมระบบ dash ของเกม แต่วิจารณ์โหมดการเล่นอื่นๆ ว่าไม่ค่อยมีประโยชน์ นอกจากนี้ยังมีปัญหาโหลดฉากนานมากจนเสียอารมณ์เวลาตายแล้วต้องการเล่นใหม่  คะแนนเฉลี่ยของ Metacritic ที่รวมจากเว็บรีวิวหลายแห่ง ให้ 56/100 ส่วนคะแนนจากผู้เล่นให้ 3.1/10  ที่มา - VG247  อีกประเด็นที่น่ากล่าวถึงคือ หลังบทสัมภาษณ์ Keiji Inafune ผู้สร้างเกมถูกเผยแพร่ออกมา (เขาให้สัมภาษณ์เป็นภาษาญี่ปุ่น) มีความผิดพลาดเรื่องการถ่ายทอดคำจนแฟนๆ เข้าใจว่า Inafune พูดคำว่า \"It's better than nothing.\" จนทำให้แฟนๆ โกรธกันมาก (ภายหลังสำนักข่าวหลายแห่งแก้ไขแล้วว่า Inafune ไม่ได้พูดคำนี้) เพื่อนร่วมวงการอย่าง Sonic the Hedgehog ออกมาทวีตล้อเลียนประโยคนี้ และได้รับเสียงตอบรับอย่างล้นหลาม Congrats on the launch, @MightyNo9! It's better than nothing. pic.twitter.com/WsXHWtAlaX — Sonic the Hedgehog (@sonic_hedgehog) June 21, 2016   ", 
  "Date": "22/June/2016", 
  "Image-Link": [
    "https://www.blognone.com/sites/default/files/styles/thumbnail/public/topics-images/mighty.jpg?itok=1HWVoXwC", 
    "https://i.imgur.com/df8GPM0.jpg", 
    "/sites/all/themes/blognone42/images/linebutton.png"
  ], 
  "Link": "https://www.blognone.com/node/82557", 
  "News": "คะแนนรีวิว Mighty No. 9 ออกมาน่าผิดหวัง ไม่สมราคาเกมที่สืบทอดตำนาน Rockman", 
  "Tags": [
    "Mighty No. 9", 
    "Games", 
    "Comcept"
  ], 
  "Time": "19:29"
}