{
  "By": "nismod", 
  "Contents": " พญ. Tsang Ju-Fen กุมารแพทย์จากโรงพยาบาล Mackay Memorial Hospital ของไต้หวันออกมาเตือนผู้ปกครองและเด็กๆ ที่มีพฤติกรรมติดการเล่นอินเทอร์เน็ต อาจทำให้เกิดอาการสมาธิสั้นและปัญหาอื่นๆ ตามมา หมอ Tsang ระบุว่าเด็กกว่า 2 ใน 3 ที่เข้ารับการรักษาในโรงพยาบาล มีปัญหาจากพฤติกรรมติดเล่นอินเทอร์เน็ต โดยผลกระทบที่เกิดส่วนใหญ่ได้แก่อาการสมาธิสั้น, มีอารมณ์แปรปรวน, ไม่เข้าสังคม, ซึมเศร้า มีพฤติกรรมก้าวร้าวใช้ความรุนแรง และอาจหนักถึงขั้นเป็นโรคออทิสซึมและจิตเภทเลยด้วยซ้ำ ซึ่งคุณหมอบอกด้วยว่า เคยเจอเคสที่มีเด็กประถมสอดท่อเข้าไปในร่างกาย (ไม่ได้ระบุว่าท่ออาหารหรือท่อของของเสีย) เพื่อที่จะไม่ต้องลุกจากหน้าจอคอมก็มี ขณะที่อาการติด คือจะต้องใช้งานอินเทอร์เน็ตอย่างน้อย 20 ชั่วโมงต่อสัปดาห์ขึ้นไป ไม่นับการใช้งานในโรงเรียนหรือเรื่องงาน และเด็กที่ติดอินเทอร์เน็ตส่วนใหญ่ มักจะมาจากครอบครัวที่พ่อแม่ก็มีพฤติกรรมลักษณะนี้เช่นเดียวกัน ที่มา - Taipei Times  ภาพจาก Pixabay   ", 
  "Date": "20/June/2016", 
  "Image-Link": [
    "https://www.blognone.com/sites/default/files/styles/thumbnail/public/topics-images/internet.png?itok=AUrTaUgF", 
    "https://c5.staticflickr.com/8/7305/27760389716_d87ca8129d_z.jpg", 
    "/sites/all/themes/blognone42/images/linebutton.png"
  ], 
  "Link": "https://www.blognone.com/node/82472", 
  "News": "กุมารแพทย์เตือน พฤติกรรมติดเล่นอินเทอร์เน็ตอาจทำให้เด็กสมาธิสั้นและอารมณ์แปรปรวน", 
  "Tags": [
    "Internet", 
    "Health"
  ], 
  "Time": "21:18"
}