{
  "By": "trinakub", 
  "Contents": " ในเทศกาล Steam Summer Sale ที่กำลังเกิดขึ้นตอนนี้ มีเกม Counter Strike: Global Offensive รวมอยู่ในนั้นด้วย สามารถซื้อในราคาเพียง 50% แต่ว่ากลับไม่สามารถซื้อเป็นของขวัญได้ เพราะว่าทาง Valve ปิดกั้นระบบการซื้อแบบของขวัญไว้สำหรับเกมนี้โดยเฉพาะ Ido Magal หนึ่งในทีมงานของ Valve อธิบายถึงการกระทำครั้งนี้ว่า จุดประสงค์ของการลดราคาครั้งนี้คือการทำให้ชุมชนของเกม CS:GO เติบโต ซึ่งตามปกติแล้วคนที่มาซื้อเกมในช่วงลดราคาจะเป็นผู้เล่นเก่าล้วน ๆ ดังนั้นจึงถือว่าผิดจุดประสงค์หลักของการ Sale และได้ทำการปิดระบบซื้อเกมเป็นของขวัญออกเฉพาะเกมนี้ ถือว่าเป็นการป้องกันผู้ที่ต้องการแสวงหาประโยชน์จากช่วงลดราคาเพื่อเก็งกำไรได้ดีในระดับหนึ่ง เพราะว่าทุก ๆ ปี มักจะมีผู้ที่มาซื้อเกมกักตุนในช่วงลดราคานี้เสมอ และนำมาขายหลังจากที่การลดราคาสิ้นสุดลง ที่มา - Polygon   ", 
  "Date": "25/June/2016", 
  "Image-Link": [
    "https://www.blognone.com/sites/default/files/styles/thumbnail/public/news-thumbnails/CSGO%20Logo.jpg?itok=ydnbylty", 
    "/sites/all/themes/blognone42/images/linebutton.png"
  ], 
  "Link": "https://www.blognone.com/node/82670", 
  "News": "CS:GO ไม่สามารถซื้อเป็นของขวัญได้ในช่วง Steam Summer Sale", 
  "Tags": [
    "Counter-Strike", 
    "Steam", 
    "Games", 
    "Valve"
  ], 
  "Time": "21:51"
}