{
  "By": "mk", 
  "Contents": " Krungsri RISE โครงการบ่มเพาะสตาร์ตอัพสาย FinTech ที่ Blognone เคยรายงานข่าวไป ประกาศรายชื่อทีมที่ผ่านเข้ารอบแล้ว โดยขยายเพิ่มจากที่ประกาศไว้ตอนแรก 10 ทีมเป็น 15 ทีม หลายทีมที่เข้ารอบก็เป็นทีมค่อนข้างมีชื่ออยู่แล้ว เช่น Piggipo ที่ผ่านเข้ารอบสุดท้าย dtac Accelerate Batch 2 หรือ Pay Social บริษัทในเครือ efrastructure ของคุณภาวุธ พงษ์วิทยภานุ ส่วนทีมอย่าง iTAX, Meefund, Satangdee ก็ออกงานสตาร์ตอัพอยู่เรื่อยๆ และเป็นที่รู้จักในวงการ ขั้นต่อไปคือทั้ง 15 ทีมจะต้องเข้าแคมป์บ่มเพาะแบบเข้มข้นนาน 8 สัปดาห์ ที่มา - Rise Academy    ", 
  "Date": "26/June/2016", 
  "Image-Link": [
    "https://www.blognone.com/sites/default/files/styles/thumbnail/public/news-thumbnails/rise_0.jpg?itok=2Cpk1fbu", 
    "https://i.imgur.com/nG9eQfI.jpg", 
    "/sites/all/themes/blognone42/images/linebutton.png"
  ], 
  "Link": "https://www.blognone.com/node/82686", 
  "News": "Krungsri RISE โครงการบ่มเพาะสตาร์ตอัพ FinTech เผยชื่อ 15 ทีมที่เข้ารอบ", 
  "Tags": [
    "Krungsri Bank", 
    "FinTech", 
    "Accelerator", 
    "Startup"
  ], 
  "Time": "23:09"
}