{
  "By": "mk", 
  "Contents": " ไม่รู้ว่าเกี่ยวข้องอะไรกับข่าว Civilization V เตรียมบุกภาคการศึกษาด้วย CivilizationEDU หรือเปล่า แต่เทศกาลลดราคาบน Steam ช่วงนี้ นำเกม Civilization V มาลดราคาเยอะพอสมควร  ตัวเกมหลัก Civilization V ลด 75% จาก 559 บาท เหลือ 139.75 บาท บันเดิล Civilization V: Complete รวม DLC และภาคเสริมทั้งหมด ลดถึง 92% จาก 3,214 บาท เหลือ 265.15 บาท บันเดิล Civilization Anthology รวมเกมภาคหลักตั้งแต่ภาค III จนถึง Beyond Earth ลด 74% เหลือ 784.89 บาท  ถือเป็นโอกาสอันดีสำหรับคนที่ยังไม่เคยมีเกมซีรีส์นี้ และอยากจับจองเป็นเจ้าของในราคาถูกพิเศษครับ (กรณีที่มีบางเกมอยู่แล้ว ราคาบันเดิลอาจลดลงมาได้ถูกกว่านี้อีก)    ", 
  "Date": "27/June/2016", 
  "Image-Link": [
    "https://www.blognone.com/sites/default/files/styles/thumbnail/public/topics-images/civ6.jpg?itok=wk1NSlRU", 
    "https://i.imgur.com/G2jqHE0.png", 
    "/sites/all/themes/blognone42/images/linebutton.png"
  ], 
  "Link": "https://www.blognone.com/node/82728", 
  "News": "Steam ลดราคา Civilization V สูงถึง 92%, ภาคหลักเหลือเพียง 140 บาท", 
  "Tags": [
    "Civilization", 
    "Games", 
    "Steam"
  ], 
  "Time": "23:56"
}