{
  "By": "mk", 
  "Contents": " บริษัท Gartner ออกรายงานยอดขายสมาร์ทโฟนประจำไตรมาส 1/2016 สภาพตลาดรวมโตขึ้นจากปีก่อนเล็กน้อย 3.9% จากปัจจัยสมาร์ทโฟนราคาถูกในประเทศกำลังพัฒนา และมือถือ 4G ราคาไม่แพงที่ทำตลาดโดยโอเปอเรเตอร์ ในแง่ส่วนแบ่งตลาดตามระบบปฏิบัติการ ไตรมาสนี้ถือเป็นไตรมาสแรกที่ Windows/Windows Phone มีส่วนแบ่งเพียง 0.7% น้อยกว่าเลขหลักเดียวแล้ว (ไตรมาสก่อนมีส่วนแบ่ง 1.1%) ถ้านับเป็นยอดขายคือ 2.39 ล้านเครื่องต่อไตรมาสเท่านั้น เทียบกับไตรมาสเดียวกันของปีที่แล้ว Windows Phone ขายได้ 8.27 ล้านเครื่อง มีส่วนแบ่ง 2.5% ฝั่ง iOS ก็ตกลงทั้งยอดขายและส่วนแบ่งตลาด โดยยอดขายลดจาก 60 ล้านเครื่องต่อไตรมาสมาเหลือ 51 ล้านเครื่อง และส่วนแบ่งตลาดลดจาก 17.9% มาเหลือ 14.8% ในขณะที่ Android ยังเดินหน้าเติบโตต่อไป ส่วนแบ่งตลาดแตะหลัก 84.1% แล้ว ถ้าแยกยอดขายตามแบรนด์ ซัมซุงยังครองแชมป์ด้วยยอดขายไล่เลี่ยกับปีก่อน (81 ล้านเครื่องต่อไตรมาส) แต่ส่วนแบ่งตลาดลดลงจาก 24.1% เหลือ 23.2%, แอปเปิลตามมาเป็นอันดับสอง จุดที่น่าสนใจคืออันดับสาม Huawei และอันดับสี่ Oppo มาแรงขึ้นเรื่อยๆ โดยเฉพาะ Oppo ที่เติบโต 145% แซงหน้า Xiaomi ขึ้นมาเป็นอันดับสี่ ในขณะที่ Lenovo หลุดชาร์ท Top 5 ไปเรียบร้อยแล้ว (Motorola ยังไม่ช่วยอะไร) ที่มา - Gartner      ", 
  "Date": "21/May/2016", 
  "Image-Link": [
    "https://www.blognone.com/sites/default/files/styles/thumbnail/public/topics-images/gartner.png?itok=1dOK73II", 
    "https://i.imgur.com/xJ7BFPe.jpg", 
    "https://i.imgur.com/FDl2utq.png", 
    "https://i.imgur.com/R2tysF2.png", 
    "/sites/all/themes/blognone42/images/linebutton.png"
  ], 
  "Link": "https://www.blognone.com/node/81240", 
  "News": "[Gartner] ยอดขายสมาร์ทโฟนไตรมาส 1/2016 - Windows เหลือน้อยกว่า 1% แล้ว", 
  "Tags": [
    "Gartner", 
    "Market Share", 
    "Smartphone", 
    "Windows Phone"
  ], 
  "Time": "07:52"
}