{
  "By": "sunnywalker", 
  "Contents": " สภามลรัฐ New York ประกาศเพิ่มโทษผู้ค้ากำไรเกินควร ที่ใช้ Bot ซื้อตั๋วคอนเสิร์ตและตั๋วชมการแสดง กีฬาต่างๆ มากักตุนเพื่อขายต่อในราคาแพง จะต้องโทษคดีอาญาจากที่ก่อนหน้านี้การกระทำดังกล่าวผิดกฎหมายคดีแพ่งเท่านั้น ชาว New York ประสบปัญหาซื้อตั๋วไม่ทันเพราะโดนแย่งซื้อเพื่อขายต่อในราคาสูงกว่ามานานแล้ว ปัจจุบันเทคโนโลยี bot พัฒนาขึ้น สามารถกวาดซื้อตั๋วที่นั่งดีๆ ได้อย่างรวดเร็ว เช่น ในปี 2012 มีการใช้ bot กว้านซื้อตั๋วคอนเสิร์ต U2 ที่ Madison Square ถึง  1,012 ที่นั่ง โดยใช้เวลาไม่ถึง 1 นาที อย่างไรก็ตาม การเพิ่มโทษเป็นคดีอาญา อยู่ในคดีอาญาลหุโทษหรือเป็นประเภทคดีอาญาไม่ร้ายแรง กฎหมายนี้ไม่เพียง bot เท่านั้นที่โดนเพ่งเล็งแต่ยังรวมถึงคนวงในอีเวนท์นั้นๆ ศิลปิน แม้กระทั่งตัวแทนขาย ที่มักจองตั๋วทีละมากๆให้พรรคพวกตัวเอง  ภาพจาก press release สภาฯ New York ที่มา - Engadget   ", 
  "Date": "21/June/2016", 
  "Image-Link": [
    "https://www.blognone.com/sites/default/files/styles/thumbnail/public/topics-images/Flag_of_the_United_States.svg_.png?itok=D_Hwf4EE", 
    "http://i.imgur.com/Lp0G4yv.png", 
    "/sites/all/themes/blognone42/images/linebutton.png"
  ], 
  "Link": "https://www.blognone.com/node/82511", 
  "News": "New York เพิ่มโทษใช้ Bot ซื้อตั๋วชมการแสดง จากคดีแพ่งเป็นคดีอาญา ", 
  "Tags": [
    "New York", 
    "Law", 
    "Ticket Service", 
    "Robotics", 
    "USA"
  ], 
  "Time": "14:18"
}