{
  "By": "trinakub", 
  "Contents": " มีเกมน่าสนใจลงเครื่อง PS Vita อีกแล้ว คือเกม Laser Disco Defenders เกม Side-scrolling ซึ่งมีจุดเด่นที่กระสุนทุกนัดที่เราหรือศัตรูยิงไปจะไม่มีวันหายไปจากด่าน และจะชิ่งไปมาเรื่อย ๆ ไม่มีวันหยุดจนกว่าเราจะเคลียร์ด่านนั้นได้ Laser Disco Defenders เป็นเกมที่เรียบง่ายแนวตะลุยด่าน กำจัดศัตรูไปเรื่อย ๆ แต่กระสุนที่นัดที่ผู้เล่นยิงไปอาจจะย้อนกลับมาทำร้ายตัวเองได้ เป็นเกมที่ต้องใช้ความระมัดระวังในการเล่นสูง การยิงแต่ละนัดจะต้องกะระยะให้ดี และมองหาเส้นทางหลบหลีกไว้ล่วงหน้า กราฟิกของตัวเกมจะออกแนว Sci-fi ในยุค 70 ผสมกับความเป็น Disco และเมื่อเล่นไปซักระยะหนึ่งผู้เล่นจะสามารถปรับแต่งชุดของตัวเองให้ดูเก๋ไก๋ขึ้นได้ เกม Laser Disco Defenders มีกำหนดการวางจำหน่ายปลายเดือนกรกฎาคมปีนี้ ที่มา – Siliconera   ", 
  "Date": "4/July/2016", 
  "Image-Link": [
    "https://www.blognone.com/sites/default/files/styles/thumbnail/public/news-thumbnails/Laser%20Disco%20Defenders%20Logo.png?itok=IQwBz6af", 
    "/sites/all/themes/blognone42/images/linebutton.png"
  ], 
  "Link": "https://www.blognone.com/node/82955", 
  "News": "เกม Laser Disco Defenders เกมยิงที่กระสุนไม่มีวันหายไปจากด่าน ลง PS Vita", 
  "Tags": [
    "PlayStation Vita", 
    "Games"
  ], 
  "Time": "01:12"
}