{
  "By": "nutmos", 
  "Contents": " Microsoft ได้ซื้อกิจการใหม่อีกแห่งหนึ่ง โดยรอบนี้เป็นการซื้อกิจการ Wand Labs ซึ่งเป็นบริษัทที่เกี่ยวกับภาษาธรรมชาติและปัญญาประดิษฐ์ Wand Labs นั้นเป็นบริษัทสตาร์ทอัพ สร้างโดย Vishal Sharma ในปี 2013 มีผลงานคือแอพสำหรับส่งข้อความ ซึ่งมีเทคโนโลยีเบื้องหลังทำให้มันทำงานได้ฉลาดขึ้น ดีลนี้เป็นส่วนหนึ่งของการสร้างการสนทนาเป็นแพลตฟอร์ม \"conversation as a platform\" และทีมงานของ Wand Labs นี้จะเข้ามาทำงานกับทีมงาน​ Bing เพื่อทำงานด้าน intelligent agents และ chat bot David Ku จาก Information Platform Group ของ Microsoft กล่าวว่า เทคโนโลยีและความสามารถของคนจาก Wand Labs จะช่วยให้ตำแหน่งของเราในยุคเริ่มต้นของ conversational intelligence นั้นแข็งแกร่งขึ้น หลังจากซื้อ Wand Labs เรียบร้อยแล้ว ตอนนี้ทางบริษัทก็ได้ลบแอพออกจาก App Store และ Google Play เป็นที่เรียบร้อย ที่มา - TechCrunch    ", 
  "Date": "16/June/2016", 
  "Image-Link": [
    "https://www.blognone.com/sites/default/files/styles/thumbnail/public/topics-images/MSFT_logo_rgb_C-Gray.png?itok=j3hJhqua", 
    "http://i.cubeupload.com/iRdFMJ.jpg", 
    "/sites/all/themes/blognone42/images/linebutton.png"
  ], 
  "Link": "https://www.blognone.com/node/82349", 
  "News": "Microsoft ซื้อ Wand Labs บริษัทพัฒนาเทคโนโลยีภาษาธรรมชาติและปัญญาประดิษฐ์", 
  "Tags": [
    "Microsoft", 
    "Acquisition", 
    "Artificial Intelligence", 
    "Natural Language"
  ], 
  "Time": "22:33"
}