{
  "By": "nismod", 
  "Contents": " หลัง AIS เปิดให้บริการ VoLTE ไปเมื่อปลายเดือนมีนาคม ล่าสุดก้ได้เปิดตัวสมาร์ทโฟนราคาย่อมเยาของตัวเองที่รองรับเทคโนโลยี VoLTE นี้แล้ว โดยมีทั้งหมด 3 รุ่นดังนี้  LAVA 4G VoLTE 4.0 (Iris 560) ราคา 1,990 บาท ฟรีค่าโทรและเน็ต รวม 1,950 บาท (โทรฟรี 180 บาทต่อเดือน นาน 10 เดือน เน็ตฟรี 100 MB ต่อเดือน มูลค่า 150 บาท นาน 10 เดือน)  LAVA 4G VoLTE 4.5 (Iris 755) ราคา 2,990 บาท ฟรีค่าโทรและเน็ต รวม 3,000 บาท (โทรฟรี 270 บาทต่อเดือน นาน 10 เดือน เน็ตฟรี 200 MB ต่อเดือน มูลค่า 300 บาท นาน 10 เดือน) LAVA 4G VoLTE 5.0 (Iris 870) ราคา 3,590 บาท ฟรีค่าโทรและเน็ต รวม 3,650 บาท (โทรฟรี 320 บาทต่อเดือน นาน 10 เดือน เน็ตฟรี 300 MB ต่อเดือน มูลค่า 450 บาท นาน 10 เดือน)  โดยลูกค้าเอไอเอสและวันทูคอล สามารถกดรับสิทธิ์ภายใน 30 วัน นับตั้งแต่วันที่ซื้อเครื่อง และจะได้รับโบนัสโทรฟรี เน็ตฟรี เมื่อเติมเงินสะสมครบ 100 บาท ต่อเดือน ที่มา - อีเมลประชาสัมพันธ์  เอไอเอส เปิดตัว สมาร์ทโฟน 4G ที่ใครก็เป็นเจ้าของได้ พร้อม เทคโนโลยี 4G VoLTE ขยายประโยชน์ 4G สู่ MASS ทั่วประเทศ (9 พฤษภาคม 2559) “เอไอเอส” ผู้นำตัวจริงด้านเครือข่ายดิจิทัลของประเทศ คุณภาพอันดับ 1 พร้อม 4G ครอบคลุม 77 จังหวัด ทั่วไทย เปิดตัว “LAVA 4G VoLTE” 3 รุ่น สมาร์ทโฟน 4G ที่ใครก็เป็นเจ้าของได้ พร้อมเทคโนโลยีล้ำหน้า 4G VoLTE ที่ให้คุณภาพเสียงคมชัดระดับ HD ลดเสียงรบกวน และโทรติดเร็ว ขยายประโยชน์สู่ประชาชนทั่วประเทศ ในราคาเริ่มต้นที่ 1,990 บาท พร้อมข้อเสนอพิเศษ! ฟรีค่าโทรและเน็ต เท่าค่าเครื่อง VoLTE (Voice over LTE) ที่เป็นเทคโนโลยีที่ทันสมัยล่าสุดระดับโลกบนเครือข่าย 4G และ 4.5G ที่ให้ประสบการณ์การโทรด้วยเสียง (Voice) บนเครือข่าย 4G ที่เหนือกว่า จนผู้ใช้งานสามารถสัมผัสได้ถึงความแตกต่างจากสมาร์ทโฟนทั่วไป ประกอบด้วย - คุณภาพเสียงคมชัดระดับ HD - ลดทอนเสียงรบกวน - โทรติดได้รวดเร็วทันที นายฐิติพงศ์ เขียวไพศาล ผู้ช่วยกรรมการผู้อำนวยการอาวุโส สายงานการตลาดและการขาย เอไอเอส เปิดเผยว่า “ด้วยปณิธานของเอไอเอสที่มุ่งมั่นตั้งใจส่งมอบบริการที่ดีที่สุดในทุกๆ ด้าน ให้ลูกค้าและคนไทยได้ใช้ชีวิตที่มากกว่าเสมอ โดยในด้าน Network เอไอเอสได้มุ่งมั่นพัฒนาเครือข่ายทั้ง Mobile และ Fixed อย่างต่อเนื่อง ทำให้วันนี้ เรายังครองความเป็นผู้นำตัวจริงด้าน เครือข่ายดิจิทัลของประเทศ ทั้ง 3G, 4G, 4.5G และ WiFi โดยเฉพาะเครือข่าย 4G ที่ครอบคลุม ครบทั้ง 77 จังหวัด ทั่วไทย โดยใช้เวลาในการขยายเครือข่ายเร็วที่สุดเท่าที่เคยมีมา และยังคงพัฒนาต่อเนื่องอย่างไม่หยุดนิ่ง เมื่อวันนี้ ที่เครือข่าย AIS 4G มีความพร้อม  คนไทยทั่วประเทศพร้อมได้สัมผัสและใช้ประโยชน์เทคโนโลยี 4G อย่างทั่วถึง ด้วยการสรรหา นวัตกรรมสมาร์ทโฟนที่รองรับการ ใช้งานบนเครือข่าย 4G ทั้ง Voice และ DATA ได้อย่างเต็มประสิทธิภาพ ครบครันด้วยฟังก์ชั่นทันสมัย คุณภาพดี ราคาคุ้มค่าที่สุด ที่ใครก็เป็นเจ้าของได้” ทั้งนี้ ลูกค้าที่ซื้อมือถือ LAVA 4G VoLTE สามารถใช้งาน VoLTE ได้โดยอัตโนมัติ โดยไม่ต้องกดสมัคร (ซึ่งจะสามารถใช้บริการ VoLTE ได้ในวันรุ่งขึ้น) แต่หากต้องการใช้งาน VoLTE อย่างรวดเร็ว สามารถกด *412*1# โทรออก โดยการโทรบน VoLTE จะคิดค่าบริการเหมือนการโทรปกติ ตามแพ็กเกจที่ลูกค้าใช้บริการ โดยไม่คิดค่าบริการดาต้าหรืออินเทอร์เน็ต 4G แต่อย่างใด Lava 4G VoLTE - LAVA 4G VoLTE 560 ราคา 1,990 บาท พร้อมฟรี! ค่าโทรและเน็ต รวมมูลค่า 1,950 บาท (โทรฟรี 180 บาทต่อเดือน นาน 10 เดือน เน็ตฟรี 100 MB ต่อเดือน (มูลค่า 150 บาท) นาน 10 เดือน) - LAVA 4G VoLTE 755 ราคา 2,990 บาท พร้อมฟรี! ค่าโทรและเน็ต รวมมูลค่า 3,000 บาท (โทรฟรี 270 บาทต่อเดือน นาน 10 เดือน เน็ตฟรี 200 MB ต่อเดือน (มูลค่า 300 บาท) นาน 10 เดือน) - LAVA 4G VoLTE 870 ราคาเพียง 3,590 บาท พร้อมฟรี! ค่าโทรและเน็ต รวมมูลค่า 3,650 บาท (โทรฟรี 320 บาทต่อเดือน นาน 10 เดือน เน็ตฟรี 300 MB ต่อเดือน (มูลค่า 450 บาท) นาน 10 เดือน) ทั้งนี้ ลูกค้าเอไอเอส วัน-ทู-คอล! สามารถกดรับสิทธิ์ภายใน 30 วัน นับตั้งแต่วันที่ซื้อเครื่อง จะได้รับโบนัสโทรฟรี เน็ตฟรี เมื่อเติมเงินสะสมครบ 100 บาท ต่อเดือน รายละเอียดเพิ่มเติมได้ที่ www.ais.co.th/supercombo   ", 
  "Date": "9/May/2016", 
  "Image-Link": [
    "https://www.blognone.com/sites/default/files/styles/thumbnail/public/topics-images/ais.png?itok=v9BMgBcj", 
    "https://farm8.staticflickr.com/7406/26841621991_50f25f6a3b_z.jpg", 
    "/sites/all/themes/blognone42/images/linebutton.png"
  ], 
  "Link": "https://www.blognone.com/node/80758", 
  "News": "AIS เปิดตัว Lava 4G VoLTE 3 รุ่นใหม่ รองรับการโทรผ่าน 4G ราคาเริ่มต้น 1,990 บาท", 
  "Tags": [
    "AIS", 
    "Lava", 
    "Mobile"
  ], 
  "Time": "16:38"
}