{
  "By": "ตะโร่งโต้ง", 
  "Contents": " ในปีที่ผ่านมานอกเหนือจากสมาร์ทโฟนเรือธงอย่าง G5 แล้ว LG ได้เปิดตัวสมาร์ทโฟนตระกูล X เป็นสมาร์ทโฟนระดับกลางที่มี 2 รุ่น คือ X Cam สมาร์ทโฟนกล้องคู่ และ X Screen สมาร์ทโฟนที่มีจอที่ 2 ขนาดเล็กเพิ่มขึ้นมา และล่าสุด LG ได้ร่วมมือกับ Marvel เตรียมออกสมาร์ทโฟนบรรดา X ในรูปแบบธีม X-Men ซึ่งนอกจากจะมีทั้ง X Cam และ X Screen ที่จะออกแบบพิเศษมาให้ชมแล้ว ยังมีสมาร์ทโฟนรุ่นน้องที่เตรียมเปิดตัวอีก 4 รุ่นในธีม X-Men นี้ด้วย สมาร์ทโฟนรุ่นใหม่ของ LG ที่ว่านี้ได้แก่ X Power, X Style, X Max และ X Mach ซึ่งยังไม่มีการเปิดเผยข้อมูลสเป็กที่แน่ชัดออกมา แต่จากภาพโปรโมตที่ LG ปล่อยออกมาล่วงหน้าด้วยการหยิบยกเอาตัวละคร X-Men มาจับคู่กับสมาร์ทโฟนแต่ละรุ่น พร้อมคำโปรยสั้นๆ ซึ่งก็อาจจะพอเดาคุณสมบัติเด่นของสมาร์ทโฟน 4 รุ่นใหม่ได้ ดังนี้  X Power - Professor X: Long Lasting Power พลังที่คงทนจากแบตเตอรี่สุดอึด X Style - Mystique: Fabulous Flawless Looks โฉมไฉไลไร้มลทินกับรูปลักษณ์เพรียวบางขนาดกะทัดรัด X Max - Beast: Big Beauty ความงามอันโอฬาร กับขนาดจอที่ใหญ่สุดในบรรดาสมาร์ทโฟนตระกูล X X Mach - Quicksilver: Extreme Super Speed โคตรแห่งความเร็วจากหน่วยประมวลที่สุดแรง  ส่วนสมาร์ทโฟน 2 รุ่นที่เปิดตัวไปก่อนหน้านี้ ถูกจับคู่กับ X-Men ดังนี้  X Cam - Cyclops: Extra Ordinary Vision มุมมองที่เหนือล้ำ จากกล้องหลังคู่ 13+5 ล้านพิกเซล พร้อมกล้องหน้า 8 ล้านพิกเซล X Screen - Nightcrawler: Agile and Swift คล่องแคล่วและปราดเปรียว ด้วย 2 หน้าจอที่สามารถสลับไปมาใช้งานได้ง่าย และฟีเจอร์การแสดงผลตลอดเวลาของจอที่ 2 ก็เปรียบได้กับดวงตาที่มองเห็นได้แม้ยามราตรีของ Nightcrawler  โฆษกของ LG บอกแค่เพียงว่าจะมีการเปิดตัวสมาร์ทโฟน X-Men ทั้ง 6 รุ่นเร็วๆ นี้ โดยไม่ยอมให้ข้อมูลเพิ่มเติมอื่นใดอีก ที่มา - ZDNet    ", 
  "Date": "4/June/2016", 
  "Image-Link": [
    "https://www.blognone.com/sites/default/files/styles/thumbnail/public/topics-images/lg.png?itok=fjh-dS4q", 
    "//upic.me/i/7m/lg-xserieswithx-mentheme1.jpg", 
    "/sites/all/themes/blognone42/images/linebutton.png"
  ], 
  "Link": "https://www.blognone.com/node/81840", 
  "News": "LG เตรียมเปิดตัวสมาร์ทโฟนตระกูล X รุ่นออกแบบใหม่ในธีม X-Men, แถมจ่อเปิดตัว 4 รุ่นใหม่", 
  "Tags": [
    "LG", 
    "Mobile", 
    "Marvel"
  ], 
  "Time": "01:53"
}