{
  "By": "mk", 
  "Contents": " ประกาศสำคัญในงาน Google I/O 2016 คือ Daydream แพลตฟอร์ม VR ของกูเกิล ซึ่งอาจถือว่ามาช้าไปหน่อยเมื่อเทียบกับคู่แข่งทั้ง Oculus/Gear VR และ  Vive/SteamVR อย่างไรก็ตาม รอบนี้ดูท่ากูเกิลเตรียมตัวมาค่อนข้างดี เพราะผู้ผลิตเอนจินเกมชื่อดังทั้ง Unreal Engine และ Unity ก็ประกาศซัพพอร์ต Daydream แล้ว ฝั่งของ Unreal มีผลงานออกมาโชว์แล้ว ถึงขนาดมีเดโมที่ใช้งานร่วมกับคอนโทรลเลอร์แบบรีโมทของ Daydream ด้วย ตัวฟีเจอร์ของ Daydream จะถูกผนวกเข้ามาใน Unreal Engine 4.12 ที่จะออกวันที่ 1 มิถุนายนนี้ ส่วน Unity ยังไม่มีของมาโชว์ แต่ซีอีโอ John Riccitiello ก็ขึ้นเวทีงาน Google I/O และประกาศว่า Unity จะรองรับ Daydream ในเร็วๆ นี้เช่นกัน ที่มา - Unreal Blog, TechCrunch   ", 
  "Date": "20/May/2016", 
  "Image-Link": [
    "https://www.blognone.com/sites/default/files/styles/thumbnail/public/topics-images/daydream.png?itok=4FpCOa7K", 
    "/sites/all/themes/blognone42/images/linebutton.png"
  ], 
  "Link": "https://www.blognone.com/node/81225", 
  "News": "Unreal Engine และ Unity ประกาศรองรับ Daydream แพลตฟอร์ม VR ของกูเกิลแล้ว", 
  "Tags": [
    "Daydream", 
    "Virtual Reality", 
    "Google", 
    "Unreal", 
    "Unity3D", 
    "Game Engine"
  ], 
  "Time": "10:29"
}