{
  "By": "mk", 
  "Contents": " และแล้ว Qualcomm ก็ได้ฤกษ์เปิดตัว Snapdragon 821 ภาคต่อของ Snapdragon 820 ที่ครองตลาดเรือธงมาตลอดปีนี้ โดยยังอิงอยู่บนเทคโนโลยีรุ่นเดียวกัน แต่มีประสิทธิภาพที่ดีกว่าเดิมราว 10% โดยรันที่คล็อค 2.4GHz แต่ยังไม่เปิดเผยอะไรมากกว่านี้ Qualcomm ระบุว่า Snapdragon 821 ไม่ได้มาแทน 820 แต่จะกลายมาเป็น SoC รุ่นที่ท็อปกว่าเดิม สินค้าที่ใช้ 821 จะออกวางขายในช่วงครึ่งหลังของปี 2016 นี้ ที่มา - Qualcomm    ", 
  "Date": "11/July/2016", 
  "Image-Link": [
    "https://www.blognone.com/sites/default/files/styles/thumbnail/public/topics-images/qualcomm.png?itok=94mCHWcT", 
    "https://i.imgur.com/Ldp4Rlz.jpg", 
    "/sites/all/themes/blognone42/images/linebutton.png"
  ], 
  "Link": "https://www.blognone.com/node/83288", 
  "News": "Qualcomm เปิดตัว Snapdragon 821 ประสิทธิภาพดีกว่าเดิม 10%", 
  "Tags": [
    "Snapdragon", 
    "Qualcomm", 
    "SoC", 
    "Processor"
  ], 
  "Time": "22:35"
}