{
  "By": "nismod", 
  "Contents": " Avis ผู้ให้บริการเช่ารถยนต์เปิดตัวแอพ Avis Now สำหรับการจัดการรถยนต์เช่าทั้งการจอง การเปลี่ยนรถ เพิ่มระยะเวลาเช่า รวมถึงการแจ้งว่ากำลังนำรถยนต์ไปคืน โดยผู้ใช้จะต้องเป็นสมาชิก Avis Preferred เสียก่อน แอพ Avis Now นอกจากการจัดการรถเช่า ตัวแอพยังเชื่อมต่อกับรถยนต์ที่เช่า ทำให้ผู้ใช้สามารถตรวจสอบปริมาณน้ำมันที่ใช้ ระยะทางที่ขับ รวมถึงสามารถล็อก ปลดล็อกหรือสั่งให้รถกะพริบไฟในกรณีที่หารถไม่เจอได้ด้วยเช่นกัน Avis Now เปิดให้ดาวน์โหลดทั้งบน iOS และแอนดรอยด์ โดยเบื้องต้นเปิดให้ใช้งานได้กับจุดบริการกว่า 50 แห่งในสหรัฐ ก่อนที่จะขยายไปยังพื้นที่และประเทศอื่นต่อไป ที่มา - Engadget   ", 
  "Date": "13/July/2016", 
  "Image-Link": [
    "https://www.blognone.com/sites/default/files/styles/thumbnail/public/news-thumbnails/schema-logo.png?itok=bxmF1M3H", 
    "/sites/all/themes/blognone42/images/linebutton.png"
  ], 
  "Link": "https://www.blognone.com/node/83372", 
  "News": "Avis เปิดตัว Avis Now แอพจองและจัดการรถเช่า", 
  "Tags": [
    "USA", 
    "Mobile App"
  ], 
  "Time": "12:01"
}