{
  "By": "mk", 
  "Contents": " กูเกิลออกแอพตัวใหม่ชื่อ Science Journal ไว้สำหรับเก็บสถิติจากเซ็นเซอร์ของมือถือหรืออุปกรณ์ภายนอก เพื่อใช้สำหรับการทดลองวิทยาศาสตร์ของเด็กๆ Science Journal สามารถอ่านค่าของไมโครโฟน เซ็นเซอร์วัดแสง และ accelerometer จากมือถือ หรือจะสามารถเชื่อมต่อมือถือกับ Arduino ก็ได้ จากนั้นนำสถิติมาพล็อตกราฟลงในแอพได้เลย กูเกิลยังร่วมมือกับพิพิธภัณฑ์วิทยาศาสตร์ Exploratorium ในซานฟรานซิสโก ออกชุดคิตเป็นฮาร์ดแวร์ราคาไม่แพง ประกอบด้วยไมโครคอนโทรลเลอร์ เซ็นเซอร์ และอุปกรณ์อื่นๆ สำหรับการทดลองวิทยาศาสตร์ที่สามารถทำได้ที่บ้านอีกด้วย ที่มา - Google for Education    ", 
  "Date": "22/May/2016", 
  "Image-Link": [
    "https://www.blognone.com/sites/default/files/styles/thumbnail/public/news-thumbnails/science.png?itok=ye7mzHDP", 
    "https://i.imgur.com/orT39wg.png", 
    "/sites/all/themes/blognone42/images/linebutton.png"
  ], 
  "Link": "https://www.blognone.com/node/81259", 
  "News": "กูเกิลออกแอพใหม่ Science Journal เก็บค่าจากเซ็นเซอร์ เพื่อการทดลองวิทยาศาสตร์", 
  "Tags": [
    "Google", 
    "Education", 
    "Mobile App"
  ], 
  "Time": "22:17"
}