{
  "By": "trinakub", 
  "Contents": " เกม One Piece: Burning Blood เป็นเกม Fighting ที่นำตัวละครจากเรื่อง One Piece มาต่อสู้กันตั้งแต่ 1 ต่อ 1 จนถึง 3 ต่อ 3 โดยมีทั้งหมด 40 ตัวละครให้เราได้เลือกใช้ด้วยกัน ตัวเกมวางจำหน่ายไปแล้วบนแพลตฟอร์ม PlayStation 4, PlayStation Vita และ Xbox One ในส่วนของ PC จะวางจำหน่ายผ่าน Steam ภายในเดือนมิถุนายน 2559 นี้ ล่าสุดทาง Bandai Namco เปิดให้ผู้เล่นโหวตตัวละครที่ต้องการให้ทำเป็น DLC ลงเกม One Piece: Burning Blood ผ่านทางหน้าเว็บไซต์ www.onepiece-game.com Bandai Namco จะเลือกตัวละครที่มีผลโหวตมากที่สุด 3 ตัวละครจากทั้งหมด 17 ตัว การโหวตจะสิ้นสุดลง ณ วันที่ 6 กรกฎาคม 2559 นี้ รายชื่อตัวละครทั้ง 17 ตัว  Arlong (อารอน) Caesar Clown (ซีซาร์ คลาวด์) Cavendish (คาเวนดิส) Coby (โคบี้) Diamante (ไดอาแมนเต้) Don Krieg (ดอนครีก) Kaku (คาคุ) Kuro (คุโระ) Magellan (แมกเจลแลน) Monkey D. Garp (มังกี้ ดี การ์ฟ) Nefeltari Vivi (เนเฟลตาลี วีวี่) Rebecca (รีเบคก้า) Rob Lucci (ร็อบ ลุจจิ) Senor Pink (ซินญอร์ พิงค์) Tashigi (ทาชิงิ) Trebol (เทรโบล) Vergo (เวอร์โก้)  ที่มา - Siliconera   ", 
  "Date": "24/June/2016", 
  "Image-Link": [
    "https://www.blognone.com/sites/default/files/styles/thumbnail/public/news-thumbnails/One%20Piece%20Burning%20Blood%20Logo.png?itok=4VRDHxOW", 
    "/sites/all/themes/blognone42/images/linebutton.png"
  ], 
  "Link": "https://www.blognone.com/node/82607", 
  "News": "เกม One Piece: Burning Blood เปิดให้โหวตตัวละครที่อยากให้ทำ DLC", 
  "Tags": [
    "One Piece", 
    "Bandai Namco", 
    "Games"
  ], 
  "Time": "00:56"
}