{
  "By": "mk", 
  "Contents": " ไมโครซอฟท์เปิดหลักสูตรการเรียนออนไลน์ตัวใหม่ชื่อ Microsoft Professional Degree (MPD) โดยใช้ระบบคอร์สออนไลน์ของ edX ที่มหาวิทยาลัยชื่อดังหลายแห่งใช้กัน โดยคอร์สตัวแรกที่จะเปิดสอนคือ Data Science Degree เพื่อตอบสนองความต้องการผู้ประกอบอาชีพด้านข้อมูลในตลาดตอนนี้ ระบบคอร์ส MPD จะต้องลงเรียนตามรอบที่เปิดสอน การลงทะเบียนเรียนทำได้ฟรี แต่ถ้าอยากได้การรับรองว่าเรียนวิชานั้นจริง และนับเครดิตเพื่อจบการศึกษา รับใบประกาศเพื่อไปสมัครงาน จะต้องจ่ายเงินซื้อใบรับรอง (verified certificate) ของวิชานั้นๆ ด้วย ซึ่งเป็นระบบที่ edX ใช้กับคอร์สอื่นๆ อยู่ก่อนแล้ว (ราคาใบรับรอง 25-99 ดอลลาร์ต่อวิชา) การเรียนหลักสูตร Data Science Degree มีหัวข้อเรื่อง Transact-SQL, การวิเคราะห์ข้อมูลด้วย Excel/Power BI/R/Python, แนวคิด machine learning, ประมวลผลข้อมูลด้วย Apache Spark และปิดท้ายด้วยการทำโครงการจบการศึกษาบน Cortana Intelligence ตอนนี้คอร์สยังไม่เริ่มเปิดสอนเต็มรูปแบบ ใครสนใจเรียนสามารถไปดูหลักสูตร และลงทะเบียนอีเมลเพื่อให้แจ้งเตือนได้ที่ Microsoft Professional Degree in Data Science ที่มา - Microsoft    ", 
  "Date": "15/July/2016", 
  "Image-Link": [
    "https://www.blognone.com/sites/default/files/styles/thumbnail/public/topics-images/MSFT_logo_rgb_C-Gray.png?itok=j3hJhqua", 
    "https://i.imgur.com/LfIdQgu.jpg", 
    "/sites/all/themes/blognone42/images/linebutton.png"
  ], 
  "Link": "https://www.blognone.com/node/83498", 
  "News": "ไมโครซอฟท์เปิดหลักสูตรสอนวิชา Data Science Degree เรียนฟรีผ่านออนไลน์", 
  "Tags": [
    "Microsoft", 
    "Data Science", 
    "EDX", 
    "Education"
  ], 
  "Time": "23:05"
}