{
  "By": "Lamicrosz", 
  "Contents": " เกม Fallout 4 มีเครื่อง Pip-Boy ที่ใช้เก็บข้อมูลของผู้เล่น (ในเกม) ซึ่งอุปกรณ์ตัวนี้ก็ได้รับความนิยม ถึงขั้นว่า Bethesda ทำมันออกมาขายจริงๆ ล่าสุด Bethesda เปิดให้สั่งจอง Pip-Boy รุ่นปรับปรุง 3000 Mk IV ในประเทศสหรัฐอเมริกา, แคนาดาและออสเตรเลีย พร้อมจำกัดจำนวน 2 อันต่อการสั่งซื้อ ราคาเครื่องละ 350 ดอลลาร์สหรัฐฯ (ประมาณ 12,340 บาท ขายแยกแบบไม่มีตัวเกม) สินค้าพร้อมจัดส่งในวันที่ 11 พฤศจิกายน Pip-Boy รุ่นปรับปรุงนี้สามารถใช้โดยไม่ต้องพึ่งสมาร์ทโฟนเหมือนรุ่นเก่า เพราะหน้าจอและซอฟต์แวร์ Pip-OS อยู่ภายในตัว แต่ก็ยังสามารถเชื่อมต่อกับโทรศัพท์และแท็บเล็ตได้ผ่าน Bluetooth ทำให้สามารถเข้าถึงรายชื่อ, SMS และไฟล์เสียง และในการใช้งานแบบเดี่ยวๆ ก็ยังเป็นนาฬิกาปลุก รวมถึงแสดงสถานะ, ค่า perks และค่าพลัง S.P.E.C.I.A.L. ได้ด้วย ผู้ที่สนใจสั่งซื้อเพื่อใช้ในช่วงเวลาหลังภัยพิบัตินิวเคลียร์ สามารถไปซื้อกันได้ที่ Bethesda Store เพราะแม้เวลาจะผ่านไปแค่ไหน สงครามก็ไม่เคยเปลี่ยนแปลง ที่มา - Bethesda Store   ", 
  "Date": "16/June/2016", 
  "Image-Link": [
    "https://www.blognone.com/sites/default/files/styles/thumbnail/public/topics-images/fallout.png?itok=3XI5yt5E", 
    "/sites/all/themes/blognone42/images/linebutton.png"
  ], 
  "Link": "https://www.blognone.com/node/82314", 
  "News": "Bethesda ออกเครื่อง Pip-Boy 3000 จากเกม Fallout 4 รุ่นปรับปรุง ใช้ได้ไม่ต้องพึ่งสมาร์ทโฟน", 
  "Tags": [
    "Fallout", 
    "Games", 
    "Bethesda"
  ], 
  "Time": "00:29"
}