{
  "By": "lew", 
  "Contents": " กรรมการกำกับดูแลตลาดหลักทรัพย์สหรัฐฯ (US Securities and Exchange Commission - SEC) สั่งปรับ Citigroup เป็นเงิน 7 ล้านดอลลาร์หลังจากพบว่าธนาคารส่งรายงานการซื้อขายไม่ครบถ้วนตั้งแต่ปี 1999 ไปจนถึงปี 2014 สาเหตุของความผิดพลาดเนื่องจากระบบการออกรายงานที่เขียนในช่วงปี 1995 มีการกรองหมายเลขสาขา 089 ถึง 100 ออกไป เนื่องจากเลขสาขาเหล่านี้เป็นสาขาปลอมที่สร้างขึ้นเพื่อทดสอบระบบ โค้ดนี้รันต่อเนื่องมาโดยตลอดและทาง Citigroup สร้างสาขาใหม่ๆ เป็นหมายเลขที่มีตัวอักษรได้ด้วย เช่น 10B, 10C ปรากฏว่าโค้ดเดิมกลับกรองสาขาเหล่านี้ออกไปด้วย ทำให้รายงานจากสาขาเหล่านั้นไม่ถูกส่งไปยัง SEC ตลอดระยะเวลาที่บั๊กนี้มีผล ทำให้ SEC ไม่ได้รับรายงานการซื้อขาย 26,810 รายการ จากการขอข้อมูล 2,300 ครั้ง บั๊กนี้ถูกพบหลังจาก Citigroup ส่งรายงานการซื้อขายชุดใหญ่ไปยังทีมเทคนิคของ SEC เพื่อสอบถามการให้หมายเลขการซื้อขาย แต่ SEC พบว่าในรายงานมีเลขสาขาที่ไม่ปรากฏอยู่ในรายงานก่อนหน้านี้ ที่มา - The Register   ", 
  "Date": "14/July/2016", 
  "Image-Link": [
    "https://www.blognone.com/sites/default/files/styles/thumbnail/public/topics-images/citi.png?itok=7HvXyQ9R", 
    "/sites/all/themes/blognone42/images/linebutton.png"
  ], 
  "Link": "https://www.blognone.com/node/83435", 
  "News": "Citigroup ลืมเอาโค้ดกรองข้อมูลทดสอบออกจากโค้ดจริง ส่งรายงานผิดพลาด 15 ปี", 
  "Tags": [
    "Citigroup", 
    "Stock Exchange"
  ], 
  "Time": "15:31"
}