{
  "By": "nutmos", 
  "Contents": " มีการรายงานข่าวจาก MIT Technology Review เมื่อไม่กี่วันมานี้ว่า iOS 10 ซึ่งกำลังอยู่ในช่วงทดสอบแบบเบต้าของ Apple ไม่ได้มีการเข้ารหัส kernel ไว้ ซึ่งหลายคนก็ตั้งข้อสังเกตว่าเนื่องจากอยู่ในช่วงเบต้า Apple จึงไม่ได้เข้ารหัสตัวระบบปฏิบัติการไว้ หรือว่าอาจเป็นอุบัติเหตุที่ลืมจริง ๆ ทาง TechCrunch ได้สอบถามไปยัง Apple ซึ่งทางโฆษกของบริษัทได้ตอบว่า \"kernel นั้นไม่ได้เก็บข้อมูลผู้ใช้ใด ๆ ไว้ ฉะนั้นการไม่เข้ารหัสจะเป็นการช่วยเพิ่มประสิทธิภาพให้ระบบปฏิบัติการ โดยไม่ได้ลดความปลอดภัยลง\" แต่เดิมนั้น iOS จะเข้ารหัส kernel ของระบบปฏิบัติการไว้ทั้งหมด ทำให้นักพัฒนาและนักวิจัยต่าง ๆ มองหาช่องโหว่ความปลอดภัยยากมาก ซึ่งการที่ Apple เลิกเข้ารหัสจะทำให้การค้นหาช่องโหว่ต่าง ๆ ของตัวระบบปฏิบัติการทำได้ง่ายขึ้น และสามารถอุดช่องโหว่ได้ง่ายขึ้นเช่นกัน ที่มา - TechCrunch, MIT Technology Review   ", 
  "Date": "23/June/2016", 
  "Image-Link": [
    "https://www.blognone.com/sites/default/files/styles/thumbnail/public/topics-images/ios10.png?itok=sLxwnpuP", 
    "/sites/all/themes/blognone42/images/linebutton.png"
  ], 
  "Link": "https://www.blognone.com/node/82570", 
  "News": "Apple ยืนยัน iOS 10 ไม่ได้เข้ารหัส kernel แล้ว", 
  "Tags": [
    "iOS 10", 
    "Apple"
  ], 
  "Time": "08:52"
}