{
  "By": "nrad6949", 
  "Contents": " อาจจะไม่ใช่ข่าวดีนักสำหรับ BlackBerry ที่เมื่อวานนี้ได้ประกาศตัวเลขผลประกอบการไตรมาสแรกของปีงบประมาณ 2017 ออกมา แต่รายได้หายไปกว่า 35% เมื่อเทียบกับไตรมาสเดียวกันของปีที่แล้ว BlackBerry ระบุว่าในไตรมาสล่าสุดที่ผ่านมา รายได้ (revenue) ของบริษัทอยู่ที่ 424 ล้านดอลลาร์สหรัฐ ลดลงโดยประมาณกว่า 35% เมื่อเทียบกับไตรมาสเดียวกันของปีที่แล้วที่ 658 ล้านดอลลาร์สหรัฐ และมีการประเมินตัดทรัพย์สินด้อยค่ารวมถึงค่าความนิยม (goodwill) มากถึง 561 ล้านดอลลาร์สหรัฐ ทำให้ตัวเลขทางบัญชีของบริษัท ขาดทุนถึง 670 ล้านดอลลาร์สหรัฐ เมื่อเทียบกับกำไร 68 ล้านดอลลาร์สหรัฐ เมื่อช่วงเดียวกันของปีที่แล้ว อนึ่ง เมื่อวันพุธที่ผ่านมา คณะกรรมการบริษัทได้เลือก John Chen ให้ดำรงตำแหน่งในฐานะประธานคณะกรรมการบริษัทต่ออีกหนึ่งปี โดยเขายังคงยืนยันแผนที่จะเปิดตัวโทรศัพท์จับตลาดกลางสองเครื่องภายในปีนี้ ที่มา - Computerworld, CrackBerry   ", 
  "Date": "24/June/2016", 
  "Image-Link": [
    "https://www.blognone.com/sites/default/files/styles/thumbnail/public/topics-images/blackberry.png?itok=UF9IMwyw", 
    "/sites/all/themes/blognone42/images/linebutton.png"
  ], 
  "Link": "https://www.blognone.com/node/82617", 
  "News": "อาการหนัก BlackBerry รายได้ลดลงกว่า 35% ในไตรมาสล่าสุดที่ผ่านมา", 
  "Tags": [
    "BlackBerry"
  ], 
  "Time": "09:50"
}