{
  "By": "mk", 
  "Contents": " ไมโครซอฟท์ฉลอง 20 ปีของภาพทุ่งหญ้า Bliss ภาพพื้นหลังของ Windows XP ที่เป็นสัญลักษณ์ของยุคพีซีรุ่งเรือง ภาพนี้ถ่ายโดย Charles O’Rear ช่างภาพของนิตยสาร National Geographic ระหว่างนั่งรถไปหาแฟนเมื่อปี 1996 โดยเขาขับรถผ่านถนนใกล้เมือง St. Helena ในรัฐแคลิฟอร์เนีย เห็นภาพเนินเขาตรงหน้าแล้วหยิบกล้องขึ้นมาถ่ายไว้ เขายืนยันว่าภาพนี้เป็นภาพต้นฉบับที่ไม่ผ่านการตกแต่งใดๆ เลย แต่เป็นเพราะสภาพท้องฟ้าบวกกับการใช้ฟิล์ม Fuji ร่วมด้วย ที่มา - Winbeta  From @Timehop today: In 1996, Charles O'Rear took a photo that became the most popular Windows wallpaper ever. #FBF pic.twitter.com/Nnkqj6YJqo — Windows (@Windows) June 24, 2016   ", 
  "Date": "25/June/2016", 
  "Image-Link": [
    "https://www.blognone.com/sites/default/files/styles/thumbnail/public/topics-images/windows-xp.png?itok=fIKYTj9b", 
    "https://i.imgur.com/rPy7k2N.jpg", 
    "/sites/all/themes/blognone42/images/linebutton.png"
  ], 
  "Link": "https://www.blognone.com/node/82653", 
  "News": "ฉลองครบ 20 ปี Bliss ภาพพื้นหลังอมตะของ Windows XP", 
  "Tags": [
    "Windows XP", 
    "Microsoft"
  ], 
  "Time": "10:40"
}