{
  "By": "nismod", 
  "Contents": " หลังศาลมีคำตัดสินในปี 2013 ให้แอปเปิลมีความผิดฐานร่วมกับสำนักพิมพ์โก่งราคาอีบุ๊ค แอปเปิลก็พยายามต่อสู้คดีและยื่นอุทธรณ์มาโดยตลอด ก่อนที่ในช่วงต้นปีที่ผ่านมา ศาลฎีกาจะปฏิเสธอุทธรณ์ ทำให้แอปเปิลต้องจ่ายค่าชดเชยเป็นมูลค่ากว่า 400 ล้านเหรียญให้กับผู้ที่ได้รับผลกระทบ และจะเริ่มจ่ายให้ในวันนี้ตามเวลาท้องถิ่นของสหรัฐ ผู้ที่จะได้รับเงินชดเชยได้แก่ลูกค้าที่ซื้ออีบุ๊คจาก Amazon, Kobo, Barnes & Noble และแอปเปิล และต้องซื้อเฉพาะหนังสือของสำนักพิมพ์ Hachette Book Group, HarperCollins Publishers, Macmillan, Penguin Group และ Simmon & Schuster ระหว่างวันที่ 1 เมษายน 2010 ถึง 21 พฤษภาคม 2012 เท่านั้น การจ่ายเงินชดเชยจะจ่ายเป็นจำนวนเงินใน iTunes หรือเช็คตามที่ผู้เสียหายเคยลงทะเบียนและระบุไว้ก่อนหน้านี้ นอกจากนี้แอปเปิลจะจ่าย 20 ล้านเหรียญเป็นค่าปรับให้กับรัฐ และอีก 30 ล้านเหรียญเป็นค่าใช้จ่ายในกระบวนการทางกฎหมาย ที่มา - 9to5mac   ", 
  "Date": "21/June/2016", 
  "Image-Link": [
    "https://www.blognone.com/sites/default/files/styles/thumbnail/public/topics-images/apple.png?itok=dltl_31c", 
    "/sites/all/themes/blognone42/images/linebutton.png"
  ], 
  "Link": "https://www.blognone.com/node/82498", 
  "News": "แอปเปิลเริ่มจ่ายค่าชดเชยให้ผู้ได้รับผลกระทบ กรณีร่วมกับสำนักพิมพ์โก่งค่าอีบุ๊คแล้ว", 
  "Tags": [
    "Apple", 
    "eBook", 
    "Antitrust"
  ], 
  "Time": "10:58"
}