{
  "By": "nismod", 
  "Contents": " เว็บไซต์ The Telegraph รายงานโดยอ้างอิงแหล่งข่าววงในว่า Google กำลังพูดคุยอยู่กับผู้ให้บริการโทรศัพท์หลายเจ้า เพื่อเตรียมการเปิดตัวสมาร์ทโฟนภายใต้แบรนด์ใหม่ที่ Google ดูแลและควบคุมการผลิตฮาร์ตแวร์เองทั้งหมด แหล่งข่าวระบุว่า Google จะเปิดตัวสมาร์ทโฟนใหม่นี้ช่วงปลายปี และตั้งใจทำมาเพื่อท้าชน iPhone โดยเฉพาะ เนื่องจากถึงแม้แอนดรอยด์จะครองส่วนแบ่งสมาร์ทโฟนมากที่สุดในโลก แต่ในกลุ่มไฮเอนด์แล้ว iPhone ยังถือว่าครองตลาดอยู่ ประกอบกับปัญหาการรออัพเดตซอฟต์แวร์จากผู้ผลิต OEM รวมถึงการนำแอนดรอยด์ไปใช้โดยไม่ใส่บริการต่างๆ ของ Google ลงไปด้วย ที่มา - The Telegraph   ", 
  "Date": "27/June/2016", 
  "Image-Link": [
    "https://www.blognone.com/sites/default/files/styles/thumbnail/public/topics-images/Google_2015_logo.svg_.png?itok=bd4RvVLK", 
    "/sites/all/themes/blognone42/images/linebutton.png"
  ], 
  "Link": "https://www.blognone.com/node/82697", 
  "News": "[ลือ] Google เตรียมเปิดตัวสมาร์ทโฟนแบรนด์ใหม่ที่ผลิตเอง และไม่ใช่ Nexus", 
  "Tags": [
    "Google", 
    "Mobile", 
    "Android", 
    "Rumor"
  ], 
  "Time": "11:54"
}