{
  "By": "nismod", 
  "Contents": " Slack ประกาศเพิ่มฟีเจอร์รองรับการตอบรับข้อความและการโต้ตอบกับแอพ 3rd ปาร์ตี้อื่นๆ ในภายแอพของตัวเอง อาทิการจองตั๋วเครื่องบิน โพสต์ตามงานหรือไฟล์ต่างๆ ก็สามารถกดยืนยันหรือตกลงได้ภายในห้องแชทเลย Slack ระบุด้วยว่าได้พาร์ทเนอร์แอพพลิเคชันที่ทำงานร่วมกันเพิ่มขึ้นมาอีกหลายเจ้าด้วยเช่น Trello บริการ post-it สำหรับองค์กร และ Kayak เว็บค้นหาตั๋วเครื่องบินรายใหญ่ ซึ่งจะช่วยให้การทำงานลื่นไหลมากยิ่งขึ้นและไม่จำเป็นต้องเสียเวลาสลับหน้าต่างหรือแอพแต่อย่างใด ที่มา - CNET   ", 
  "Date": "22/June/2016", 
  "Image-Link": [
    "https://www.blognone.com/sites/default/files/styles/thumbnail/public/topics-images/slack300.png?itok=OVmaZ12O", 
    "/sites/all/themes/blognone42/images/linebutton.png"
  ], 
  "Link": "https://www.blognone.com/node/82547", 
  "News": "Slack เพิ่มปุ่มตอบรับข้อความจากแอพภายนอก ", 
  "Tags": [
    "Slack"
  ], 
  "Time": "13:50"
}