{
  "By": "mk", 
  "Contents": " นิตยสาร Vanity Fair อ้างข้อมูลวงในว่าปี 2011 กูเกิลเคยเสนอซื้อทวิตเตอร์แต่ไม่สำเร็จ ข้อมูลของ Vanity Fair ระบุว่าซีอีโอ Larry Page เชิญ Jack Dorsey ผู้ก่อตั้งทวิตเตอร์ไปที่สำนักงานใหญ่ของกูเกิล โดยเขาเชิญ Dorsey เข้าไปในห้องประชุม ปิดม่าน และกระซิบคุยกับ Dorsey เกี่ยวกับการซื้อกิจการ โดยบอกว่าต้องการผนวกข้อความทวีตลงในผลการค้นหาของกูเกิล เรารู้กันดีว่าข้อเสนอของกูเกิลในปี 2011 ไม่ประสบผลสำเร็จ ส่วนอนาคตของ Twitter ที่ธุรกิจเริ่มไม่เติบโต และอาจจบลงด้วยการขายกิจการ ก็ต้องรอดูกันต่อไปว่าสุดท้ายจะมีใครมาซื้อหรือไม่ ที่มา - Vanity Fair, 9to5google   ", 
  "Date": "20/June/2016", 
  "Image-Link": [
    "https://www.blognone.com/sites/default/files/styles/thumbnail/public/topics-images/twitter300.png?itok=DkxsrWCR", 
    "/sites/all/themes/blognone42/images/linebutton.png"
  ], 
  "Link": "https://www.blognone.com/node/82458", 
  "News": "[ไม่ยืนยัน] กูเกิลเคยเสนอซื้อกิจการทวิตเตอร์ในปี 2011 แต่ไม่สำเร็จ", 
  "Tags": [
    "Twitter", 
    "Google", 
    "Rumor", 
    "Acquisition"
  ], 
  "Time": "14:55"
}