{
  "By": "nismod", 
  "Contents": " Avanan ผู้ให้บริการซอฟต์แวร์ด้านความปลอดภัยบนคลาวด์ได้ตรวจพบการระดมโจมตีด้วย ransomware ที่ถูกเรียกว่า Cerber ไปยังกลุ่มลูกค้าองค์กรที่ใช้ Office 365 โดยอาศัยช่องโหว่ของซอฟต์แวร์ เมื่อวันที่ 22 มิถุนายนที่ผ่านมา นอกจากการแจ้งเตือนเป็นป๊อปอัพหรือตัวอักษรแบบทั่วไปแล้ว Cerber ยังแจ้งเตือนผู้ใช้เป็นไฟล์เสียงด้วยว่า ไฟล์ในเครื่องถูกเข้ารหัสเอาไว้ทั้งหมดแล้ว พร้อมเรียกค่าไถ่เพื่อปลดล็อกไฟล์ในเครื่องเป็นจำนวน 1.24 BTC ก่อนที่ทางไมโครซอฟท์จะตรวจพบการโจมตีและบล็อกไฟล์ที่มี ransomware แนบมาด้วย Avanan คาดว่ามีองค์กรราว 57% ที่ใช้ Office 365 ได้รับไฟล์ที่ฝังมัลแวร์ผ่านทางอีเมล์ขององค์กรอย่างน้อย 1 ไฟล์ ที่มา - Avanan via The Register   ", 
  "Date": "28/June/2016", 
  "Image-Link": [
    "https://www.blognone.com/sites/default/files/styles/thumbnail/public/topics-images/office-365.png?itok=WQ2tpSw0", 
    "/sites/all/themes/blognone42/images/linebutton.png"
  ], 
  "Link": "https://www.blognone.com/node/82760", 
  "News": "Office 365 ฝั่งองค์กรตกเป็นเป้ากระหน่ำโจมตีของ ransomware ", 
  "Tags": [
    "Office 365", 
    "Enterprise", 
    "Ransomware", 
    "Security"
  ], 
  "Time": "15:09"
}