{
  "By": "sunnywalker", 
  "Contents": " LINE เปิดโอกาสให้คนที่อยากทำสติกเกอร์แบบเคลื่อนไหวเข้ามาลงทะเบียนตั้งแต่วันที่ 20 มิ.ย. ที่ผ่านมา เมื่อผ่านการรีวิวแล้วจะทยอยออกขายในร้านค้าสติกเกอร์ โดยครีเอเตอร์จะได้รับส่วนแบ่ง 50% จากยอดขาย หลังจากหักค่าธรรมเนียม 30% ของ Google และ Apple แล้ว ครีเอเตอร์กำหนดราคาสติกเกอร์ของตนได้ มีราคาตั้งแต่ 60,90,120 และ 150 บาท สำหรับผู้สนใจสามารถลงทะเบียนได้ที่ LINE Creator Market  ที่มา - Press Release   ", 
  "Date": "28/June/2016", 
  "Image-Link": [
    "https://www.blognone.com/sites/default/files/styles/thumbnail/public/topics-images/line300.png?itok=EJ65plDD", 
    "http://i.imgur.com/BxjT5Cc.jpg", 
    "/sites/all/themes/blognone42/images/linebutton.png"
  ], 
  "Link": "https://www.blognone.com/node/82773", 
  "News": "LINE เปิดให้ครีเอเตอร์ส่งผลงานสติกเกอร์เคลื่อนไหว ผ่านรีวิว ขายได้ทันที ", 
  "Tags": [
    "LINE", 
    "Creative"
  ], 
  "Time": "18:11"
}