{
  "By": "Job_The_Gamer", 
  "Contents": " Ubisoft ค่ายเกมยักษ์ใหญ่ฉลองครบรอบ 30 ปี ด้วยการแจกเกมระดับตำนานของค่ายบนพีซี ในทุกๆ เดือนฟรีเดือนละหนึ่งเกมไปจนถึงสิ้นปีนี้ ประเดิมเกมแรกในเดือนมิถุนายนด้วย Prince of Persia: The Sands of Time เกมแนว action-adventure ที่ได้รับการรีบูทโดย Ubisoft และได้รับความนิยมอย่างมากในช่วงปี 2003 ข้อเสนอดังกล่าวมีเวลาจำกัดเกมเมอร์ท่านใดที่สนใจสามารถเข้าไปลงทะเบียนในเว็บไซต์ Ubisoft Club เพื่อรับเกมไปเล่นบน Uplay ได้ ก่อน Ubisoft จะเริ่มแจกเกมถัดไปประมาณกลางเดือนหน้าครับ ที่มา - Ubisoft Club via MSPoweruser    ", 
  "Date": "25/June/2016", 
  "Image-Link": [
    "https://www.blognone.com/sites/default/files/styles/thumbnail/public/topics-images/Ubisoft.png?itok=IsdXHzQm", 
    "https://lh3.googleusercontent.com/-OxiSAV-NXz8/V2504kdhptI/AAAAAAAAAuw/T_XadrVsHB08KSHgPYW4a9WPliquxAx1ACCo/s640/Ubisoft%2B30%2BAnniversary.png", 
    "/sites/all/themes/blognone42/images/linebutton.png"
  ], 
  "Link": "https://www.blognone.com/node/82669", 
  "News": "Ubisoft ฉลองครบรอบ 30 ปี แจกเกมฟรี 7 เกม 7 เดือน, เริ่มด้วย Prince of Persia: The Sands of Time", 
  "Tags": [
    "Ubisoft", 
    "Games"
  ], 
  "Time": "19:17"
}