{
  "By": "trinakub", 
  "Contents": " ความนิยมพุ่งขึ้นเรื่อย ๆ แบบไม่หยุดจริง ๆ กับเกม Overwatch ล่าสุดมียอดผู้เล่นสูงถึง 10 ล้านคนแล้ว และในประเทศเกาหลีเอง Overwatch ก็สามารถแซงหน้าขึ้นเป็นที่หนึ่งเกมยอดนิยมตามร้านอินเทอร์เน็ตคาเฟ่ได้แล้ว หลังจากที่ League of Legends ครองตำแหน่งนี้มาเป็นเวลานาน สถิติล่าสุดนี้ เกม Overwatch มียอดผู้เล่นตามร้านอินเทอร์เน็ตคาเฟ่สูงถึง 30% แล้ว ในขณะที่ League of Legends ตกลงไปอยู่ที่ 27.8% หลังจากที่ครองตำแหน่งเกมยอดนิยมของเกาหลีมาเป็นเวลา 4 ปี ตั้งแต่สิงหาคม 2012 เกมจากค่าย Blizzard เรียกได้ว่าโด่งดังในเกาหลีมาเป็นเวลานานแล้ว รวมถึงมีการแข่งขันกันอย่างดุเดือดมาตั้งแต่เกม Starcraft ภาคแรก ซึ่งเกม Overwatch ก็จะมีการนำโหมด Competitive Play เข้ามาภายในเร็ว ๆ นี้ เป็นที่น่าสนใจว่ายอดผู้เล่นจะเพิ่มสูงขึ้นไปอีกเมื่อมีการนำโหมดใหม่เข้ามา ที่มา - GameSpot    ", 
  "Date": "28/June/2016", 
  "Image-Link": [
    "https://www.blognone.com/sites/default/files/styles/thumbnail/public/topics-images/overwatch.png?itok=TLgOiXnG", 
    "http://i.imgur.com/T4veeha.jpg", 
    "/sites/all/themes/blognone42/images/linebutton.png"
  ], 
  "Link": "https://www.blognone.com/node/82777", 
  "News": "แรงได้อีก! Overwatch ในเกาหลี กลายเป็นเกมยอดนิยมอันดับหนึ่งตามร้านเน็ตคาเฟ่", 
  "Tags": [
    "Overwatch", 
    "Games", 
    "South Korea"
  ], 
  "Time": "21:01"
}