{
  "By": "nismod", 
  "Contents": " รัฐบาลสิงคโปร์ประกาศเตรียมจัดจ้างบริษัทผ่านการประมูล ในโปรเจ็คด้านเทคโนโลยีสื่อสารและสารสนเทศให้กับรัฐบาล โดยสัญญานี้มีมูลค่าสูงถึงกว่า 2 พันล้านเหรียญสหรัฐฯ โครงการนี้เป็นส่วนหนึ่งของนโยบายในการสร้าง Smart Nation ของรัฐบาลสิงคโปร์ โดยส่วนหนึ่งของ Smart Nation อาทิ การทำแอพพลิเคชันของรัฐบาลที่มีประสิทธิภาพมากยิ่งขึ้น การดำเนินงานและติดต่อกับภาครัฐในรูปแบบดิจิทัลที่รวดเร็ว และการติดตั้งไวไฟ ในโรงเรียนของรัฐเพื่อสนับสนุน Smart Learning รวมถึงการวางและอัพเกรดโครงสร้างพื้นฐานด้านไอทีและพัฒนาความปลอดภัยด้านไซเบอร์ให้กับภาครัฐ เบื้องต้นมีบริษัทให้ความสนใจเข้าประมูลแล้ว 13 บริษัท ที่มา - Tech in Asia   ", 
  "Date": "23/May/2016", 
  "Image-Link": [
    "https://www.blognone.com/sites/default/files/styles/thumbnail/public/topics-images/1024px-Flag_of_Singapore.svg_.png?itok=lUcinCu8", 
    "/sites/all/themes/blognone42/images/linebutton.png"
  ], 
  "Link": "https://www.blognone.com/node/81283", 
  "News": "รัฐบาลสิงคโปร์เตรียมลงทุนด้านไอทีกว่า 2 พันล้านเหรียญสหรัฐ", 
  "Tags": [
    "Singapore"
  ], 
  "Time": "13:20"
}