{
  "By": "nutmos", 
  "Contents": " ก่อนหน้านี้ผู้เชี่ยวชาญด้านความปลอดภัยได้ค้นพบว่า Pokemon Go มีสิทธิเข้าถึงข้อมูลในบัญชีที่ล็อกอินบน iOS ทุกอย่าง และตอนนี้ทาง Niantic Labs ก็ได้ออกอัพเดตใหม่เวอร์ชัน 1.0.1 เพื่อแก้ปัญหานี้แล้ว โดยจะเหลือเพียงสิทธิสองอย่างที่จะขอ คือต้องการทราบว่าคุณเป็นใครบน Google และดูที่อยู่อีเมลเท่านั้น นอกจากปัญหาการขอสิทธิการเข้าถึงข้อมูลมากเกินไปก็มีการแก้บั๊กและปรับปรุงความเสถียรด้วย โดยผู้ใช้ที่ใช้ Pokemon Go ผ่าน iOS สามารถดาวน์โหลดอัพเดตนี้ผ่าน App Store ได้เลย ที่มา - The Verge   ", 
  "Date": "13/July/2016", 
  "Image-Link": [
    "https://www.blognone.com/sites/default/files/styles/thumbnail/public/topics-images/pokemon.png?itok=7HuOXT6S", 
    "/sites/all/themes/blognone42/images/linebutton.png"
  ], 
  "Link": "https://www.blognone.com/node/83364", 
  "News": "Pokemon Go บน iOS ออกอัพเดตแก้ปัญหาเข้าถึงข้อมูลทุกอย่างในบัญชี Google แล้ว", 
  "Tags": [
    "Pokemon", 
    "Nintendo", 
    "Privacy", 
    "Security", 
    "iOS", 
    "Niantic Labs"
  ], 
  "Time": "09:01"
}