{
  "By": "nismod", 
  "Contents": " FTC หรือกสทช. ของสหรัฐสั่งปรับ InMobi บริษัททำโฆษณาออนไลน์บนมือถือเป็นจำนวนเงินราว 950,000 เหรียญสหรัฐ ฐานเก็บข้อมูลตำแหน่งของผู้ใช้งานสมาร์ทโฟนโดยไม่ได้รับการยินยอม เบื้องต้นทาง InMobi ปฏิเสธพร้อมยืนยันว่าเก็บข้อมูลตำแหน่งของผู้ใช้ก็ต่อเมื่อได้รับการยินยอมเท่านั้น แต่ทว่าแท้จริงแล้ว InMobi ก็ยังคงเก็บข้อมูลตำแหน่งผู้ใช้จากการอ้างอิงตำแหน่งของจุดปล่อย Wi-Fi ผ่าน  basic service set identification addresses (BSSID) ในเครื่องอยู่ดีหากผู้ใช้ไม่ยินยอม ซึ่งข้อมูลเหล่านี้จะถูกนำไปขายต่อสำหรับการส่งโฆษณาไปยังมือถือของผู้ใช้เป็นรายคน FTC ระบุด้วยว่าเครือข่ายโฆษณาของ InMobi อยู่บนสมาร์ทโฟนกว่าพันล้านเครื่องผ่านแอพพลิเคชันต่างๆ ซึ่งหลายแอพเป็นแอพสำหรับเด็กที่อายุต่ำกว่า 13 ปีและการเก็บข้อมูลของเด็กก็ละเมิดกฎหมาย Children's Online Privacy Protection Act อีกกระทงด้วย นอกจากจะต้องจ่ายค่าปรับแล้ว InMobi ยังถูกสั่งให้ลบข้อมูลของเด็กและของผู้ใช้ที่ไม่ได้ยินยอมให้เก็บข้อมูลทั้งหมด รวมถึงจะต้องนำแผนการรักษาความเป็นส่วนตัวมาปรับใช้ และจะต้องถูกตรวจสอบทุกๆ 2 ปี เป็นเวลา 20 ปี ที่มา - ArsTechnica   ", 
  "Date": "23/June/2016", 
  "Image-Link": [
    "https://www.blognone.com/sites/default/files/styles/thumbnail/public/topics-images/ftc.png?itok=BSUYmHPI", 
    "/sites/all/themes/blognone42/images/linebutton.png"
  ], 
  "Link": "https://www.blognone.com/node/82589", 
  "News": "FTC สั่งปรับบริษัททำโฆษณาบนมือถือ ฐานเก็บข้อมูลตำแหน่งลูกค้าโดยไม่ได้รับอนุญาต", 
  "Tags": [
    "FTC", 
    "USA", 
    "Privacy"
  ], 
  "Time": "15:38"
}