{
  "By": "nismod", 
  "Contents": " อย่างที่ทราบกันว่า Netflix ประกาศมาตรการเด็ดขาดในการจัดการผู้ชมที่ชมผ่าน proxy หรือ VPN ไปตั้งแต่ช่วงต้นปีที่ผ่านมา ด้วยเหตุผลด้านธุรกิจและลิขสิทธิ์ของหนัง ซึ่งมาตรการนี้ นอกจากจะกระทบผู้ชมที่ต้องการดูหนังที่ไม่มีฉายในประเทศตัวเองแล้ว ยังกระทบผู้ชมที่ใช้ VPN ด้วยเหตุผลด้านความเป็นส่วนตัวด้วย OpenMedia กลุ่มนักเคลื่อนไหวด้านสิทธิบนโลกดิจิทัล ได้จัดแคมเปญ Defend Our Privacy โดยมีผู้ใช้อินเทอร์เน็ตหลายหมื่นคนร่วมลงนาม เพื่อยื่นเรื่องไปยัง Netflix เพื่อให้หยุดนโยบายดังกล่าว พร้อมทั้งจัดทำป้ายบิลบอร์ดขนาดใหญ่ที่เขียนว่า \"เรารักความเป็นส่วนตัว\" ติดไว้กับรถบรรทุกและขับไปตามท้องถนนในหลายเมือง OpenMedia ระบุว่าเข้าใจเหตุผลของ Netflix แต่พวกเขาก็เชื่อว่ายังคงมีหนทางอื่นที่ดีกว่านี้ ในการปิดกั้นการชมภาพยนตร์ข้ามเขตประเทศ อย่างการอิงคอนเทนท์ของหนังเข้ากับที่อยู่บนบัตรเครดิตที่ใช้สมัคร เป็นต้น ที่มา - TorrentFreak   ", 
  "Date": "26/May/2016", 
  "Image-Link": [
    "https://www.blognone.com/sites/default/files/styles/thumbnail/public/topics-images/netflix300.png?itok=u9NKdk4d", 
    "/sites/all/themes/blognone42/images/linebutton.png"
  ], 
  "Link": "https://www.blognone.com/node/81476", 
  "News": "นักเคลื่อนไหวด้านความเป็นส่วนตัวปิดป้ายประท้วง Netflix จากการบล็อก VPN", 
  "Tags": [
    "Netflix", 
    "VPN", 
    "Online Video", 
    "Privacy"
  ], 
  "Time": "23:11"
}