{
    "By": "Lamicrosz", 
    "Contents": "\nVAIO เปิดตัวแล็ปท็อปซีรีส์ Z และ S รุ่นปี 2016 มีสเปค ดังนี้\nVAIO Z Flip (2016)\n\nหน้าจอ: 13 นิ้ว ความละเอียด 2560x1440 พิกเซล รองรับการสัมผัส มีรุ่นหน้าจอความละเอียด 1920x1080 พิกเซล ไม่รองรับการสัมผัส ให้เลือก\nหน่วยประมวลผล: Intel Core i5 รุ่นที่ 6 และมี Core i7 ให้เลือก ทั้งหมดเป็นแบบกินไฟ 28 วัตต์\nแรม: 8 และ 16 GB\nพื้นที่เก็บข้อมูล: 256 GB หรือ 512 GB แบบ SSD\nแบตเตอรี่: สามารถใช้งานได้ 11.5 ชั่วโมง\nน้ำหนัก: 2.9 ปอนด์ (1.3 กิโลกรัม)\nราคาเริ่มต้นที่ 1,799 ดอลลาร์สหรัฐฯ (ประมาณ 64,000 บาท)\nเริ่มวางจำหน่ายเดือนกุมภาพันธ์ ในประเทศสหรัฐอเมริกา\n\n\nนอกจากนี้ยังมีโมเดลย่อย คือ\nVAIO Z Clamshell\n\nหน้าจอ: 13 นิ้ว ความละเอียด 1920x1080 พิกเซล ไม่รองรับการสัมผัส\nหน่วยประมวลผล: Intel Core i5 รุ่นที่ 6\nแรม: 8 และ 16 GB\nพื้นที่เก็บข้อมูล: 256 GB หรือ 512 GB แบบ SSD\nแบตเตอรี่: สามารถใช้งานได้ 15.5 ชั่วโมง\nน้ำหนัก: 2.58 ปอนด์ (1.17 กิโลกรัม)\nราคาเริ่มต้นที่ 1,499 ดอลลาร์สหรัฐฯ (ประมาณ 53,600 บาท) \nเริ่มวางจำหน่ายเดือนกุมภาพันธ์ ในประเทศสหรัฐอเมริกา\n\nVAIO S Series (2016)\n\nหน้าจอ: 13 นิ้ว ความละเอียด 1920x1080 พิกเซล\nหน่วยประมวลผล: Intel Core i5 แบบ 15 วัตต์\nแรม: 8 GB\nพื้นที่เก็บข้อมูล: 256 GB PCIe SSD\nแบตเตอรี่: สามารถใช้งานได้ 9 ชั่วโมง\nราคาเริ่มต้นที่ 1,099 ดอลลาร์สหรัฐฯ (ประมาณ 39,000 บาท)\nเริ่มวางจำหน่ายช่วงเดือนมีนาคม ในประเทศสหรัฐอเมริกา\n\n\nที่มา - Engadget, The Verge\n", 
    "Date": "28/01/16", 
    "Image-Link": "https://www.blognone.com/sites/default/files/imagecache/news-thumbnail/category_pictures/vaio.png", 
    "Link": "https://www.blognone.com/node/77220", 
    "News": "VAIO เปิดตัวแล็ปท็อปซีรีส์ Z และ S รุ่นปี 2016", 
    "Tags": "Laptop\nNotebook\nVAIO\n", 
    "Time": "14:55"
}