{
    "By": "lew", 
    "Contents": "\nก่อนที่ VMware จะกลายเป็นสินค้าสำหรับองค์กรเช่นทุกวันนี้ สินค้าหลักของบริษัทเคยเป็นซอฟต์แวร์จำลองพีซีสำหรับเดสก์ทอป เพื่อการรันวินโดวส์บนลินุกซ์หรือกลับกัน โดยตัวซอฟต์แวร์เองก็ชื่อว่า \"VMware\" ก่อนจะเปลี่ยนเป็น VMware Workstation ภายหลัง และเมื่อออกเวอร์ชั่นแมคก็มีชื่อใหม่เป็น VMware Fusion แต่วันนี้ทีมงาน Hosted UI ผู้พัฒนาซอฟต์แวร์ทั้งสองตัวก็ถูกปลดออกจากงาน\nข่าวนี้ออกมาจากพนักงานจำนวนหนึ่ง ระบุว่ามีการปลดพนักงานออกหลายร้อยคน และในกลุ่มนั้นเป็นทีม Hosted UI ทั้งทีม\nทาง VMware ออกมาระบุว่ามีการปรับโครงสร้างจริง แต่ยืนยันว่าจะไม่กระทบต่ออนาคตของสินค้า โดยอาจจะมีการย้ายธุรกิจไปยังสำนักงานอื่นๆ ต่อไป\nที่มา - The Register\n\nI got laid off today! AMA!\n— Waltona (@awalton) January 26, 2016\nSure they laid off hundreds of people, but the leather seats on the VMware shuttle with the embroidering is swank. pic.twitter.com/5bYpmMeDPE\n— Waltona (@awalton) January 26, 2016\n@that_shaman I (and the entire VMware Fusion and Workstation teams) just got laid off today. What does your change look like?\n— Jason vanRijn Kasper (@jdotk) January 26, 2016\nMy tribute to VMware Workstation, Player, and the amazing Hosted UI team. https://t.co/6KL12u1ziK\n— Christian Hammond (@chipx86) January 26, 2016\n", 
    "Date": "28/01/16", 
    "Image-Link": "https://www.blognone.com/sites/default/files/imagecache/news-thumbnail/category_pictures/Vmware%20logo.png", 
    "Link": "https://www.blognone.com/node/77185", 
    "News": "VMware ปรับทีมงาน ทีม Workstation, Fusion ถูกปลด", 
    "Tags": "VMware\n", 
    "Time": "0:14"
}