{
    "By": "nismod", 
    "Contents": "\nWaze แอพแผนที่และการนำทางภายใต้ร่มเงาของ Google เปิดตัว Waze Transport SDK สำหรับพาร์ทเนอร์ทางธุรกิจที่ต้องการนำเอาฟีเจอร์ต่างๆ ของ Waze อย่างการประเมินระยะเวลาถึงที่หมาย (ETA) และการนำทาง ไปใส่ไว้ในแอพของตัวเอง\nSDK นี้ Waze เปิดให้นำไปใช้ได้ฟรี แต่จะต้องเป็นประเทศที่ Waze ให้บริการอยู่ โดยเบื้องต้นมีธุรกิจที่ติดต่อขอเป็นพาร์ทเนอร์และนำ SDK นี้ไปใช้แล้ว 9 ราย\nที่มา - Waze Blog\n\n", 
    "Date": "28/01/16", 
    "Image-Link": "https://www.blognone.com/sites/default/files/imagecache/news-thumbnail/category_pictures/waze.png", 
    "Link": "https://www.blognone.com/node/77215", 
    "News": "Waze เปิดตัว Transport SDK สำหรับพาร์ทเนอร์ทางธุรกิจ", 
    "Tags": "SDK\nWaze\n", 
    "Time": "13:25"
}