{
    "By": "nismod", 
    "Contents": "\nSuper Data Research เปิดเผยรายงานว่า ปีที่แล้วตลาดเกมในทุกๆ แพลทฟอร์มทำรายได้ไปทั้งหมด 610,000 ล้านเหรียญสหรัฐฯ เพิ่มขึ้นจากปีก่อนหน้าประมาณ 8% โดยแพลทฟอร์มพีซี มีสัดส่วนรายได้เกินครึ่งหนึ่งหรือประมาณ 310,000 ล้านเหรียญสหรัฐฯ ตามมาด้วยแพลทฟอร์มโทรศัพท์มือถือที่ 258,000 ล้านเหรียญสหรัฐฯ และเครื่องคอนโซลที่ราว 4 หมื่นล้านเหรียญ สหรัฐฯ\nโดยเกมที่ทำรายได้สูงที่สุดบนพีซีคือ League of Legends ตามมาด้วย CrossFire และ Dungeon Fighter Online ส่วนบนโทรศัพท์มือถือที่ทำรายได้สูงที่สุดคือ Clash of Clans, Game of War: Fire Age และ Puzzle & Dragons\nขณะที่เครื่องคอนโซล Call of Duty: Advanced Warfare เป็นเกมที่ทำรายได้สูงสุด ตามมาด้วย FIFA 15 และ GTA V ทั้งนี้ข้อมูลเรื่องรายได้ของเกมครั้งนี้ นับเฉพาะเกมที่เป็นดิจิทัล คอนเทนท์เท่านั้น ไม่ได้นับรวมเกมที่ขายปลีกแบบกล่องหรือแผ่นเกม\nอนึ่งอันดับรายได้ของเกมที่เหลือสามารถดูได้จากที่มาครับ\nที่มา - Super Data Research\n", 
    "Date": "28/01/16", 
    "Image-Link": "https://www.blognone.com/sites/default/files/imagecache/news-thumbnail/category_pictures/league-of-legends-logo3.png", 
    "Link": "https://www.blognone.com/node/77216", 
    "News": "พีซียังเป็นแพลทฟอร์มเกมที่ทำรายได้รวมสูงที่สุดในโลกในปี 2015, LOL ทำรายได้สูงสุด", 
    "Tags": "Games\nLeague of Legends\n", 
    "Time": "14:17"
}