{
    "By": "nuntawat", 
    "Contents": "\nไมโครซอฟท์ปล่อย Windows 10 รุ่นทดสอบ 14251 ให้ Windows Insider กลุ่ม Fast Ring แล้ว โดยแก้บั๊กเกมหลักๆ ดังนี้\n\nแครชเมื่อสลับการแสดงผลจากเป็นหน้าเป็นเต็มจอ\nแอพช่วยเหลือผู้ใช้อย่าง Narrator หรือ Magnifier ค้างเป็นพักๆ หรือแครช\nFile Explorer แครชบ่อยเมื่อ DPI อยู่ที่ 175%\n\nGabriel Aul จากไมโครซอฟท์อธิบายว่า ที่เลข build กระโดดขึ้นจากรุ่นทดสอบก่อนหน้านี้เยอะเพราะต้องการให้ซิงค์กับเลข build ของ Windows 10 Mobile เพื่อให้สามารถอัพเดต build ในอนาคตได้อย่างสอดคล้องกัน\nสำหรับ Windows 10 Mobile นั้น รุ่นทดสอบต่อไป (ซึ่งเว็บไซต์ Windows Central คาดว่าจะหมายถึงอัพเดตรหัส Redstone (RS1)) จะถูกปล่อยให้ Lumia 550, Lumia 950 และ Lumia 950 XL ก่อน แล้วปล่อยให้มือถือรุ่นอื่นเมื่อ Windows 10 Mobile ตัวจริงถูกเปิดให้อัพเกรดจาก Windows Phone 8.1 โดยบริษัทยังคงแผนการปล่อยอัพเกรดข้างต้นเป็นต้นปีนี้\nที่มา: Windows Experience Blog, Windows Central\n", 
    "Date": "28/01/16", 
    "Image-Link": "https://www.blognone.com/sites/default/files/imagecache/news-thumbnail/category_pictures/w10m.png", 
    "Link": "https://www.blognone.com/node/77190", 
    "News": "ไมโครซอฟท์ปล่อย Windows 10 รุ่นทดสอบ 14251, เผย Windows 10 Mobile รุ่นทดสอบต่อไปจะเริ่มที่ Lumia 550, Lumia 950/XL ก่อน", 
    "Tags": "Microsoft\nOperating System\nWindows 10\nWindows 10 Mobile\n", 
    "Time": "7:42"
}