{
  "By": "lew", 
  "Contents": " Orange Pi เปิดตัวบอร์ดรุ่น Orange Pi Lite จากเดิมที่เคยเปิดตัวบอร์ดขนาดเล็ก Orange Pi One ราคา 9.99 ดอลลาร์ไปก่อนแล้ว แต่รุ่น Lite นี้มี Wi-Fi มาให้ในตัว ตัวซีพียูหลักเป็น Allwinner H3 แกน Cortex-A7 4 คอร์ 1.2GHz แรม 512MB การเก็บข้อมูลใช้ microSD เท่านั้น บนตัวบอร์ดมีชิป Wi-Fi ของ Realtek แต่กลับไม่มีเสาอากาศในตัว ต้องต่อเสาภายนอกผ่านพอร์ต u.FL เท่านั้น ราคาบอร์ด 12 ดอลลาร์ แต่ค่าส่งไทยประมาณ 3.39 ดอลลาร์ ที่มา - CNX Software, Aliexpress    ", 
  "Date": "10/May/2016", 
  "Image-Link": [
    "https://www.blognone.com/sites/default/files/styles/thumbnail/public/topics-images/orangepi.png?itok=6ERh7Rxc", 
    "//upic.me/i/dd/new-coming-orange-pi-lite-with-wifi-antenna-support-ubuntu-linux-and-android-mini-pc-beyond.jpg", 
    "/sites/all/themes/blognone42/images/linebutton.png"
  ], 
  "Link": "https://www.blognone.com/node/80774", 
  "News": "Orange Pi เปิดตัวบอร์ด Orange Pi Lite ราคา 12 ดอลลาร์ มี Wi-Fi ในตัว", 
  "Tags": [
    "Orange Pi", 
    "China", 
    "Hardware", 
    "micropc"
  ], 
  "Time": "01:15"
}