{
  "By": "lew", 
  "Contents": " FriendlyARM ผู้ผลิตบอร์ดลินุกซ์ออกบอร์ดในตระกูล NanoPi มาตั้งแต่ปีที่แล้ว โดยเน้นขนาดเล็กเป็นหลัก ตอนนี้บอร์ด NanoPi NEO ก็เป็นบอร์ดที่เล็กลงไปอีก ขนาดบอร์ดเพียง 40 มิลลิเมตร x 35.4 มิลลิเมตรเท่านั้น เล็กกว่า Raspberry Pi Zero อยู่ประมาณ 25% ตัวบอร์ดใช้ซีพียู Allwinner H3 พร้อมแรม 256MB หรือ 512MB เก็บข้อมูลใน micro SD พอร์ตมี Ethernet 10/100, USB, micro USB, serial debug พอร์ต I/O แยกเป็นสองฝั่ง 24 ขาหนึ่งฝั่งและ 12 ขาอีกหนึ่งฝั่ง ยังไม่ประกาศราคา แต่บอร์ด NanoPi รุ่น M1 ที่เล็กที่สุดก่อนหน้านี้ราคา 11 ดอลลาร์ รุ่นนี้ราคาก็น่าจะลดลงมาอีก ที่มา - CNX Software    ", 
  "Date": "7/July/2016", 
  "Image-Link": [
    "https://www.blognone.com/sites/default/files/styles/thumbnail/public/topics-images/allwinner.png?itok=yczWJJ_B", 
    "//upic.me/i/qt/nanopi-neo-layout.jpg", 
    "/sites/all/themes/blognone42/images/linebutton.png"
  ], 
  "Link": "https://www.blognone.com/node/83119", 
  "News": "FriendlyARM เปิดตัวบอร์ด NanoPi NEO ย่อบอร์ดให้เล็กลงแต่ยังมีพอร์ตแลน", 
  "Tags": [
    "AllWinner", 
    "micropc"
  ], 
  "Time": "12:42"
}