{
  "By": "nrad6949", 
  "Contents": " หนังสือพิมพ์ The Hill ของสหรัฐอเมริกา รายงานว่าเมื่อวันศุกร์ที่ผ่านมา คณะมนตรีสิทธิมนุษยชนแห่งสหประชาชาติ (United Nations Human Rights Council: UNHRC) ลงมติประณามการปิดกั้นอินเทอร์เน็ตด้วยคะแนนเสียงเป็นเอกฉันท์ (consensus) ที่นครเจนีวา สมาพันธรัฐสวิส มติดังกล่าวถือเป็นมติต่อเนื่องที่เกี่ยวกับสิทธิมนุษยชนบนอินเทอร์เน็ตที่ทางคณะมนตรีฯ ได้ออกมติมาแล้วเป็นฉบับที่สองตั้งแต่ปี 2012 โดยมตินี้ถือเป็นครั้งแรกที่มีการประณามการปิดกั้นการเข้าถึงอินเทอร์เน็ต รวมถึงยังประณามการคุกคามผู้ใช้อินเทอร์เน็ตที่ใช้เสรีภาพและสิทธิมนุษยชนบนอินเทอร์เน็ตด้วย และเรียกร้องให้ชาติสมาชิกต่างๆ ให้ความสำคัญกับประเด็นความปลอดภัยและสิทธิส่วนบุคคล รวมถึงลดช่องว่างในการเข้าถึงอินเทอร์เน็ตด้วย อย่างไรก็ตาม มติดังกล่าวไม่มีผลผูกพันกับชาติสมาชิกแต่อย่างใด แต่มีผลในเชิงแรงกดดันทางการเมืองระหว่างประเทศที่ทำให้ชาติสมาชิกสหประชาชาติอาจต้องปรับตัวให้สอดคล้องกับมติดังกล่าวนี้ ที่มา - The Hill ภาพห้องประชุม The Human Rights and Alliance of Civilizations ของคณะมนตรีสิทธิมนุษยชนแห่งสหประชาชาติ ณ สำนักงานสหประชาชาติ นครเจนีวา สมาพันธรัฐสวิส (ภาพจาก UN)   ", 
  "Date": "4/July/2016", 
  "Image-Link": [
    "https://www.blognone.com/sites/default/files/styles/thumbnail/public/topics-images/Flag_of_the_United_Nations.svg_.png?itok=LZ6vW2GC", 
    "https://i.imgur.com/OhtwZYg.jpg", 
    "/sites/all/themes/blognone42/images/linebutton.png"
  ], 
  "Link": "https://www.blognone.com/node/82990", 
  "News": "คณะมนตรีสิทธิมนุษยชนแห่งสหประชาชาติ ออกมติประณามการปิดกั้นอินเทอร์เน็ต", 
  "Tags": [
    "United Nations", 
    "Internet", 
    "Civil Rights", 
    "Privacy"
  ], 
  "Time": "20:19"
}