{
  "By": "twometre", 
  "Contents": " มีข่าวว่า Spotify แพลตฟอร์มสตรีมเพลงสัญชาติสวีเดนได้จ้าง Troy Carter อดีตผู้จัดการศิลปินผู้ผลักดันดาวดังอย่าง Lady Gaga, John Legend, Charlie Puth และ Meghan Trainor มาดำรงตำแหน่ง \"ประธานฝ่ายบริการผู้สร้างเนื้อหา\" (global head of creator services) ซึ่งเนื้องานคือการประสานงานกับศิลปินและค่ายเพลงโดยเฉพาะ และขึ้นตรงกับ CSO (Chief Strategic Officer) กระแสบริษัทเทคโนโลยีจ้างคนในวงการดนตรีไปร่วมงานไม่ใช่เรื่องใหม่ โดยเฉพาะธุรกิจสายนี้ Apple ก็ได้ตัว Jimmy Iovine ผู้ร่วมก่อตั้งค่ายเพลง Interscope หรืออย่าง Tidal ก็มีสัมพันธ์อันดีกับ Jay Z เป็นต้น ที่มา - Recode  Troy Carter ภาพจาก Wikipedia   ", 
  "Date": "7/June/2016", 
  "Image-Link": [
    "https://www.blognone.com/sites/default/files/styles/thumbnail/public/topics-images/spotify500.png?itok=skNKsnYA", 
    "//upic.me/i/7n/troy_carter_in_2014.png", 
    "/sites/all/themes/blognone42/images/linebutton.png"
  ], 
  "Link": "https://www.blognone.com/node/81932", 
  "News": "Spotify คว้าตัว Troy Carter ผู้อยู่เบื้องหลัง Lady Gaga เสริมทัพอุตสาหกรรมสตรีมมิ่ง", 
  "Tags": [
    "Spotify", 
    "Music Streaming"
  ], 
  "Time": "05:30"
}