{
  "By": "sunnywalker", 
  "Contents": " SoundCloud เว็บไซต์สตรีมมิ่งเพลงที่ให้ผู้คนเข้ามาฝากเพลง เตรียมขยายการเก็บค่าสมาชิก ใน SoundCloud Go บริการสตรีมมิ่งเพลงแบบสมัครสมาชิกรายเดือน ที่มีออปชั่นให้ผู้ใช้มากกว่าเดิม ไปสู่อังกฤษและไอร์แลนด์ หลังจากเปิดตัวในอเมริกาแข่งกับเจ้าดังอย่าง spotify และ Apple music ค่าบริการรายเดือนสำหรับอังกฤษอยู่ที่ 14.64 เหรียญฯ หรือประมาณ 512 บาท/เดือน ส่วนในไอร์แลนด์ อยู่ที่ 11.50 เหรียญฯหรือประมาณ 402 บาท/เดือน  Eric Wahlforss co-founder ของ SoundCloud กล่าวว่า สตรีมมิ่งยังอยู่ในช่วงเริ่มต้น SoundCloud อาจยังไม่ประสบผลด้านยอดเงินขนาดนั้นแต่เรายังคงลงทุนเพื่อการเติบโตในอนาคตต่อไป และจะขยาย SoundCloud Go ไปประเทศต่างๆทั่วโลกให้ได้ SoundCloud ทุกวันนี้มีผู้ใช้ถึง 175 ล้านราย ในขณะที่ Spotify มี subscribers 30 ล้านราย และ Apple Music มีกว่า 10 ล้านราย ซึ่งจุดนี้ Wahlforss กล่าวว่า ไม่ใช่ประเด็น เพราะผู้ใช้ SoudCloud ส่วนใหญ่ยังอยู่ในช่วงทดลองใช้ฟรี ไม่สามารถนำตัวเลขจำนวนผู้ใช้มาชี้วัดรายได้ของ SoudCloud ได้ ที่มา - Reuters   ", 
  "Date": "3/May/2016", 
  "Image-Link": [
    "https://www.blognone.com/sites/default/files/styles/thumbnail/public/topics-images/soundcloud.png?itok=ISwPn83T", 
    "//i.imgur.com/dBOXsvU.jpg”", 
    "/sites/all/themes/blognone42/images/linebutton.png"
  ], 
  "Link": "https://www.blognone.com/node/80563", 
  "News": "SoundCloud เตรียมขยายการเก็บค่าสมัครสมาชิกใน อังกฤษ และ ไอร์แลนด์ ", 
  "Tags": [
    "SoundCloud", 
    "Music Streaming"
  ], 
  "Time": "14:39"
}