{
  "By": "mk", 
  "Contents": " dtac ออกบริการใหม่ชื่อ Music Infinite (มิวสิค อินฟินิท) ให้สิทธิลูกค้าฟังเพลงผ่านแอพยอดฮิต 7 ตัวแบบไม่เสียค่า data (แอพที่รองรับคือ Apple Music, Coolism, Deezer, Joox, KKBox, LINE Music, TIDAL) บริการตัวนี้เปิดให้ใช้ฟรีสำหรับลูกค้า dtac แบบรายเดือนที่มีแพ็กเกจ 399 บาทขึ้นไป และลูกค้าเติมเงินที่มีแพ็กเกจเน็ต 59 บาท/สัปดาห์ หรือ 199 บาท/เดือนขึ้นไป โดยต้องดาวน์โหลดแอพ dtac Music Infinite จาก App Store หรือ Play Store มาติดตั้งก่อน นายลาร์ส นอร์ลิ่ง ซีอีโอ dtac ระบุว่าเห็นแนวโน้มคนรุ่นใหม่ฟังเพลงแบบสตรีมมิ่ง เติบโตสูงถึง 15 เท่าในรอบปีที่ผ่านมา และมีอัตราการใช้เน็ตเฉลี่ย 1.2GB ต่อคนต่อเดือน บริษัทจึงเห็นโอกาสตรงนี้ และออกบริการ Music Infinite มาดึงดูดผู้ใช้กลุ่มนี้ให้เลือกเครือข่าย dtac ต่อไป โดยคาดว่าจะมีลูกค้าขอรับสิทธิมากกว่า 1 ล้านคนได้ภายในปีนี้ ที่มา - dtac, อีเมลประชาสัมพันธ์    ", 
  "Date": "29/May/2016", 
  "Image-Link": [
    "https://www.blognone.com/sites/default/files/styles/thumbnail/public/news-thumbnails/dtac-music.png?itok=aO_cKMnc", 
    "https://i.imgur.com/a5uJ3Il.jpg", 
    "/sites/all/themes/blognone42/images/linebutton.png"
  ], 
  "Link": "https://www.blognone.com/node/81580", 
  "News": "dtac เปิดบริการใหม่ Music Infinite ไม่คิดค่าเน็ตสำหรับฟังเพลงสตรีมมิ่งใน 7 แอพดัง", 
  "Tags": [
    "DTAC", 
    "Music Streaming"
  ], 
  "Time": "21:05"
}