{
  "By": "BlackMiracle", 
  "Contents": " เมื่อไม่กี่วันก่อน ประธานาธิบดีบารัค โอบามา ให้สัมภาษณ์ว่าเขาเลิกใช้ BlackBerry แล้ว โดยทำเนียบขาวมอบสมาร์ทโฟนเครื่องใหม่มาแทน แต่ก็ไม่ได้เปิดเผยว่าเป็นสมาร์ทโฟนยี่ห้อหรือรุ่นอะไร ล่าสุดมีรายงานว่าสมาร์ทโฟนของโอบามาน่าจะเป็น Samsung Galaxy S4 ตามกฎของ Defense Information Systems Agency หรือ DISA ซึ่งเป็นหน่วยงานย่อยของกระทรวงกลาโหมสหรัฐอเมริกา ทำหน้าที่กำกับดูแลบริการด้านการสื่อสารต่างๆ ให้กับทำเนียบขาว ได้รับรองสมาร์ทโฟนอยู่เพียงรุ่นเดียวเท่านั้น คือ Samsung Galaxy S4 และแน่นอนว่าไม่ใช่ S4 ธรรมดา เพราะมันได้รับการปรับแต่งเสริมความปลอดภัยอย่างเต็มที่โดย DISA เอง และยังเป็นโทรศัพท์ที่มีวางขายทั่วไปรุ่นแรกที่สามารถเชื่อมต่อเข้ากับเครือข่ายลับสุดยอดของกระทรวงกลาโหม SIPRNet ได้ด้วย DISA ยังทำงานร่วมกับผู้ผลิตสมาร์ทโฟนและ NSA ในการพัฒนาอุปกรณ์พกพาต่างๆ ให้มีความปลอดภัยมากพอที่จะใช้ในกระทรวงกลาโหมเอง โดยนายจอห์น เคอร์รี่ รัฐมนตรีว่าการกระทรวงการต่างประเทศของสหรัฐอเมริกาก็เป็นคนแรกที่ได้ทดลองใช้ Samsung Galaxy S4 รุ่นดังกล่าวในช่วงเบต้า ก่อนที่โอบามาจะได้ใช้จริง สมาร์ทโฟนภายใต้โครงการของ DISA ถูกถอดฟีเจอร์ออกมากมายด้วยเหตุผลด้านความปลอดภัย อาทิ ผู้ใช้เข้าถึงกล้องไม่ได้ และดาวน์โหลดแอพได้จากสโตร์ของ DISA เองเท่านั้น ที่มา - Ars Technica รูปโดย Pete Souza เผยแพร่โดยทำเนียบขาว   ", 
  "Date": "15/June/2016", 
  "Image-Link": [
    "https://www.blognone.com/sites/default/files/styles/thumbnail/public/topics-images/j8u2rhG1.jpg?itok=CJuE6qSo", 
    "https://i.imgur.com/S51gm6m.jpg", 
    "/sites/all/themes/blognone42/images/linebutton.png"
  ], 
  "Link": "https://www.blognone.com/node/82280", 
  "News": "มีรายงานว่าสมาร์ทโฟนที่โอบามาใช้น่าจะเป็น Samsung Galaxy S4", 
  "Tags": [
    "Samsung", 
    "Obama", 
    "Galaxy S4", 
    "Mobile", 
    "Whitehouse"
  ], 
  "Time": "11:58"
}