{
  "By": "nismod", 
  "Contents": " แอคเคาท์ hellomotoHK บน Google+ ได้ปล่อยภาพเรนเดอร์ของสมาร์ทโฟนที่น่าจะเป็น Moto X รวมถึงสมาร์ทโฟนในซีรีส์ Droid รุ่นถัดไป ซึ่งนับเป็นรุ่นแรกหลังย้ายมาอยู่ใต้ชายคา Lenovo ความเปลี่ยนแปลงที่เห็นได้ชัดที่สุดคือทาง Lenovo ได้เปลี่ยนวัสดุของตัวเครื่องมาเป็นโลหะ และเพิ่มปุ่มโฮมแบบสี่เหลี่ยมเข้ามาให้ ที่คาดว่าจะมาพร้อมกับเซ็นเซอร์สแกนลายนิ้วมือ หลังจากที่เป็นแบบซอฟท์ทัชมาตั้งแต่เจนแรก ขนาบข้างด้วยลำโพง ขณะที่กล้องหลัง มีลักษณะกลมคล้ายหน้าปัด Moto 360 และตามกระแส (ที่ไม่น่าตาม) ของ iPhone 6 และ Galaxy S7 ด้วยการนูนขึ้นมาจากฝาหลังเล็กน้อย ขณะเดียวกันก็มีการเปลี่ยนดีไซน์ของตัวเครื่องเช่นกัน หลังจากที่ Moto X ทั้ง 3 รุ่นผ่านมา ฝาหลังถูกออกแบบมาให้โค้งรับกับอุ้งมือเล็กน้อย แต่ภาพที่หลุดออกมาชี้ว่าฝาหลังของ Moto X รุ่นใหม่น่าจะแบนราบเหมือนสมาร์ทโฟนทั่วไป ส่วนบริเวณด้านล่างของฝาหลัง ปรากฎส่วนที่มีลักษณะคล้ายพินสำหรับด๊อกกิ้งด้วย ส่วนสเปคคาดว่าจะรันด้วย Snapdragon 820 แรม  4GB หากภาพที่หลุดออกมาเป็นของจริง เรียกได้ว่าทาง Lenovo ได้เปลี่ยน design language ของ Moto X แบบยกเครื่องก็ว่าได้ครับ ที่มา - +hellomotoHK via Android Police    ", 
  "Date": "9/May/2016", 
  "Image-Link": [
    "https://www.blognone.com/sites/default/files/styles/thumbnail/public/topics-images/motorola.png?itok=Pff47JHy", 
    "/sites/all/themes/blognone42/images/linebutton.png"
  ], 
  "Link": "https://www.blognone.com/node/80742", 
  "News": "หลุดภาพ Moto X และ Droid ซีรีส์รุ่นถัดไป ยกเครื่องดีไซน์ใหม่", 
  "Tags": [
    "Moto X", 
    "Motorola", 
    "Leak", 
    "Mobile"
  ], 
  "Time": "11:08"
}