{
  "By": "lew", 
  "Contents": " ปัญหาเซิร์ฟเวอร์ Salesforce ล่ม และเมื่อกู้กลับมาได้ข้อมูลกลับเสียหาย วันนี้ซีอีโอ Salesforce ให้ความเห็นกับทาง The Register ระบุว่าข้อมูลที่เสียหายมีไม่มากนัก เพราะเป็นเซิร์ฟเวอร์โซนอเมริกาเหนือและเป็นช่วงเวลากลางคืน และการกู้คืนข้อมูลจะทำงานกับลูกค้าเป็นกรณีๆ ไป ก่อนหน้านี้โฆษกของ Salesforce ระบุว่าบริษัทจะทำตามสัญญาที่ระบุไว้ น่าจะหมายถึงการชดเชยให้กับลูกค้าที่เสียข้อมูลและไม่สามารถใช้งานได้ ที่มา - The Register   ", 
  "Date": "16/May/2016", 
  "Image-Link": [
    "https://www.blognone.com/sites/default/files/styles/thumbnail/public/topics-images/salesforce.png?itok=6juwa_aj", 
    "/sites/all/themes/blognone42/images/linebutton.png"
  ], 
  "Link": "https://www.blognone.com/node/81016", 
  "News": "Salesforce ระบุ ข้อมูลที่สูญหายไปมีเพียงเล็กน้อย, แก้ปัญหาเป็นรายๆ ไป", 
  "Tags": [
    "Salesforce.com", 
    "Cloud"
  ], 
  "Time": "12:07"
}