{
  "By": "lew", 
  "Contents": " บอร์ดคอมพิวเตอร์จีนอย่าง Banana Pi ประกาศรุ่นอัพเกรดล่าสุดเป็น BPI-M64 ใช้ชิป Allwinner A64 ที่คอร์เป็น Cortex A53 สี่คอร์ สเปครวมๆ ของ BPI-M64 ค่อนข้างครบ แรม 2GB หน่วยความจำแฟลช 8GB พอร์ตแลนกิกะบิต, พอร์ต HDMI, MIPI DSI/CSI, Wi-Fi, Bluetooth (ผมมองไม่เห็นสายอากาศบนบอร์ด อาจจะต้องต่อสายอากาศภายนอกอย่างเดียว), ไมโครโฟน, พอร์ดหูฟัง, อินฟราเรด, ช่องต่อแบตเตอรี่ลิเทียม บอร์ดยังไม่วางขาย แต่ตัวแทนบริษัทบอกกับ CNX Software ว่าราคาจะอยู่ราวๆ 35 ดอลลาร์ ที่มา - CNX Software    ", 
  "Date": "13/July/2016", 
  "Image-Link": [
    "https://www.blognone.com/sites/default/files/styles/thumbnail/public/topics-images/bananapi.jpg?itok=5lUs3nKh", 
    "//upic.me/i/az/bpi-m64hardwarespecificationlittle.jpg", 
    "/sites/all/themes/blognone42/images/linebutton.png"
  ], 
  "Link": "https://www.blognone.com/node/83360", 
  "News": "Banana Pi ออก BPI-M64 ซีพียู 64 บิต แรม 2GB ราคา 35 ดอลลาร์", 
  "Tags": [
    "Banana Pi", 
    "China", 
    "micropc"
  ], 
  "Time": "01:01"
}