{
  "By": "nismod", 
  "Contents": " จีนอาจจะเป็นตลาดที่ใหญ่ตลาดหนึ่งสำหรับเกมบนสมาร์ทโฟน แต่ทว่าหลังจากวันที่ 1 กรกฎาคมเป็นต้นไป นักพัฒนาคนไหนอยากจะพัฒนาเกมและขายในประเทศจีน จะต้องนำเกมไปให้กับทาง State Administration of Press, Publications, Radio, Film, and Television (SAPPRFT) ตรวจสอบ โดยจะใช้เวลาอย่างน้อยที่สุด 20 วัน และหากยิ่งเป็นเกมที่มีเนื้อเรื่องก็จะใช้เวลามากยิ่งขึ้น ก่อนที่จะปล่อยดาวน์โหลดหรือขายได้ โดยจุดประสงค์คงหนีไม่พ้นเรื่องการตรวจสอบเนื้อหาที่อาจส่งผลกระทบต่อความมั่นคง ในมุมของรัฐบาลจีน อย่างไรก็ตามหากเกมได้รับการอนุมัติแล้ว นักพัฒนาจะต้องแจ้งทางการภายใน 7 วันหลังจากเกมถูกปล่อยให้ดาวน์โหลดถึงรายละเอียดต่างๆ ด้วยอาทิ ดาวน์โหลดได้ที่ไหน และหากนักพัฒนายังไม่วางจำหน่ายหรือปล่อยเกมออกสู่ตลาดภายใน 20 วันหลังจากวันที่แจ้งกับทางการ นักพัฒนาก็จะต้องชี้แจงถึงเหตุผลดังกล่าวด้วยเช่นกัน ที่มา - Tech in Asia   ", 
  "Date": "3/June/2016", 
  "Image-Link": [
    "https://www.blognone.com/sites/default/files/styles/thumbnail/public/topics-images/china.png?itok=DbpIQN62", 
    "/sites/all/themes/blognone42/images/linebutton.png"
  ], 
  "Link": "https://www.blognone.com/node/81793", 
  "News": "ทางการจีนจะเริ่มตรวจสอบเกมบนสมาร์ทโฟนทุกเกมก่อนปล่อยให้ดาวน์โหลด", 
  "Tags": [
    "China", 
    "Games", 
    "Mobile App"
  ], 
  "Time": "09:24"
}