{
    "By": "BlackMiracle", 
    "Contents": "\nต่อเนื่องจากข่าว Tesla ออกซอฟต์แวร์อัพเดต 7.1 Elon Musk ซีอีโอของ Tesla Motors ได้ทวีตเกี่ยวกับฟีเจอร์ใหม่เพิ่มเติม ซึ่งเป็นสิ่งที่เราเห็นกันบ่อยๆ จากภาพยนตร์สายลับหลายเรื่อง\nเขาพูดถึงฟีเจอร์ Summon หรือแปลเป็นภาษาไทยได้ว่า \"เรียกมา\" ที่ขณะนี้สามารถสั่งให้รถยนต์เข้าและออกจากโรงจอดเองได้ ว่าภายใน 2 ปี เจ้าของรถจะสามารถเรียกรถให้ขับมาหาจากที่ไหนก็ได้ เช่นรถอยู่ที่นครนิวยอร์ก แต่เจ้าของอยู่ลอสแองเจลิส (ห่างกันราว 4,500 ก.ม.) ก็เรียกให้รถขับมาหาเองได้\nกำหนดการ 2 ปีเป็นกำหนดเดียวกับที่ Musk เคยเปิดเผยก่อนหน้านี้ว่ารถยนต์ Tesla จะขับอัตโนมัติได้เต็มรูปแบบภายใน 2 ปี จึงไม่น่าแปลกใจที่หากทำได้จริงก็สามารถเอามาใช้กับฟีเจอร์ Summon ได้ด้วย\nที่มา - Venture Beat\nIn ~2 years, summon should work anywhere connected by land & not blocked by borders, eg you're in LA and the car is in NY\n— Elon Musk (@elonmusk) January 10, 2016\n", 
    "Date": "13/01/16", 
    "Image-Link": "https://www.blognone.com/sites/default/files/imagecache/news-thumbnail/category_pictures/tesla-motors.png", 
    "Link": "https://www.blognone.com/node/76647", 
    "News": "งานสายลับก็มา Elon Musk เผย ผู้ใช้จะสามารถสั่งให้รถ Tesla ขับมาหาจากที่ไหนก็ได้ภายใน 2 ปี", 
    "Tags": "Automobile\nElon Musk\nTesla Motors\n", 
    "Time": "1:16"
}