{
    "By": "Blltz", 
    "Contents": "\nแม้ว่ากระแสการใช้งานโดรนจะเติบโตขึ้นอย่างรวดเร็วในช่วงหลัง แต่ทว่าการใช้งานหลักๆ ยังคงจำกัดอยู่แค่ในกลุ่มผู้ใช้ทั่วไป ทีมถ่ายทำภาพยนตร์ หรือเฉพาะทางจัดๆ อย่างงานกู้ภัย นอกนั้นเราก็ไม่ค่อยเห็นการนำโดรนไปใช้ในรูปแบบอื่นมากนัก โดยเฉพาะกับภาคธุรกิจ\nเพื่อปลุกกระแส และเตรียมความพร้อมสำหรับการใช้งานโดรนในโลกธุรกิจอย่างจริงจัง สำนักงานการบินแห่งชาติสหรัฐฯ (FAA) เพิ่งประกาศรับรองให้ Aerodrome สตาร์ทอัพสายฝึกสอน และซัพพอร์ตการใช้งานโดรนให้ดำเนินการสร้าง Eldorado Droneport สนามบินสำหรับโดรนเป็นแห่งแรกของสหรัฐฯ ในโบลเดอร์ซิตี รัฐเนวาดา\nEldorado Droneport จะให้บริการทั้งการฝึกสอนใช้งานโดรน ซ่อมบำรุง และสนับสนุนการใช้งาน และเปิดพื้นที่สำหรับให้คนทั่วไปมาบังคับโดรนด้วย โดย Aerodrome ระบุว่าจะใช้เวลาก่อสร้างพร้อมเตรียมการทั้งสิ้น 3 ปี\nที่มา - TechCrunch\n\n", 
    "Date": "13/01/16", 
    "Image-Link": "https://www.blognone.com/sites/default/files/imagecache/news-thumbnail/category_pictures/usa.png", 
    "Link": "https://www.blognone.com/node/76684", 
    "News": "FAA เปิดไฟเขียวให้สตาร์ทอัพสร้างสนามบินฝึกสอนโดรนเป็นครั้งแรกในสหรัฐฯ", 
    "Tags": "Drone\nFAA\nUSA\n", 
    "Time": "17:43"
}