{
    "By": "mk", 
    "Contents": "\nแวดวงคนทำเว็บและ SEO คงรู้กันดีว่ากูเกิลมีอัลกอริทึมต่อต้านสแปมชื่อ \"Panda\" มาตั้งแต่ปี 2011 เอาไว้ต่อต้านเว็บ link farm และเว็บปั่นประเภทต่างๆ เพื่อรักษาคุณภาพของผลการค้นหา\nอัลกอริทึม Panda ทำงานแยกจากอัลกอริทึมหลักของ Google Search มานาน แต่ล่าสุดตัวแทนของกูเกิลยืนยันแล้วว่า Panda ถูกผนวกเข้าเป็นส่วนหนึ่งของอัลกอริทึมหลักเรียบร้อยแล้ว\nกูเกิลไม่ค่อยเผยข้อมูลของ Panda มากนักในช่วงหลัง ข้อมูลล่าสุดที่แวดวง SEO ทราบกันคือเวอร์ชันล่าสุดของ Panda คือ 4.2 ซึ่งเป็นข่าวเมื่อหลายเดือนก่อน ส่วนในแง่ผลกระทบของการรวม Panda เข้ากับอัลกอริทึมหลักก็ต้องรอดูกันต่อไปว่าจะมีผลแค่ไหน\nที่มา - Search Engine Land, ภาพประกอบโดย J. Patrick Fischer / Wikipedia\n\n", 
    "Date": "13/01/16", 
    "Image-Link": "https://www.blognone.com/sites/default/files/imagecache/news-thumbnail/category_pictures/g-search-2015.png", 
    "Link": "https://www.blognone.com/node/76678", 
    "News": "กูเกิลผนวกอัลกอริทึม Panda เข้ากับอัลกอริทึมหลักของ Google Search แล้ว", 
    "Tags": "Algorithm\nGoogle\nGoogle Search\nSearch Engine\n", 
    "Time": "14:39"
}