{
  "By": "tekkasit", 
  "Contents": " สองสามวันก่อน ทางอเมซอนออกอัปเดตซอฟต์แวร์รุ่น 5.8.1 สำหรับเครื่อง Kindle รุ่นใหม่ๆ สำหรับอุปกรณ์ในรุ่นที่หก, เจ็ดและแปด อันได้แก่ Kindle Oasis, Kindle Voyage, Kindle (2014), Kindle Paperwhite (2013, 2015) ส่วนตัวอัปเดตย่อยใหม่ครั้งนี้มีอะไรที่ปรับปรุงไปบ้างนั้น นอกจากคำอธิบายกว้างๆ ว่า ปรับปรุงประสิทธิภาพ แล้วครั้งนี้ยังมีการเพิ่มฟีเจอร์ใหม่ 4 ข้อด้วยกันดังนี้   คืน Progress Dots: หลังจากผู้ใช้จำนวนมากบ่นการที่อเมซอนตัด Progress Dots ออก ตั้งแต่อัพเดต 5.7 ขึ้นมา โดยเหลือเป็นเปอร์เซนต์เพียงอย่างเดียว มาครั้งนี้คืน Progress Dots ให้แล้ว แต่คืนในหน้า List View เท่านั้น แต่ Cover View ก็ยังไม่มีเหมือนเดิม    เพิ่มทางเลือกในการแชร์: สามารถแชร์หนังสือได้จากในหน้า \"About This Book\" โดยตรง    แนะนำหนังสือในโปรแกรม Kindle Unlimited: ถ้าเราสมัครบริการ \"Kindle Unlimited\" หลังจากเลือกแนวหนังสือ (genres) ที่สนใจแล้ว อเมซอนจะแสดงรายการหนังสือที่อเมซอนคิดว่าเราน่าจะสนใจให้เราเลือกอ่านให้ บันทึกรหัสผ่าน Wi-Fi กับบัญชีอเมซอน: ผู้ใช้สามารถบันทึกรหัสผ่าน Wi-Fi เก็บไว้บนอเมซอน เมื่อล็อกอินในครั้งหน้าระบบจะช่วยจำรหัสผ่าน Wi-Fi ให้ ไม่ต้องพิมพ์รหัสผ่านซ้ำอีก (ฟีเจอร์นี้มีอยู่บนอุปกรณ์ตระกูล Fire อยู่แล้ว) แต่ถ้ากังวลสามารถเลือกจะไม่ใช้ฟีเจอร์นี้ก็ได้   ตัวอัปเดตมีขนาดประมาณ 199 MiB ถึง 212 MiB ซึ่งจะถูกโหลดและติดตั้งผ่าน OTA หรือถ้าไม่อยากรอสามารถโหลดตัวอัปเดตมาจากเว็บไซต์มาติดตั้งเองโดยแยกตามรุ่นดังนี้ครับ  Kindle Oasis - 5.8.1 - 211 MiB Kindle Voyage - 5.8.1 - 212 MiB Kindle Paperwhite รุ่นสาม/2015 - 5.8.1 - 212 MiB Kindle Paperwhite รุ่นสอง/2013 - 5.8.1 - 203 MiB Kindle รุ่นที่เจ็ด/2014 - 5.8.1 - 199 MiB  สำหรับใครที่อัปเดต Kindle Voyage, Paperwhite รุ่นสามให้รองรับ VoiceView ได้เอง ไม่ต้องกลัวครับ หลังอัปเดต ฟีเจอร์ VoiceView ยังทำงานได้ดีไม่มีปัญหาครับ ที่มา: Good e-Reader   ", 
  "Date": "18/June/2016", 
  "Image-Link": [
    "https://www.blognone.com/sites/default/files/styles/thumbnail/public/topics-images/kindle-voyage.jpg?itok=T885cF_j", 
    "https://lh3.googleusercontent.com/-G5J8jCJymIQ/V2Stj7IgPsI/AAAAAAAA-bE/GInMdFbw1CQWeL8huA6z_Hv2QZyxQXZ8ACCo/s400/_progress-dot-list-view.png", 
    "https://lh3.googleusercontent.com/-4dB_tNGJM8g/V2Stj6WSdlI/AAAAAAAA-bk/xf_bXNhofqg1cQYlcAgeWUVZmjEWjmR5ACCo/s400/_share-from-about-this-book.png", 
    "https://lh3.googleusercontent.com/-5D95AsJ5kvY/V2Stj0qsDcI/AAAAAAAA-bg/Slj_1SGz0IUTp4ZgmnRqeGxdXzlECmxGwCCo/s400/_save-wifi-password.png", 
    "/sites/all/themes/blognone42/images/linebutton.png"
  ], 
  "Link": "https://www.blognone.com/node/82399", 
  "News": "อเมซอนออกอัปเดตคินเดิล 5.8.1 - นำจุดแสดงสถานะการอ่าน Progress Dots คืนมา", 
  "Tags": [
    "Kindle Voyage", 
    "Kindle", 
    "Amazon", 
    "eBook Reader", 
    "Kindle Paperwhite", 
    "Kindle Oasis"
  ], 
  "Time": "09:26"
}