{
  "By": "mk", 
  "Contents": "
ปัญหาบั๊กของอุปกรณ์ตระกูล Surface ยังยืดเยื้อยาวนาน หลังจากไมโครซอฟท์อัพเดตเฟิร์มแวร์ Surface 3/Pro 3 ที่อัพเดตแล้วดันมีปัญหามากกว่าเดิม คราวนี้ก็ถึงคิวของ Surface Pro 4/Surface Book ได้อัพเดตกันบ้าง
อัพเดตตัวนี้ชื่อว่า “System Firmware Update – 1/27/2016” แก้บั๊กทั้งหมด 4 จุด

Surface Embedded Controller Firmware (v88.899.256.0) ปรับปรุงเรื่องการชาร์จแบตเตอรี่และการระบายความร้อน
Wireless Network Controller and Bluetooth driver update (v15.68.9037.59) ปรับปรุงการเชื่อมต่อ Wi-Fi บนความถี่ 5GHz
Surface DTX driver update (v1.3.202.0) ปรับปรุงเรื่องการถอดคีย์บอร์ด
NVIDIA GeForce GPU update (v10.18.13.5914) ปรับปรุงเสถียรภาพจีพียู (เฉพาะ Surface Book รุ่นที่มีจีพียู)

ที่มา - Microsoft, Paul Thurrott

", 
  "Date": "30/01/16", 
  "Image-Link": "https://www.blognone.com/sites/default/files/imagecache/news-thumbnail/category_pictures/sf-pro4.png", 
  "Link": "https://www.blognone.com/node/77286", 
  "News": "การรอคอยอันยาวนาน ไมโครซอฟท์ออกเฟิร์มแวร์แก้บั๊กให้ Surface Pro 4 และ Surface Book", 
  "Tags": "Microsoft
Surface Book
Surface Pro 4
", 
  "Time": "12:24"
}