{
  "By": "mk", 
  "Contents": "
สงครามคอนโซลยุคปัจจุบันนั้นชัดเจนว่า PS4 เป็นฝ่ายนำหน้า ฝั่งของโซนี่ออกมาอวดตัวเลขยอดขายอยู่บ่อยครั้ง (ยอดขายล่าสุดคือ 35.9 ล้านเครื่อง) แต่ไมโครซอฟท์ไม่เปิดเผยว่า Xbox One ขายได้มากน้อยแค่ไหน
อย่างไรก็ตาม เราพอรู้ตัวเลขนี้จากค่ายเกมยักษ์ใหญ่ EA ที่ทำเกมลงทั้งสองเครื่อง โดย Blake Jorgensen ซีเอฟโอตอบคำถามนักลงทุนว่ายอดขายคอนโซลยุคนี้รวมกัน 55 ล้านเครื่อง นั่นแปลว่าเราสามารถหักลบตัวเลขของ PS4 ออก เหลือ 19 ล้านเครื่องของ Xbox One
แต่ถึงแม้ Xbox One ขายได้น้อยกว่า PS4 เกือบครึ่ง แต่ตลาดคอนโซลก็เติบโตขึ้นมาก เพราะ EA บอกว่าตัวเลข 55 ล้านเครื่องถือว่าโตเร็วเกินคำพยากรณ์ทุกค่าย และถ้าเทียบกับคอนโซลยุคก่อนก็มียอดขายเยอะกว่าถึง 50% ถ้าเทียบจากช่วงเวลาที่เริ่มวางขาย
ที่มา - Ars Technica

", 
  "Date": "30/01/16", 
  "Image-Link": "https://www.blognone.com/sites/default/files/imagecache/news-thumbnail/category_pictures/ea.png", 
  "Link": "https://www.blognone.com/node/77288", 
  "News": "EA เผยยอดขายคอนโซลยุคปัจจุบัน 55 ล้านเครื่อง, Xbox One ขายได้ 19 ล้านเครื่อง", 
  "Tags": "EA
Games
Xbox One
", 
  "Time": "14:27"
}