{
  "By": "lew", 
  "Contents": "
บริการธนาคารออนไลน์ของ HSBC ในอังกฤษถูกโจมตีแบบ DDoS ต่อเนื่องทำให้บริการทั้งเว็บไซต์ และแอปพลิเคชั่นไม่สามารถใช้งานได้ต่อเนื่องหลายชั่วโมงในวันนี้
การที่ระบบล่มวันนี้กระทบคนจำนวนมากกว่าปกติเพราะเป็นวันสิ้นเดือนแรกของปีที่คนจำนวนมากต้องยื่นแบบภาษีและเป็นวันเงินเดือนออก
ทาง HSBC ถูกโจมตีมาแล้วครั้งหนึ่งเมื่อต้นเดือนที่ผ่านมาส่งผลให้บริการใช้การไม่ได้สองชั่วโมง
ที่มา - ArsTechnica, The Register
", 
  "Date": "30/01/16", 
  "Image-Link": "https://www.blognone.com/sites/default/files/imagecache/news-thumbnail/category_pictures/hsbc.png", 
  "Link": "https://www.blognone.com/node/77276", 
  "News": "HSBC ถูก DDoS ต่อเนื่องหลายชั่วโมง", 
  "Tags": "Banking
DDoS
HSBC
", 
  "Time": "2:06"
}