{
  "By": "Blltz", 
  "Contents": "
แม้จะเพิ่งมีข่าวดีที่เพิ่งระดมทุนรอบใหม่ได้สำเร็จ แต่ชะตากรรมของผู้ร่วมระดมทุนแท็บเล็ต Jolla ก็ยังคงต้องลุ้นกันต่อไป ล่าสุดทางบริษัทออกมาอัพเดตความคืบหน้าให้กับคนที่ระดมทุนแท็บเล็ตเพิ่มเติมมาแล้ว
ในประกาศดังกล่าว Jolla ระบุว่าในเดือนกุมภาพันธ์ที่จะถึงนี้ มีแผนจะส่งมอบแท็บเล็ต Jolla ชุดใหม่อีกเป็นจำนวน 540 เครื่อง เพิ่มขึ้นจากล็อตแรก 121 เครื่อง ซึ่งก็ยังห่างไกลกับยอดสั่งจองที่มีมากกว่า 20,000 เครื่อง แต่เนื่องด้วยปัญหาซัพพลายเออร์ที่ดูจะยังแก้ไขไม่ได้ Jolla ระบุว่าจะยอมให้ผู้ร่วมระดมทุน และผู้ที่สั่งจองผ่านหน้าร้านสามารถยื่นเรื่องรับเงินคืนได้ โดยจะมีแจ้งเตือนไปในเดือนกุมภาพันธ์นี้
สำหรับคนที่ขอรับเงินคืน ชุดแรกจะได้ภายในครึ่งปีแรก ส่วนที่เหลือจะถูกยกไปครึ่งปีหลังด้วยเหตุผลด้านเงินทุนครับ
ที่มา - Android Central

", 
  "Date": "30/01/16", 
  "Image-Link": "https://www.blognone.com/sites/default/files/imagecache/news-thumbnail/category_pictures/jolla-nw.png", 
  "Link": "https://www.blognone.com/node/77295", 
  "News": "Jolla รับทำไม่ไหว แท็บเล็ตล็อตใหม่มีเพียง 540 เครื่อง, จะเปิดให้รับเงินคืนได้เร็วๆ นี้", 
  "Tags": "Jolla
Tablet
", 
  "Time": "23:20"
}