{
  "By": "nismod", 
  "Contents": " หลังจากมีข่าวเมื่อช่วงต้นปีที่ผ่านมา ล่าสุดกระทรวงพาณิชย์ออกประกาศ ว่าด้วยการกำหนดให้เครื่องพิมพ์ 3 มิติเป็นสินค้าที่ต้องปฏิบัติตามมาตรการจัดระเบียบในการนำเข้ามาในราชอาณาจักรอย่างเป็นทางการแล้ว ตามประกาศกระทรวง ผู้ที่นำเข้าจะต้องขึ้นทะเบียนและแจ้งกับอธิบดีกรมการค้าต่างประเทศ ก่อนจะนำใบรับแจ้งนั้นไปยื่นต่อกรมศุลกากร และแจ้งต่ออธิบดีกรมการค้าต่างประเทศอีกครั้งถึงรายละเอียดทั้งการนำเข้า การครอบครอง การขายหรือการให้เช่า โดยประกาศนี้ประกาศไว้ตั้งแต่วันที่ 4 เมษายนและจะมีผลบังคับใช้วันที่ 28 มิถุนายนเป็นต้นไป ที่มา - กรมการค้าต่างประเทศ via เฟซบุ๊ก Panutat Jimmy Tejasen   ", 
  "Date": "8/June/2016", 
  "Image-Link": [
    "https://www.blognone.com/sites/default/files/styles/thumbnail/public/topics-images/2000px-Flag_of_Thailand.svg_.png?itok=p3x8mdMM", 
    "/sites/all/themes/blognone42/images/linebutton.png"
  ], 
  "Link": "https://www.blognone.com/node/81992", 
  "News": "ก.พาณิชย์ออกประกาศกำหนดให้เครื่องพิมพ์ 3 มิติเป็นสินค้าที่ต้องจัดระเบียบในการนำเข้า", 
  "Tags": [
    "Thailand", 
    "Law"
  ], 
  "Time": "11:36"
}