{
  "By": "sunnywalker", 
  "Contents": " CDG เป็นบริษัทที่มีประสบการณ์ด้าน IT Solution ในประเทศไทยมานาน โดยเฉพาะการเข้ามาทำระบบคอมพิวเตอร์ให้หน่วยงานรัฐ หน่วยงานรัฐวิสาหกิจ ผลงานสำคัญของบริษัทคือออกแบบฐานข้อมูลทะเบียนราษฎร์ เก็บข้อมูลพื้นฐานประชากร รวมถึงติดตั้งเครื่องกดเงินสด ATM ในพื้นที่จังหวัดต่างๆ สัปดาห์ที่แล้ว CDG ฉลองครบรอบ 48 ปี นายนาถ ลิ่วเจริญ ประธานกรรมการบริหารกลุ่มบริษัท CDG แถลงทิศทางธุรกิจ ตั้งเป้าว่า CDG จะเป็นส่วนหนึ่งในการเปลี่ยนผ่านโครงสร้างระบบไอทีของประเทศไทยสู่ยุค Digital Thailand เน้นไปที่ 4 เรื่องหลักคือ  เพิ่มประสิทธิภาพการบริหารจัดการของภาครัฐ ลดขั้นตอนการทำงานด้วยระบบสารสนเทศ รวมถึงการบูรณาการฐานข้อมูลของหลายหน่วยงานเข้าด้วยกัน สิทธิเสรีภาพ ความปลอดภัยของสังคม เข้ามาเป็นส่วนหนึ่งช่วยป้องกัน Cybercrime การพัฒนาเศรษฐกิจ-ภาคธุรกิจ จัดทำ ประยุกต์ใช้แผนที่ Nostra Map เพื่อหนุนการทำงานภาคธุรกิจเช่น โลจิสติก การบริหารจัดการ การบริหารจัดการทรัพยากรประเทศและสังคม เช่น แผนที่สารสนเทศเพื่อจัดการภัยพิบัติ  พัฒนาระบบสารสนเทศทางไฟฟ้าและภูมิศาสตร์ เป็นต้น   นอกจากนี้ CDG จะเข้ามาทำโครงการเพื่อสังคม CDG : Code Their Dreams เปิดให้เยาวชนเข้ามาร่วมเรียนการพัฒนาโปรแกรม เพื่อเพิ่มจำนวนบุคลากรที่มีความสามารถด้านการเขียนโปรแกรมในระยะยาวด้วย นาถ ลิ่วเจริญ ประธานกรรมการบริหารกลุ่มบริษัท CDG   ", 
  "Date": "13/June/2016", 
  "Image-Link": [
    "https://www.blognone.com/sites/default/files/styles/thumbnail/public/news-thumbnails/AAEAAQAAAAAAAAP6AAAAJDExNjA0Njg2LWM2MDYtNDU2MS04YTIwLTI5M2ZhZDIwMWUwYg.png?itok=15Ivgiml", 
    "//i.imgur.com/59ojk2o.jpg”", 
    "/sites/all/themes/blognone42/images/linebutton.png"
  ], 
  "Link": "https://www.blognone.com/node/82192", 
  "News": "CDG  แถลงทิศทางธุรกิจ ตั้งเป้าพัฒนา Digital Economy ไปพร้อมรัฐบาล", 
  "Tags": [
    "CDG", 
    "Thailand"
  ], 
  "Time": "13:19"
}