{
  "By": "nexusZenith", 
  "Contents": " วันนี้ไมโครซอฟท์ประเทศไทยประกาศจัดงานสำหรับนักพัฒนา นักเรียนนักศึกษา และผู้ประกอบการ Startup ในชื่อว่า Thailand Developer Day โดยงานในครั้งนี้จะโฟกัสไปที่ Machine Learning, Data Science, Cloud Platform, IoT Platform, Cross Platform Mobile Application Development ในงานนี้ Satya Nadella ซีอีโอของไมโครซอฟท์ พร้อมด้วยผู้บริหารอีกสองคนคือ Dr. Graham Williams ผู้อำนวยการฝ่าย Data Science และ Andrey Terekhov หัวหน้าฝ่าย Open Source Sales & Marketing  มาร่วมงานด้วย ซึ่งงานจะจัดวันที่ 25 พฤษภาคม ที่ Plaza Athenee Bangkok, A Royal Meridien Hotel สำหรับผู้ที่สนใจสามารถดูกำหนดการของงานได้ที่ลิงก์อย่างเป็นทางการด้านล่างครับ ที่มา - Microsoft Developer Day    ", 
  "Date": "10/May/2016", 
  "Image-Link": [
    "https://www.blognone.com/sites/default/files/styles/thumbnail/public/topics-images/MSFT_logo_rgb_C-Gray.png?itok=j3hJhqua", 
    "https://i.imgur.com/nCTXMHP.png", 
    "/sites/all/themes/blognone42/images/linebutton.png"
  ], 
  "Link": "https://www.blognone.com/node/80809", 
  "News": "ไมโครซอฟท์ประเทศไทย จัดงาน Thailand Developer Day, Satya Nadella มาร่วมงานด้วย", 
  "Tags": [
    "Microsoft", 
    "Event", 
    "Satya Nadella", 
    "Thailand"
  ], 
  "Time": "16:39"
}