{
  "By": "lew", 
  "Contents": " ในบรรดาชุดกฎหมายดิจิตอลกฎหมายที่เกี่ยวข้องกับคนทั่วไปมากที่สุดคงเป็น \"พระราชบัญญัติว่าด้วยการกระทำความผิดเกี่ยวกับคอมพิวเตอร์\" (พรบ.คอมพิวเตอร์ฯ) ที่มีคดีมากมายนับแต่ออกเป็นกฎหมายมา ตอนนี้ร่างแก้ไขได้มีการแก้ไขไปหลายครั้ง และร่างล่าสุดที่มีการเปิดเผยออกมาคือร่างวันที่ 26 เมษายน 2559 ทางกลุ่มพลเมืองเน็ตได้ออกตารางเปรียบเทียบการเปลี่ยนแปลงแก้ไข พร้อมกับหมายเหตุจุดที่น่ากังวลต่างๆ วันนี้ ดร.อุตตม สาวนายน รัฐมนตรีกระทรวงไอซีทีก็โพสภาพสรุปการแก้ไขร่างพรบ.คอมพิวเตอร์ฯ ไว้ด้วยเช่นกัน ผมมองว่าคนทำงานไอทีและผู้สนใจควรอ่านเอกสารทั้งสองฉบับครับ ที่มา - Thai Netizen Network, @DrUttamaS    ", 
  "Date": "26/June/2016", 
  "Image-Link": [
    "https://www.blognone.com/sites/default/files/styles/thumbnail/public/topics-images/2000px-Flag_of_Thailand.svg_.png?itok=p3x8mdMM", 
    "//upic.me/i/9e/clyfmzewkaa_st_.jpg", 
    "/sites/all/themes/blognone42/images/linebutton.png"
  ], 
  "Link": "https://www.blognone.com/node/82683", 
  "News": "ชวนอ่านร่างพรบ.คอมพิวเตอร์ ฉบับใหม่ การแก้ไขมีอะไรบ้าง", 
  "Tags": [
    "MICT", 
    "Thailand", 
    "Law"
  ], 
  "Time": "21:21"
}