{
  "By": "nismod", 
  "Contents": " แอปเปิลออกมาประกาศว่าแอพ Health ที่มีไว้สำหรับเก็บข้อมูลด้านสุขภาพบน iOS 10 จะมาพร้อมการให้ข้อมูลและสร้างการตระหนักรู้เรื่องการบริจาคอวัยวะ พร้อมตัวเลือกให้ผู้ใช้ในสหรัฐได้ลงทะเบียน เป็นผู้บริจาคอวัยวะหรือเนื้อเยื่อเพิ่มเติมด้วย ข้อมูลในฐานะผู้บริจาคอวัยะที่ลงทะเบียนผ่านแอพ Health จะถูกส่งไปยังหน่วยงาน National Donate Life Registry ภายใต้องค์กร Donate Life America โดยข้อมูลการบริจาคนี้ จะแสดงอยู่ในหน้า \"ข้อมูลฉุกเฉิน (Emergency Information)\" บน iPhone/iPad พร้อมกับข้อมูลทางการแพทย์อื่นๆ ด้วย ที่มา - Apple Newsroom via CNET   ", 
  "Date": "6/July/2016", 
  "Image-Link": [
    "https://www.blognone.com/sites/default/files/styles/thumbnail/public/news-thumbnails/Health-Icon_800_thumb800.jpg?itok=6MtgpL0Q", 
    "/sites/all/themes/blognone42/images/linebutton.png"
  ], 
  "Link": "https://www.blognone.com/node/83071", 
  "News": "แอปเปิลเผยแอพ Health บน iOS 10 จะมาพร้อมตัวเลือกสำหรับบริจาคอวัยวะ", 
  "Tags": [
    "Health", 
    "iOS 10", 
    "Apple"
  ], 
  "Time": "11:49"
}