{
  "By": "nismod", 
  "Contents": " เมื่อกระแสวิดีโอสตรีมมิงหรือไลฟ์วิดีโอกำลังมาแรง มีหรือแอปเปิลจะไม่คว้าโอกาสนี้ โดยใน iOS 10 ที่เปิดตัวไปเมื่อวันก่อนนั้น นอกจากฟีเจอร์ที่กล่าวไปในคีย์โน้ตแล้ว ยังจะมีฟีเจอร์ ReplayKit Streaming ซึ่งต่อยอดมาจาก ReplayKit ใน iOS 9 ReplayKit เป็นฟีเจอร์ที่ทำให้ผู้ใช้สามารถอัดวิดีโอขณะเล่นเกมและแชร์ออกไปจากในแอพได้โดยตรง แต่ ReplayKit Streaming จะรองรับความสามารถในการไลฟ์สตรีมมิงได้โดยตรง ซึ่งสามารถอัดวิดีโอจากกล้องหน้าและพูดผ่านไมโครโฟนไปได้พร้อมกันในตัว นักพัฒนาสามารถนำฟีเจอร์นี้ไปใส่ไว้ในเกมของตัวเองที่พัฒนาลงบน iOS ได้จาก ReplayKit API ซึ่งล่าสุดแอปเปิลได้อัพเดตให้ตัว API รองรับเกมบน Apple TV แล้วด้วยเช่นกัน ที่มา - 9to5Mac   ", 
  "Date": "15/June/2016", 
  "Image-Link": [
    "https://www.blognone.com/sites/default/files/styles/thumbnail/public/topics-images/ios10.png?itok=sLxwnpuP", 
    "/sites/all/themes/blognone42/images/linebutton.png"
  ], 
  "Link": "https://www.blognone.com/node/82295", 
  "News": "iOS 10 จะมาพร้อมฟีเจอร์ไลฟ์สตรีมเกมผ่าน ReplayKit", 
  "Tags": [
    "iOS 10", 
    "iOS", 
    "Games", 
    "Apple", 
    "Video Streaming"
  ], 
  "Time": "15:39"
}