{
  "By": "arjin", 
  "Contents": "
สำนักข่าว Reuters รายงานว่า LINE จะจัดโรดโชว์เพื่อเตรียมขายหุ้นไอพีโอ ที่ตลาดหลักทรัพย์นิวยอร์ก และตลาดหลักทรัพย์โตเกียว ตั้งแต่วันที่ 10 มิถุนายนนี้ และราคาหุ้นจะถูกประกาศภายใน 1-2 สัปดาห์ต่อมา (ก่อนหน้านี้มีข่าวลือแต่ไม่ระบุช่วงเวลา)
ประเด็นที่น่าสนใจคือมูลค่าไอพีโอนั้นคาดว่า LINE จะระดมทุนได้ราว 2,000-3,000 ล้านดอลลาร์ ซึ่งหากเป็นไปตามแผนนี้ LINE จะกลายเป็นหุ้น IPO ที่ใหญ่ที่สุดของปีนี้
LINE มีผู้ใช้งานเป็นประจำทุกเดือน (MAUs) 218.4 ล้านคน อย่างไรก็ตาม LINE ถูกเปรียบเทียบกับ WhatsApp มากในเรื่องการเติบโต เพราะช่วง 12 เดือนที่ผ่านมา LINE มีผู้ใช้งานเพิ่มขึ้นราว 13 ล้านคนเท่านั้น
ที่มา: Reuters และ Tech In Asia

 ", 
  "Date": "1/June/2016", 
  "Image-Link": "https://www.blognone.com/sites/default/files/badges/badge-writer.png", 
  "Link": "https://www.blognone.com/node/81680", 
  "News": "LINE เตรียมไอพีโอเข้าตลาดหุ้น กลางเดือนมิถุนายนนี้", 
  "Tags": [
    "LINE", 
    "Naver", 
    "IPO"
  ], 
  "Time": "09:04"
}