{
  "By": "nismod", 
  "Contents": "
Xiaomi ประกาศจับมือเป็นพันธมิตรกับไมโครซอฟท์ในข้อตกลงการใช้งานสิทธิบัตรและใบอนุญาตต่างๆ ร่วมกัน รวมถึงการติดตั้งแอพของไมโครซอฟท์อย่าง Skype และ Microsoft Office บนอุปกรณ์ของ Xiaomi มาให้ตั้งแต่แกะกล่องด้วย
รองประธานอาวุโสของ Xiaomi ระบุว่าข้อตกลงครั้งนี้ จะทำให้ Xiaomi ขยายอาณาจักรสมาร์ทโฟนของตัวเองไปได้ทั่วโลกมากยิ่งขึ้น ซึ่งทางไมโครซอฟท์ได้ขายสิทธิการใช้งานสิทธิบัตรให้กว่า 1,500 รายการ ขณะที่อุปกรณ์ของ Xiaomi ที่ติดตั้ง Skype และ Microsoft Office เท่าที่ประกาศมามีตั้งแต่ Mi 5, Mi Max, Mi 4s, Redmi Note 3 และ Redmi 3 โดยจะมีผลตั้งแต่เดือนกันยายนนี้เป็นต้นไป
ที่มา - 9to5Google
 ", 
  "Date": "1/June/2016", 
  "Image-Link": "https://www.blognone.com/sites/default/files/badges/badge-trainee-shadow.png", 
  "Link": "https://www.blognone.com/node/81687", 
  "News": "Xiaomi จับมือไมโครซอฟท์ ใช้สิทธิบัตรร่วมและติดตั้งซอฟต์แวร์ไมโครซอฟท์ในสมาร์ทโฟน", 
  "Tags": [
    "Xiaomi", 
    "Microsoft", 
    "Patent", 
    "Skype", 
    "Microsoft Office"
  ], 
  "Time": "10:35"
}