{
  "By": "lew", 
  "Contents": "
ฟีเจอร์สำคัญของ Ubuntu 16.04 คือแพ็กเกจ Snap ตอนนี้ทาง QNAP ก็ประกาศว่าระบบปฎิบัติการ QTS ของบริษัทจะรองรับ Snap ด้วย เมื่อเลือกตั้งตั้ง Ubuntu ผ่าน QTS App Center
ทาง QNAP และ Canonical ยังสนับสนุนให้นักพัฒนาสร้างแอปพลิเคชั่นสำหรับ IoT เป็น Snap เพื่อให้ติดตั้งบน QNAP ได้
ตัว NAS ที่รองรับฟีเจอร์นี้ จะต้องเป็นรุ่นที่มีแรม 4GB ขึ้นไป ติดตั้ง QNAP Linux Station รุ่น 1.1.893 หรือใหม่กว่า
ที่มา - QNAP

 ", 
  "Date": "1/June/2016", 
  "Image-Link": "https://www.blognone.com/sites/default/files/badges/badge-founder.png", 
  "Link": "https://www.blognone.com/node/81713", 
  "News": "QNAP ร่วมมือ Canonical รองรับแพ็กเกจ Snap บน NAS", 
  "Tags": [
    "Ubuntu", 
    "Linux", 
    "Open Source"
  ], 
  "Time": "18:42"
}