{
  "By": "sunnywalker", 
  "Contents": "
Lumi คือแอพพลิเคชั่นข่าวที่สามารถเปิดใช้ได้โดยไม่ต้องลงทะเบียน ที่น่าสนใจคือ ตัวแอพจะแสดงเฉพาะข่าวที่ผู้ใช้สนใจเท่านั้น อิงตามพฤติกรรมของผู้ใช้งาน วิธีการคล้ายกับแอพนัดเดต Tinder ที่คัดเฉพาะคนที่เราสนใจ
ตอนแรกที่เข้าใช้แอพ จะแสดงเฉพาะข่าวเฮดไลน์ใหญ่ หลังจากนั้นแอพจะเสนอตัวเลือกว่าผู้ใช้อยากให้แอพเรียนรู้ความสนใจข่าวสารจากที่ไหน ระหว่าง Facebook หรือ Twitter ของผู้ใช้เอง ถ้าเราสนใจข่าวนั้นให้ปัดขวาเพื่ออ่าน หรือไม่ก็ปัดซ้ายเพื่อข้ามข่าวนั้น
Lumi ทีมงานประมาณ 10 คน โดย 3 ใน 10 เป็นนักวิทยาศาสตร์ข้อมูล ผู้ร่วมก่อตั้งคือเจ้าของ Last.fm บริษัทเพลงที่ CBS ซื้อไปเมื่อปี 2007

ที่มา - Digital Trends
 ", 
  "Date": "1/June/2016", 
  "Image-Link": "https://www.blognone.com/sites/default/files/badges/badge-contributer.png", 
  "Link": "https://www.blognone.com/node/81716", 
  "News": "Lumi News แอพอ่านข่าวที่เรียนรู้พฤติกรรมของเรา จากการปัดซ้าย-ขวาแบบ Tinder", 
  "Tags": [
    "Mobile App", 
    "News", 
    "Tinder"
  ], 
  "Time": "19:25"
}