{
  "By": "mk", 
  "Contents": " คนใช้จีพียูค่าย AMD Radeon ที่ใช้ลินุกซ์ คงทราบดีว่า AMD กำลังเปลี่ยนผ่านจากระบบไดรเวอร์ 'radeon/fglrx' มาสู่ระบบไดรเวอร์แบบใหม่ที่เรียกว่า 'amdgpu' โดย Ubuntu 16.04 ก็ย้ายมาใช้ไดรเวอร์ตัวใหม่แล้ว อย่างไรก็ตาม ไดรเวอร์ 'amdgpu' มีไดรเวอร์แบบโอเพนซอร์สเท่านั้น ยังขาดไดรเวอร์แบบปิดซอร์สที่มีฟีเจอร์ต่างๆ มากขึ้น (เทียบเท่ากับ fglrx) อยู่ หลังซุ่มพัฒนามานาน ในที่สุด AMD ก็ออกไดรเวอร์ตัวนี้แล้ว โดยใช้ชื่อว่า AMD GPU-PRO AMD GPU-PRO ออกแบบมาสำหรับไลบรารีกราฟิก Vulkan มาตั้งแต่ต้น ตอนนี้ไดรเวอร์ยังมีสถานะเป็นเบต้า รองรับเฉพาะ Ubuntu 16.04 เท่านั้น และยังใช้ได้เฉพาะกับ Radeon R9 เท่านั้น แต่ทาง AMD ก็ระบุว่าจะซัพพอร์ตจีพียูรุ่นเก่าๆ ย้อนไปถึงซีรีส์ HD 7000 ให้ด้วยในอนาคต ที่มา - AMD, PCWorld    ", 
  "Date": "31/May/2016", 
  "Image-Link": [
    "https://www.blognone.com/sites/default/files/styles/thumbnail/public/topics-images/amd.png?itok=6OE1UWFO", 
    "https://i.imgur.com/ki0xd95.jpg", 
    "/sites/all/themes/blognone42/images/linebutton.png"
  ], 
  "Link": "https://www.blognone.com/node/81630", 
  "News": "AMD ออกไดรเวอร์ GPU-PRO สำหรับลินุกซ์ให้ทดสอบแล้ว รองรับ Vulkan ด้วย", 
  "Tags": [
    "Radeon", 
    "AMD", 
    "GPU", 
    "Linux", 
    "Vulkan", 
    "Graphic"
  ], 
  "Time": "09:22"
}