{
  "By": "mk", 
  "Contents": " Hitachi Data Systems (HDS) บริษัทสตอเรจในเครือฮิตาชิ เปิดตัวผลิตภัณฑ์สตอเรจตระกูล Virtual Storage Platform (VSP) G Series รุ่นใหม่ G400, G600, G800 (สามตัวนี้เป็นแร็คขนาด 4U เท่ากันหมด ฟีเจอร์เท่ากัน ต่างกันที่ความจุสูงสุดและประสิทธิภาพ) ของใหม่ที่สำคัญคือเพิ่มตัวเลือกในการรวมโมดูล NAS เข้ามาด้วย (เท่ากับว่าสตอเรจ VSP ชุดนี้จะทำงานได้ทั้งแบบ SAN และ NAS) ไม่ต้องแยกอุปกรณ์กันอีกต่อไป ช่วยลดพื้นที่จัดวางอุปกรณ์สตอเรจลง และประหยัดค่าไฟจากจำนวนอุปกรณ์ที่ลดลง ของใหม่ฝั่งซอฟต์แวร์คือการซัพพอร์ต VMware vSphere Virtual Volume, ปรับปรุงระบบแบ็คอัพ VMbackup, รองรับการย้ายข้อมูลไปยังคลาวด์ Azure/S3/Hitachi Managed Cloud Services, ปรับปรุงประสิทธิภาพของ Hitachi Infrastructure Analytics Advisor (HIAA) Hitachai มีผลิตภัณฑ์สตอเรจองค์กรแบรนด์ VSP อยู่สองซีรีส์หลักๆ คือ G Series ที่เป็นอุปกรณ์ไฮบริด (ดิสก์+แฟลช) และ F Series ที่เป็นแฟลชอย่างเดียว ที่มา - Hitachi Data Systems    ", 
  "Date": "13/May/2016", 
  "Image-Link": [
    "https://www.blognone.com/sites/default/files/styles/thumbnail/public/topics-images/hitachi.png?itok=41dyXMhV", 
    "https://i.imgur.com/B7OBg0o.jpg", 
    "/sites/all/themes/blognone42/images/linebutton.png"
  ], 
  "Link": "https://www.blognone.com/node/80936", 
  "News": "Hitachi ออกสตอเรจ Virtual Storage Platform (VSP) รุ่นใหม่ ผนวกโมดูล NAS เข้ามาในตัว", 
  "Tags": [
    "Hitachi", 
    "Storage", 
    "Enterprise", 
    "NAS"
  ], 
  "Time": "12:53"
}