{
  "By": "lew", 
  "Contents": " HPE (Hewlett Packard Enterprise) ประกาศความร่วมมือกับ Docker ทำให้เซิร์ฟเวอร์ x86 ทุกตัวหลังจากนี้จะมาพร้อม Docker CS Engine (commercially supported engine) ตั้งแต่แรก และจะได้รับการซัพพอร์ตจากทาง HPE นอกจากการซัพพอร์ตตามปกติแล้ว HPE Technology Services Consulting Services ก็ยังให้บริการออกแบบและอิมพลีเมนต์บริการสำหรับ Docker สำหรับลูกค้าที่มีความต้องการเฉพาะด้าน ทางฝั่งของ HPE เองนอกจากการซัพพอร์ตแล้ว ซอฟต์แวร์จัดการและระบบสตอเรจของ HPE ก็ยังมีการปรับปรุงให้ทำงานร่วมกับ Docker ได้ดีขึ้น เช่น การออก Docker Volume Plugin สำหรับ HPE 3PAR StorServ, Docker Network Plugin สำหรับ HPE Distributed Cloud Networking, และ HPE SiteScope ก็รองรับการมอนิเตอร์ Swarm และ Docker container ที่มา - Docker    ", 
  "Date": "11/June/2016", 
  "Image-Link": [
    "https://www.blognone.com/sites/default/files/styles/thumbnail/public/topics-images/docker.png?itok=3q5kKB8g", 
    "//upic.me/i/y8/dtlywkynbx__9pg7dxdhbbntzqrqzn7y9abztaxoq8q.png", 
    "/sites/all/themes/blognone42/images/linebutton.png"
  ], 
  "Link": "https://www.blognone.com/node/82149", 
  "News": "HPE ประกาศความร่วมมือ Docker, เซิร์ฟเวอร์ x86 มาพร้อมซัพพอร์ต Docker ทุกตัว", 
  "Tags": [
    "HPE", 
    "Docker", 
    "Enterprise"
  ], 
  "Time": "17:19"
}