{
  "By": "mk", 
  "Contents": " ไมโครซอฟท์ประกาศช่วงเวลาออก Windows Server 2016 และ System Center 2016 รุ่นสมบูรณ์ โดยจะเปิดตัวในงานสัมมนา Ingnite 2016 ช่วงปลายเดือนกันยายนนี้ (งานจัด 26-30 กันยายน แต่ไม่ได้ระบุแน่ชัดว่าจะเปิดตัววันไหน) Windows Server 2016 จะแบ่งเป็น 3 รุ่น (edition) คือ Essentials (ผู้ใช้ไม่เกิน 50 คน), Standard, Datacenter โดยรุ่น Standard/Datacenter จะยังแยกวิธีการติดตั้ง (installation) ได้ 3 วิธีคือ Server แบบมี GUI, Server Core แบบไม่มี GUI, Nano Server ขนาดเบาที่สุด ระยะการซัพพอร์ต Windows Server 2016 จะแบ่งเป็น 2 แบบคือ Long Term Servicing Branch (LTSB) สำหรับการติดตั้งแบบ Server/Server Core จะมีระยะเวลานาน 10 ปี (ใช้ระบบ 5+5 ปีเหมือนที่แล้วๆ มา) และ Current Branch for Business (CBB) สำหรับการติดตั้งแบบ Nano Server โดยจะใช้รูปแบบเหมือน Windows 10 คืออัพเดตบ่อยและถี่กว่า ออกฟีเจอร์ใหม่ปีละ 2-3 ครั้ง ที่มา - Microsoft via Ars Technica    ", 
  "Date": "14/July/2016", 
  "Image-Link": [
    "https://www.blognone.com/sites/default/files/styles/thumbnail/public/topics-images/MSFT_logo_rgb_C-Gray.png?itok=j3hJhqua", 
    "https://i.imgur.com/BumNspN.png", 
    "/sites/all/themes/blognone42/images/linebutton.png"
  ], 
  "Link": "https://www.blognone.com/node/83450", 
  "News": "Windows Server 2016 ประกาศออกตัวจริงปลายเดือนกันยายนนี้", 
  "Tags": [
    "Windows Server 2016", 
    "Microsoft", 
    "Enterprise", 
    "Operating System"
  ], 
  "Time": "21:57"
}