{
  "By": "mk", 
  "Contents": " ถ้ายังจำกันได้ ในอดีตอันไกลโพ้น ไมโครซอฟท์มีโปรแกรมอีเมลไคลเอนต์แจกฟรีชื่อ Outlook Express ซึ่งภายหลังเปลี่ยนชื่อมาเป็น Windows Live Mail (มากับชุด Windows Live Essentials เวอร์ชันสุดท้ายคือ 2012) ตัวโปรแกรมหยุดพัฒนาไปนานแล้วแต่ยังใช้งานในฐานะอีเมลไคลเอนต์ได้ไม่มีปัญหาอะไร อย่างไรก็ตาม ไมโครซอฟท์ออกมาประกาศว่าบริการอีเมลฟรี Outlook.com เวอร์ชันล่าสุด มีการเปลี่ยนแปลงโพรโทคอลจนไม่สามารถใช้งานร่วมกับ Windows Live Mail 2012 ได้ ใครที่ยังล็อกอินอีเมล Outlook.com หรือ Hotmail ผ่าน Windows Live Mail 2012 จะใช้งานได้ถึงแค่ 30 มิถุนายน 2016 เท่านั้น ไมโครซอฟท์แนะนำให้ย้ายไปใช้แอพ Mail ของ Windows 8.1/Windows 10 แทน (คนที่ใช้ Windows 7 คงต้องหาอีเมลไคลเอนต์อื่น) หรือจะเปลี่ยนไปใช้วิธีเข้าผ่านเว็บ Outlook.com ก็ได้เช่นกัน ที่มา - Office Blogs    ", 
  "Date": "6/May/2016", 
  "Image-Link": [
    "https://www.blognone.com/sites/default/files/styles/thumbnail/public/topics-images/outlook.png?itok=cVj7_zAp", 
    "https://i.imgur.com/YyDWliH.png", 
    "/sites/all/themes/blognone42/images/linebutton.png"
  ], 
  "Link": "https://www.blognone.com/node/80671", 
  "News": "Windows Live Mail จะไม่สามารถใช้กับอีเมล Outlook.com/Hotmail ได้อีกแล้ว", 
  "Tags": [
    "Outlook", 
    "E-mail", 
    "Windows Live", 
    "Hotmail", 
    "Microsoft"
  ], 
  "Time": "08:39"
}