{
  "By": "lew", 
  "Contents": "
ถ้าเมืองไทยมีพันทิปเป็นแหล่งพูดคุยกันในวงกว้าง สำหรับต่างประเทศก็คงเป็น Reddit เว็บฟอรั่มขนาดใหญ่ที่พูดคุยที่มีห้องแยกประเด็นย่อยจำนวนมาก ล่าสุด Reddit ที่เคยโพสได้เฉพาะข้อความก็ประกาศเปิดบริการโฮสต์รูปของตัวเองแล้ว
ก่อนหน้านี้ชุมชน Reddit มักจะใช้บริการโฮสต์รูปจาก Imgur (เว็บที่เรามักเห็นภาพมีมต่างๆ ทาง Reddit ระบุว่าระหว่างนี้ชุมชนยังคงสามารถเลือกได้เองว่าจะใช้บริการภายนอกหรือไม่
บริการนี้จะทำให้ผู้ใช้ Reddit สามารถพูดคุยเกี่ยวกับภาพนั้นๆ ได้โดยไม่ต้องออกจากแอพในกรณีที่ใช้งานจากโทรศัพท์มือถือ
บริการจะจำกัดขนาดภาพไว้ที่ 20MB สำหรับภาพนิ่ง 100MB สำหรับภาพเคลื่อนไหวแบบ gif และจะเปิดบริการใน 16 ห้องก่อนจะเพิ่มอีก 50 ห้องในสัปดาห์หน้า
ที่มา - Reddit, TechCrunch
 ", 
  "Date": "27/May/2016", 
  "Image-Link": "https://www.blognone.com/sites/default/files/badges/badge-founder.png", 
  "Link": "https://www.blognone.com/node/81488", 
  "News": "Reddit เปิดบริการโฮสต์รูปของตัวเอง", 
  "Tags": [
    "Reddit"
  ], 
  "Time": "08:18"
}