{
  "By": "nutmos", 
  "Contents": "
Twitter และ Spotify ได้จับมือเป็นพาร์ทเนอร์กัน โดยเพลงจาก Spotify สามารถฟังพรีวิวได้ 30 วินาทีบน Twitter Audio Card ทั้งบน Timeline และ Moments โดยต่อไปนี้ผู้ใช้ Twitter เมื่อเห็นเพลงจาก Spotify ขึ้นมา สามารถฟังพรีวิวได้จากบน Twitter เลย ไม่ต้องกดลิงก์เพื่อไปฟังเพลงจากเว็บ Spotify อีก (แต่เพลงเต็มก็ต้องกดตามลิงก์เข้าไปฟังเหมือนเดิม)
Audio Card ของ Twitter นั้นเปิดตัวตั้งแต่ปี 2014 เพื่อมาเสริม Twitter Card ที่โชว์พรีวิวสื่อต่างๆ เช่น รูปภาพ, คลิป, เว็บ ฯลฯ
ที่มา - TechCrunch
 ", 
  "Date": "27/May/2016", 
  "Image-Link": "https://www.blognone.com/sites/default/files/badges/badge-writer.png", 
  "Link": "https://www.blognone.com/node/81490", 
  "News": "Twitter Audio Card รองรับการพรีวิวเพลงจาก Spotify แล้ว", 
  "Tags": [
    "Spotify", 
    "Twitter"
  ], 
  "Time": "08:36"
}