{
  "By": "arjin", 
  "Contents": "
การประมูลคลื่น 900MHz รอบใหม่ ซึ่งมี AIS เข้าร่วมประมูลเพียงรายเดียวได้เสร็จสิ้นลงแล้ว โดยใช้เวลาในการประมูลทั้งสิ้น 35 นาที โดย AIS ได้เคาะราคายืนยันในครั้งที่ 1 และไม่เคาะเพิ่มในรอบที่ 2 ทำให้จบมูลค่าใบอนุญาตที่ 75,654 ล้านบาท
ในขั้นตอนถัดไปหลังยืนยันผู้ชนะการประมูล ก็จะเป็นการเรียกประชุมบอร์ด กทค. เพื่อรับรองผลการประมูลต่อไป โดย AIS ต้องชำระเงินค่าประมูลงวดแรกภายในวันที่ 30 มิถุนายน 2559
ที่มา: กสทช. และ @NBTCrights

 ", 
  "Date": "27/May/2016", 
  "Image-Link": "https://www.blognone.com/sites/default/files/badges/badge-writer.png", 
  "Link": "https://www.blognone.com/node/81495", 
  "News": "AIS คว้าใบอนุญาตคลื่น 900MHz รอบใหม่ไปเรียบร้อย เคาะครั้งเดียวที่มูลค่า 75,654 ล้านบาท", 
  "Tags": [
    "AIS", 
    "NBTC", 
    "Auction", 
    "Telecom"
  ], 
  "Time": "10:17"
}