{
  "By": "mk", 
  "Contents": "
Romancing SaGa 2 เกม RPG สุดคลาสสิกจากค่าย Square Enix ที่ออกครั้งแรกกับเครื่อง Super Famicom ในปี 1993 ถูกพอร์ตมาลงสมาร์ทโฟน (Android/iOS) เรียบร้อยแล้ว แถมยังเป็นครั้งแรกในรอบ 23 ปีที่เกมนี้ถูกแปลเป็นภาษาอังกฤษด้วย
ซีรีส์ SaGa ถือเป็นเกมแบบ open-world ยุคแรกๆ มีเนื้อเรื่องแบบไม่เป็นเส้นตรง ซึ่งถือว่าล้ำมากในยุคนั้น อย่างไรก็ตาม การที่เกมเป็นภาษาญี่ปุ่นล้วนและแทบไม่เคยแปลเป็นภาษาอังกฤษเลย อาจทำให้ฐานแฟนๆ เกมนี้จำกัดกว่าซีรีส์ Final Fantasy มาก
เนื้อเรื่องของ Romancing SaGa 2 ผู้เล่นต้องสวมบทเป็นจักรพรรดิแห่งอาณาจักร Avalon ที่ต้องสืบทอดอาณาจักรให้ลูกหลาน และต่อกรกับ "ฮีโร่ทั้งเจ็ด" ที่เคยกอบกู้โลกไว้ แต่สุดท้ายกลายเป็นปีศาจเสียเอง
เกมเวอร์ชันนี้ถูกปรับปรุงกราฟิก และเพิ่มระบบการเล่นต่างๆ เข้ามาอีกพอสมควร เช่น มินิเกม คลาสอาชีพใหม่ ดันเจี้ยนใหม่ ระบบเซฟอัตโนมัติ และโหมด New Game Plus  โดยตั้งราคาขาย 17.99 ดอลลาร์ (ราคาใน Play Store ไทย 725 บาท)

ที่มา - Engadget, Android Authority
 ", 
  "Date": "27/May/2016", 
  "Image-Link": "https://www.blognone.com/sites/default/files/badges/badge-founder.png", 
  "Link": "https://www.blognone.com/node/81523", 
  "News": "Romancing SaGa 2 วางขายบนสมาร์ทโฟน แปลเป็นภาษาอังกฤษครั้งแรกในรอบ 23 ปี", 
  "Tags": [
    "Games", 
    "Square Enix"
  ], 
  "Time": "23:07"
}