{
  "By": "nutmos", 
  "Contents": " Apple เพิ่งจะออกรายละเอียดการเปลี่ยนแปลงใน App Store พร้อมคำแนะนำนักพัฒนาออกมา แต่ก็มีคนสังเกตเห็นได้ว่า Apple ใช้คำว่า macOS แทน OS X ในหน้าเว็บของ iTunes Connect Resources and Help ในส่วนคำถามของการบอกรับสมาชิกอัตโนมัติ ตรงที่ว่า \"When will I earn 85% of my auto-renewable subscription’s price?\" นี่คงไม่ใช่ครั้งแรกที่ Apple ทำชื่อ macOS หลุดมา เพราะก่อนหน้านี้ Apple ก็ใช้คำว่า MacOS ในหน้ารายงานสิ่งแวดล้อม ก่อนที่จะเปลี่ยนเป็น OS X ฉะนั้นค่อนข้างชัวร์ว่า Apple น่าจะรีแบรนด์ OS X มาเป็น macOS แน่นอน เพราะจะได้มีชื่อเข้ากันกับระบบปฏิบัติการอื่นๆ ของ Apple ทั้ง iOS, watchOS และ tvOS ที่มา - 9to5Mac    ", 
  "Date": "9/June/2016", 
  "Image-Link": [
    "https://www.blognone.com/sites/default/files/styles/thumbnail/public/topics-images/osx.png?itok=WjCUNsHI", 
    "http://i.cubeupload.com/BexhCN.png", 
    "/sites/all/themes/blognone42/images/linebutton.png"
  ], 
  "Link": "https://www.blognone.com/node/82034", 
  "News": "Apple บอกใบ้อีกครั้ง อาจเปลี่ยน OS X เป็น macOS ในหน้าแนะนำนักพัฒนา", 
  "Tags": [
    "OS X", 
    "Apple"
  ], 
  "Time": "07:22"
}