{
  "By": "nismod", 
  "Contents": " แว่น VR Oculus Rift เตรียมวางจำหน่ายที่ร้าน Best Buy ในสหรัฐฯ เป็นบางสาขา รวมถึงแบบออนไลน์ผ่านทาง Microsoft และ Amazon ในวันที่ 7 พฤษภาคมนี้ พร้อมทั้งจัดโชว์เครื่องเดโม่ในร้าน Best Buy ทั้งหมด 48 สาขาก่อนและเปิดให้สั่งพรีออเดอร์ด้วย Oculus ระบุว่ามีแผนจะส่งมอบเครื่องเดโม่ให้กับ Best Buy สาขาอื่นๆ เพิ่มเติมต่อไปในช่วงฤดูร้อน (เดือนมิถุนายนเป็นต้นไป) และยังเปิดเว็บไซต์ Oculus Live สำหรับผู้ที่สนใจในการหาร้าน Best Buy ที่มีเครื่องเดโม่ให้ทดลองใช้ด้วย ที่มา - Oculus Blog    ", 
  "Date": "3/May/2016", 
  "Image-Link": [
    "https://www.blognone.com/sites/default/files/styles/thumbnail/public/topics-images/oculus.png?itok=Aknc-ywY", 
    "https://farm8.staticflickr.com/7068/26513094430_c14fd77269_z.jpg", 
    "/sites/all/themes/blognone42/images/linebutton.png"
  ], 
  "Link": "https://www.blognone.com/node/80551", 
  "News": "Oculus Rift เตรียมวางจำหน่ายที่ Best Buy บางสาขาของสหรัฐฯ วันที่ 7 พฤษภาคมนี้", 
  "Tags": [
    "Oculus", 
    "Virtual Reality"
  ], 
  "Time": "11:28"
}