{
  "By": "nutmos", 
  "Contents": " ก่อนหน้านี้มีข่าวว่า แฮกเกอร์ชาวรัสเซียอ้างครอบครองข้อมูล Twitter กว่า 32 ล้านบัญชี ซึ่งหลังจากออกข่าวมา Twitter ก็ได้ตรวจสอบเรื่องนี้ทันที จากผลการตรวจสอบ Twitter พบว่ามีบัญชีและรหัสผ่านหลุดไปในเว็บมืดจริง โดยมั่นใจว่าข้อมูลเหล่านี้ไม่ได้ถูกแฮกออกไปจากเซิร์ฟเวอร์ของ Twitter โดยตรงแน่นอน เพราะข้อมูลเหล่านี้ถูกขโมยผ่านมัลแวร์ในเครื่องของเหยื่อ สำหรับผู้ใช้ที่ได้รับผลกระทบจากข้อมูลที่หลุดออกไปสู่เว็บมืดนี้ Twitter จะส่งอีเมลแจ้งเจ้าของบัญชีนั้นว่ารหัสผ่านได้ถูกรีเซ็ทเรียบร้อยแล้ว บัญชีจะไม่สามารถเข้าใช้งานได้จนกว่าผู้ใช้จะตั้งรหัสผ่านใหม่ จากนั้น Twitter ก็ได้แนะนำวิธีปกป้องบัญชี ได้แก่  เปิดระบบยืนยันตัวตนในการล็อกอิน เช่น ระบบล็อกอินสองชั้น ใช้รหัสผ่านที่เดาได้ยาก และไม่ใช้ในเว็บอื่น ใช้โปรแกรมจัดการรหัสผ่าน เช่น 1Password หรือ LastPass เพื่อให้แน่ใจว่าผู้ใช้จะมีรหัสผ่านที่เดาได้ยากและใช้แตกต่างกันในแต่ละเว็บ  ที่มา - Twitter   ", 
  "Date": "10/June/2016", 
  "Image-Link": [
    "https://www.blognone.com/sites/default/files/styles/thumbnail/public/topics-images/twitter300.png?itok=DkxsrWCR", 
    "/sites/all/themes/blognone42/images/linebutton.png"
  ], 
  "Link": "https://www.blognone.com/node/82097", 
  "News": "Twitter รีเซ็ทรหัสผ่านบัญชีที่โดนแฮก พร้อมออกคำแนะนำในการปกป้องบัญชีให้ผู้ใช้", 
  "Tags": [
    "Twitter", 
    "Hacking", 
    "Security"
  ], 
  "Time": "10:10"
}