{
  "By": "nismod", 
  "Contents": " ต่อเนื่องจากข่าวSan Francisco ผ่านกฎหมายบีบให้ Airbnb ปล่อยเช่าห้องเฉพาะที่ลงทะเบียนกับทางการ ล่าสุดทาง Airbnb ยื่นฟ้องต่อศาลแขวง Northern California แล้วว่ากฎหมายดังกล่าวละเมิดรัฐบัญญัติ (Federal Law) ของสหรัฐ Airbnb ระบุว่ากฎหมายดังกล่าวละเมิดกฎหมายว่าด้วยการสื่อสารที่เหมาะสม (Communication Decency Act), กฎหมายว่าด้วยการสื่อสารที่ถูกเก็บไว้ (Stored Communications Act) และการแก้ไขเพิ่มเติมรัฐธรรมนูญที่ว่าด้วยเสรีภาพในการแสดงออก (the First Amendment) คำสั่งฟ้องของ Airbnb ดูเหมือนว่าจะเกี่ยวข้องกับเสรีภาพของตัวบุคคล (ในที่นี้น่าจะเป็นเจ้าของบ้านที่ปล่อยเช่า) แต่ทว่าโฆษกของทนายเขตใน San Francisco โต้ตอบว่ากฎหมายฉบับใหม่พุ่งเป้าไปที่การควบคุมกิจกรรมในการทำธุรกิจบนแพลตฟอร์ม ไม่ได้เกี่ยวข้องกับตัวผู้ใช้หรือเจ้าของบ้านแม้แต่น้อย ที่มา - CNET   ", 
  "Date": "28/June/2016", 
  "Image-Link": [
    "https://www.blognone.com/sites/default/files/styles/thumbnail/public/topics-images/airbnb.png?itok=7ZNGY75J", 
    "/sites/all/themes/blognone42/images/linebutton.png"
  ], 
  "Link": "https://www.blognone.com/node/82751", 
  "News": "Airbnb ฟ้องกฎหมายบังคับให้ห้องเช่าลงทะเบียนของ San Francisco ละเมิดรัฐบัญญัติ", 
  "Tags": [
    "Airbnb", 
    "San Francisco", 
    "Lawsuit", 
    "USA"
  ], 
  "Time": "13:09"
}