{
  "By": "nismod", 
  "Contents": " Google ได้แปลงโฉมแถบ Navigation Bar บนแอนดรอยด์ไปครั้งหนึ่งตอนอัพเดต Android L ล่าสุดความเปลี่ยนแปลงนี้อาจจะเกิดขึ้นอีกครั้งบน Android N เว็บไซต์ Android Police รายงานอ้างแหล่งข่าวที่ทางเว็บระบุว่าค่อนข้างน่าเชื่อถือว่า แถบ Navigation Bar บน Android N จะมีการเปลี่ยนแปลง โดยปุ่ม back, home และ recent app จะมีสีขาวทึบ แทนที่จะเป็นใสแบบเดิม โดยปุ่ม home จะมีสีแดง น้ำเงิน เขียวและเหลือง (สีของ Google) ล้อมรอบอยู่ด้วย ซึ่งคาดว่าอาจจะทำมาเพื่อรองรับฟีเจอร์ Now on Tap Android Police ระบุด้วยว่าปุ่มโฮมจะมีการเคลื่อนไหวด้วยหากถูกกดค้าง อย่างไรก็ตามดีไซน์ของแถบ Navigation Bar ใหม่นี้เป็นเพียงการเรนเดอร์ขึ้นมาใหม่ของทางเว็บเองโดยอ้างอิงจากแหล่งข่าวเท่านั้น ไม่ใช่ภาพต้นแบบหรือภาพหลุดจาก Google และที่สำคัญคือดีไซน์นี้อาจเป็นเพียงต้นแบบ และมีการเปลี่ยนแปลงได้ตลอดเวลา ที่มา - Android Police    ", 
  "Date": "27/June/2016", 
  "Image-Link": [
    "https://www.blognone.com/sites/default/files/styles/thumbnail/public/topics-images/android-n.png?itok=cJOWuHvh", 
    "https://c6.staticflickr.com/8/7323/27318321693_95ebe45b4a_z.jpg", 
    "/sites/all/themes/blognone42/images/linebutton.png"
  ], 
  "Link": "https://www.blognone.com/node/82704", 
  "News": "[ไม่ยืนยัน] Google อาจเปลี่ยน Navigation Bar บนแอนดรอยด์ N อีกครั้ง", 
  "Tags": [
    "Android N", 
    "Android", 
    "Google"
  ], 
  "Time": "13:14"
}