{
  "By": "lew", 
  "Contents": " โครงการ Debian เป็นลินุกซ์ดิสโทรที่เป็นพื้นฐานของลินุกซ์อื่นๆ อีกหลายตัวรวมถึง Ubuntu โครงสร้างการพัฒนามีแกนกลางหลักเป็น Debian Developer (DD) วันนี้คุณนิวตรอน เสามั่น ได้ผ่านกระบวนการคัดเลือก DD เป็น DD คนที่สี่ของไทย (เป็นคนที่สามหากนับเฉพาะคนที่ยัง active) คนไทยที่เป็นหรือเคยเป็น DD ตอนนี้ ได้แก่ 1. คุณชนพ ศิลปอนันต์ 2. คุณเทพพิทักษ์ การุญบุญญานันท์ 3. คุณปรัชญ์ พงษ์พานิช 4. คุณนิวตรอน เสามั่น ที่มา - @kamthorn, Facebook: Neutron Soutmun    ", 
  "Date": "21/June/2016", 
  "Image-Link": [
    "https://www.blognone.com/sites/default/files/styles/thumbnail/public/topics-images/debian.png?itok=h0ZDiAxs", 
    "//upic.me/i/qk/screenshot_2016-06-21_14-22-14.png", 
    "/sites/all/themes/blognone42/images/linebutton.png"
  ], 
  "Link": "https://www.blognone.com/node/82512", 
  "News": "คุณนิวตรอน เสามั่น ได้เป็น Debian Developer คนที่สี่ของไทย", 
  "Tags": [
    "Debian", 
    "Thailand"
  ], 
  "Time": "14:25"
}