{
  "By": "nismod", 
  "Contents": " ธนาคาร Barclays ของอังกฤษประกาศรองรับการชำระเงินแบบ contactless บนแอนดรอยด์แล้วด้วยบริการ Contactless Mobile Service ผ่านแอพ Barclays Mobile Banking หลังจากที่เคยปฏิเสธแพลตฟอร์ม Android Pay ไปก่อนหน้านี้ การชำระเงินแบบ contactless ของ Barclays รองรับจำนวนเงินสูงสุด 100 ปอนด์ โดยหากจำนวนเงินอยู่ที่ระหว่าง 30-100 ปอนด์ ผู้ใช้จะต้องใส่รหัส PIN เพื่อยืนยันตัวตน แต่หากจำนวนเงินต่ำกว่า 30 ปอนด์ซึ่งเป็นจำนวนเงินขั้นต่ำของการใช้จ่ายผ่านระบบ contactless เงินจำนวนดังกล่าวจะถูกหักออกไปโดยไม่มีการยืนยันตนแต่อย่างใด อย่างไรก็ตามด้วยข้อจำกัดของการปิดการใช้งานชิพ NFC ของแอปเปิล ทำให้ Barclays จำเป็นต้องรับรอง Apple Pay บนอุปกรณ์ของแอปเปิลไปในช่วงต้นเดือนพฤษภาคมที่ผ่านมา อัพเดต: แก้ไขเนื้อหา ที่มา - Engadget   ", 
  "Date": "24/June/2016", 
  "Image-Link": [
    "https://www.blognone.com/sites/default/files/styles/thumbnail/public/news-thumbnails/screen-shot-2013-10-15-at-135055.png?itok=tT0kFfdC", 
    "/sites/all/themes/blognone42/images/linebutton.png"
  ], 
  "Link": "https://www.blognone.com/node/82637", 
  "News": "ธนาคาร Barclays ประกาศรับรองการชำระเงินผ่าน NFC บนแอนดรอยด์", 
  "Tags": [
    "Barclays", 
    "Banking", 
    "NFC"
  ], 
  "Time": "14:23"
}