{
  "By": "trinakub", 
  "Contents": " ใกล้เข้ามาแล้วกับอัปเดตใหญ่ Multiplayer DLC ตัวแรกของเกม Uncharted 4: A Thief’s End ซึ่งทาง Naughty Dog ได้กำหนดวันเปิดตัว DLC เป็นวันพุทธที่ 29 มิถุนายน 2559 ที่ใกล้จะถึงนี้ ภายในตัว DLC จะประกอบไปด้วยสิ่งใหม่ ๆ จำนวนมาก เช่น โหมดใหม่, อาวุธ, Skin, Boosters เป็นต้น รวมถึงมีการปรับเปลี่ยนโหมด Ranked Team Deathmatch ใหม่ด้วย และสำหรับผู้ที่มี Uncharted 4 “Triple Pack” จะได้รับ “MP Pack #1” ไปแบบฟรี ๆ ด้วย ซึ่งรายละเอียดของสิ่งที่อยู่ใน pack นั้นยังไม่เปิดเผยออกมา รายละเอียด DLC  โหมดใหม่ แผนที่ใหม่ อาวุธใหม่ Mystical ใหม่ Booster ใหม่ Skin ใหม่กว่า 50 skin ไอเทม Vanity จำนวน 100 กว่าชิ้น  Roadmap ของ Uncharted 4 DLC  ที่มา – Naughty Dog   ", 
  "Date": "26/June/2016", 
  "Image-Link": [
    "https://www.blognone.com/sites/default/files/styles/thumbnail/public/news-thumbnails/Uncharted%204%20Logo.png?itok=zRkg9sX5", 
    "http://i.imgur.com/vzDlk9o.jpg", 
    "/sites/all/themes/blognone42/images/linebutton.png"
  ], 
  "Link": "https://www.blognone.com/node/82680", 
  "News": "Uncharted 4 มีอัปเดตใหญ่ Multiplayer DLC ตัวแรก เปิดตัวอาทิตย์หน้า", 
  "Tags": [
    "Uncharted", 
    "Games", 
    "DLC"
  ], 
  "Time": "18:16"
}