{
  "By": "trinakub", 
  "Contents": " เกม Touchscreen-Based Action RPG “Severed” ผลงานล่าสุดของค่าย Drinkbox (ผลงานเกมในอดีตได้แก่ Guacamelee! และ Mutant Blobs Attack) ซึ่งเคยเป็นเกม Exclusive เฉพาะเครื่อง PlayStation Vita เท่านั้น ล่าสุด Drinkbox ประกาศทำลงแพลตฟอร์มอื่นเพิ่มแล้ว ได้แก่ Wii U, 3DS และ iOS ซึ่งมีกำหนดการทำเสร็จสิ้นภายในฤดูร้อนนี้ (ช่วงเดือน 6 ถึง 8) สำหรับเวอร์ชัน Wii U และ 3DS จะมาในรูปแบบของ Cross-Buy ทำให้ซื้อแค่เกมเดียวก็สามารถเล่นได้ทั้งบน 3DS และ Wii U ส่วนของ Wii U จะมีอัปเดตกราฟิกแบบ HD เพิ่มเติม พร้อมทั้งสนับสนุนการใช้งาน Off-TV Play และจะปรับแต่งเกมเพิ่มเติมให้รองรับการใช้งานแบบ 2 จอ ทั้งบน Wii U และ 3DS ในส่วนของรายละเอียดของเกม เราจะได้รับบทเป็นผู้หญิงแขนเดียวที่ออกเดินทางตามหาครอบครัวของเธอ ระบบการเล่นจะเน้นที่การใช้งาน Touchscreen เป็นหลัก ในฉากต่อสู้เราจะอยู่ในมุมมองของบุคคลที่หนึ่ง และใช้การตวัดนิ้วบนหน้าจอในการจู่โจมและป้องกัน ที่มา – Eurogamer   ", 
  "Date": "19/June/2016", 
  "Image-Link": [
    "https://www.blognone.com/sites/default/files/styles/thumbnail/public/news-thumbnails/Severed%20Logo.jpg?itok=EJxMDY1M", 
    "/sites/all/themes/blognone42/images/linebutton.png"
  ], 
  "Link": "https://www.blognone.com/node/82435", 
  "News": "Severed ประกาศทำลง Wii U, 3DS และ iOS จากที่เคยเป็น Exclusive ของ PS Vita", 
  "Tags": [
    "Severed", 
    "Games", 
    "iOS", 
    "Wii U", 
    "PlayStation Vita"
  ], 
  "Time": "20:05"
}