{
  "By": "Lamicrosz", 
  "Contents": " ไมโครซอฟท์ออก Windows 10 รุ่นทดสอบ 14371 ให้กับกลุ่มผู้ใช้ Fast ring แล้ว หลังจากที่ฝั่ง Windows 10 Mobile ได้ล่วงหน้าไปก่อนแล้ว ของใหม่  Activation Troubleshooter สำหรับผู้ที่มีปัญหากับระบบ Genuine Windows เนื่องจากมีการเปลี่ยนแปลงฮาร์ดแวร์อย่าง เมนบอร์ดหรือฮาร์ดดิสก์ รวมไปถึงหากเราได้ซื้อและติดตั้ง Windows 10 Pro ไว้ ถ้าเราลง Windows 10 Home ทับลงไป ระบบจะนำเราอัพเกรดไปยังรุ่น Pro ให้  เครื่องมือนี้จะอยู่ที่ Settings > Update & security > Activation เลือกที่ Troubleshoot สิ่งที่แก้ไข  แก้ปัญหาระบบผู้บรรยาย (Narrator) ไม่ทำงาน หากเราเปิดใช้ผ่าน Settings > Ease of access > Narrator แก้ปัญหาระบบการแปลงภาษาและเดาคำภาษาญี่ปุ่น เพิ่มหน้า Download Hub สำหรับ Microsoft Edge, แก้ปัญหาไม่สามารถใช้ปุ่ม enter ได้ หากเราเปิดแท็บและรีบพิมพ์ลิงก์เว็บไซต์ แก้ไขปัญหาการเล่นไฟล์แบบ MPEG-2 บนแอพ Movies & TV ค่า 3D Display ที่เราตั้งไว้จะไม่หายไปหลังจากอัพเดต Windows ไปยังรุ่นทดสอบ รุ่นต่อๆ ไป แก้ปัญหาส่วนเสริม OneNote Web Clipper บน Microsoft Edge ขึ้นแจ้งเตือนปัญหาในบางเว็บไซต์ แก้ปัญหาขนาดไอคอนใน Action Center ที่แสดงผลผิดเพี้ยน บนจอที่มีค่า DPI สูง แก้ปัญหาแอพ Clock and Calendar แสดงผลนัดหมายผิดพลาด  ปัญหาที่พบ  หน้าการตั้งค่าเครือข่ายไม่ยอมเปิดขึ้น หากเราเปิดผ่านไอคอนการเชื่อมต่อ ใน taskbar  ผู้ที่ต้องการดูรายละเอียดเต็มๆ สามารถดูได้ในที่มา ที่มา - Windows Experience Blog   ", 
  "Date": "23/June/2016", 
  "Image-Link": [
    "https://www.blognone.com/sites/default/files/styles/thumbnail/public/topics-images/Windows_logo_Cyan_rgb_D.png?itok=bKOyx4bD", 
    "/sites/all/themes/blognone42/images/linebutton.png"
  ], 
  "Link": "https://www.blognone.com/node/82600", 
  "News": "ไมโครซอฟท์ปล่อย Windows 10 รุ่นทดสอบ 14371 ให้กับกลุ่มผู้ใช้ Fast ring", 
  "Tags": [
    "Windows 10", 
    "Microsoft"
  ], 
  "Time": "20:48"
}