{
  "By": "nrad6949", 
  "Contents": " Kansas Heart Hospital โรงพยาบาลเฉพาะทางด้านโรคหัวใจประจำมลรัฐแคนซัส กลายเป็นเหยื่อรายล่าสุดที่โดน ransomware ของแฮกเกอร์เข้าโจมตีระบบของโรงพยาบาล ด้วยการเข้ารหัสข้อมูลของโรงพยาบาล ที่ซ้ำร้ายกว่านั้นคือทางโรงพยาบาลได้จ่ายค่าถอดรหัสให้กับกลุ่มแฮกเกอร์แล้ว แต่ถูกเรียกเงินเพิ่มเป็นครั้งที่สอง พร้อมกับข้อมูลบางส่วนที่ยังถูกเข้ารหัสอยู่ Greg Duick ผู้อำนวยการของโรงพยาบาลออกมาระบุว่า ข้อมูลของผู้ป่วยไม่ได้รับผลกระทบ รวมถึงการให้บริการตามปกติของโรงพยาบาลด้วยเช่นกัน อย่างไรก็ตามได้ปฏิเสธตัวเลขที่จ่ายให้กับแฮกเกอร์ โดยระบุว่าเป็นตัวเลขเล็กน้อยเท่านั้น อย่างไรก็ตามทางโรงพยาบาลได้ตัดสินใจไม่จ่ายเพิ่มจากการเรียกร้องในครั้งที่สองของแฮกเกอร์ โดยระบุว่าเมื่อปรึกษากับที่ปรึกษาแล้วเป็นสิ่งที่ไม่สมควรทำ และคาดว่าผู้ก่อเหตุน่าจะอยู่ที่ต่างประเทศ ด้าน Ryan Witt ตัวแทนจากบริษัท Fortinet บริษัทด้านความปลอดภัย ออกมาเตือนว่าเหตุการณ์ลักษณะนี้จะเกิดขึ้นเรื่อยๆ หากองค์กรต่างๆ ยังพร้อมจ่ายเงินให้กับแฮกเกอร์เพื่อทำให้หมดปัญหาของตัวเองไป เพราะแฮกเกอร์ทดลองแล้วได้ผล ที่มา - Healthcare IT News   ", 
  "Date": "24/May/2016", 
  "Image-Link": [
    "https://www.blognone.com/sites/default/files/styles/thumbnail/public/topics-images/security-icon.png?itok=JZKobGMz", 
    "/sites/all/themes/blognone42/images/linebutton.png"
  ], 
  "Link": "https://www.blognone.com/node/81321", 
  "News": "Ransomware โจมตีโรงพยาบาลโรคหัวใจในสหรัฐฯ แฮกเกอร์เรียกเงินเพิ่มให้ถอดรหัส", 
  "Tags": [
    "Ransomware", 
    "Security", 
    "Medical", 
    "USA"
  ], 
  "Time": "09:48"
}