{
  "By": "Lamicrosz", 
  "Contents": " ไมโครซอฟท์ออกอัพเดตแอพ Wallet รองรับการจ่ายเงินแบบ NFC Tap to Pay ให้กับกลุ่มผู้ใช้ Windows 10 Mobile รุ่นทดสอบ 14360 โดยได้จับมือกับ MasterCard และ Visa โดยเริ่มเปิดให้ใช้งานในประเทศสหรัฐอเมริกาก่อน บน Lumia รุ่น 950, 950 XL และ 650 มีร้านค้ารองรับมากกว่า 1 ล้านแห่ง ที่มีสัญลักษณ์ Microsoft Wallet หรือ สัญลักษณ์ contactless payment ผู้ที่สนใจสามารถดูรายการธนาคารที่รองรับได้ ที่นี่ ที่มา - Windows Experience Blog     ", 
  "Date": "22/June/2016", 
  "Image-Link": [
    "https://www.blognone.com/sites/default/files/styles/thumbnail/public/topics-images/MSFT_logo_rgb_C-Gray.png?itok=j3hJhqua", 
    "http://i.imgur.com/wSOi9kI.jpg", 
    "http://i.imgur.com/tw9OxTy.jpg", 
    "/sites/all/themes/blognone42/images/linebutton.png"
  ], 
  "Link": "https://www.blognone.com/node/82564", 
  "News": "ไมโครซอฟท์อัพเดตแอพ Wallet รองรับระบบ NFC Tap to Pay สำหรับผู้ใช้ Windows Insider", 
  "Tags": [
    "Microsoft", 
    "Payment", 
    "Mobile Payment", 
    "Windows 10 Mobile", 
    "NFC"
  ], 
  "Time": "23:21"
}