{
  "By": "mk", 
  "Contents": " Adobe ซื้อกิจการ Livefyre เจ้าของซอฟต์แวร์ค้นหาคนที่พูดถึงแบรนด์ในโซเชียล เพื่อนำเนื้อหาที่เกี่ยวข้องกับแบรนด์ไปขยายผลต่อ เดิมที Livefyre ทำระบบคอมเมนต์สำหรับบล็อก (ลักษณะเดียวกับ Disqus) แต่ภายหลังก็ปรับตัวมาทำระบบ social engagement แทน นอกจากนี้บริษัทยังเป็นเจ้าของบริการ Storify ที่เก็บข้อความในโซเชียลมาร้อยเรียงเป็นเรื่องราวด้วย (หลายคนอาจเคยใช้เก็บข้อความ Twitter ที่ทวีตต่อๆ กัน) ฝั่งของ Adobe มีบริการ Marketing Cloud สำหรับงานด้านการตลาดออนไลน์อยู่แล้ว และจะนำเทคโนโลยีของ Livefyre ไปใช้กับ Adobe Experience Manager ของตัวเองต่อไป ที่มา - Adobe หน้าตาซอฟต์แวร์ของ Livefyre    ", 
  "Date": "4/May/2016", 
  "Image-Link": [
    "https://www.blognone.com/sites/default/files/styles/thumbnail/public/news-thumbnails/livefyre.jpg?itok=qvI_gxif", 
    "https://i.imgur.com/X3IK2HH.jpg", 
    "/sites/all/themes/blognone42/images/linebutton.png"
  ], 
  "Link": "https://www.blognone.com/node/80586", 
  "News": "Adobe ซื้อ Livefyre ซอฟต์แวร์ค้นหาคนพูดถึงแบรนด์ในโซเชียล เสริมทัพ Marketing Cloud", 
  "Tags": [
    "Adobe", 
    "Acquisition", 
    "Marketing Cloud", 
    "Marketing", 
    "Social Network"
  ], 
  "Time": "08:26"
}