{
  "By": "nrad6949", 
  "Contents": " ขณะที่บ้านเรามีรถเมล์พร้อม Wi-Fi ให้บริการตั้งแต่ปีที่แล้ว ที่มลรัฐนิวยอร์กของสหรัฐอเมริกาก็เพิ่งจะเริ่มมีให้บริการ โดยมลรัฐนิวยอร์กผ่านองค์การขนส่งมวลชนของมหานครนิวยอร์ก (Metropolitan Transportation Authority: MTA) ประกาศว่าจะเริ่มให้บริการรถเมล์ที่มี Wi-Fi ติดตั้งมาด้วยตั้งแต่วันนี้ โดยจะเริ่มให้บริการในย่าน Queens ก่อนเป็นที่แรก และทางมลรัฐประกาศว่าจะเริ่มค่อยๆ ทยอยเพิ่มรถที่มี Wi-Fi ติดตั้งมาด้วยจนครบ 75 คันภายในฤดูร้อนนี้ก่อน จากนั้นจะเริ่มขยายไปเรื่อยๆ จนครบ 2,042 คันทั่วทั้งเมือง (เข้าใจว่าน่าจะเป็นเขตเมืองชั้นใน) นอกจากนั้นแล้ว ยังประกาศความสำเร็จในการทดสอบแอพ MTA eTix แอพสำหรับตั๋วเดินทางในระบบขนส่งมวลชนของเมือง ซึ่งทำให้ลดการใช้กระดาษลงไปได้มาก และเตรียมที่จะเปิดใช้กับรถไฟใต้ดินและรถไฟปกติบางสายภายในเดือนหน้านี้ ก่อนจะขยายไปจนครบทุกสายและทุกระบบขนส่งมวลชนในปี 2018 ที่มา - เว็บไซต์สำนักงานผู้ว่าการมลรัฐนิวยอร์ก ผ่าน Engadget   ", 
  "Date": "18/May/2016", 
  "Image-Link": [
    "https://www.blognone.com/sites/default/files/styles/thumbnail/public/topics-images/Flag_of_the_United_States.svg_.png?itok=D_Hwf4EE", 
    "/sites/all/themes/blognone42/images/linebutton.png"
  ], 
  "Link": "https://www.blognone.com/node/81126", 
  "News": "มลรัฐนิวยอร์ก เริ่มปล่อยรถเมล์มี Wi-Fi วิ่งให้บริการแล้ว เตรียมใช้แอพตั๋วบนสมาร์ทโฟน", 
  "Tags": [
    "USA", 
    "Wi-Fi", 
    "Transport", 
    "Mobile"
  ], 
  "Time": "10:22"
}