{
  "By": "nismod", 
  "Contents": " Kantar Worldpanel บริษัทสำรวจตลาดและพฤติกรรมผู้บริโภค เปิดเผยรายงานที่ชี้ว่า Galaxy S7 มียอดขายแซงหน้า iPhone 6S ในสหรัฐแล้ว โดยผู้ใช้ราว 16% เลือกที่จะซื้อ Galaxy S7 หรือ S7 Edge ขณะที่ 14.6% เลือก iPhone 6s หรือ 6s Plus เว็บไซต์ SamMobile รายงานด้วยว่ายอดขายสมาร์ทโฟนในสหรัฐ ช่วงเดือนมีนาคมถึงพฤษภาคม ซัมซุงมีส่วนแบ่งถึง 37% ขณะที่แอปเปิลมีเพียง 29% เท่านั้น ถึงแม้กว่า 88% ของลูกค้าแอปเปิลมีความภักดีต่อแบรนด์ก็ตาม SamMobile ระบุว่าครั้งนี้แทบจะเป็นครั้งแรกที่ Galaxy S มียอดขายดีกว่า iPhone เนื่องจากที่ผ่านมา ถึงแม้ Galaxy S จะเปิดตัวช้ากว่า 5-6 เดือน แต่ iPhone ก็มักมียอดขายที่ดีกว่ามาตลอด ที่มา - SamMobile   ", 
  "Date": "14/July/2016", 
  "Image-Link": [
    "https://www.blognone.com/sites/default/files/styles/thumbnail/public/topics-images/galaxy-s7.PNG?itok=OQMRYc-k", 
    "/sites/all/themes/blognone42/images/linebutton.png"
  ], 
  "Link": "https://www.blognone.com/node/83418", 
  "News": "ยอดขาย Galaxy S7 แซงหน้า iPhone 6s ในสหรัฐแล้ว", 
  "Tags": [
    "Galaxy S7", 
    "iPhone 6s", 
    "Samsung", 
    "Apple", 
    "USA"
  ], 
  "Time": "11:13"
}