{
  "By": "nismod", 
  "Contents": " T-Mobile แคริเออร์ยักษ์ใหญ่ของสหรัฐประกาศโปรโมชันใหม่ที่ไม่เหมือนใครและไม่น่ามีใครกล้าเหมือน ด้วยการแจกหุ้นให้ลูกค้าที่ใช้บริการ T-Mobile แบบรายเดือนไปเลยฟรีๆ สำหรับการเข้าร่วมโปรโมชัน Stock Up นี้ลูกค้า T-Mobile จะต้องลงทะเบียนผ่านแอพ และหากคุณสมบัติผ่านทางบริษัทจะสุ่มผู้โชคดีทุกวันอังคาร และจะได้จำนวนหุ้นเพิ่มหากสามารถชักชวนคนอื่นให้มาเป็นลูกค้า T-Mobile ได้ โดยจะต้องไม่เกิน 100 คน (หุ้น 100 ตัว) ต่อปี นอกจากหุ้นแล้วทาง T-Mobile ยังมีโปรโมชันอื่นในลักษณะคล้ายๆ กันด้วยอย่างการให้ไปทานอาหาร ดูหนังฟรี หรือแม้แต่ได้ชั่วโมง Wi-Fi ฟรีบนเครื่องบินของสายการบินท้องถิ่นที่เป็นพันธมิตร ที่มา - Ars Technica   ", 
  "Date": "7/June/2016", 
  "Image-Link": [
    "https://www.blognone.com/sites/default/files/styles/thumbnail/public/topics-images/tmobile.png?itok=20vTA_ZZ", 
    "/sites/all/themes/blognone42/images/linebutton.png"
  ], 
  "Link": "https://www.blognone.com/node/81966", 
  "News": "T-Mobile จัดโปรแจกหุ้นให้ลูกค้าทุกสัปดาห์", 
  "Tags": [
    "T-Mobile", 
    "USA"
  ], 
  "Time": "16:35"
}