{
  "By": "nutmos", 
  "Contents": " เมื่อเดือนพฤศจิกายนที่ผ่านมา Google ได้อัพเดต YouTube ให้รองรับ VR บน Cardboard ไปก่อนหน้านี้สำหรับ Android ซึ่งตอนนี้แอพ YouTube บน iOS ก็ได้ฟีเจอร์นี้แล้วในอัพเดตล่าสุดเวอร์ชัน 11.18 วิธีใช้ VR ของ YouTube บน iOS ผ่าน Google Cardboard ก็เพียงกดปุ่มเมนูด้านบน และกดไอคอน Cardboard ก็จะได้วิดีโอในโหมด VR เป็นที่เรียบร้อย ที่มา - MacRumors   ", 
  "Date": "17/May/2016", 
  "Image-Link": [
    "https://www.blognone.com/sites/default/files/styles/thumbnail/public/topics-images/youtube300.png?itok=YF7mGiqj", 
    "/sites/all/themes/blognone42/images/linebutton.png"
  ], 
  "Link": "https://www.blognone.com/node/81057", 
  "News": "YouTube บน iOS รองรับ VR บน Google Cardboard แล้ว", 
  "Tags": [
    "YouTube", 
    "Google Cardboard", 
    "Virtual Reality"
  ], 
  "Time": "09:33"
}