{
  "By": "nismod", 
  "Contents": " หลัง EA ปล่อยเทรลเลอร์แรกของ Battlefield 1 ภาคล่าสุดในแฟรนไชส์ Battlefield ไปเมื่อสัปดาห์ที่แล้ว เวลาผ่านไปเพียงไม่กี่วัน ดูเหมือนเสียงตอบรับจะดีมากๆ เมื่อมียอดวิวพุ่งสูงไปแล้วกว่า 22,443,570 และมียอดไลค์ที่กว่า 1,160,422 โดยมีคนดิสไลค์เพียง 21,045 ครั้งเท่านั้น (ณ เวลาที่เขียนข่าว) ขึ้นไปติดท็อป 200 คลิปที่มียอดไลค์สูงที่สุดไปแล้ว ตรงกันข้ามกับคู่แข่งตลอดกาลอย่างแฟรนไชส์ Call of Duty ภาค Infinite Warefare ที่แฟนๆ ดูจะยี้ตั้งแต่เทรลเลอร์ด้วยซ้ำไป โดยยอดดิสไลค์ ณ เวลาเขียนอยู่ที่ 1,480,869 ครั้ง ขณะที่ยอดไลค์อยู่ที่เพียง 285,307 ครั้งเท่านั้น และอยู่ในอันดับที่ 5 ของคลิปบน YouTube ที่มีคนดิสไลค์มากที่สุด ส่วนหนึ่งคาดว่าน่าจะมาจากการที่แฟนๆ เริ่มเบื่อกับความล้ำยุคของ Call of Duty จนสูญเสียความดั้งเดิมของตัวเองไป อย่างไรก็ตาม คงต้องรอให้ทั้งสองเกมออกวางจำหน่ายอย่างเป็นทางการ ถึงจะพอพิสูจน์คุณภาพและเสียงตอบรับจากแฟนๆ ได้อย่างแท้จริงครับ ที่มา - Forbes   ", 
  "Date": "10/May/2016", 
  "Image-Link": [
    "https://www.blognone.com/sites/default/files/styles/thumbnail/public/news-thumbnails/battlefield1_0.jpg?itok=f55oPpUg", 
    "/sites/all/themes/blognone42/images/linebutton.png"
  ], 
  "Link": "https://www.blognone.com/node/80808", 
  "News": "เทรลเลอร์ Battlefield 1 ติด 200 ยอดไลค์สูงสุดบน YouTube, ขณะที่ CoD ติดท็อปยอดดิสไลค์สูงสุด", 
  "Tags": [
    "Battlefield", 
    "Call of Duty", 
    "Games", 
    "YouTube"
  ], 
  "Time": "16:21"
}