{
  "By": "nrad6949", 
  "Contents": " เมื่อวันพฤหัสบดีที่ผ่านมา Samsung แถลงเปิดตัว Galaxy S7 edge Olympic Games Limited Edition โทรศัพท์มือถือรุ่นพิเศษสำหรับการแข่งขันกีฬาโอลิมปิกที่เมือง Rio ประเทศบราซิล ซึ่งจะจัดขึ้นในอีกไม่นานนี้ (Samsung มีสถานะเป็น Worldwide Partner ของกีฬาโอลิมปิกด้วย) เช่นเคย รุ่นนี้เป็นการเอา Galaxy S7 edge ที่มีอยู่ในท้องตลาดปกติ นำมาเพิ่มสีสันเล็กน้อย (เหลืองตรงลำโพงและปุ่มโฮมด้านหน้า ปุ่มเปิดเครื่องเป็นสีแดง ปุ่มเสียงเป็นสีเขียว และด้านหลังเป็นสีฟ้าตรงกล้อง) พร้อมกับประทับตราโอลิมปิกสีฟ้าด้านหลังเครื่อง ส่วนตัวซอฟต์แวร์จะเพิ่มแอพพิเศษ Rio 2016 ที่ให้ข้อมูลเกี่ยวกับการแข่งขันโอลิมปิกครั้งนี้ (มีให้ดาวน์โหลดสำหรับเครื่องอื่นๆ ด้วย) UI และธีมของเครื่องที่เพิ่มความเป็นโอลิมปิกเข้าไป นักกีฬาที่เข้าร่วมการแข่งขันโอลิมปิกครั้งนี้ จะได้รับการแจกเครื่องรุ่นนี้ฟรีพร้อมกับอุปกรณ์เสริม Gear IconX ไปด้วย (มีอยู่ 12,500 เครื่อง) ส่วนใครที่สนใจอยากมีไว้ในครอบครองแต่ไม่ได้ไปแข่ง Samsung ก็วางขายรุ่นนี้อย่างจำกัดตั้งแต่วันที่ 18 กรกฎาคมนี้ในบางประเทศ (ที่เอ่ยชื่อออกมาคือบราซิล สหรัฐอเมริกา จีน เยอรมนี และเกาหลีใต้) ที่มา - Samsung    ", 
  "Date": "12/July/2016", 
  "Image-Link": [
    "https://www.blognone.com/sites/default/files/styles/thumbnail/public/topics-images/galaxy-s7.PNG?itok=OQMRYc-k", 
    "https://i.imgur.com/Dw3kLDu.jpg", 
    "/sites/all/themes/blognone42/images/linebutton.png"
  ], 
  "Link": "https://www.blognone.com/node/83298", 
  "News": "Samsung เปิดตัว Galaxy S7 edge Olympic Games Limited Edition", 
  "Tags": [
    "Galaxy S7", 
    "Samsung", 
    "Olympic"
  ], 
  "Time": "08:15"
}