{
  "By": "sunnywalker", 
  "Contents": " Consumer Reports เว็บไซต์จัดเรตติ้งผลิตภัณฑ์ต่างๆ เพื่อเป็นทางเลือกให้กับผู้บริโภค ทดสอบ Samsung Galaxy S7 active ด้วยวิธีนำไปจุ่มในน้ำที่มีแรงดัน 2.12 ปอนด์/ตารางนิ้ว เป็นเวลา 30 นาที และทำซ้ำแบบเดียวกัน 2 เครื่อง ผลคือหน้าจอไม่ตอบสนอง กล้องหน้าและกล้องหลังมีคล้ายๆ ฟองสบู่ขนาดเล็กเกาะรอบเลนส์กล้อง แกะเครื่องดูมีน้ำไหลออกจากช่องใส่ซิมการ์ด Samsung เปิดตัว Samsung Galaxy S7 active เมื่อเดือนที่แล้ว เปิดให้จองผ่านเครือข่าย AT&T เท่านั้น มีฟีเจอร์กันน้ำกันฝุ่นตามมาตรฐาน IP68 อยู่ในน้ำลึก 1.5 เมตรได้ 30 นาที จากกรณีสอบไม่ผ่านการกันน้ำ ทาง Samsung ก็ยอมรับว่ามีผู้บริโภคท้วงติงเรื่องกันน้ำเข้ามา และเป็นไปได้ว่าอาจเกิดจากตัวเครื่องชำรุดทำให้การกันน้ำไม่ทำงานได้อย่างที่ควรเป็น ซึ่งมีโอกาสเกิดขึ้นน้อยมาก อย่างไรก็ตามบริษัทจะทำการทดสอบเรื่องนี้ต่อไป  ที่มา - Consumer Reports   ", 
  "Date": "11/July/2016", 
  "Image-Link": [
    "https://www.blognone.com/sites/default/files/styles/thumbnail/public/topics-images/j8u2rhG1.jpg?itok=CJuE6qSo", 
    "http://i.imgur.com/LOIBjI1.jpg", 
    "/sites/all/themes/blognone42/images/linebutton.png"
  ], 
  "Link": "https://www.blognone.com/node/83247", 
  "News": "Consumer Reports ทดสอบการกันน้ำของ Samsung S7 active พบว่าสอบตก!", 
  "Tags": [
    "Samsung", 
    "Galaxy S7", 
    "Consumer Reports"
  ], 
  "Time": "12:54"
}