{
  "By": "nismod", 
  "Contents": " ซัมซุงเปิดตัว Galaxy S7 Edge เวอร์ชันลิมิเต็ดในชุด Injustice Edition เพื่อฉลองครบรอบการวางจำหน่ายเกม Injustic: Gods Among Us ครบ 3 ปี โดยรุ่นที่เปิดตัวนี้มาในลายของอัศวินรัตติกาล แน่นอนตัวเครื่องไม่แตกต่างจาก Galaxy S7 Edge รุ่นปกติ แต่สิ่งที่แตกต่างคือสีที่ใช้เป็นหลักทั้งกล่องและตัวเครื่องคือสีดำและสีทอง โดยโลโก้ซัมซุงด้านหลังเครื่อง ถูกแทนที่ด้วยตราของ Batman สีทอง พร้อมด้วยภาพพื้นหลังและธีมของ UI ที่มาในโทนเดียวกัน พร้อมเกม Injustic: Gods Among Us ในเครื่องและเครดิตในเกมอีก 100$ สิ่งที่น่าสนใจอีกอย่างคืออุปกรณ์อื่นๆ ที่มาพร้อมกันด้วยในบ็อกซ์เซ็ทนี้ ที่มาพร้อมกับ Batarang สีทอง, เคสแข็งลายคล้ายๆ กับชุดในภาพยนตร์, หูฟังและ Gear VR (ชม Unbox ได้ท้ายข่าว) Galaxy S7 Edge Injustice Edtion นี้จะเริ่มวางจำหน่ายในเดือนหน้า ในบางประเทศเท่านั้น ที่ประกาศไปแล้วก็มี จีน สิงคโปร์ เกาหลีใต้ รัสเซีย และแถบละตินอเมริกา โดยยังไม่มีการระบุราคาแต่อย่างใดครับ ที่มา - Ausdroid    ", 
  "Date": "27/May/2016", 
  "Image-Link": [
    "https://www.blognone.com/sites/default/files/styles/thumbnail/public/topics-images/galaxy-s7.PNG?itok=OQMRYc-k", 
    "https://c4.staticflickr.com/8/7158/26673651763_0f9531736d_z.jpg", 
    "/sites/all/themes/blognone42/images/linebutton.png"
  ], 
  "Link": "https://www.blognone.com/node/81501", 
  "News": "ซัมซุงเปิดตัว Galaxy S7 Edge Injustice Edition ในลาย Batman", 
  "Tags": [
    "Galaxy S7", 
    "Samsung", 
    "Batman"
  ], 
  "Time": "13:19"
}