{
  "By": "nismod", 
  "Contents": " ถึงแม้นินเทนโด้จะออกมาปฏิเสธข่าวลือเรื่องการยกเลิกการผลิต Wii U แต่ก็ปฏิเสธไม่ได้ว่ากระแสของคอนโซลรุ่นนี้ของปู่นินค่อนข้างเงียบเหงามาก ซึ่งล่าสุดทางนินเทนโดออกมาเปิดเผยแล้วว่า ยอดขายของ Wii U จนถึงสิ้นเดือนมีนาคมที่ผ่านมา มีเพียง 12.8 ล้านเครื่องเท่านั้น ผู้บริหารนินเทนโดยอมรับว่า สาเหตุส่วนหนึ่งมาจากราคาและความนิยมของแท็บเล็ตที่มีมากกว่า ซึ่งถึงแม้ Wii U จะไปไม่ถึงเป้าที่ 100 ล้านเครื่อง ทางนินเทนโดก็ยังคงคาดหวังให้ NX คอนโซลตัวใหม่ที่จะเปิดตัวปีหน้า จะช่วยกู้วิกฤติสถานการณ์นี้ได้ ข้ามมาทางฝั่งไมโครซอฟท์บ้าง ที่ข้อมูลจาก VGChartz ล่าสุดชี้ว่า ยอดขายของ Xbox One ตอนนี้แซงหน้า Xbox 360 ไปแล้วถึง 2.8 ล้านเครื่อง ในระยะเวลาวางจำหน่ายที่ 30 เดือนเท่ากัน ทำให้ตอนนี้ยอดขาย Xbox One อยู่ที่ประมาณ 21 ล้านเครื่อง ถึงแม้ Xbox One จะดูประสบความสำเร็จ แต่ก็ยังนับว่าห่างไกลกับ PS4 ของโซนีไปไกลโข ที่ปัจจุบันมียอดขายเป็นสองเท่าของ Xbox One เข้าไปแล้ว ที่มา - Winbeta, VGChartz   ", 
  "Date": "8/July/2016", 
  "Image-Link": [
    "https://www.blognone.com/sites/default/files/styles/thumbnail/public/topics-images/wiiu.jpg?itok=nzx2s9wC", 
    "/sites/all/themes/blognone42/images/linebutton.png"
  ], 
  "Link": "https://www.blognone.com/node/83158", 
  "News": "นินเทนโดเผย Wii U ขายได้เพียง 13 ล้านเครื่อง, Xbox One ขายได้มากกว่า Xbox 360 ในช่วงเวลาเดียวกันแล้ว", 
  "Tags": [
    "Wii U", 
    "Nintendo", 
    "Games", 
    "Console", 
    "Xbox One"
  ], 
  "Time": "10:55"
}