{
  "By": "magnamonkun", 
  "Contents": " ที่งานแถลงข่าวใน E3 ของ Nintendo ในปีนี้ นอกจากเกมใหญ่อย่าง Legend of Zelda: Breath of the Wild ที่จะออกให้ Wii U และ NX แล้ว ยังมีอีกหนึ่งเกมที่เปิดตัวพร้อมกันด้วย นั่นคือ Paper Mario: Color Splash ภาคที่ห้าของลุงหนวดกระดาษนั่นเอง ภาคนี้จะเล่าถึงเรื่องราวของภัยคุกคาม Prism Island ที่อยู่ดีๆ มีมือมืดมาดูดสีออกไปจนหมด ทำให้โลกไม่เหลือแม้แต่ความสดใส ความเลยร้อนมาถึงลุงหนวด Mario ที่ถูกอ้อนวอนจาก Princess Peach ให้กลับไปช่วยแก้วิกฤตที่เกิดขึ้นในครั้งนี้เสีย ระบบของตัวเกมภาคนี้จะเป็นเกมกึ่ง Card Game ผสม RPG โดยผู้เล่นจะต้องใช้ค้อนสาดสีลงไปบนพื้นขาวเพื่อฟื้นฟูสภาพแวดล้อมกลับมา และสีเองก็มีจำกัด ผู้เล่นก็ต้องออกตามหาวัตถุดิบเพื่อเอามาทำสีเพิ่ม ในขณะเดียวกันผู้เล่นก็ต้องใช้สีส่วนหนึ่งระบายไปบนการ์ดเพื่อใช้ในการต่อสู้กับมอนสเตอร์อีกด้วย ตัวเกมจะวางจำหน่ายในวันที่ 7 ตุลาคมที่จะถึงนี้ คนที่สนใจก็สามารถหามาเล่นกันได้ครับ ที่มา - Polygon    ", 
  "Date": "18/June/2016", 
  "Image-Link": [
    "https://www.blognone.com/sites/default/files/styles/thumbnail/public/news-thumbnails/Paper_Mario_-_Color_Splash_logo.png?itok=2ugMBlu6", 
    "//upic.me/i/qv/paper-mario-color-splash-reveal-10.jpg", 
    "/sites/all/themes/blognone42/images/linebutton.png"
  ], 
  "Link": "https://www.blognone.com/node/82411", 
  "News": "เปิดตัว Paper Mario: Color Splash ภาคที่ห้าของลุงหนวดกระดาษ วางขาย 7 ตุลาคมนี้", 
  "Tags": [
    "Mario", 
    "Games", 
    "Nintendo", 
    "Wii U"
  ], 
  "Time": "16:10"
}