{
  "By": "arjin", 
  "Contents": " Evernote ประกาศเปลี่ยนแปลงการให้บริการสำหรับแผน Basic (ใช้ฟรี) และปรับราคาใหม่สำหรับแผนเสียเงิน (Plus และ Premium) มีรายละเอียดดังนี้  Evernote Basic ใช้งานฟรีเหมือนเดิม แต่จำกัดอุปกรณ์เชื่อมต่อเหลือ 2 อุปกรณ์ (เดิมไม่จำกัด) โดยนับรวมหมดทั้งแอพในสมาร์ทโฟน, แท็บเล็ต, แล็ปท็อป ยกเว้น Evernote Web, Evernote บน Apple Watch, Evernote บน Windows Touch, Web Clipper, Skitch และ Penultimate รวมถึงแอพที่ใช้ API โดยผู้ที่ปัจจุบันใช้มากกว่า 2 อุปกรณ์จะได้รับอีเมลแจ้งเตือนให้แก้ไข Evernote Plus และ Evernote Premium ปรับค่าบริการในสกุลดอลลาร์เป็น 34.99 และ 69.99 ดอลลาร์ต่อปีตามลำดับ (เดิม 24.99 และ 49.99 ดอลลาร์) ส่วนราคาในสกุลเงินบาท ณ ตอนที่เขียนข่าวนี้ยังไม่เปลี่ยนแปลง คือ 400 และ 800 บาทต่อปี  Evernote ระบุสาเหตุที่ต้องเปลี่ยนแปลงบริการและราคาว่าเนื่องจากธุรกิจ Evernote โฟกัสที่การทำแอพบันทึกให้ดีที่สุดเท่านั้น โดยไม่มีรายได้จากการโฆษณาหรือขายข้อมูลผู้ใช้งานเลย จึงต้องปรับเงื่อนไขดังกล่าว ที่มา: Evernote และ The Verge เพิ่มเติม แนะนำเนื้อหาที่เกี่ยวข้องสำหรับคนที่กำลังตัดสินใจว่าจะทำอย่างไรกับ Evernote  ไมโครซอฟท์ออกเครื่องมือสำหรับนำบันทึกใน Evernote มายัง OneNote [Ask Blognone] แชร์ประสบการณ์แอพจดโน้ต ตัวไหนดี     ", 
  "Date": "29/June/2016", 
  "Image-Link": [
    "https://www.blognone.com/sites/default/files/styles/thumbnail/public/topics-images/evernote.png?itok=jdmi7kS-", 
    "http://i.imgur.com/CQqZqdu.jpg", 
    "/sites/all/themes/blognone42/images/linebutton.png"
  ], 
  "Link": "https://www.blognone.com/node/82784", 
  "News": "Evernote ปรับขึ้นค่าบริการ, ตัวฟรีให้ใช้ได้เพียง 2 อุปกรณ์", 
  "Tags": [
    "Evernote"
  ], 
  "Time": "06:29"
}