{
  "By": "sunnywalker", 
  "Contents": " นายสมชัย สัจจพงษ์ ปลัดกระทรวงการคลังเผยกำลังเตรียมแผนสนับสนุนให้มีการใช้งาน e-payment มากขึ้น เพื่อให้การจัดเก็บภาษีมีประสิทธิภาพ โดยคาดว่าจะทำให้จัดเก็บภาษีได้เพิ่มขึ้นอีกกว่าแสนล้านบาท แนวทางหนึ่งที่เสนอคือการลดภาษีสำหรับการจ่ายผ่านระบบ e-payment ให้จ่าย VAT 7% เท่าเดิม ขณะที่การจ่ายเงินสดต้องจ่าย 10% นายสมชัยกล่าวว่า \"ถ้ามีบัตรเพิ่มความสะดวกแล้วเสียภาษีมูลค่าเพิ่มแค่ 7% หากไม่ใช้ ยังใช้เงินสด แสดงว่าคนนั้นมีปัญหา เราต้องให้สรรพากรไปตรวจสอบ นอกจากนี้คที่มีรายได้น้อยก็จะเข้าถึงบริการการเงินด้วย โดยเรื่องสวัสดิการนั้นจะจ่ายผ่านช่องทางอิเล็กทรอนิกส์ทั้งหมด\"  ภาพจาก National e-Payment ที่มา - สำนักข่าวอีไฟแนนซ์ไทย   ", 
  "Date": "7/June/2016", 
  "Image-Link": [
    "https://www.blognone.com/sites/default/files/styles/thumbnail/public/topics-images/2000px-Flag_of_Thailand.svg_.png?itok=p3x8mdMM", 
    "http://i.imgur.com/fwz3A7C.png", 
    "/sites/all/themes/blognone42/images/linebutton.png"
  ], 
  "Link": "https://www.blognone.com/node/81940", 
  "News": " คลังหามาตรการผลักดัน e-payment อาจลดภาษีสำหรับการจ่ายอิเล็กทรอนิกส์", 
  "Tags": [
    "Thailand", 
    "Payment"
  ], 
  "Time": "11:11"
}