{
  "By": "mk", 
  "Contents": " ช่วงนี้อะไรๆ ก็สตาร์ตอัพ แม้กระทั่งแพ็กเกจโทรศัพท์ก็มีเวอร์ชันสตาร์ตอัพแล้ว แพ็กเกจนี้เป็นของ AIS ฝั่ง SME ออกโปรโมชั่นชื่อ Startup Package สำหรับลูกค้าธุรกิจ \"เพิ่งเริ่มต้น\" ราคาเดือนละ 1,299 บาท ในแพ็กเกจประกอบด้วย  iPhone 5s (16 GB) โทรฟรีทุกเครือข่าย 300 นาที เน็ต 4G/3G รวม 3GB AIS WiFi ไม่จำกัด  โปรแกรมบัญชี Flow Account นาน 18 รอบบิล  ที่มา - อีเมลประชาสัมพันธ์ AIS  17 พ.ค. 2559 : เอไอเอส เอสเอ็มอี เดินหน้าสนับสนุนผู้ประกอบการไทย ส่งแพ็กเกจใหม่! “StartUp Package” รวมทุกความคุ้มค่าที่เป็นประโยชน์ต่อการทำธุรกิจไว้ในแพ็กเดียว โดยจ่ายเพียงเดือนละ 1,299 บาท ได้รับ iPhone 5s (16 GB) และโทรฟรีทุกเครือข่าย 300 นาที, เน็ต 4G/3G รวม 3GB, AIS WiFi ไม่จำกัด พร้อมรับฟรี! โปรแกรมบัญชีออนไลน์จาก FlowAccount แบบพรีเมี่ยมไลเซนส์ นาน 18 รอบบิล เหมาะสำหรับธุรกิจที่เพิ่งเริ่มต้น หรือเจ้าของธุรกิจขนาดเล็ก ใช้งานง่าย ผ่านระบบ Cloud ทำให้สามารถทำงานได้สะดวกได้ทุกที่ทุกเวลา รองรับบนสมาร์ทโฟนและโน้ตบุ๊ค อัดแน่นด้วยฟีเจอร์ครบครัน อาทิ เปิดใบเสนอราคา, ใบวางบิล, ใบกำกับภาษี ใบเสร็จรับเงิน ใบสั่งซื้อ ตามมาตรฐานกรมสรรพากร ช่วยลดต้นทุนและประหยัดค่าใช้จ่ายด้านงานบัญชีของบริษัท ทำให้สามารถบริหารจัดการธุรกิจได้อย่างเป็นระบบและมีประสิทธิภาพยิ่งขึ้น สำหรับลูกค้า AIS SME ที่เปิดเบอร์ใหม่ ย้ายค่าย หรือเปลี่ยนจากเติมเงินเป็นรายเดือน และจดทะเบียนในนามนิติบุคคล สามารถสอบถามข้อมูลเพิ่มเติมได้ที่ AIS SHOP ทั่วประเทศ หรือ AIS Corporate Call Center 1149   ", 
  "Date": "18/May/2016", 
  "Image-Link": [
    "https://www.blognone.com/sites/default/files/styles/thumbnail/public/topics-images/ais.png?itok=v9BMgBcj", 
    "https://i.imgur.com/crPSsDm.jpg", 
    "/sites/all/themes/blognone42/images/linebutton.png"
  ], 
  "Link": "https://www.blognone.com/node/81139", 
  "News": "ยุคนี้อะไรก็ต้องสตาร์ตอัพ AIS ออกโปร Startup Package เจาะธุรกิจเพิ่งเริ่มต้น", 
  "Tags": [
    "AIS", 
    "Startup"
  ], 
  "Time": "14:16"
}