{
  "By": "sunnywalker", 
  "Contents": " เมื่อวานนี้ Mark Zuckerberg โพสต์ Facebook ประกาศว่ามูลนิธิใหม่ที่ก่อตั้งโดยเขาและ Priscilla Chan ภรรยา ลงทุนในสตาร์ทอัพจากแอฟริการายหนึ่งชื่อว่า Andela ที่สร้างนักพัฒนาซอฟต์แวร์ สร้างโปรแกรมเมอร์ชาวแอฟริกาให้มีโอกาสทางการงานในบริษัทไอทีรายใหญ่ ส่วนเม็ดเงินลงทุนมีรายงานข่าวว่าสูงถึง 24 ล้านดอลล่าร์ Andela มีฐานที่เมือง Lagos ประเทศไนจีเรีย ก่อตั้งโดย Iyinoluwa Aboyeji และ Jeremy Johnson ช่วยเทรนนักพัฒนาซอฟต์แวร์ชาวแอฟริกาให้มีโอกาสในบริษัทไอทีรายใหญ่ ทักษะที่บริษัทเน้นคือ Ruby,  Python, PHP, Mobile (iOS & Android) เป็นต้น แนวคิดของ Andela คือ พรสวรรค์กระจายไปทุกหนทุกแห่ง แต่ไม่ใช่โอกาสและความสำเร็จ เพราะการกระจายโอกาสทางเทคโนโลยียังไม่ปรากฏชัดในทวีปแอฟริกา Andela มีพาร์ทเนอร์หลายแห่ง ได้แก่ Microsoft, Udacity (สถาบันศึกษาออนไลน์), 2U (เกี่ยวกับการศึกษาเทคโนโลยี), YEC (บริษัทที่ให้ผู้ประกอบการเข้าถึงเครื่องมือ), 6sense (บริษัทให้บริการระบบการตลาด)  ที่มา - Mark Zuckerberg, QUARTZ   ", 
  "Date": "18/June/2016", 
  "Image-Link": [
    "https://www.blognone.com/sites/default/files/styles/thumbnail/public/topics-images/zuck.png?itok=kocAZM9K", 
    "http://i.imgur.com/Rq53vsK.png", 
    "/sites/all/themes/blognone42/images/linebutton.png"
  ], 
  "Link": "https://www.blognone.com/node/82407", 
  "News": "Mark Zuckerberg และ Priscilla Chan ลงทุนใน Andela สตาร์ทอัพจากแอฟริกา สร้างโอกาสทาง IT", 
  "Tags": [
    "Mark Zuckerberg", 
    "Facebook", 
    "Startup", 
    "Africa"
  ], 
  "Time": "21:00"
}