{
  "By": "gooGof", 
  "Contents": "
Google เปิดให้ดาวน์โหลดส่วนเสริมของ Chrome บนเวอร์ชันเดสก์ท็อป ที่มีชื่อว่า  Data Saver ใช้สำหรับบีบอัดข้อมูลขณะท่องเว็บ ยกเว้นเข้าผ่าน HTTPS หรือใช้โหมดไม่ระบุตัวตน (incognito) เหมือนกันกับที่อยู่บนแอนดรอยด์  ซึ่งสามารถแสดงรายละเอียดว่าใช้ดาต้ากับเว็บไหนไปเท่าไหร่ ประหยัดได้กี่เปอร์เซ็นต์ ดูประวัติย้อนหลังสูงสุดได้ 60 วัน
ที่มา - Chrome Blog

", 
  "Date": "28/01/16", 
  "Image-Link": "https://www.blognone.com/sites/default/files/imagecache/news-thumbnail/category_pictures/chrome-2015.png", 
  "Link": "https://www.blognone.com/node/77207", 
  "News": "Chrome เวอร์ชันเดสก์ท็อปเพิ่มส่วนเสริมการบีบอัดข้อมูลเช่นเดียวกับแอนดรอยด์", 
  "Tags": "Browser
Chrome
Google
", 
  "Time": "11:24"
}