{
  "By": "nismod", 
  "Contents": "
Electronic Arts เตรียมจัดงาน EA Play ซึ่งเป็นงานอีเวนท์เกมของตัวเองแทนที่จะเข้าร่วมงาน E3 อย่างครั้งผ่านๆ มา โดย EA Play จะจัดขึ้นในวันที่ 12-14 มิถุนายนนี้ที่ Los Angeles และ London เฉพาะวันที่ 12 มิถุนายน ก่อนหน้างาน E3 สองวัน (E3 จัด 14-16 มิถุนายน)
อย่างไรก็ตามทาง EA จะยังคงไปออกบู๊ทที่งาน E3 อยู่เช่นเดิม แต่จะไม่มีการนำเดโมเกมไปโชว์ในงาน E3 แต่อย่างใด นอกจากนี้งาน EA Play จะมีการถ่ายทอดสดอีเวนท์ในงานและเบื้องหลังของการพัฒนาเกมต่างๆ ผ่านทางออนไลน์ รวมไปถึงมีของรางวัลพิเศษสำหรับผู้ที่ชมออนไลน์ด้วย
ที่มา - VG247, EA Play

", 
  "Date": "28/01/16", 
  "Image-Link": "https://www.blognone.com/sites/default/files/imagecache/news-thumbnail/category_pictures/ea.png", 
  "Link": "https://www.blognone.com/node/77223", 
  "News": "EA ประกาศจัดงาน EA Play อีเวนท์เกมของตัวเอง ก่อนหน้างาน E3 สองวัน", 
  "Tags": "EA
", 
  "Time": "15:16"
}