{
  "By": "mk", 
  "Contents": "
9to5mac รายงานข่าวลือล่าสุดว่าในเดือนมีนาคมนี้ นอกจากแอปเปิลจะออก iPhone 5se และ Apple Watch รุ่นปรับปรุงย่อย เรายังจะได้เห็นผลิตภัณฑ์ใหม่อีกตัวคือ iPad Air 3
ปีที่แล้วแอปเปิลไม่ได้อัพเกรด iPad Air 2 แต่หันไปทำ iPad Pro กับอัพเกรด iPad mini แทน ตามข่าวบอกว่า iPad Air 3 ตัวใหม่อาจมีแฟลช LED ที่กล้องหลังเพื่อช่วยการถ่ายรูปให้ดีขึ้น และอาจเป็นไปได้ว่ามันจะใช้กับปากกา Apple Pencil ได้ด้วย
ที่มา - 9to5mac
", 
  "Date": "28/01/16", 
  "Image-Link": "https://www.blognone.com/sites/default/files/imagecache/news-thumbnail/category_pictures/Apple_logo_black.svg_.png", 
  "Link": "https://www.blognone.com/node/77193", 
  "News": "[ข่าวลือ] แอปเปิลเตรียมเปิดตัว iPad Air 3 เดือนมีนาคมนี้", 
  "Tags": "Apple
iPad Air
Rumor
Tablet
", 
  "Time": "8:43"
}