{
  "By": "lew", 
  "Contents": " มัลแวร์เข้ารหัสไฟล์เรียกค่าไถ่ (ransomware) ระบาดอย่างหนักในช่วงหลัง แต่การสอนให้ผู้ใช้ระมัดระวังตัวเองก็ยังเป็นเรื่องยากสำหรับผู้ดูแลระบบทั่วไป แต่มัลแวร์ EduCrypt สร้างภูมิคุ้มกันให้ผู้ใช้ด้วยการเข้ารหัสไฟล์แบบ \"สั่งสอน\" ผู้ใช้ว่าอย่าดาวน์โหลดไฟล์มารันบนเครื่องมั่วๆ อีก มัลแวร์ตัวนี้เข้ารหัสไฟล์จริงโดยจะเติมนามสกุลไฟล์ \".isis\" เข้าไปท้ายไฟล์ หลังจากนั้นจะทิ้งไฟล์ README.txt เอาไว้บอกผู้ใช้ว่าไฟล์ถูกเข้ารหัสแล้ว และเตือนว่าอย่าดาวน์โหลดไฟล์มารันมั่วๆ โดยไม่ระวัง พร้อมกับบอกที่ดาวน์โหลดโปรแกรมถอดรหัสและใบ้ให้ว่ามีรหัสผ่านทิ้งไว้อยู่ในเครื่อง รหัสผ่านของ EduCrypt คือ HDJ7D-HF54D-8DN7D เหมือนกันทุกเครื่อง ใครเห็นมัลแวร์ชื่อนี้ก็อย่าไปดาวน์โหลดมารันเล่นๆ เดี๋ยวเจอเวอร์ชั่นเรียกค่าไถ่จริงๆ แล้วจะเดือดร้อน ที่มา - Bleeping Computer    ", 
  "Date": "30/June/2016", 
  "Image-Link": [
    "https://www.blognone.com/sites/default/files/styles/thumbnail/public/topics-images/security-icon.png?itok=JZKobGMz", 
    "//upic.me/i/eg/ransom-note.png", 
    "/sites/all/themes/blognone42/images/linebutton.png"
  ], 
  "Link": "https://www.blognone.com/node/82849", 
  "News": "EduCrypt มัลแวร์เข้ารหัสสั่งสอนคนไม่สนใจความปลอดภัยคอมพิวเตอร์", 
  "Tags": [
    "Ransomware", 
    "Security"
  ], 
  "Time": "13:12"
}