{
  "By": "mk", 
  "Contents": " ไมโครซอฟท์ประกาศจับมือเฟซบุ๊ก ลากเคเบิลใต้น้ำเชื่อมทวีปอเมริกาเหนือ-ยุโรปเข้าด้วยกัน โครงการนี้ชื่อว่า MAREA จะวางเคเบิลข้ามมหาสมุทรแอตแลนติก ระหว่างรัฐเวอร์จิเนียในสหรัฐอเมริกา กับเมืองบิลเบาของประเทศสเปน ระยะทาง 6,600 กิโลเมตร เป้าหมายของโครงการก็เพื่อตอบสนองความต้องการใช้งานของผู้ใช้ที่เพิ่มขึ้นของทั้งสองบริษัท โครงการนี้จะวางสายไฟเบอร์ออปติกส์ 8 คู่ ส่งข้อมูลได้ 160Tbps การก่อสร้างจะเริ่มในเดือนสิงหาคม 2016 และเสร็จในเดือนตุลาคม 2017 ผู้ดูแลสายเคเบิลจะเป็นบริษัท Telxius บริษัทลูกของ Telefonica ที่มีประสบการณ์เรื่องนี้อยู่แล้ว อีกประเด็นที่น่าสนใจคือแนวเคเบิล MAREA จะอยู่ทางตอนใต้ของแนวเคเบิลในมหาสมุทรแอตแลนติกเส้นอื่นๆ ที่อยู่แถวนิวยอร์ก การแยกจากแนวเคเบิลหลักในเชิงกายภาพ ยังช่วยลดความเสี่ยงของการเชื่อมต่อระหว่างสองทวีปลงได้ด้วย ที่มา - Microsoft    ", 
  "Date": "27/May/2016", 
  "Image-Link": [
    "https://www.blognone.com/sites/default/files/styles/thumbnail/public/topics-images/MSFT_logo_rgb_C-Gray.png?itok=j3hJhqua", 
    "https://i.imgur.com/nAZWM7q.jpg", 
    "/sites/all/themes/blognone42/images/linebutton.png"
  ], 
  "Link": "https://www.blognone.com/node/81487", 
  "News": "ไมโครซอฟท์ร่วมมือเฟซบุ๊ก วางสายเคเบิลข้ามมหาสมุทรแอตแลนติกเส้นใหม่", 
  "Tags": [
    "Microsoft", 
    "Facebook", 
    "Telecom"
  ], 
  "Time": "08:13"
}