{
  "By": "mk", 
  "Contents": " AIS เปิดตัวซิมสำหรับใช้งานต่างประเทศชื่อ SIM2Fly แก้ปัญหาการเปิดโรมมิ่งแล้ววงเงินเกิน หรือลำบากไปเดินหาซิมการ์ดท้องถิ่นในต่างประเทศ ด้วยการซื้อซิมแยกเฉพาะ 399 บาทไปจากเมืองไทย ใช้งานเน็ต 3GB แบบเต็มสปีดได้นาน 8 วัน (ที่เหลือจะวิ่งแบบติด FUP แต่ใช้งานได้ไม่จำกัด) ซิม SIM2Fly ใช้เน็ตผ่านโรมมิ่งกับพันธมิตรของ AIS ใน 8 ประเทศยอดนิยมที่คนไทยไปเยอะๆ คือ ญี่ปุ่น, เกาหลีใต้, สิงคโปร์, ฮ่องกง, ไต้หวัน, ลาว, มาเลเซีย และอินเดีย ส่วนการโทรศัพท์สามารถเติมเงินเพิ่มได้ (คิดอัตราโทรแบบโรมมิ่ง) ถ้าเงินเหลือสามารถนำมาใช้ต่อที่เมืองไทยได้อีก ซิมจะเริ่มวางขาย 8 มิถุนายนนี้ (สำหรับร้าน AIS ที่สนามบินสุวรรณภูมิและดอนเมือง จะเริ่มขายในเดือนกรกฎาคม) ที่มา - อีเมลประชาสัมพันธ์ AIS, AIS    ", 
  "Date": "6/June/2016", 
  "Image-Link": [
    "https://www.blognone.com/sites/default/files/styles/thumbnail/public/topics-images/ais.png?itok=v9BMgBcj", 
    "https://i.imgur.com/uOHcRhx.png", 
    "/sites/all/themes/blognone42/images/linebutton.png"
  ], 
  "Link": "https://www.blognone.com/node/81926", 
  "News": "AIS เปิดตัว SIM2Fly ซิมสำหรับเล่นเน็ตในต่างประเทศ 399 บาทใช้ได้นาน 8 วัน", 
  "Tags": [
    "AIS", 
    "Data Roaming", 
    "Telecom"
  ], 
  "Time": "22:06"
}