{
  "By": "arjin", 
  "Contents": " 7-Eleven ประเทศไทยเริ่มบริการรับชำระเงินค่าสินค้าผ่านแอพ Alipay บนเคาน์เตอร์เซอร์วิสแล้วตั้งแต่วันที่ 1 พฤษภาคมที่ผ่านมา โดย Jia Hang ผู้บริหารของ Ant Financial บริษัทแม่ของ Alipay ระบุว่าการขยายความร่วมมือนี้ จะช่วยให้นักท่องเที่ยวจีนมีความสะดวกในการใช้จ่ายเวลาเดินทางมาต่างประเทศ เหมือนกับที่พวกเขาได้รับในประเทศจีน นอกจากนี้ Alipay ยังร่วมมือกับ 7-Eleven ในแผนส่งเสริมการขายต่างๆ เพื่อให้เข้าถึงนักท่องเที่ยวจีนได้มากขึ้นด้วย Alipay เริ่มรุกในตลาดเมืองไทยตั้งแต่สองปีที่แล้ว โดยสามารถใช้จ่ายได้ที่ร้านค้าปลอดภาษี King Power นอกจากการขยายบริการเข้าไปใน 7-Eleven แล้ว Alipay ยังพิจารณาเตรียมขยายการรองรับการจ่ายเงินในบริการเรียกรถโดยสารในไทย ซึ่งตรงตามความต้องการของนักท่องเที่ยวจีนคนรุ่นใหม่ ที่เป็นกลุ่มผู้ใช้หลักของ Alipay เพิ่มไปอีกด้วย ที่มา: China Daily  ภาพโดย @vvkhxng   ", 
  "Date": "3/May/2016", 
  "Image-Link": [
    "https://www.blognone.com/sites/default/files/styles/thumbnail/public/topics-images/7-eleven.png?itok=aFcSMNVS", 
    "http://i.imgur.com/yShujRw.jpg", 
    "/sites/all/themes/blognone42/images/linebutton.png"
  ], 
  "Link": "https://www.blognone.com/node/80552", 
  "News": "7-Eleven เมืองไทย เพิ่มการชำระเงินสินค้าผ่าน Alipay จับกลุ่มนักท่องเที่ยวจีน", 
  "Tags": [
    "Alipay", 
    "Ant Financial"
  ], 
  "Time": "11:28"
}