{
  "By": "nutmos", 
  "Contents": "
Google ได้ประกาศว่า ตอนนี้ได้อัพเดตกล่อง Google Fiber สำหรับทีวีให้รองรับ Google Cast ซึ่งเป็นเทคโนโลยีที่อยู่เบื้องหลัง Chromecast
เมื่อผู้ใช้ Fiber TV อัพเดตซอฟต์แวร์ตัวกล่องแล้ว นำอุปกรณ์พกพาหรือแล็ปท็อปที่รองรับ Google Cast ต่อกับ Fiber Wi-Fi และกดปุ่ม Cast เพื่อส่งคอนเทนต์จากอุปกรณ์ที่ใช้งานไปยังกล่องเพื่อให้สตรีมขึ้นทีวีได้เลย โดยไม่จำเป็นต้องสลับสายทีวี, ซื้ออุปกรณ์ หรือตั้งค่าใดๆ เพิ่มเติม
ที่มา - The Verge, Google Fiber Official Blog
 ", 
  "Date": "2/June/2016", 
  "Image-Link": "https://www.blognone.com/sites/default/files/badges/badge-writer.png", 
  "Link": "https://www.blognone.com/node/81729", 
  "News": "Google ออกอัพเดตกล่อง Fiber TV ให้รองรับ Google Cast แล้ว", 
  "Tags": [
    "Google Fiber", 
    "Google Cast", 
    "Google"
  ], 
  "Time": "09:26"
}