{
  "By": "mk", 
  "Contents": "
เมื่อเดือนเมษายน Facebook ออกแอพเวอร์ชัน Universal บน Windows 10 ทั้งตัวแอพ Facebook หลักและ Facebook Messenger อย่างไรก็ตาม แอพยังจำกัดเฉพาะ Windows 10 เวอร์ชันพีซีเท่านั้น
วันนี้ Facebook Messenger สำหรับ Windows 10 Mobile บนสมาร์ทโฟนเปิดให้ใช้งานแล้ว สถานะยังเป็นรุ่นเบต้าอยู่ แต่ฟีเจอร์ก็เกือบเทียบเท่า Messenger เวอร์ชัน iOS ที่เป็นต้นฉบับการพอร์ตมาด้วย
ใครสนใจทดสอบก็เข้าไปดาวน์โหลดได้จาก Windows Store
ที่มา - MSPoweruser
 ", 
  "Date": "2/June/2016", 
  "Image-Link": "https://www.blognone.com/sites/default/files/badges/badge-founder.png", 
  "Link": "https://www.blognone.com/node/81774", 
  "News": "Facebook Messenger ออกแอพบน Windows 10 Mobile แล้ว", 
  "Tags": [
    "Facebook Messenger", 
    "Windows 10 Mobile"
  ], 
  "Time": "23:26"
}