{
  "By": "mk", 
  "Contents": "
Mojang ผู้พัฒนาเกม Minecraft ออกมาประกาศว่ายอดขายของเกมทั้งซีรีส์เกิน 100 ล้านชุดแล้ว (ตัวเลขจริงๆ ตอนนี้คือ 106.8 ล้านชุด) จำนวนผู้เล่นที่เข้ามาเล่นต่อเดือนมากกว่า 40 ล้านคน
ถ้านับเฉพาะยอดขายในปี 2016 เฉลี่ยออกมาแล้ว Minecraft ขายได้วันละ 53,000 ชุด ส่วนเกมเวอร์ชันที่ขายดีที่สุดคือ Minecraft Pocket Edition (นับรวมเวอร์ชัน Windows 10) ที่ขายได้มากที่สุดในทุกภูมิภาคยกเว้นละตินอเมริกา ส่วนที่ไม่ธรรมดาคือในทวีปแอนตาร์กติกาหรือขั้วโลกใต้ ยังขายเกม Minecraft ได้ทั้ง 4 ชุดด้วย เรียกว่ามีลูกค้าในทุกทวีปจริงๆ
ที่มา - Mojang

 ", 
  "Date": "2/June/2016", 
  "Image-Link": "https://www.blognone.com/sites/default/files/badges/badge-founder.png", 
  "Link": "https://www.blognone.com/node/81775", 
  "News": "Minecraft ขายได้เกิน 100 ล้านชุดแล้ว ขนาดขั้วโลกใต้ยังมีคนซื้อ!", 
  "Tags": [
    "Minecraft", 
    "Games", 
    "Mojang"
  ], 
  "Time": "23:36"
}