{
  "By": "nutmos", 
  "Contents": " StatCounter บริษัทที่เก็บสถิติด้านการเข้าเว็บของอินเทอร์เน็ต เปิดเผยว่าตอนนี้ยอดการเข้าชมเว็บไซต์บนเดสก์ท็อปผ่าน Firefox นั้นมากกว่าทั้ง Microsoft Edge และ Internet Explorer รวมกันแล้ว ส่วน Chrome ยังคงเป็นอันดับ 1 อยู่ จากข้อมูลของ StatCounter ระบุว่า Chrome นั้นมีผู้ใช้นับพันล้านคนทุกแพลตฟอร์ม คิดเป็นยอด 60.5% ของ StatCounter แต่สิ่งที่น่าสนใจในสถิติรอบนี้คือ Firefox อยู่ที่ 15.6% แซง Microsoft Edge และ Internet Explorer ที่คิดรวมกันเป็น 15.5% ไปอย่างฉิวเฉียด และตามมาห่างๆ ด้วย Safari และ Opera แม้ว่าจากสถิติทั่วโลก Firefox จะแซง Microsoft Edge และ Internet Explorer ไปนิดหน่อย แต่ StatCounter กล่าวว่าเบราว์เซอร์ทั้งสองจาก Microsoft นั้นยังคงนำ Firefox ในตลาดสหรัฐอเมริกาและสหราชอาณาจักร ซึ่งสองตลาดนี้ถือเป็นตลาดที่ยังมียอดขาย PC ดีอยู่ นอกจากนี้ข้อมูลสถิติของ StatCounter ยังบอกอีกว่า ประเทศจีนรวมถึงหลายๆ ประเทศในเอเชียยังคงใช้ Windows รุ่นเก่า ซึ่งสังเกตได้จากยอดของ Internet Explorer ที่สูงมากกว่าเบราว์เซอร์อื่นๆ ที่หยุดการสนับสนุนไปแล้ว ส่วนฝั่งเบราว์เวอร์บนมือถือนั้น StatCounter เผยว่า Chrome ก็ยังคงเป็นอันดับหนึ่งเช่นกัน ตามมาด้วย UC Browser จากประเทศจีน, Safari, Opera และ Android Browser ส่วนเบราว์เซอร์ของ Samsung ที่ติดมากับ Galaxy ทั้งหลายก็เริ่มมีการเติบโตอย่างเห็นได้ชัดเช่นกัน ข้อมูลของ StatCounter เก็บจากเว็บไซต์จำนวน 3 ล้านแห่ง ซึ่งรวมแล้วมีเพจวิวประมาณ 15 ล้านเพจวิวต่อเดือน ที่มา - StatCounter GlobalStats (Desktop, Mobile), TechCrunch     ", 
  "Date": "17/May/2016", 
  "Image-Link": [
    "https://www.blognone.com/sites/default/files/styles/thumbnail/public/topics-images/firefox-big.png?itok=LaZCF5df", 
    "http://i.cubeupload.com/TMolYU.png", 
    "http://i.cubeupload.com/0oxS9V.png", 
    "/sites/all/themes/blognone42/images/linebutton.png"
  ], 
  "Link": "https://www.blognone.com/node/81094", 
  "News": "StatCounter เผยสถิติเบราว์เซอร์ Firefox นำ Edge และ IE ฉิวเฉียด, Chrome ยังอันดับหนึ่ง", 
  "Tags": [
    "StatCounter", 
    "Firefox", 
    "Internet Explorer", 
    "Microsoft Edge", 
    "Chrome", 
    "Marketshare"
  ], 
  "Time": "18:19"
}