{
  "By": "mk", 
  "Contents": " Minecraft เวอร์ชันบน Wii U แถมชุด DLC พิเศษที่ใช้ธีมจากเกม Super Mario ของนินเทนโด โดยมีสกินตัวละคร 40 ตัว ไอเทมต่างๆ รวมถึงเพลงจากเกม Super Mario อีก 15 เพลงด้วย DLC ชุดนี้ใช้ชื่อว่า Super Mario Mash-Up Pack ดาวน์โหลดได้ฟรีสำหรับคนที่ซื้อ Minecraft: Wii U Edition แบบดิจิทัลไปแล้ว และรวมมาในชุดสำหรับเกมเวอร์ชันแผ่นที่จะวางขายในวันที่ 17 มิถุนายนนี้ ที่มา - Ars Technica   ", 
  "Date": "10/May/2016", 
  "Image-Link": [
    "https://www.blognone.com/sites/default/files/styles/thumbnail/public/topics-images/minecraft-logo.png?itok=wUsaULhq", 
    "/sites/all/themes/blognone42/images/linebutton.png"
  ], 
  "Link": "https://www.blognone.com/node/80779", 
  "News": "Minecraft เวอร์ชัน Wii U ออกชุดธีมพิเศษลาย Super Mario", 
  "Tags": [
    "Minecraft", 
    "Mario", 
    "Nintendo", 
    "Games", 
    "Wii U"
  ], 
  "Time": "08:00"
}