{
  "By": "lew", 
  "Contents": " ซีพียู ARM รุ่นหลังๆ มักมีฟีเจอร์ TrustZone เพื่อรันเฟิร์มแวร์แยกส่วนออกจากระบบปฎิบัติการหลัก เชื่อมต่อถึงกันด้วย shared memory เพื่อเก็บรักษาข้อมูลความลับเช่นกุญแจลับ หรือระบบถอดรหัส DRM ในชิป Broadcom BCM2737 สำหรับ Raspberry Pi 3 เองก็มีฟีเจอร์นี้อยู่ในชิปด้วย แต่โครงการ Raspberry Pi ก็ไม่ได้ออกซอฟต์แวร์มาใช้ฟีเจอร์นี้แต่อย่างใด ตอนนี้บริษัท Sequitur Labs ผู้พัฒนาระบบความปลอดภัย IoT ร่วมกับ Linaro ก็พอร์ตเฟิร์มแวร์ Linaro OP-TEE มารันบน Raspberry Pi 3 ได้แล้ว ตัวซอฟต์แวร์จะปล่อยจริงวันที่ 11 นี้ และการติดตั้งต้องใช้สายดีบักเพิ่มเติม ถ้าใครกำลังพัฒนาระบบ IoT ที่ต้องการความปลอดภัยสูงๆ ตอนนี้ Raspberry Pi อาจจะเป็นทางเลือกสำคัญในการพัฒนา เพราะน่าจะหาง่ายกว่าบอร์ดพัฒนาอื่นๆ มาก ที่มา - CNX Software, Sequitur Labs    ", 
  "Date": "10/June/2016", 
  "Image-Link": [
    "https://www.blognone.com/sites/default/files/styles/thumbnail/public/topics-images/rpi.png?itok=6foMUDiT", 
    "//upic.me/i/5e/op-tee_diagram.png", 
    "/sites/all/themes/blognone42/images/linebutton.png"
  ], 
  "Link": "https://www.blognone.com/node/82082", 
  "News": "บริษัทความปลอดภัย IoT พอร์ตเฟิร์มแวร์ ARM TrustZone ไปยัง Raspberry Pi 3", 
  "Tags": [
    "Raspberry Pi", 
    "ARM", 
    "Security"
  ], 
  "Time": "00:38"
}