{
  "By": "SainTKK", 
  "Contents": " Nissan เปิดตัวแบตเตอรี่ xStorage สำหรับระบบจัดเก็บพลังงานสำหรับที่พักอาศัย (home energy storage system) กักเก็บไฟฟ้าเพื่อไว้ใช้จ่ายไฟฟ้าให้กับครัวเรือน หรือขายคืนให้กับระบบในช่วงเวลาที่ความต้องการไฟฟ้าสูงและมีราคาแพง ในทางกลับกัน ระบบจะชาร์จไฟกลับในช่วงเวลาที่ความต้องการไฟฟ้าต่ำหรือไฟฟ้าต่อหน่วยมีราคาถูก และสามารถชาร์จไฟกลับโดยใช้แหล่งพลังงานอื่น เช่น พลังงานลมหรือเซลล์แสงอาทิตย์ภายในบ้านได้ สามารถควบคุมแหล่งพลังงานผ่านสมาร์ทโฟน xStorage เป็นแบตเตอรี่จากค่ายรถยนต์อันดับที่ 3 โดยผลิตจากแบตเตอรี่ที่ใช้งานแล้วของรถยนต์ไฟฟ้า เช่น Nissan Leaf เพื่อลดมลภาวะต่อสิ่งแวดล้อมให้มากที่สุด ต่างจาก Powerwall ของ Tesla และแบตเตอรี่สำหรับที่พักอาศัยของ Mercedes ที่ผลิตขึ้นมาใหม่ทั้งหมด ราคาของเจ้า xStorage ความจุที่ 4.2 กิโลวัตต์-ชั่วโมง อยู่ที่ประมาณ 4,500 เหรียญสหรัฐ (รวมค่าติดตั้ง) จะเริ่มเปิดให้สั่งจองล่วงหน้าในเดือนกันยายนปี 2016 เริ่มทำตลาดในทวีปยุโรปก่อนเป็นกลุ่มแรก  นอกจากนี้ Nissan ยังขยายการทดลองการใช้ระบบ Vehicle-to-Grid (V2G) ในสหราชอาณาจักร มีความแตกต่างจากระบบจัดเก็บพลังงานสำหรับที่พักอาศัยตรงที่จะใช้แบตเตอรี่ในรถยนต์ไฟฟ้าเป็นหลักแทน ใช้รถยนต์ไฟฟ้ารุ่น Leaf และ e-NV200 จำนวน 100 คัน ของบริษัทเอกชนและหน่วยงานภาครัฐ หลังจากที่ทดลองในเดนมาร์กไปเมื่อมกราคมที่ผ่านมา  ที่มา - Engadget   ", 
  "Date": "11/May/2016", 
  "Image-Link": [
    "https://www.blognone.com/sites/default/files/styles/thumbnail/public/topics-images/nissan.png?itok=Dov42xxc", 
    "https://farm8.staticflickr.com/7176/26879563611_c08653c2e2_z.jpg", 
    "https://farm8.staticflickr.com/7320/26343162333_7fe82eccfc_z.jpg", 
    "/sites/all/themes/blognone42/images/linebutton.png"
  ], 
  "Link": "https://www.blognone.com/node/80847", 
  "News": "xStorage แบตเตอรี่สำหรับครัวเรือนจาก Nissan, ขยายการทดลอง Vehicle-to-Grid", 
  "Tags": [
    "Nissan", 
    "Battery", 
    "Energy"
  ], 
  "Time": "15:01"
}