{
  "By": "nrad6949", 
  "Contents": " หลังจากมีข่าวลือว่า MediaTek เตรียมประกาศควบรวมหรือเข้าซื้อกิจการเมื่อเช้านี้ (ข่าวลือระบุว่าเป็นการเข้าซื้อแผนกมือถือของ Intel) ล่าสุด MediaTek ได้แถลงว่าเตรียมที่จะให้ AutoChips บริษัทลูกที่ผลิตชิปสำหรับใช้ในรถยนต์ เข้าควบรวมกิจการกับ NavInfo บริษัททำแผนที่รถยนต์รายใหญ่ในจีน จากการรายงานของเว็บไซต์ข่าว I4U ตามแผนการนี้ NavInfo จะเข้าซื้อหุ้นใน AutoChips ทั้งหมดด้วยเงินกว่า 600 ล้านดอลลาร์สหรัฐ และในทางกลับกัน MediaTek จะลงทุนร่วมกับ NavInfo เพื่อพัฒนาระบบอิเล็กทรอนิกส์และเทคโนโลยีอินเทอร์เน็ตในรถยนต์เป็นเงินไม่เกินกว่า 100 ล้านดอลลาร์สหรัฐ ทางบริษัทคาดว่าจะดำเนินการควบรวมตามแผนงานนี้ได้ภายในไตรมาสที่ 4 ของปีนี้ ทั้งนี้ NavInfo เป็นบริษัททำแผนที่สำหรับรถยนต์รายใหญ่ของจีน และใหญ่เป็นอันดับ 3 ของโลก ปัจจุบันทำแผนที่ให้กับ BMW, Volkswagen, GM และ Mercedes-Benz ส่วน AutoChips เป็นบริษัทลูกของ MediaTek ที่ตั้งอยู่ในจีน ซึ่งพัฒนาด้านชิปสำหรับใช้ในรถยนต์เป็นการเฉพาะ ที่มา - I4U    ", 
  "Date": "13/May/2016", 
  "Image-Link": [
    "https://www.blognone.com/sites/default/files/styles/thumbnail/public/topics-images/mediatek.png?itok=xxVkjLla", 
    "https://i.imgur.com/hFqESXT.png", 
    "/sites/all/themes/blognone42/images/linebutton.png"
  ], 
  "Link": "https://www.blognone.com/node/80944", 
  "News": "MediaTek ประกาศขายแผนกผลิตชิปในรถยนต์ให้ NavInfo บริษัททำแผนที่รถยนต์ในจีน", 
  "Tags": [
    "MediaTek", 
    "Navinfo", 
    "Automobile", 
    "Map", 
    "Acquisition", 
    "China"
  ], 
  "Time": "14:00"
}