{
  "By": "ตะโร่งโต้ง", 
  "Contents": " เมื่อเดือนพฤษภาคม Huawei ได้ฟ้องร้อง Samsung ทั้งในสหรัฐอเมริกาและในประเทศจีนฐานละเมิดสิทธิบัตรด้านเทคโนโลยีการสื่อสาร และเทคโนโลยีในสมาร์ทโฟน และในระหว่างที่คดีดังกล่าวยังไม่ได้เดินหน้าไปไหน Huawei ก็จัดการฟ้อง Samsung อีกครั้งในจีน โดยครั้งนี้ระบุว่าสมาร์ทโฟนของ Samsung จำนวน 16 รุ่นได้ละเมิดสิทธิบัตรของ Huawei ที่ว่าด้วยเรื่องการออกแบบไอคอนและวิดเจ็ต Huawei นั้นได้ลงทุนซื้อสมาร์ทโฟน Galaxy S7, Galaxy S7 edge และ Galaxy J5 (ซึ่งล้วนแล้วแต่ผลิตในประเทศจีน) มาเป็นหลักฐานประกอบการยื่นฟ้อง โดยระบุว่า Samsung ได้ละเมิดสิทธิบัตรวิธีการออกแบบการจัดไอคอนในโฟลเดอร์และวิธีแสดงผลวิดเจ็ตบนหน้าจอ ซึ่งเป็นสิทธิบัตรที่ Huawei จดเอาไว้ตั้งแต่ปี 2011 Huawei ได้ระบุข้อเรียกร้องให้ Samsung จ่ายเงินชดเชยการละเมิดสิทธิบัตรเป็นเงิน 80 ล้านหยวน และค่าธรรมเนียมศาลอีกต่างหากอีก 500,000 หยวน ช่วงระยะเวลาไม่กี่ปีที่ผ่านมา ผู้ผลิตอุปกรณ์จากจีนหลายรายได้เร่งสะสมสิทธิบัตรกันเป็นจำนวนมาก อย่าง Huawei เองในปี 2015 ก็จดสิทธิบัตรเพิ่มเติมไป 3,898 ฉบับ ทำให้มีสิทธิบัตรสะสมรวม 50,377 ฉบับแล้ว และนั่นอาจทำให้ได้เห็นคดีสิทธิบัตรในประเทศจีนเพิ่มสูงขึ้น ที่มา - ZDNet, The Korea Herald   ", 
  "Date": "7/July/2016", 
  "Image-Link": [
    "https://www.blognone.com/sites/default/files/styles/thumbnail/public/topics-images/huawei.png?itok=6S9mP3fu", 
    "/sites/all/themes/blognone42/images/linebutton.png"
  ], 
  "Link": "https://www.blognone.com/node/83131", 
  "News": "Huawei ฟ้อง Samsung ละเมิดสิทธิบัตรอีกรอบ ครั้งนี้เรื่องไอคอนและวิดเจ็ต", 
  "Tags": [
    "Huawei", 
    "Samsung", 
    "Patent", 
    "Lawsuits"
  ], 
  "Time": "16:04"
}