{
  "By": "nrad6949", 
  "Contents": " เว็บไซต์ Engadget อ้างรายงานข่าวลือจากเว็บไซต์ The Information ว่า Apple กำลังเตรียมวางแผนเปิดให้นักพัฒนา สามารถเข้าถึง Siri ผู้ช่วยส่วนตัวของตนเองได้ ซึ่งจะทำให้แอพของนักพัฒนา สามารถเรียกใช้งานความสามารถของ Siri ได้ นอกจากนั้นแล้วยังรายงานเพิ่มเติมว่า Apple ยังอยู่ระหว่างการสร้างลำโพงที่รับคำสั่งเสียงแบบเดียวกับ Amazon Echo และ Google Home ซึ่งจะสามารถสั่งเปิด/ปิด ไฟที่บ้านและทำงานแบบอื่นๆ ได้ โดยระบุว่า Apple ทำมาก่อนที่ Amazon Echo จะเปิดตัวเสียด้วย ที่มา - Engadget   ", 
  "Date": "25/May/2016", 
  "Image-Link": [
    "https://www.blognone.com/sites/default/files/styles/thumbnail/public/topics-images/siri.png?itok=IUaMyAQu", 
    "/sites/all/themes/blognone42/images/linebutton.png"
  ], 
  "Link": "https://www.blognone.com/node/81382", 
  "News": "[ลือ] Apple เตรียมเปิด Siri ให้นักพัฒนาใช้งาน, กำลังสร้างลำโพงแบบเดียวกับ Amazon Echo", 
  "Tags": [
    "Siri", 
    "Apple", 
    "Home Appliance", 
    "Rumor"
  ], 
  "Time": "13:06"
}