{
  "By": "mk", 
  "Contents": "
ทีมความปลอดภัยของไมโครซอฟท์ ออกมาให้ข้อมูลว่าบัญชี Microsoft Account และระบบไดเรคทอรี Azure AD (Active Directory) ตอนนี้แบนการใช้งานรหัสผ่านพื้นๆ ที่พบได้บ่อย เพื่อความปลอดภัยที่ดีขึ้นของผู้ใช้งาน
ไมโครซอฟท์ระบุว่าปกติแล้วพบความพยายามแฮ็กบัญชีกว่า 10 ล้านครั้งในแต่ละวัน ดังนั้นไมโครซอฟท์มีสถิติเยอะมากว่าแฮ็กเกอร์พยายามเดารหัสผ่านด้วยรหัสแบบไหนบ้าง ไมโครซอฟท์จึงใช้ลิสต์รายการนี้เป็นตัวเปรียบเทียบ เพื่อไม่ให้ผู้ใช้ตั้งรหัสผ่านกลุ่มนี้
ระบบความปลอดภัยของไมโครซอฟท์ยัง "ล็อคบัญชี" ชั่วคราว หากพบว่ามีความพยายามเดารหัสผ่านเพื่อใช้งานบัญชีเหล่านี้
ฟีเจอร์นี้ถูกใช้กับบัญชี Microsoft Account แล้ว ส่วน Azure AD ที่เป็นผู้ใช้องค์กร ยังอยู่ในสถานะพรีวิว และจะค่อยๆ ขยายให้ครบผู้ใช้ทุกกลุ่มในเร็ววันนี้
ที่มา - TechNet

 ", 
  "Date": "28/May/2016", 
  "Image-Link": "https://www.blognone.com/sites/default/files/badges/badge-founder.png", 
  "Link": "https://www.blognone.com/node/81545", 
  "News": "Microsoft Account แบนไม่ให้ผู้ใช้ตั้งรหัสผ่านที่พบได้บ่อย-คาดเดาได้ง่าย", 
  "Tags": [
    "Microsoft", 
    "Password", 
    "Security", 
    "Active Directory"
  ], 
  "Time": "17:36"
}