{
  "By": "mk", 
  "Contents": "
HP เพิ่งเปิดตัวผลิตภัณฑ์สายพีซี-โน้ตบุ๊กเกมมิ่งแบรนด์ Omen ไปชุดใหญ่เมื่อเร็วๆ นี้ แต่ยังมีพีซีอีกตัวที่ยังเป็นแค่ต้นแบบและยังไม่มีชื่อรุ่น มันคือเดสก์ท็อปพีซีที่สามารถหิ้วไปไหนมาไหนได้สะดวก หรือที่เรียกกันว่า "Backpack PC"
Backpack PC ของ HP ตัวนี้มีสมรรถนะแรงพอสำหรับเล่นเกมแบบ VR เลือกได้ว่าใช้ซีพียู Core i5/i7, ใส่แรมได้สูงสุด 32GB แต่ยังไม่มีข้อมูลของจีพียู น้ำหนักของมันจะเบากว่า 10 ปอนด์ หรือประมาณ 4.5 กิโลกรัม มีแบตเตอรี่สำหรับนำออกไปใช้งานนอกสถานที่ได้ (เราคงเห็นคนสะพาย Backpack PC พร้อมกับใส่แว่น VR ในเร็ววัน)
ตอนนี้ HP ยังไม่ประกาศราคาและวันวางขาย อย่างไรก็ตาม HP ไม่ใช่รายแรกที่มีสินค้าแบบนี้ เพราะบางแบรนด์อย่าง MSI และ Zotac ก็มีพีซีสะพายหลังแบบนี้เช่นกัน
ที่มา - The Verge

 ", 
  "Date": "28/May/2016", 
  "Image-Link": "https://www.blognone.com/sites/default/files/badges/badge-founder.png", 
  "Link": "https://www.blognone.com/node/81548", 
  "News": "HP โชว์คอนเซปต์ "พีซีสะพายหลัง" Backpack PC สำหรับเล่นเกม VR นอกสถานที่", 
  "Tags": [
    "HP", 
    "Omen", 
    "Hardware"
  ], 
  "Time": "18:19"
}