{
  "By": "sunnywalker", 
  "Contents": " สืบเนื่องจาก WhatsApp ถูกศาลบราซิลสั่งให้ปิดระบบการใช้งานเป็นเวลา 72 ชั่วโมง เพราะการเข้ารหัสของแอพฯทำให้ตำรวจไม่สามารถสืบสวนคดีได้ ล่าสุดเมื่อวันอังคารศาลอุทธรณ์คำตัดสิน ส่งผลให้ WhatsApp กลับมาใช้งานได้อีกครัง หลังจากนั้น Mark Zuckerberg โพสต์ Facebook ว่าการที่คนบราซิลถูกเพิกเฉยในเรื่องเสรีภาพการสื่อสารในช่องทางที่พวกเขาต้องการ เป็นสิ่งที่น่ากลัวมากในระบอบประชาธิปไตย Mark Zuckerberg ยังกระตุ้นให้ชาวบราซิลรวมตัวกันที่รัฐสภา ณ เมืองหลวงบราซีเลีย  6 โมงเย็นตามเวลาท้องถิ่น ซึ่งทาง Internet Freedom Caucus เป็นเจ้าภาพจัดงาน และมีการแนะนำกฎหมายป้องกันไม่ให้เสรีภาพทางอินเทอร์เน็ตถูกปิดกั้นอีกเหมือนกรณี WhatsApp และยังเผยแพร่แคมเปญต้านการปิดกั้นผ่าน change.org ด้วย อย่างไรก็ตามก่อนจะมีการเปลี่ยนแปลงด้านคำสั่งศาล WhatsApp ก็ถูกปิดการใช้งานไปแล้วประมาณ 24 ชั่วโมง กระทบผู้ใช้งานแล้วประมาณ 100 ล้านคน  ที่มา - Yahoo   ", 
  "Date": "4/May/2016", 
  "Image-Link": [
    "https://www.blognone.com/sites/default/files/styles/thumbnail/public/topics-images/whatsapp.png?itok=KzSwXlnq", 
    "http://i.imgur.com/5sBO48q.png", 
    "/sites/all/themes/blognone42/images/linebutton.png"
  ], 
  "Link": "https://www.blognone.com/node/80599", 
  "News": "WhatsApp กลับมาออนไลน์ได้อีกครั้ง และ Facebook ก็ออกโรงต่อต้านการบล็อคแอพฯ", 
  "Tags": [
    "WhatsApp", 
    "Facebook", 
    "Brazil"
  ], 
  "Time": "11:11"
}