{
  "By": "nutmos", 
  "Contents": " Adobe ได้ออกอัพเดตแอพ Photoshop Sketch สำหรับ iOS ซึ่งเป็นแอพวาดภาพสำหรับใช้งานในอุปกรณ์พกพาที่อยู่ในตระกูล Photoshop เป็นเวอร์ชัน 3.4 โดยเพิ่มฟีเจอร์ขึ้นมาหลายอย่าง  รองรับเลเยอร์แล้ว สามารถเพิ่มเลเยอร์ของภาพวาดหรือภาพถ่าย โดยแตะบนปุ่มเลเยอร์เพื่อให้แสดงบนแถบเลเยอร์ สามารถเปลี่ยนชื่อ, เปลี่ยนการซ้อน, แปลงภาพ และรวมเลเยอร์เข้าด้วยกันได้ 3D Touch บน iPhone 6s และ iPhone 6s Plus สามารถใช้ในการเข้าถึงเมนูและใช้สร้างสไตลัสแบบตรวจจับแรงกดจากนิ้วมือได้ การตั้งค่า brush ที่ปรับปรุงใหม่ สามารถควบคุมการตั้งค่าของ brush แต่ละตัวได้ รวมถึงสามารถสร้าง brush ได้เองจาก Capture CC brush อัพเดตใหม่ เพิ่ม Thick Acrylic, Ink Brush และ Soft Pastel (เฉพาะ iPad mini 2 หรือใหม่กว่า, iPad Air และ iPad Pro) สำเนาโปรเจคได้แล้วโดยใช้ Edit Mode หรือว่าจะย้ายภาพวาดระหว่างโปรเจคก็ได้  Photoshop Sketch เวอร์ชัน 3.4 สามารถดาวน์โหลดได้ทาง App Store ที่มา - 9to5Mac   ", 
  "Date": "1/June/2016", 
  "Image-Link": [
    "https://www.blognone.com/sites/default/files/styles/thumbnail/public/topics-images/adobe.png?itok=VJhWB1K2", 
    "/sites/all/themes/blognone42/images/linebutton.png"
  ], 
  "Link": "https://www.blognone.com/node/81681", 
  "News": "Adobe ออกอัพเดต Photoshop Sketch รองรับเลเยอร์, เพิ่มความสามารถของ brush", 
  "Tags": [
    "Adobe", 
    "Photoshop", 
    "Mobile App"
  ], 
  "Time": "09:13"
}