{
  "By": "lew", 
  "Contents": " ดัชนีความนิยมภาษาเขียนโปรแกรม TIOBE แสดงความนิยมในเดือนกรกฎาคม แม้ว่าความเปลี่ยนแปลงจะไม่มากนัก แต่สิ่งที่น่าสนใจคือภาษาแอสเซมบลีกลับขึ้นมาเป็นอันดับสิบ ภาษาแอสเซมบลีขึ้นไปอันดับสูงสุดคืออันดับ 9 เมื่อเดือนมกราคมที่ผ่านมา หลังจากเรตติ้งความนิยมเพิ่มเกิน 2% เป็นครั้งแรกในรอบ 5 ปี แต่ความนิยมของภาษาโดยรวมก็เพิ่มขึ้นอย่างมากตั้งแต่ปี 2015 เป็นต้นมา ทาง TIOBE อธิบายว่าที่ภาษาแอสเซมบลีได้รับความนิยมขึ้นมาน่าจะเป็นเพราะความนิยมในอุปกรณ์ขนาดเล็กมากๆ ที่มา - TIOBE, TIOBE: Assembly    ", 
  "Date": "10/July/2016", 
  "Image-Link": [
    "https://www.blognone.com/sites/default/files/styles/thumbnail/public/topics-images/tiobe.png?itok=UcMft9F8", 
    "//upic.me/i/ur/screenshot2016-07-10at18.04.03.png", 
    "/sites/all/themes/blognone42/images/linebutton.png"
  ], 
  "Link": "https://www.blognone.com/node/83243", 
  "News": "ดัชนี TIOBE แสดงความนิยมภาษา Assembly กลับมาอยู่อันดับสิบ", 
  "Tags": [
    "TIOBE", 
    "Programming"
  ], 
  "Time": "18:07"
}