{
  "By": "mk", 
  "Contents": "
การเปลี่ยนยุคจาก Flash เป็น HTML5 ย่อมต้องมีเครื่องมือช่วยเปลี่ยนผ่านไฟล์ในฟอร์แมตเก่าเป็นฟอร์แมตใหม่ ฝั่งกูเกิลมีเครื่องมือออนไลน์ชื่อ Swiffy ให้บริการมาตั้งแต่ปี 2011 และนำมาใช้แปลงโฆษณา Flash ในระบบเครือข่ายโฆษณาของตัวเองในปี 2015
ล่าสุดกูเกิลประกาศหยุดให้บริการ Swiffy แล้ว บริการแปลงไฟล์จะให้บริการถึง 1 กรกฎาคมนี้เท่านั้น แต่ไฟล์ที่แปลงไปแล้วจะยังสามารถใช้กับเซิร์ฟเวอร์โฆษณาของกูเกิลได้เหมือนเดิม
กูเกิลแนะนำให้ผู้เกี่ยวข้องย้ายไปใช้ HTML5 โดยระบุว่าเครื่องมือตัวใหม่ๆ ของ Adobe ก็สร้างไฟล์แอนิเมชันเป็น HTML5 ได้หมดแล้ว (Adobe Animate) และถ้ายังอยากรันไฟล์ Flash อยู่ก็สามารถใช้เครื่องมือโอเพนซอร์ส Project Shumway ของ Mozilla ได้เช่นกัน
ช่วงนี้มีข่าวการหยุดซัพพอร์ต Flash ออกมาพอสมควร เมื่อวานนี้ Safari 10 ก็เพิ่งหยุดเล่น Flash เป็นค่าดีฟอลต์
ที่มา - Google Ads Developer Blog
 ", 
  "Date": "16/June/2016", 
  "Image-Link": "https://www.blognone.com/sites/default/files/badges/badge-founder.png", 
  "Link": "https://www.blognone.com/node/82320", 
  "News": "ถึงเวลาเปลี่ยนยุค กูเกิลหยุดให้บริการ Swiffy ตัวแปลง Flash เป็น HTML5", 
  "Tags": [
    "Adobe Flash", 
    "Google", 
    "HTML5"
  ], 
  "Time": "10:07"
}