{
  "By": "mk", 
  "Contents": " Rovio ออกเกมใหม่ในตระกูล Angry Birds รับกำหนดฉายของภาพยนตร์ในเดือนนี้ เกมใช้ชื่อว่า Angry Birds Action! ใช้ตัวละครจากภาคหนังโรงที่ต่างไปจากเกมต้นฉบับ รูปแบบเกมเพลย์จะคล้ายๆ กับ pinball คือยิงนกขึ้นไปในแนวตั้งให้สะท้อนไปมาและระเบิดอุปสรรคต่างๆ ภายในฉาก (ดูวิดีโอประกอบ) เนื่องจากเกม Angry Birds Action! ผูกกับภาพยนตร์ จึงมีลูกเล่นเพิ่มเติมเพื่อโปรโมทการฉายภาพยนตร์ด้วย เริ่มจากการสแกนบาร์โค้ดหรือ BirdCodes จากสินค้าต่างๆ ที่ร่วมรายการ (เช่น ของเล่นจาก Lego หรือชุดอาหาร McDonald's) เพื่อรับไอเทมหรือคอนเทนต์ในเกม รวมถึงเราสามารถสแกนโค้ดที่ขึ้นในเครดิตของภาพยนตร์ เพื่อปลดล็อคฟีเจอร์ Movie Magic ดูคลิปวิดีโอเพิ่มเติมได้ด้วย เกมดาวน์โหลดได้แล้วทั้งบน iOS และ Android ครับ ที่มา - Rovio   ", 
  "Date": "1/May/2016", 
  "Image-Link": [
    "https://www.blognone.com/sites/default/files/styles/thumbnail/public/news-thumbnails/angry-actions.png?itok=MHyJzq-m", 
    "/sites/all/themes/blognone42/images/linebutton.png"
  ], 
  "Link": "https://www.blognone.com/node/80515", 
  "News": "Angry Birds Action! เกมภาคใหม่ออกต้อนรับ Angry Birds ภาคหนังโรง", 
  "Tags": [
    "Angry Birds", 
    "Games", 
    "Rovio"
  ], 
  "Time": "19:02"
}