{
  "By": "lew", 
  "Contents": " ปัญหาอินเทอร์เน็ตไม่เสถียรในบ้านหลายๆ ครั้งมักแก้ไขได้ด้วยการบูตเราท์เตอร์ง่ายๆ แต่การเดินไปบูตทุกๆ สองสามวันก็เป็นเรื่องน่าเบื่อสำหรับหลายๆ คน ตอนนี้บอร์ด WiReboot ที่พัฒนาจาก ESP8266 ก็เปิดระดมทุนแล้ว แนวคิดของบอร์ด WiReboot ง่ายๆ คือมันจะคั่นกลางสายไฟก่อนเข้าเราท์เตอร์เอาไว้ และทดสอบความเสถียรของ Wi-Fi ทั้งการเชื่อมต่อ Wi-Fi เองและการเข้าเว็บ หากไม่เสถียรก็จะปิดเราท์เตอร์ไว้สิบนาทีก่อนจะเปิดใหม่ ทางผู้พัฒนาระบุว่าจะมีบอร์ดเสริมสามารถเก็บข้อมูลเพิ่มเติมเช่น อุณหภูมิ, ความชื้น, แสงสว่าง, หรือการส่งสัญญาณ 433MHz เพื่อควบคุมอุปกรณ์อื่น ตัวบอร์ดราคา 13.88 ดอลลาร์สหรัฐฯ กำหนดส่งสินค้าเดือนกันยายนนี้ จุดที่ดูแปลกๆ สักหน่อยคือมันใช้พอร์ต USB สำหรับจ่ายไฟ แต่เป็นตัวอย่างไอเดียที่ดีว่าเราสามารถใช้ ESP8266 มาทำงานง่ายๆ ที่เป็นปัญหากับคนจำนวนมากได้ ที่มา - Kickstarter    ", 
  "Date": "5/July/2016", 
  "Image-Link": [
    "https://www.blognone.com/sites/default/files/styles/thumbnail/public/topics-images/espressif.png?itok=1Bkrx69t", 
    "//upic.me/i/ye/3224f8ad7babf85733dc080dcd485f8a_original.jpg", 
    "/sites/all/themes/blognone42/images/linebutton.png"
  ], 
  "Link": "https://www.blognone.com/node/83018", 
  "News": "คุณมีปัญหาเราท์เตอร์ค้างใช่หรือไม่ WiReboot บอร์ด ESP8266 บูตเราท์เตอร์อัตโนมัติ", 
  "Tags": [
    "Espressif", 
    "Internet of Things", 
    "Kickstarter"
  ], 
  "Time": "12:59"
}