{
  "By": "vvkungx", 
  "Contents": " LINE เปิดตัวแอพวิดีโอเซลฟี่ที่มาพร้อมเอฟเฟกต์ต่างๆ ในชื่อ egg โดยผู้ใช้สามารถเลือกใช้เอฟเฟกต์ได้มากถึง 50 แบบไม่ว่าจะเป็นหน้าสัตว์, หน้าผีหรือหน้าน่ารักๆ ก็เลือกใช้งานได้ทันที นอกจากนี้ยังสามารถเลือกเอฟเฟกต์เล็กๆ น้อยๆ เพิ่มเข้าไปในวิดีโอได้เพื่อสร้างความแตกต่างของวิดีโอ และแอพ egg ยังมาพร้อมกับเอฟเฟกต์ดังอย่างการสลับหน้ากับคนอื่นอีกด้วย หลังจากนั้นเมื่อผู้ใช้บันทึกวิดีโอเสร็จก็สามารถเลือกแชร์คลิปไปยัง LINE, Facebook, Twitter หรือ Instagram ได้อีกด้วย เปิดให้ดาวน์โหลดใช้งานได้ฟรีแล้วบน iOS และ Android หรือดูรายละเอียดเพิ่มเติมได้ที่ http://egg.line.me/ ที่มา : LINE Blog   ", 
  "Date": "28/May/2016", 
  "Image-Link": [
    "https://www.blognone.com/sites/default/files/styles/thumbnail/public/news-thumbnails/49947c2d.png?itok=oCUo26-i", 
    "/sites/all/themes/blognone42/images/linebutton.png"
  ], 
  "Link": "https://www.blognone.com/node/81525", 
  "News": "LINE ไม่น้อยหน้า เปิดตัวแอพวิดีโอเซลฟี่พร้อมเอฟเฟกต์มากมายในชื่อ egg", 
  "Tags": [
    "LINE", 
    "Selfie", 
    "Mobile App"
  ], 
  "Time": "00:27"
}