{
  "By": "nutmos", 
  "Contents": " Spotify ได้เปิดเผยยอดการเติบโตของจำนวนผู้ใช้ ซึ่งตอนนี้เริ่มเข้าใกล้ 100 ล้านคนเข้าไปทุกที รวมถึงสถิติต่างๆ และทิศทางของบริษัทในอนาคต Jonathan Foster ผู้บริหารระดับสูงของ Spotify ได้ให้สัมภาษณ์กับ Reuters เขากล่าวว่ามันสำคัญมากที่ Apple เข้ามาลงเล่นตลาดด้วย เพราะทำให้โปรไฟล์ของบริการสตรีมมิ่งดูดีขึ้น เพราะอุตสาหกรรมนั้นมันยากที่จะสร้างด้วยตัวเอง และตั้งแต่ Apple Music เปิดตัวมา เราก็เติบโตเร็วขึ้นและจำนวนผู้ใช้เพิ่มมากขึ้นกว่าแต่ก่อน ปัจจุบันผู้ใช้ Spotify มีจำนวนผู้ใช้ที่สมัครสมาชิกแบบจ่ายเงินอยู่ที่ 30 ล้านคน โดยมียอดผู้ใช้ที่เปลี่ยนจากบริการแบบฟรีมีโฆษณามาจ่ายเงินเพิ่มขึ้นจาก 25% เป็น 30% แม้ว่ายอดผู้ใช้จะเพิ่มขึ้นมากก็ตาม ส่วนฝั่ง Apple Music มีผู้ใช้ที่จ่ายเงินสมัครสมาชิก 13 ล้านคนตั้งแต่ที่เปิดตัวเมื่อปีที่แล้วใน 100 ประเทศ Foster ยังบอกอีกว่าตอนนี้มีบริการสตรีมมิ่งมากมาย ซึ่งบริการเหล่านี้ต้องล้มหายตายจากไป ประวัติศาสตร์ด้านอินเทอร์เน็ตของเขาบอกว่าสุดท้ายแล้วจะไม่ค่อยมีผู้เล่นในตลาดนี้เยอะมากนัก ส่วนใหญ่มักจะเป็นบริการสตรีมมิ่งที่เปิดมาเป็นรายแรกๆ และมันเป็นธุรกิจที่ยาก Spotify ยังคงหาทางทำธุรกิจใหม่ๆ อย่างเช่นคอนเสิร์ต, การขายสินค้า และวิดีโอ แต่ Foster ก็บอกว่าบริษัทจะยังไม่ลองเป็น Netflix เมื่อถามถึงเรื่องการซื้อบริษัท Foster กล่าวว่าการซื้อบริษัทของ Spotify ในอนาคตจะยังคงอยู่ในอัตราเช่นเดิมกับที่ผ่านมา ซึ่งจะยังเน้นการนำเอาทีมงานและเทคโนโลยีเข้ามาใช้ในบริษัท เมื่อถูกถามถึงโอกาสที่ Spotify จะถูกซื้อโดยบริษัทใหญ่อย่าง Google หรือ Facebook นั้น Foster บอกว่าตัวเขาคิดว่า Spotify ก็คือ Spotify เราต่อสู้มาจนมีทุกวันนี้และเรามีความสุขดี มันเป็นอารมณ์ที่ยากถ้าเกิดจะวันหนึ่งไม่ใช่ Spotify ที่มา - Reuters   ", 
  "Date": "10/May/2016", 
  "Image-Link": [
    "https://www.blognone.com/sites/default/files/styles/thumbnail/public/topics-images/spotify500.png?itok=skNKsnYA", 
    "/sites/all/themes/blognone42/images/linebutton.png"
  ], 
  "Link": "https://www.blognone.com/node/80778", 
  "News": "Spotify เผยยอดผู้ใช้สูงขึ้นมากหลัง Apple Music เปิดตัว", 
  "Tags": [
    "Spotify", 
    "Music Streaming"
  ], 
  "Time": "07:29"
}