{
  "By": "nutmos", 
  "Contents": " Suzuki Motor ยอมรับว่าทางบริษัทได้ใช้ผลการทดสอบการประหยัดน้ำมันรถยนต์ที่ไม่ถูกต้องกับรถยนต์ 16 รุ่นที่ขายในญี่ปุ่น โดยกล่าวว่าการทดสอบที่ใช้แบบนี้ไม่ใช่การชี้นำลูกค้าไปในทางที่ผิด และผลที่ได้จากการทดสอบที่ไม่ถูกต้องนี้ไม่ได้แตกต่างกับการทดสอบแบบที่ถูกต้องมาก โดยทางบริษัทยังไม่มีแผนการเปลี่ยนผลการทดสอบที่เผยออกไปแล้ว Osamu Suzuki ประธานบริษัทได้ยอมรับผิดกับลูกค้า​ โดยกล่าวว่าทางบริษัทได้ทำการทดสอบรถยนต์ใหม่แล้วและไม่พบความแตกต่างมากนักกับผลลัพธ์ที่ได้เผยแพร่ออกสู่สาธารณะไปแล้ว ผลลัพธ์ที่ Suzuki ยอมรับว่าผิดพลาดนี้ คือการที่วิศวกรใช้วิธีทำงานอย่างไม่รอบคอบ โดยการใช้ระยะทางวิ่งจากการทดสอบเดิม ซึ่งผิดกฏข้อบังคับ แต่ไม่ได้มีค่าผิดพลาดที่มากนัก เหตุผลที่เรื่องของ Suzuki แดงขึ้นมาเพราะหน่วยงานรัฐในญี่ปุ่นสั่งให้ผู้ผลิตรถยนต์ทำการทดสอบใหม่ทั้งหมดหลังจากเกิดเรื่อง Mitsubishi ขึ้นมา โดยเมื่อข่าวออกแล้ว หุ้น Suzuki ในโตเกียวตกลง 9% ทันที ที่มา - The New York Times   ", 
  "Date": "19/May/2016", 
  "Image-Link": [
    "https://www.blognone.com/sites/default/files/styles/thumbnail/public/news-thumbnails/suzuki-logo.png?itok=lSKr62fR", 
    "/sites/all/themes/blognone42/images/linebutton.png"
  ], 
  "Link": "https://www.blognone.com/node/81180", 
  "News": "Suzuki ยอมรับใช้วิธีทดสอบการประหยัดน้ำมันไม่ถูกต้อง", 
  "Tags": [
    "Suzuki", 
    "Automobile"
  ], 
  "Time": "10:05"
}