{
  "By": "lew", 
  "Contents": " Nordic Semiconductor แนะนำบอร์ด RuuviTag บอร์ดพัฒนา Bluetooth LE โดยบริษัท Ruuvi จากฟินแลนด์ เป็นบอร์ดโอเพนซอร์สสำหรับการใช้งานเป็น beacon เช่น iBeacon ของแอปเปิลหรือ Eddystone ของกูเกิล ชิปหลักเป็น nRF52832 ซีพียูเป็น Cortex-M4F 64MHz แรม 64 kB หน่วยความจำแฟลช 512 kB เส้นผ่านศูนย์กลาง 45 มิลลิเมตร ระยะส่ง 100 เมตร ภายในมีเซ็นเซอร์อุณหภูมิ, ความชื้น, ความดันอากาศ, และ accelerometer ในตัว ใช้แบตเตอรี่ CR2450 หรือ CR2477 อายุแบตเตอรี่สูงสุด 10 ปี Ruuvi เตรียมเปิดระดมทุนบอร์ดนี้ปลายเดือนและจะส่งมอบจริงช่วงเดือนกันยายน ที่มา - Nordic    ", 
  "Date": "2/June/2016", 
  "Image-Link": [
    "https://www.blognone.com/sites/default/files/styles/thumbnail/public/topics-images/Profilbilde2.jpg?itok=nuwOlNQP", 
    "//upic.me/i/n7/nordic-semiconductor-powered-beacon-provides-open-source-development-platform-for-developers-makers-and-hobbyists.jpg", 
    "/sites/all/themes/blognone42/images/linebutton.png"
  ], 
  "Link": "https://www.blognone.com/node/81769", 
  "News": "บอร์ด RuuviTag สำหรับงาน iBeacon/Eddystone ใช้ชิปจาก Nordic", 
  "Tags": [
    "Semiconductor", 
    "Internet of Things", 
    "Nordic Semiconductor"
  ], 
  "Time": "20:15"
}