{
  "By": "sunnywalker", 
  "Contents": " งานนี้ใครเกาะกระแส Pokemon Go ได้ก่อน ก็ดังก่อน และนักการเมืองสหรัฐฯคนแรกที่ใช้ประโยชน์จากเกมในการหาเสียงคือ Hillary Clinton แห่งพรรคเดโมแครต Clinton จัดงานปราศรัยซึ่งเป็นเรื่องปกติของช่วงหาเสียง สถานที่คือ Madison Park ในโลกจริง Madison Park ก็คือสถานที่แห่งหนึ่ง อยู่ในเขต Lakewood มลรัฐ Ohio แต่ในโลกของ Pokemon Go มันคือ Pokestop และ Pokemon GYM ซึ่งในเว็บไซต์ของ Clinton มีข้อความว่า Gotta Catch 'Em' All มาร่วมกับเราที่โปเกสต็อป มาล่าโปเกมอน มาสู้กัน ระหว่างนั้นอย่าลืมลงทะเบียนฟังปราศรัย คิดภาพไม่ออกว่างานปราศรัยวันเสาร์นี้ Clinton จะปราศรัยยังไงเพราะทุกคนคงกำลังล่าโปเกมอนอย่างเมามันส์ (ฮา)  ที่มา - Venture Beat   ", 
  "Date": "15/July/2016", 
  "Image-Link": [
    "https://www.blognone.com/sites/default/files/styles/thumbnail/public/topics-images/hillary.jpg?itok=RQEj6yJv", 
    "http://i.imgur.com/BdQUWjP.png", 
    "/sites/all/themes/blognone42/images/linebutton.png"
  ], 
  "Link": "https://www.blognone.com/node/83458", 
  "News": "Hillary Clinton ชวนฟังปราศรัยที่โปเกมอนยิม ในคอนเซปต์ Gotta Catch 'Em' All", 
  "Tags": [
    "Hillary Clinton", 
    "Pokemon", 
    "USA", 
    "Politics"
  ], 
  "Time": "10:03"
}