https|:|/|/|www|.|blognone|.|com|/|node|/|7728511|:|5030|/|01|/|16|James| |Bond| |ช่วย|ดัน| |โซ|นี่|กำไร|พุ่ง| |33|%| |แต่|ธุรกิจ|มือ|ถือ|-|เซ็น|เซอร์|รายได้|ลด|ลง|https|:|/|/|www|.|blognone|.|com|/|sites|/|default|/|files|/|imagecache|/|news|-|thumbnail|/|category|_|pictures|/|sony|_|logo|.|jpgFinancial| |Report|
Sony|
mk|
โซ|นี่|เผย|ผล|ประกอบ|การ|ไตรมาส| |3| |ปี|งบประมาณ| |2015| |(|ตรง|กับ|ไตรมาส| |4|/|2015|)| |ออก|มา|ดี|กว่า|ที่|คาด| |รายได้|ใกล้เคียง|กับ|ปี|ที่แล้ว| |2.58| |ล้าน|ล้าน|เยน| |แต่|กำไร|เพิ่ม|ขึ้น| |33|%| |เป็น| |1.2| |แสน|ล้าน|เยน|
ธุรกิจ|ที่|สร้าง|กำไร|ให้|โซ|นี่|เป็นกอบเป็นกำ|ใน|ไตรมาส|นี้|คือ| |"|ภาพยนตร์|"| |ที่|นำ|โดย| |James| |Bond| |ภาค|ล่าสุด| |Spectre| |(|รายได้|จาก|ภาพยนตร์|โต| |27|%|)|,| |"|เพลง|"| |ที่|มี|ดาว|เด่น| |Adele| |(|รายได้|จาก|เพลง|โต| |8.2|%|)| |และ| |"|เกม|"| |(|รายได้|โต| |10.5|%|)|
อย่างไรก็ตาม| |ธุรกิจ|โทรศัพท์|มือ|ถือ|ของ|โซ|นี่|กลับ|รายได้|ตกลง|ถึง| |14.7|%| |(|แต่|ยัง|มี|กำไร|)|,| |ธุรกิจ|กล้อง|ภ่าย|ภาพ|ตกลง| |5|%| |และ|ที่|น่า|สนใจ|คือ|ธุรกิจ|เซ็น|เซอร์|-|แบตเตอรี่| |(|โซ|นี่|เรียก| |Devices|)| |ที่|เคย|เป็น|ดาวรุ่ง| |กลับ|มี|รายได้|ตกลง| |12.6|%| |แถม|ยัง|ขาดทุน|ด้วย| |เหตุผล|มา|จาก|ตลาด|มือ|ถือ|โลก|เริ่ม|ชะลอ|ตัว| |คู่|ค้า|ของ|โซ|นี่|จึง|สั่ง|ซื้อ|ชิ้นส่วน|เหล่านี้|น้อย|ลง|
ตอนนี้|ธุรกิจ|ที่|ทำ|เงิน|ให้|โซ|นี่|มาก|ที่สุด|คือ|เกม|/|บริการ|ออนไลน์| |ตาม|ด้วย|อุปกรณ์|ความ|บันเทิง|-|เครื่องเสียง|,| |โทรศัพท์|มือ|ถือ| |และ|การเงิน|
ถ้า|หาก|รวม|รายได้|ของ|ธุรกิจ|ดาวรุ่ง| |(|เกม|/|ภาพยนตร์|/|เพลง|)| |เข้า|ด้วย|กัน| |ถือ|เป็น|สัดส่วน|รายได้|เกือบ| |40|%| |ของ|รายได้|ทั้ง|บริษัท|
ที่มา| |-| |Sony| |(|PDF|)|,| |Bloomberg|


https//www.blognone.com/node/77285115030/01/16JamesBondช่วยดันโซนี่กำไรพุ่ง33%ธุรกิจมือถือ-เซ็นเซอร์รายได้ลดhttps//www.blognone.com/sites/default/files/imagecache/news-thumbnail/category_pictures/sony_logo.jpgFinancialReport
Sony
mk
โซนี่ประกอบไตรมาส3ปีงบประมาณ2015(ตรงไตรมาส4/2015)คาดรายได้ใกล้เคียงปีที่แล้ว2.58ล้านล้านเยนกำไรเพิ่ม33%1.2แสนล้านเยน
ธุรกิจสร้างกำไรโซนี่เป็นกอบเป็นกำไตรมาสภาพยนตร์นำJamesBondภาคล่าสุดSpectre(รายได้ภาพยนตร์โต27%)เพลงดาวเด่นAdele(รายได้เพลงโต8.2%)เกม(รายได้โต10.5%)
อย่างไรก็ตามธุรกิจโทรศัพท์มือถือโซนี่กลับรายได้ตกลง14.7%(กำไร)ธุรกิจกล้องภ่ายภาพตกลง5%สนใจธุรกิจเซ็นเซอร์-แบตเตอรี่(โซนี่เรียกDevices)ดาวรุ่งกลับรายได้ตกลง12.6%แถมขาดทุนเหตุผลตลาดมือถือโลกชะลอตัวคู่ค้าโซนี่สั่งซื้อชิ้นส่วนเหล่านี้น้อย
ตอนนี้ธุรกิจทำเงินโซนี่เกม/บริการออนไลน์อุปกรณ์บันเทิง-เครื่องเสียงโทรศัพท์มือถือการเงินรายได้ธุรกิจดาวรุ่ง(เกม/ภาพยนตร์/เพลง)ถือสัดส่วนรายได้เกือบ40%รายได้บริษัท
ที่มา-Sony(PDF)Bloomberg