https|:|/|/|www|.|blognone|.|com|/|node|/|7732513|:|4601|/|02|/|16|Capcom| |เผย| |Resident| |Evil| |เป็น|แฟ|รน|ไชนส์|เกม|ที่|ขาย|ดี|ที่สุด|ตลอดกาล|ของ|ค่าย|https|:|/|/|www|.|blognone|.|com|/|sites|/|default|/|files|/|imagecache|/|news|-|thumbnail|/|category|_|pictures|/|capcom|.|pngCapcom|
Games|
Resident| |Evil|
nismod|
ตลอด|ระยะ|เวลา|หลาย|สิบ|ปี| |ตั้งแต่|สมัย|ทำ|เกม|ตู้|อาร์เคด| |จน|ย้าย|มา|บน|คอน|โซ|ล| |Capcom| |ผลิต|เกม|ที่|ประสบ|ความ|สำเร็จ|มา|แล้ว|มากมาย| |โดย|ใน|การ|แถลง|ผล|ประกอบ|การ|ประจำปี| |2015| |Capcom| |ได้|อัพเดต|ยอด|ขาย|ตลอดกาล|ของ|แฟ|รน|ไชส์|เกม|ใน|ค่าย|ตัวเอง| |ซึ่ง| |Resident| |Evil| |เป็น|แฟ|รน|ไชนส์|เกม|ที่|มี|ยอด|ขาย|สูง|ที|สุด|ถึง| |66| |ล้าน|ก๊อป|ปี้|
อันดับ|สอง|คือ| |Street| |Fighter| |ที่| |37| |ล้าน|ก๊อป|ปี้| |ตาม|มา|ด้วย| |Monster| |Hunter| |ที่| |36| |ล้าน| |และ| |Mega| |Man| |หรือ|ร็อค|แมน|ที่| |30| |ล้าน|ก๊อป|ปี้| |และ|ปิด|ท้าย|ท็อปไฟว์|ด้วย| |Devil| |May| |Cry| |อยู่|ที่| |15| |ล้าน|ก๊อป|ปี้|
ส่วน|อันดับ|ที่|เหลือ|ดู|ได้|ท้าย|ข่าว|ครับ|
ที่มา| |-| |DualShockers|
Dead| |Rising| |(|8,500,000|)|
Onimusha| |(|8,000,000|)|
Marvel| |vs|.| |Capcom| |(|7,000,000|)|
Lost| |Planet| |(|5,900,000|)|
Ace| |Attorney| |(|5,600,000|)|
Dino| |Crisis| |(|4,400,000|)|
Ghosts| |'|n| |Goblins| |(|4,200,000|)|
Sengoku| |Basara| |(|3,800,000|)|
Final| |Fight| |(|3,200,000|)|
Breath| |of| |Fire| |(|3,100,000|)|
Dragon|'|s| |Dogma| |(|2,400,000|)|
1942| |(|1,400,000|)|
Commando| |(|1,200,000|)|


https//www.blognone.com/node/77325134601/02/16CapcomResidentEvilแฟรนไชนส์เกมขายตลอดกาลค่ายhttps//www.blognone.com/sites/default/files/imagecache/news-thumbnail/category_pictures/capcom.pngCapcom
Games
ResidentEvil
nismod
ตลอดระยะเวลาสิบปีสมัยทำเกมตู้อาร์เคดจนย้ายบนคอนโซCapcomผลิตเกมประสบสำเร็จมากมายแถลงประกอบประจำปี2015Capcomอัพเดตยอดขายตลอดกาลแฟรนไชส์เกมค่ายตัวเองResidentEvilแฟรนไชนส์เกมยอดขายสูง66ล้านก๊อปปี้
อันดับสองStreetFighter37ล้านก๊อปปี้MonsterHunter36ล้านMegaManร็อคแมน30ล้านก๊อปปี้ท้ายท็อปไฟว์DevilMayCry15ล้านก๊อปปี้อันดับเหลือดูท้ายข่าวครับ
ที่มา-DualShockers
DeadRising(8,500,000)
Onimusha(8,000,000)
Marvelvs.Capcom(7,000,000)
LostPlanet(5,900,000)
AceAttorney(5,600,000)
DinoCrisis(4,400,000)
Ghosts'Goblins(4,200,000)
SengokuBasara(3,800,000)
FinalFight(3,200,000)
BreathofFire(3,100,000)
Dragon'Dogma(2,400,000)
1942(1,400,000)
Commando(1,200,000)