{
  "By": "missions", 
  "Contents": " ดีแทค ประกาศผลประกอบการประจำไตรมาสที่ 2/2559 มีรายได้รวม 19,799 ล้านบาท ลดลง 9.7% จากปีก่อน และลดลง 8.7% จากไตรมาสก่อน ซึ่งส่วนใหญ่เกิดจากการลดลงของรายได้จากบริการเสียงและรายได้จากการจำหน่ายโทรศัพท์ โดยบริษัทมีกำไรสุทธิอยู่ที่ 141 ล้านบาท ลดลง 90% จากปีก่อน และลดลง 89% จากไตรมาสก่อน โดยส่วนใหญ่เกิดจากค่าเสื่อมราคาและค่าตัดจำหน่ายที่สูงขึ้นจากการขยายโครงข่าย รวมทั้งมี EBITDA ที่ลดลง และค่าใช้จ่ายพิเศษในการปรับโครงสร้างต่างๆจำนวน 394 ล้านบาท ปัจจุบันมีจำนวนผู้ใช้บริการรวมของบริษัทอยู่ที่ 25 ล้านเลขหมาย ลดลง 524,000 เลขหมายจากไตรมาส 1/2559 เนื่องจากจำนวนลูกค้าในระบบเติมเงินลดลงถึง 715,000 เลขหมาย ซึ่งผลกระทบเกิดจากการที่คู่แข่งมีโปรโมชั่นให้ส่วนลดค่าเครื่องและใช้ช่องทางการขายต่างๆ ส่วนฐานลูกค้าในระบบรายเดือนยังคงเติบโต โดยมีจำนวนผู้ใช้บริการเพิ่มขึ้น 191,000 เลขหมาย ดีแทคเปิดให้บริการโครงข่าย 4G ในทุกจังหวัดในช่วงครึ่งแรกของปีนี้ รวมทั้งให้บริการ 4G บนคลื่น 1800MHz ด้วยปริมาณคลื่นความถี่เต็ม 20MHz ในพื้นที่กรุงเทพมหานคร และปริมณฑล และจะขยายโครงข่าย 4G 2100MHz ในทุกอำเภอทั่วประเทศไทยภายในไตรมาส 3/2559 ทั้งนี้ดีแทคได้ปรับแนวโน้มผลการดำเนินงานปี 2559 โดยคาดว่ารายได้จากการให้บริการ โดยไม่รวมค่าเชื่อมต่อเครือข่าย จะลดลงเล็กน้อยจากปีที่แล้ว ในขณะที่บริษัทยังคงประมาณการเงินลงทุนไว้ที่ระดับเดียวกับปีที่แล้ว ประมาณ 20,000 ล้านบาท ที่มา dtac   ", 
  "Date": "12/July/2016", 
  "Image-Link": [
    "https://www.blognone.com/sites/default/files/styles/thumbnail/public/topics-images/dtac.png?itok=QeorLnmc", 
    "/sites/all/themes/blognone42/images/linebutton.png"
  ], 
  "Link": "https://www.blognone.com/node/83350", 
  "News": "ดีแทค ไตรมาส 2/2559 กำไรลดลง 89% จากไตรมาสก่อน ลูกค้าลดลง 524,000 เลขหมาย", 
  "Tags": [
    "DTAC", 
    "Financial Report"
  ], 
  "Time": "20:53"
}