{
  "By": "nismod", 
  "Contents": " เรื่องราวของ Theranos ที่เป็นเหมือนมหากาพย์อยู่ในขณะนี้ นับตั้งแต่ถูกตั้งข้อสงสัยว่าลวงโลก, ถูกสั่งปรับปรุงแล็บ, ยืนยันผลตรวจเลือดให้ลูกค้าทั้งๆ ที่ไม่ถูกต้อง และล่าสุดโดนฟ้องแบบกลุ่ม กำลังจะถูกสร้างเป็นภาพยนตร์จอเงินแล้ว Gary Sanchez Productions บริษัทโปรดักชันเฮ้าส์ของ Will Farrell (The Other Guys, Anchorman) และ Adam McKay (ผกก. The Big Short) มีแผนจะสร้างเรื่องราวของ Theranos และซีอีโอ Elizabeth Holmes เป็นภาพยนตร์ โดยมีข่าวว่าทีมงานต้องการตัว Jennifer Lawrence (The Hunger Games, X-men Trilogy) มาแสดงเป็น Elizabeth Holmes ครับ รายงานระบุว่าเรื่องนี้เป็นเพียงแนวคิดเบื้องต้นเท่านั้น ทาง Gary Sanchez Productions กำลังจะติดต่อหาบริษัทสตูดิโอที่สนใจให้ทุนในช่วงสัปดาห์หน้าครับ ที่มา - Deadline   ", 
  "Date": "10/June/2016", 
  "Image-Link": [
    "https://www.blognone.com/sites/default/files/styles/thumbnail/public/topics-images/theranos.png?itok=_o3tyLuI", 
    "/sites/all/themes/blognone42/images/linebutton.png"
  ], 
  "Link": "https://www.blognone.com/node/82103", 
  "News": "[ไม่ยืนยัน] Theranos เตรียมถูกสร้างเป็นหนัง อาจได้ Jennifer Lawrence แสดงนำ", 
  "Tags": [
    "Theranos", 
    "Movie", 
    "Rumor"
  ], 
  "Time": "11:25"
}