{
  "By": "nismod", 
  "Contents": " Google เริ่มปล่อยอัพเดต Google Photos เวอร์ชัน 1.2 เพิ่มความเป็นโซเชียลมีเดียให้มากยิ่งขึ้น โดยฟีเจอร์ที่เพิ่มขึ้นมาหลักๆ มีดังนี้  เพิ่มระบบคอมเมนท์ทั้งในรูปภาพและอัลบั้มที่เพื่อนแชร์มาให้ ซึ่งคอมเมนท์สามารถลบได้ แต่ยังไม่สามารถแก้ไขได้ โดยฟีเจอร์นี้จะถูกปิดไว้โดยค่าดีฟอลต์ ระบบ Smart Suggestions สำหรับอัลบั้มที่เพื่อนแชร์มาให้ ซึ่ง Google Photos จะแนะนำรูปภาพที่มีความคล้ายคลึงกันให้ ซึ่งสามารถเพิ่มเข้าไปในอัลบั้มของเพื่อนได้  หากใครใจร้อนสามารถโหลดไฟล์ APK มาติดตั้งก่อนได้ครับ ที่มา - Android Police   ", 
  "Date": "12/May/2016", 
  "Image-Link": [
    "https://www.blognone.com/sites/default/files/styles/thumbnail/public/topics-images/google-photos_0.png?itok=Y3DYBPQa", 
    "/sites/all/themes/blognone42/images/linebutton.png"
  ], 
  "Link": "https://www.blognone.com/node/80882", 
  "News": "Google Photos อัพเดตเวอร์ชัน 1.2 เพิ่มระบบคอมเมนท์, แนะนำรูปบนอัลบัมที่เพื่อนแชร์", 
  "Tags": [
    "Google Photos", 
    "Google"
  ], 
  "Time": "13:32"
}