{
  "By": "nismod", 
  "Contents": " Google ปล่อยอัพเดตเวอร์ชัน 1.23 ให้แอพ Google Photos ทำให้ผู้ใช้สามารถลบภาพที่ซิงก์ไว้บนคลาวด์ได้เวลาลบภาพนั้นออกจากเครื่องแล้ว ฟีเจอร์นี้รองรับกับแอพ Gallery ภายนอกที่ติดมากับเครื่องด้วย โดยทุกครั้งที่ผู้ใช้เลือกลบภาพใน Gallery จะมีป๊อปอัพเด้งถามขึ้นมาว่าจะลบภาพที่ซิงก์อยู่บน Google Photos ด้วยหรือไม่ ที่มา - Android Police   ", 
  "Date": "27/June/2016", 
  "Image-Link": [
    "https://www.blognone.com/sites/default/files/styles/thumbnail/public/topics-images/google-photos_0.png?itok=Y3DYBPQa", 
    "/sites/all/themes/blognone42/images/linebutton.png"
  ], 
  "Link": "https://www.blognone.com/node/82709", 
  "News": "Google Photos อัพเดต ภาพที่ถูกซิงก์จะถูกลบพร้อมกับภาพในเครื่องแล้ว", 
  "Tags": [
    "Google Photos", 
    "Google"
  ], 
  "Time": "14:53"
}