{
  "By": "vvkungx", 
  "Contents": " Google Photos ได้เพิ่มฟีเจอร์เล่นสไลด์ภาพจากอัลบั้มภาพได้ทันทีโดยไม่ต้องเลือกภาพเองทีละภาพ วิธีใช้งานคือ เข้าไปที่อัลบั้มภาพที่ต้องการ จากนั้นเลือกภาพในอัลบั้มที่ต้องการให้แสดงเริ่มต้น จากนั้นเลือกคำสั่ง  Slideshow จากเมนู ระบบจะแสดงสไลด์ภาพให้อัตโนมัติโดยสามารถใช้งานร่วมกับ Google Cast เพื่อให้แสดงสไลด์ภาพผ่านอุปกรณ์ Chromecast ได้อีกด้วย เปิดให้ใช้งานแล้วผ่าน photos.google.com และแอพบน Android ครับ ที่มา : Google Photos's Google+    ", 
  "Date": "16/June/2016", 
  "Image-Link": [
    "https://www.blognone.com/sites/default/files/styles/thumbnail/public/topics-images/google-photos_0.png?itok=Y3DYBPQa", 
    "//upic.me/i/96/sxo9e.png", 
    "/sites/all/themes/blognone42/images/linebutton.png"
  ], 
  "Link": "https://www.blognone.com/node/82352", 
  "News": "Google Photos เพิ่มปุ่มเล่นสไลด์จากอัลบั้มภาพ", 
  "Tags": [
    "Google Photos"
  ], 
  "Time": "23:14"
}