{
  "By": "twometre", 
  "Contents": " สำหรับผู้ใช้บางกลุ่มที่ประกอบคอมพิวเตอร์ด้วยเคสเล็กๆ มักจะมีตัวเลือกเรื่องกราฟิกการ์ดน้อยกว่าปกติ การ์ดเบอร์แรงหน่อยในอดีตก็จะมี GeForce GTX 970, Radeon R9 Nano จากบางยี่ห้อเท่านั้น ล่าสุด Gigabyte เปิดตัวการ์ด GeForce GTX 1070 Mini ITX OC แบบเล็กและสั้น 17cm หนาสองสล็อต ระบายความร้อนด้วยฮีตซิงค์อะลูมินั่ม ฮีตไปป์ทองแดง และพัดลม 90mm ที่เคลมว่าแรงลมดีกว่าเดิมร้อยละ 23 ครับ ด้านสเปคความเร็วตั้งมาเกินสเปคราวๆ 50-100MHz มากับแรม GDDR5 8GB และกินไฟเพิ่มจากพอร์ต PCI-E 8-pin หนึ่งช่องครับ ราคายังไม่ระบุ ที่มา - Gigabyte    ", 
  "Date": "6/July/2016", 
  "Image-Link": [
    "https://www.blognone.com/sites/default/files/styles/thumbnail/public/topics-images/geforce.png?itok=VWfKZaQt", 
    "//upic.me/i/ra/20160630104839_big.png", 
    "/sites/all/themes/blognone42/images/linebutton.png"
  ], 
  "Link": "https://www.blognone.com/node/83051", 
  "News": "เอาใจเคสเล็ก Gigabyte ออก GeForce GTX 1070 รุ่นการ์ดสั้น ตั้งสเปคแรงกว่าปกติ", 
  "Tags": [
    "Gigabyte", 
    "GeForce", 
    "NVIDIA", 
    "NVIDIA Pascal", 
    "Hardware"
  ], 
  "Time": "08:41"
}