{
  "By": "Lamicrosz", 
  "Contents": " Nvidia เดินหน้าผลักดันวงการ Virtual Reality ด้วยการปล่อยเกม VR Funhouse ซึ่งจะประกอบไปด้วยมินิเกม 7 แบบ สอดแทรกด้วยการนำเทคโนโลยีกราฟิกของบริษัท เช่น Nvidia Flow, Nvidia HairWorks ให้ผู้เล่นทำคะแนนและแข่งขันกับผู้อื่น สามารถดาวน์โหลดได้ฟรีบน Steam นอกจากนี้ ทาง Nvidia ได้เผยว่าในอนาคต จะทำการเปิดซอร์สโค้ด และอนุญาตให้นักพัฒนาภายนอกศึกษาและทำมินิเกมใหม่ๆ ลงใน VR Funhouse สเปคของเครื่องที่ Nvidia แนะนำ ปรับภาพต่ำ  หน่วยประมวลผล: Intel Core i7-4790 หน่วยประมวลผลกราฟิก: Nvidia GeForce GTX 980 Ti, Titan X, 1060 และ 1070   ปรับภาพกลาง  หน่วยประมวลผล: Intel Core i7-5930 หน่วยประมวลผลกราฟิก: Nvidia GeForce GTX 1080  ปรับภาพสูง  หน่วยประมวลผล: Intel Core i7-5930 หน่วยประมวลผลกราฟิก: Nvidia GeForce GTX 1080, GTX 1070 2 ตัว, Titan X และ 980 Ti 2 ตัวขึ้นไป พร้อมเปิดตัวเลือก PhysX ในหน้า NVIDIA Control Panel  ที่มา - Nvidia   ", 
  "Date": "16/July/2016", 
  "Image-Link": [
    "https://www.blognone.com/sites/default/files/styles/thumbnail/public/topics-images/nvidia.png?itok=4a7uUr5h", 
    "/sites/all/themes/blognone42/images/linebutton.png"
  ], 
  "Link": "https://www.blognone.com/node/83516", 
  "News": "Nvidia ปล่อยเกม VR Funhouse ให้เล่นกันฟรี บน Steam", 
  "Tags": [
    "NVIDIA", 
    "Games", 
    "Virtual Reality"
  ], 
  "Time": "15:01"
}