{
  "By": "nrad6949", 
  "Contents": " Starbreeze บริษัทด้านการสร้างเนื้อหาด้านความบันเทิงของสวีเดน ประกาศบรรลุข้อตกลงกับ Acer ผู้ผลิตคอมพิวเตอร์และอุปกรณ์ไอทีจากไต้หวันในการพัฒนาอุปกรณ์และเทคโนโลยีด้าน VR (virtual reality) ร่วมกัน โดยจะตั้งบริษัทร่วมทุนเพื่อการนี้โดยเฉพาะ ตามข้อตกลงนี้ ทั้งสองบริษัทจะร่วมกันพัฒนาเทคโนโลยีด้าน VR โดยตั้งบริษัทร่วมทุน ซึ่งฝั่งของ Acer ประกาศรองรับเทคโนโลยี StarVR ของ Starbreeze พร้อมกับจะนำเอาทรัพยากรด้านการวิจัยมาทำในด้านนี้ และ Acer จะมีส่วนในการผลิตแว่น VR ของ Starbreeze ส่วน Starbreeze จะพัฒนาเทคโนโลยีและเนื้อหาที่จะเอามาใช้บนแพลตฟอร์ม StarVR ของตัวเอง ขั้นตอนจากนี้ต้องรอให้คณะกรรมการของทั้งสองบริษัท รับทราบการตั้งบริษัทร่วมทุนจากข้อตกลงนี้อีกครั้งหนึ่ง ก่อนจะดำเนินการในขั้นตอนต่อไปครับ ที่มา - แถลงการณ์ของ Starbreeze (ผ่านระบบ Business Wire)    ", 
  "Date": "16/May/2016", 
  "Image-Link": [
    "https://www.blognone.com/sites/default/files/styles/thumbnail/public/topics-images/acer.png?itok=2JFequgW", 
    "https://i.imgur.com/B8EUPOi.png", 
    "/sites/all/themes/blognone42/images/linebutton.png"
  ], 
  "Link": "https://www.blognone.com/node/81021", 
  "News": "Starbreeze และ Acer ประกาศร่วมกันพัฒนาอุปกรณ์และเทคโนโลยี VR", 
  "Tags": [
    "Acer", 
    "Virtual Reality", 
    "Entertainment", 
    "Starbreeze"
  ], 
  "Time": "14:13"
}