{
  "By": "nismod", 
  "Contents": " เว็บไซต์ Android Police รายงานการค้นพบ placeholder ของ Android VR ในหน้าคอนโซลสำหรับนักพัฒนาบน Google Play อยู่เคียงข้าง Android Auto, Android TV และ Android Wear เมื่อช่วงต้นสัปดาห์ที่ผ่านมา มีการรายงานข่าวลือว่า Google เตรียมจะเปิดตัวผแพลตฟอร์ม Android VR ของตนเองในงาน Google I/O สัปดาห์หน้า ซึ่งการค้นพบ placeholder ครั้งนี้น่าจะพอเป็นหลักฐานสนับสนุนข่าวลือข้างต้นได้พบสมควรเลยทีเดียว ที่มา - Android Police   ", 
  "Date": "13/May/2016", 
  "Image-Link": [
    "https://www.blognone.com/sites/default/files/styles/thumbnail/public/topics-images/Google_2015_logo.svg_.png?itok=bd4RvVLK", 
    "/sites/all/themes/blognone42/images/linebutton.png"
  ], 
  "Link": "https://www.blognone.com/node/80948", 
  "News": "[ไม่ยืนยัน] Google เตรียมเปิดตัว Android VR ใน Google I/O สัปดาห์หน้า", 
  "Tags": [
    "Google", 
    "Virtual Reality", 
    "Android"
  ], 
  "Time": "16:00"
}