{
  "By": "nrad6949", 
  "Contents": " ที่ผ่านมา แม้ Oculus Rift และ HTC Vive จะเป็นอุปกรณ์สาย VR ที่อยู่กันคนละค่าย แต่วิธีการทำงานหลายอย่างมีความคล้ายคลึงกัน ทำให้มีนักพัฒนากลุ่มหนึ่งออกโปรแกรม Revive ที่จะทำให้เนื้อหาบางอย่างบนแพลตฟอร์ม Oculus สามารถใช้กับแว่น HTC Vive ได้ มาตอนนี้ Oculus ออกอัพเดตเพื่อปิดช่องว่างนี้แล้ว Oculus ได้ออกอัพเดตล่าสุด ซึ่งมีการปรับปรุงในส่วนที่เรียกว่า platform integrity checks โดยนักพัฒนา Revive เชื่อว่า Oculus ใช้วิธีการตรวจสอบอุปกรณ์ตลอดเวลา ทำให้เนื้อหาที่เดิมเคยใช้ได้ร่วมกับ HTC Vive ไม่สามารถใช้ได้เหมือนเดิม แนวทางแก้ไขชั่วคราวในตอนนี้ คือต้องมีแว่น Oculus Rift (DK2 หรือตัวจริง) ติดตั้งอยู่ระหว่างการเปิดใช้แอพครับ ด้าน Oculus ออกมาแถลงว่าการอัพเดตนี้ไม่ได้ต้องการปิดช่องทางสำหรับ Revive แต่เป็นการต่อสู้กับการละเมิดลิขสิทธิ์มากกว่า ซึ่งทำให้ Engadget ออกมาตั้งข้อสงสัยว่าในท้ายที่สุดแนวทางนี้ก็จะขัดกับความตั้งใจของผู้ก่อตั้งแพลตฟอร์มในตอนแรก ที่ต้องการให้ Oculus เป็นแพลตฟอร์มเปิด ที่มา - Engadget    ", 
  "Date": "22/May/2016", 
  "Image-Link": [
    "https://www.blognone.com/sites/default/files/styles/thumbnail/public/topics-images/Google-Cardboard.jpg?itok=eNYzQ5vD", 
    "https://i.imgur.com/lM2aki6.jpg", 
    "/sites/all/themes/blognone42/images/linebutton.png"
  ], 
  "Link": "https://www.blognone.com/node/81254", 
  "News": "Oculus ออกอัพเดตใหม่ ทำให้แว่น HTC Vive เข้าถึงเนื้อหาของ Oculus ไม่ได้", 
  "Tags": [
    "Virtual Reality", 
    "Oculus", 
    "HTC Vive"
  ], 
  "Time": "18:24"
}