{
  "By": "mk", 
  "Contents": " จากข่าว iPad 2-3, iPhone 4S, iPad mini รุ่นแรก ไม่ได้อัพเกรดเป็น iOS 10 คำถามที่ตามมาคือมี iPad จำนวนเท่าไรที่ได้รับผลกระทบจากนโยบายนี้ ถึงแม้แอปเปิลไม่เปิดเผยตัวเลขนี้ แต่สถิติจากบริษัทวิเคราะห์ข้อมูลแอพมือถือ Localytics เมื่อเดือนมีนาคม 2016 (ข้อมูลเก่าไปสองสามเดือน) พอให้เราประเมินได้ว่าน่าจะมี iPad ที่ไม่ได้อัพเดตรวมกันประมาณ 40% ของ iPad ทั้งหมดที่อยู่ในตลาด ตอนนี้ iPad รุ่นที่ได้รับความนิยมสูงสุดคือ iPad Air รุ่นแรก (18%) แต่อันดับสอง iPad 2 (17%) และอันดับสาม iPad mini (15%) ซึ่งมีสัดส่วนผู้ใช้งานเยอะไม่แตกต่างกันมาก กลับไม่ได้ไปต่อ เมื่อรวมกับ iPad 3 (9%) ก็จะได้สัดส่วน iPad ที่ไม่ได้อัพเดตประมาณ 41% คำถามที่น่าสนใจคือผู้ใช้ iPad กลุ่มนี้จะตัดสินใจอัพเกรดซื้อฮาร์ดแวร์รุ่นใหม่หรือไม่ หลังทราบว่า iPad ของตนไม่ได้ไปต่อ ที่มา - ZDNet    ", 
  "Date": "15/June/2016", 
  "Image-Link": [
    "https://www.blognone.com/sites/default/files/styles/thumbnail/public/topics-images/ios10.png?itok=sLxwnpuP", 
    "https://i.imgur.com/vD32iVP.jpg", 
    "/sites/all/themes/blognone42/images/linebutton.png"
  ], 
  "Link": "https://www.blognone.com/node/82310", 
  "News": "ประเมิน iPad ที่ไม่ได้อัพเดต iOS 10 มีสัดส่วนสูงถึง 40% ของ iPad ทั้งหมด", 
  "Tags": [
    "iOS 10", 
    "iPad", 
    "Apple", 
    "iPad 2", 
    "iPad 3", 
    "iPad mini"
  ], 
  "Time": "20:41"
}