{
  "By": "twometre", 
  "Contents": " สำนักข่าว The Guardian รายงานว่าทางการฝรั่งเศสเตือนผู้ปกครองที่โพสต์ภาพลูกของตนลงโซเชียลมีเดียโดยไม่ได้รับอนุญาต อาจถูกฟ้องร้อง โดยมีโทษจำคุก 12 เดือนหรือปรับเป็นเงิน 35,000 ปอนด์ (ประมาณ 1.78 ล้านบาท) ซึ่งเป็นหนึ่งในกฎหมายสิทธิส่วนบุคคลของฝรั่งเศส ในปี 2015 Nominet บริษัทอินเทอร์เน็ตรายหนึ่งเปิดเผยข้อมูลว่าผู้ปกครองชาวสหราชอาณาจักรจะโพสต์รูปบุตรของตนซึ่งมีอายุต่ำกว่า 5 ปี ปีละประมาณ 200 ภาพ ซึ่งกรณีนี้ Catherine Steiner-Adair นักเขียนและนักจิตวิทยาในเด็กให้ความเห็นว่าเมื่อโตขึ้นเด็กอาจไม่พอใจเมื่อพบว่าตัวเองมีตัวตนบนอินเทอร์เน็ต และเธอยังห่วงถึงประเด็นความปลอดภัยด้วย เพราะข้อมูลจาก Nominet ยังระบุว่ามีผู้ปกครองถึง 17% ที่ไม่เคยเข้าไปปรับตั้งค่าความปลอดภัยใน Facebook ที่มา - The Guardian  ภาพประกอบ   ", 
  "Date": "9/May/2016", 
  "Image-Link": [
    "https://www.blognone.com/sites/default/files/styles/thumbnail/public/news-thumbnails/France-Flag-icon.png?itok=sRDy2CFH", 
    "//upic.me/i/cx/baby-84626_640.jpg", 
    "/sites/all/themes/blognone42/images/linebutton.png"
  ], 
  "Link": "https://www.blognone.com/node/80739", 
  "News": "กฎหมายฝรั่งเศสเปิดทางให้เด็กฟ้องพ่อแม่ที่โพสต์รูปตนลงเน็ตได้แล้ว", 
  "Tags": [
    "France", 
    "Law", 
    "Social Media", 
    "Baby"
  ], 
  "Time": "10:06"
}