{
  "By": "trinakub", 
  "Contents": " ข่าวดีสำหรับแฟน ๆ กันดั้ม ล่าสุดทาง Bandai Namco ประกาศวันวางจำหน่ายเกม SD Gundam: G Generation Genesis [PlayStation 4, PlayStation Vita] สำหรับโซนญี่ปุ่นแล้ว การประกาศครั้งนี้มาพร้อมกับข่าวร้ายอีกอย่าง คือการยกเลิกของเกมเวอร์ชัน PlayStation 3 เกมจะวางจำหน่ายในญี่ปุ่นวันที่ 22 พฤศจิกายน 2559 ราคาจะอยู่ที่ 8,200 เยน บนเครื่อง PS4 และ 7,600 เยน บนเครื่อง PS Vita ซึ่งตัวเกมเวอร์ชัน PS Vita นั้นต้องใช้แผ่นเกมถึง 2 แผ่นเลยทีเดียว เนื่องมาจากขนาดของเกมที่ใหญ่เกินกำหนด SD Gundam: G Generation Genesis นั้นเป็นเกมแบบ Turn-based RPG ซึ่งมีลักษณะการเล่นที่คล้ายกับ Super Robot Wars มาก แต่ใน SD Gundam จะมีแต่หุ่นยนต์จากซีรี่ส์กันดั้มเท่านั้น ภายในเกมเราจะสามารถสร้างกองกำลังของเราขึ้นมา โดยนำหุ่นยนต์และตัวละครจากซีรี่ส์กันดั้มในยุคสมัยต่าง ๆ มารวมกัน และนำกองกำลังของเราไปออกรบตามเหตุการณ์สำคัญต่าง ๆ ที่เกิดขึ้นจากซีรี่ส์กันดั้มได้ ในภาคนี้จะมีหุ่นให้เราได้สะสมรวมกันกว่า 650 เครื่อง จาก 38 แหล่งด้วยกัน  ภาค Genesis เองก็เป็นภาคแรกที่ได้ลง PlayStation 4 และ PlayStation Vita หลังจากที่ห่างหายจากเครื่อง Sony มานาน (ภาคก่อนหน้าที่ลงเครื่อง Sony คือ SD Gundam G Generation Overworld บน PSP ในปี 2012) ภาคนี้จะมีการใช้ CG แบบใหม่ด้วยหลังจากที่ใช้แต่แบบเดิมมานานถึง 5 ภาคด้วยกัน แต่ที่พิเศษที่สุดคือภาคนี้เป็นภาคแรกที่จะมีการแปลเป็นภาษาอังกฤษด้วย ซึ่งจะวางจำหน่ายในโซน Asia ภายในปี 2016 นี้  ซีรี่ส์กันดั้มทั้งหมดที่ปรากฏในภาคนี้  Mobile Suit Gundam Mobile Suit  Variations Mobile Suit X Missing-Mobile Suit  Variations Mobile Suit Variations R Mobile Suit Gundam MS IGLOO: The Hidden One Year War Mobile Suit Gundam MS IGLOO: Apocalypse 0079 Mobile Suit Gundam MS IGLOO: The Gravity Front Mobile Suit Gundam: The 08th MS Team Mobile Suit Gundam Side Story: The Blue Destiny Gundam SIde Story 0079: Rise from the Ashes Mobile Suit Gundam: Zeonic Front Mobile Suit Gundam: Encounters in Space Mobile Suit Gundam Side Story: Space, To the End of A Flash Mobile Suit Gundam: Lost War Chronicles Mobile Suit Gundam: Battlefield Record U.C. 0081 Mobile Suit Gundam Side Story: Missing Link Mobile Suit Gundam: Cross Dimension 0079 Harmony of Gundam Mobile Suit Gundam: Bonds of the Battlefield Mobile Suit Gundam: Gihren's Greed Mobile Suit Gundam 0080: War in the Pocket Mobile Suit Gundam 0083: Stardust Memory Mobile Suit Gundam: Phantom Bullet Mobile Suit Zeta Gundam Mobile Suit Zeta Gundam: A New Translation Zeta Gundam Mobile Suit Variations Gundam Neo Experience 0087: Green Divers Advance of Zeta: The Flag of Titans Gundam Sentinel Mobile Suit Gundam ZZ Mobile Suit Gundam: Char's Counterattack Char's Counterattack Mobile Suit Variations Mobile Suit Gundam UC Gundam Unicorn Mobile Suit Variations SD Gundam World Gachapon Senshi Scramble Wars SD Gundam GX G Generation Series  ที่มา - Dualshockers   ", 
  "Date": "13/July/2016", 
  "Image-Link": [
    "https://www.blognone.com/sites/default/files/styles/thumbnail/public/news-thumbnails/logo_36.png?itok=RKVJzpYe", 
    "http://i.imgur.com/8XQVS2K.jpg", 
    "http://i.imgur.com/bJfBfNQ.jpg", 
    "/sites/all/themes/blognone42/images/linebutton.png"
  ], 
  "Link": "https://www.blognone.com/node/83356", 
  "News": "SD Gundam: G Generation Genesis ประกาศวันขายโซนญี่ปุ่น, ยกเลิกเวอร์ชัน PS3", 
  "Tags": [
    "Gundam", 
    "Games", 
    "Bandai Namco"
  ], 
  "Time": "12:23"
}