{
  "By": "nrad6949", 
  "Contents": " Fitbit ประกาศว่าบริษัทเข้าเป็นผู้ถือหุ้นรายใหญ่ของ Coin สตาร์ทอัพด้านการชำระเงินที่พยายามทำบัตรใบเดียวแทนบัตรเครดิตและบัตรสมาชิกต่างๆ (universal card) อย่างเป็นทางการแล้ว (ว่าง่ายๆ คือซื้อไปเป็นบริษัทย่อย) การเข้าซื้อกิจการในครั้งนี้ จะมีผลกระทบกับผู้ใช้ Coin และนักพัฒนาที่อยู่บนแพลตฟอร์มดังกล่าว โดยโปรแกรมสะสมแต้มจูงใจของบัตรที่เรียกว่า Coin Rewards และโปรแกรมสำหรับนักพัฒนา Coin Developer Program จะปิดตัวลง ส่วนตัวอุปกรณ์จะใช้ได้ต่อไปเรื่อยๆ จนกระทั่งแบตเตอรี่ในบัตรหมดลง ส่วนอุปกรณ์ใหม่ก็จะไม่มีขายแล้ว ด้าน Fitbit ระบุว่าจะไม่มีการรวมเอาเทคโนโลยีของ Coin เข้ามาอยู่ในผลิตภัณฑ์ใหม่ที่จะเปิดตัวในปีนี้ครับ ที่มา - Engadget    ", 
  "Date": "18/May/2016", 
  "Image-Link": [
    "https://www.blognone.com/sites/default/files/styles/thumbnail/public/topics-images/fitbit.png?itok=ejCfTfYX", 
    "https://i.imgur.com/5llqET0.jpg", 
    "/sites/all/themes/blognone42/images/linebutton.png"
  ], 
  "Link": "https://www.blognone.com/node/81162", 
  "News": "Fitbit ประกาศเข้าซื้อ Coin สตาร์ทอัพด้านการชำระเงิน", 
  "Tags": [
    "Fitbit", 
    "Mobile Payment", 
    "FinTech", 
    "Acquisition"
  ], 
  "Time": "23:29"
}