{
  "By": "nrad6949", 
  "Contents": " ธนาคาร OCBC ของสิงคโปร์ ประกาศเปิด API เพื่อให้นักพัฒนาสามารถเข้าใช้งาน (แบบเดียวกับ Visa) โดยเรียกว่า Connect2OCBC OCBC ระบุว่า API ที่จะเปิดให้ใช้มี 4 อันหลักในตอนนี้คือ Branch Locator API สำหรับการหาสาขา, ATM Locator API สำหรับการหาตู้ ATM, Smart Card Advisor API สำหรับการแนะนำใช้บัตรเครดิตให้เหมาะสมกับที่ใช้ (เช่น ใช้ที่ร้านอาหาร A จะได้ส่วนลดสูงสุด เป็นต้น) และ Foreign Exchanges Rates API ไว้สำหรับเรียกใช้หาข้อมูลอัตราแลกเปลี่ยน OCBC ระบุว่ากำลังพิจารณาที่จะเปิด API ใหม่ๆ เรื่อยๆ ใครสนใจสามารถเข้าดูรายละเอียดเพิ่มได้จากเว็บไซต์ของธนาคารครับ ที่มา - OCBC ผ่าน Tech In Asia  ภาพโดย Terence Ong ผ่าน Wikimedia (CC-BY 2.5)   ", 
  "Date": "17/May/2016", 
  "Image-Link": [
    "https://www.blognone.com/sites/default/files/styles/thumbnail/public/topics-images/1024px-Flag_of_Singapore.svg_.png?itok=lUcinCu8", 
    "https://i.imgur.com/u4Acooi.jpg", 
    "/sites/all/themes/blognone42/images/linebutton.png"
  ], 
  "Link": "https://www.blognone.com/node/81096", 
  "News": "ธนาคาร OCBC สิงคโปร์ ประกาศเปิด API ให้นักพัฒนาเข้าใช้งาน", 
  "Tags": [
    "OCBC", 
    "Banking", 
    "Developer", 
    "API", 
    "FinTech", 
    "Singapore"
  ], 
  "Time": "18:42"
}