{
  "By": "mk", 
  "Contents": " Dell เปิดตัวโน้ตบุ๊กตระกูล Inspiron ใหม่หลายตัวที่งาน Computex 2016 โดยเฉพาะโน้ตบุ๊กสาย 2-in-1 ที่เน้นเป็นพิเศษ พระเอกของงานคือ Inspiron 7000 2-in-1 ซีรีส์ท็อปสุดที่ได้อัพเกรดซีพียูเป็น Core 6th Gen, GeForce 940M และพอร์ต USB Type C, มี 3 ขนาดหน้าจอให้เลือกคือ 13, 15, 17 นิ้ว (ความละเอียด FHD เท่ากันหมด) ซึ่งตัว 17 นิ้วถือเป็นโน้ตบุ๊ก 2-in-1 ไซส์ระดับนี้ตัวแรกของตลาดด้วย ราคาเริ่มต้นที่ 749 ดอลลาร์ รุ่นระดับรองลงมาคือ Inspiron 5000 2-in-1 มีสองขนาดหน้าจอคือ 13 และ 15 นิ้ว (FHD) รองรับ Windows Hello ในตัว, ใส่แรมได้สูงสุด 16GB, ราคาเริ่มต้น 529 ดอลลาร์ รุ่นเล็กสุด Inspiron 3000 2-in-1 มีขนาดหน้าจอ 11 นิ้ว (1366x768) รุ่นเดียว เน้นขนาดเล็ก ราคาถูก 249 ดอลลาร์ จับกลุ่มนักเรียนนักศึกษา Inspiron 7000 2-in-1  นอกจากนี้ Dell ยังอัพเกรดโน้ตบุ๊ก Inspiron รุ่นปกติไม่ใช่ 2-in-1 ซีรีส์ 5000 ขนาดหน้าจอ 15 และ 17 นิ้วเพิ่มเติมด้วย ที่มา - Dell, Engadget   ", 
  "Date": "2/June/2016", 
  "Image-Link": [
    "https://www.blognone.com/sites/default/files/styles/thumbnail/public/topics-images/dell.png?itok=HgIBw4M6", 
    "https://i.imgur.com/JpC2Kdr.jpg", 
    "/sites/all/themes/blognone42/images/linebutton.png"
  ], 
  "Link": "https://www.blognone.com/node/81727", 
  "News": "Dell เปิดตัว Inspiron 2-in-1 ชุดใหญ่ ออกรุ่นหน้าจอ 17 นิ้วแบบพับจอได้", 
  "Tags": [
    "Dell", 
    "Inspiron", 
    "Hybrid", 
    "Notebook", 
    "Computex"
  ], 
  "Time": "09:18"
}