{
  "By": "mk", 
  "Contents": " เก็บตกข่าวผลิตภัณฑ์ใหม่ของ MSI ในงาน Computex 2016 ซึ่งบริษัทเปิดตัวเกมมิ่งโน้ตบุ๊กหลากหลายรุ่น  GT83/GT73 Titan SLI โน้ตบุ๊กรุ่นท็อปสุดที่ยัดจีพียูคู่ต่อ SLI แยกเป็นรุ่น GT83 ใช้ GeForce GTX980 (4,500 ดอลลาร์) และ GT73 ใช้ GeForce GTX980M (2,500 ดอลลาร์), หน้าจอความถี่ 120Hz, สามารถต่อจอนอกความละเอียด 4K ได้ 3 จอพร้อมกัน, คีย์บอร์ดเป็น Cherry MX mechanical  GS63 Stealth Pro เกมมิ่งโน้ตบุ๊กที่ชูจุดขายเรื่องความบาง 17.7 มิลลิเมตร มีระบบระบายความร้อน Cooler Boost Trinity, ซีพียู Core i7 6700HQ, จีพียู GeForce GTX970M ราคา 1,600 ดอลลาร์ GS73 เกมมิ่งโน้ตบุ๊ก ใช้ GeForce GTX970M, ระบบระบายความร้อน Cooler Boost Trinity, คีย์บอร์ด SteelSeries, ชุดหูฟัง ESS SABRE HiFi ราคา 1,700 ดอลลาร์ MSI WT72 โน้ตบุ๊กเวิร์คสเตชันที่ MSI คุยว่าเป็นตัวแรกในวงการที่ออกแบบมาสำหรับ VR ใช้จีพียู NVIDIA ไม่ระบุรุ่น  ที่มา - MSI, Windows Experience Blog GT83 (ซ้าย), GT73 (ขวา)  GS63 Stealth Pro  GS73  WT72    ", 
  "Date": "2/June/2016", 
  "Image-Link": [
    "https://www.blognone.com/sites/default/files/styles/thumbnail/public/topics-images/msi.png?itok=vTa7Ugzq", 
    "http://i.imgur.com/ELvOE4L.jpg", 
    "http://i.imgur.com/hHPYXFC.png", 
    "http://i.imgur.com/QHWoC2f.png", 
    "https://i.imgur.com/7bLLGEK.jpg", 
    "/sites/all/themes/blognone42/images/linebutton.png"
  ], 
  "Link": "https://www.blognone.com/node/81739", 
  "News": "MSI เปิดตัวเกมมิ่งโน้ตบุ๊กชุดใหม่ มาพร้อม GTX980 สองตัวต่อ SLI", 
  "Tags": [
    "MSI", 
    "Notebook", 
    "Computex"
  ], 
  "Time": "11:11"
}