{
  "By": "nismod", 
  "Contents": " นอกจาก ZenBook 3 แล้ว ASUS ยังเปิดตัว Transformer Book 3 และ Transformer Book 3 Pro 2-in-1 พีซีที่ออกแบบดีไซน์ใหม่ บางและเบาลงกว่าเดิม สำหรับตัว Transformer Book 3 Pro มาพร้อมหน้าจอ 12.6 นิ้ว ความละเอียด 2880x1920 พิกเซล (275 ppi) ครอบคลุมแถบสี sRGB ถึง 121% ซีพียูเป็น Intel Core i7, SSD แบบต่อผ่าน PCIe x4 ขนาด 1TB, แรม 16GB, มาพร้อมพอร์ต Thunderbolt 3, USB-C 3.1, USB 3.0 และ HDMI (สามารถต่อ Universal Dock เพิ่มได้) ตัวเครื่องเป็นอลูมิเนียมอัลลอยด์และบางเพียง 8.45 มิลลิเมตรเทียบเท่า Surface Pro 4 และขาตั้งสามารถกางได้สูงสุดถึง 155 องศา พร้อมลำโพงจาก Harman Kardon และ dock ต่อ GPU ภายนอกอย่าง ROG XG Station 2 สนนราคาอยู่ที่ 999 เหรียญ   ส่วนน้องเล็กอย่าง Transformer Book 3 มาพร้อมหน้าจอขนาด 12.6 นิ้ว ความละเอียด 2880x1920 พิกเซล (275 ppi) ครอบคลุมแถบสี sRGB ถึง 121% เท่ากัน ซีพียู Intel Core, SSD รองรับสูงสุด 512GB, พร้อมพอร์ต Thunderbolt 3 และ USB-C 2.1 ขณะที่แป้นพิมพ์มาพร้อมไฟ Backlit พร้อมทัชแพดที่ครอบด้วยวัสดุทำจากแก้ว และรองรับการเชื่อมต่อทั้ง Unviersal Dock, ROG XG Station 2, Audio Pad และ ASUS Pen วางจำหน่ายในราคา 799 เหรียญ         ", 
  "Date": "30/May/2016", 
  "Image-Link": [
    "https://www.blognone.com/sites/default/files/styles/thumbnail/public/topics-images/asus.png?itok=Jjx1LVLM", 
    "https://c1.staticflickr.com/8/7358/27312454336_9beb6c8e22_z.jpg", 
    "https://c3.staticflickr.com/8/7433/27312454506_e0a72d3e6c_z.jpg", 
    "https://c8.staticflickr.com/8/7730/26739270543_856af6643a_z.jpg", 
    "https://c4.staticflickr.com/8/7295/27345741515_dd06f5b206_z.jpg", 
    "https://c7.staticflickr.com/8/7364/27248105822_984ff7f73c_z.jpg", 
    "https://c5.staticflickr.com/8/7316/27248106412_ffeb3ac108_z.jpg", 
    "https://c5.staticflickr.com/8/7297/27312454916_2f3ffeccbe_z.jpg", 
    "https://c7.staticflickr.com/8/7311/27248106382_5f0db871d0_z.jpg", 
    "/sites/all/themes/blognone42/images/linebutton.png"
  ], 
  "Link": "https://www.blognone.com/node/81608", 
  "News": "ASUS เปิดตัว Transformer Book 3 / 3 Pro อัพเกรดเหมือนเดิม เพิ่มเติมคือเหมือน Surface", 
  "Tags": [
    "ASUS Transformer", 
    "ASUS", 
    "Computex"
  ], 
  "Time": "15:17"
}