{
  "By": "mk", 
  "Contents": " Facebook ดึงตัว Kevin Lo หัวหน้าทีม Google Fiber เข้ามาทำงานในตำแหน่ง Director of Infrastructure Connectivity and Investments เพื่อทำงานด้านการเชื่อมต่ออินเทอร์เน็ตโดยเฉพาะ อย่างไรก็ตาม Facebook ยืนยันว่าจะไม่ทำตัวเป็นผู้ให้บริการอินเทอร์เน็ตแบบเดียวกับ Google Fiber แต่จะทำงานร่วมกับพาร์ทเนอร์แทน งานของ Kevin Lo จะเน้นการวางโครงสร้างพื้นฐานเพื่อเข้าถึงอินเทอร์เน็ตเป็นหลัก แต่จะไม่ยุ่งกับเรื่อง Free Basics ที่เป็นบริการอินเทอร์เน็ตฟรี ที่มา - Recode   ", 
  "Date": "26/June/2016", 
  "Image-Link": [
    "https://www.blognone.com/sites/default/files/styles/thumbnail/public/topics-images/fb-500.png?itok=7KEmyKx1", 
    "/sites/all/themes/blognone42/images/linebutton.png"
  ], 
  "Link": "https://www.blognone.com/node/82682", 
  "News": "Facebook ดึงตัวอดีตหัวหน้าทีม Google Fiber ทำงานเพื่อขยายการเข้าถึงอินเทอร์เน็ต", 
  "Tags": [
    "Facebook", 
    "Google Fiber"
  ], 
  "Time": "21:09"
}