{
  "By": "nuntawat", 
  "Contents": " ไมโครซอฟท์ปล่อยอัพเดตไดรเวอร์ Intel HD graphics รุ่น 20.19.15.4463 ให้ Surface Pro 4 กับ Surface Book อินเทลปล่อยไดรเวอร์รุ่นนี้ตั้งแต่เดือนมิถุนายนที่ผ่านมา และไมโครซอฟท์เพิ่งรับรองไดรเวอร์นี้สำหรับอุปกรณ์ Surface ดังกล่าว อินเทลเผยว่า ไดรเวอร์นี้แก้บั๊กจำนวนมากที่พบจากการประมวลผลเกมและแอป รวมถึงบั๊กที่มีเป็นมาอย่างยาวนานและถูกรายงานบนเว็บ Support Community ของบริษัท อย่างปัญหา scaling บน Windows 10 Windows Central ตั้งข้อสังเกตว่า เนื่องด้วยไดรเวอร์นี้รองรับซีพียู Intel Core เจนเนอเรชั่นที่สี่ ห้า และหก จึงมีโอกาสที่อุปกรณ์ Surface รุ่นเก่าจะได้รับอัพเดตไดรเวอร์นี้ในอนาคต ที่มา: Windows Central   ", 
  "Date": "12/July/2016", 
  "Image-Link": [
    "https://www.blognone.com/sites/default/files/styles/thumbnail/public/topics-images/surface-pro-4.png?itok=5Jh8JXjh", 
    "/sites/all/themes/blognone42/images/linebutton.png"
  ], 
  "Link": "https://www.blognone.com/node/83297", 
  "News": "Surface Pro 4/Surface Book มีอัพเดตไดรเวอร์ Intel HD graphics แก้ปัญหา scaling", 
  "Tags": [
    "Surface Pro 4", 
    "Intel", 
    "Surface Book", 
    "Driver", 
    "Microsoft"
  ], 
  "Time": "08:13"
}