{
  "By": "BlackMiracle", 
  "Contents": " ย้อนกลับไปเมื่อเดือนกุมภาพันธ์ Carl Pei ผู้ร่วมก่อตั้ง OnePlus ให้สัมภาษณ์ว่าสมาร์ทโฟนรุ่นใหม่จะมีดีไซน์ที่น่าดึงดูดมากกว่าเดิม ล่าสุดมีภาพหลุดของ OnePlus 3 ออกมาแล้ว พร้อมเปิดเครื่องโชว์ด้วย จากภาพหลุด ด้านหน้าดูเหมือนสมาร์ทโฟนทั่วไป ไม่มีอะไรโดดเด่น มีปุ่มโฮมด้านล่าง แต่พอดูด้านหลังกลับคล้าย HTC One ทีเดียว วัสดุน่าจะเป็นโลหะ มาพร้อมกับกล้องนูนทรงสี่เหลี่ยมและไฟแฟลชด้านใต้ นอกจากนี้ยังเปิดเครื่องโชว์ด้วยว่ามีโลโก้ OnePlus จริงๆ และในหน้าบอกเวอร์ชันระบบปฏิบัติการก็พบว่าเป็น OxygenOS ที่พัฒนาโดย OnePlus เอง รวมถึงมีคำว่า RAIN ที่ลือกันว่าเป็นโค้ดเนมของโทรศัพท์รุ่นนี้ด้วย ไม่รู้ว่ารุ่นใหม่จะกั๊ก NFC อีกหรือไม่นะครับ ที่มา - Phandroid      ", 
  "Date": "12/May/2016", 
  "Image-Link": [
    "https://www.blognone.com/sites/default/files/styles/thumbnail/public/topics-images/oneplus.png?itok=H0sXSvFM", 
    "https://i.imgur.com/JXGXATM.jpg", 
    "https://i.imgur.com/yMSvkMO.jpg", 
    "https://i.imgur.com/WetcOEv.jpg", 
    "/sites/all/themes/blognone42/images/linebutton.png"
  ], 
  "Link": "https://www.blognone.com/node/80864", 
  "News": "หลุดมือถือ OnePlus 3 แบบเต็มๆ ฝาหลังคล้าย HTC One", 
  "Tags": [
    "OnePlus", 
    "OnePlus 3", 
    "Mobile"
  ], 
  "Time": "06:00"
}