{
  "By": "nrad6949", 
  "Contents": " ที่งาน Google I/O ปีที่แล้ว ทีม ATAP ของ Google ได้ทำการสาธิต Project Abacus ที่เป็นการทดลองวิจัยการลงชื่อเข้าใช้ (login) ที่อาศัยพฤติกรรมของผู้ใช้เพื่อยืนยันตัวตน มาที่งานของ Google I/O ปีนี้ ทางบริษัทประกาศว่าเตรียมที่จะนำเอา Project Abacus มาใช้จริงแล้ว Google ระบุว่าจะเริ่มส่งมอบรายละเอียดที่เกี่ยวข้องให้กับนักพัฒนาได้ภายในปีนี้ และภายในเดือนหน้าจะเริ่มมีสถาบันการเงินขนาดใหญ่ ทดลองการทำงานของ Project Abacus อย่างเป็นทางการ โดย Engadget ตั้งข้อสงสัยว่าในการใช้งานจริงจะเป็นอย่างไร เพราะจะต้องมีการเก็บข้อมูลพฤติกรรมการใช้งานของผู้ใช้เป็นจำนวนมากระดับหนึ่ง ทำให้อาจมีข้อกังวลในเรื่องของความเป็นส่วนตัวได้ ที่มา - Engadget    ", 
  "Date": "24/May/2016", 
  "Image-Link": [
    "https://www.blognone.com/sites/default/files/styles/thumbnail/public/topics-images/security-icon.png?itok=JZKobGMz", 
    "https://i.imgur.com/1tpXFXe.jpg", 
    "/sites/all/themes/blognone42/images/linebutton.png"
  ], 
  "Link": "https://www.blognone.com/node/81315", 
  "News": "Google เตรียมนำ Project Abacus มาใช้จริง เริ่มพูดคุยกับนักพัฒนาแล้ว", 
  "Tags": [
    "Security", 
    "Mobile", 
    "Google", 
    "Google I/O", 
    "Google ATAP"
  ], 
  "Time": "08:47"
}