{
  "By": "mk", 
  "Contents": " Motorola เปิดตัว Moto E รุ่นที่สามในสหราชอาณาจักร (ยังไม่ระบุชื่อเรียกที่ชัดเจน แต่บางเว็บก็เรียก Moto E3 เพื่อไม่ให้สับสน) สเปกคร่าวๆ ที่เปิดเผยคือ  หน้าจอ 5 นิ้ว 1280x720 ซีพียูควอดคอร์ กล้อง 8MP/5MP แบตเตอรี่ 2,800 mAh บอดี้กันน้ำกระเด็นใส่ (water-repellent), รองรับ microSD Android 6.0 Marshmallow  Moto E3 จะวางขายในช่วงต้นเดือนกันยายน ราคาเครื่องละ 99 ปอนด์ (4,600 บาท) ยังไม่บอกว่าจะวางขายในประเทศอื่นๆ ด้วยหรือไม่ ที่มา - Pocket-lint    ", 
  "Date": "16/July/2016", 
  "Image-Link": [
    "https://www.blognone.com/sites/default/files/styles/thumbnail/public/topics-images/motorola.png?itok=Pff47JHy", 
    "https://i.imgur.com/bvcTWe2.jpg", 
    "/sites/all/themes/blognone42/images/linebutton.png"
  ], 
  "Link": "https://www.blognone.com/node/83510", 
  "News": "Moto E รุ่นที่สามเปิดตัวในสหราชอาณาจักร ราคา 99 ปอนด์", 
  "Tags": [
    "Motorola", 
    "Moto E", 
    "UK", 
    "Mobile"
  ], 
  "Time": "10:46"
}