{
  "By": "nrad6949", 
  "Contents": " เมื่อสัปดาห์ที่แล้ว Lumigon ผู้ผลิตสมาร์ทโฟนหรูจากเดนมาร์ก ประกาศเปิดตัว T3 สมาร์ทโฟนหรู เน้นดีไซน์ โดยเป็นรุ่นต่อจาก T2 HD ที่เปิดตัวไปเมื่อ 2 ปีที่แล้ว ในเชิงสเปก T3 ปรับสเปกให้ทันสมัยขึ้น เปลี่ยนมาใช้หน่วยประมวลผลเป็น MediaTek Helio X10 แบบ 8 แกนประมวลผล ที่เหลือรวมถึงดีไซน์ยังคงคล้ายเดิม (ตัดลำโพง B&O ออกไป) รวมถึงกันน้ำและการเข้ารหัสตาม AES 256-bit ด้วย ส่วนที่เพิ่มขึ้นมา นอกจากที่อ่านลายนิ้วมือแล้ว ยังมีกล้อง Night Vision ไว้ใช้สำหรับถ่ายภาพและวิดีโอในที่มืดสนิทได้ และการชาร์จไร้สาย มาพร้อมกับระบบปฏิบัติการ Android 6.0 ในตัว (สเปกเต็มท้ายข่าว) ส่วนวัสดุยังคงใช้ stainless steel เกรด 316 รุ่นพื้นฐานมีสีดำ ขาว และส้ม ส่วนรุ่นพิเศษที่เคลือบทองคำแท้ 24 กะรัตอย่างหรูหรา มีด้วยกัน 4 รุ่น พร้อมกับเปิดให้มีการสลักชื่อลงไปที่ตัวเครื่องได้ตามต้องการ ราคาเริ่มต้นที่ 4,799 เดนิชโครน (ประมาณ 25,000 บาท) โดยรุ่นเคลือบทองคำยังไม่วางจำหน่ายในตอนนี้ ที่มา - Lumigon     Lumigon T3  ขนาด 137 x 69 x 7.9 มม., หนัก 145 กรัม หน้าจอขนาด 4.8 นิ้ว ที่ความละเอียด 720p ใช้กระจกเป็น Gorilla Glass 4 ตัวเครื่องใช้ stainless steel เกรด 316 หน่วยประมวลผลกลาง MediaTek Helio X10 ทำงานที่ความถี่ 2.2 GHz รองรับ 64-bit 8 แกนประมวลผล แรม 3 GB, หน่วยความจำ 128 GB กล้องหลังหลัก 13 เมกะพิกเซล พร้อม PDAF (phase detection autofocus) บันทึกวิดีโอแบบ 4K ได้ กล้องหลังรองแบบถ่ายในที่มืด (Night Vision) 4 เมกะพิกเซล พร้อมแฟลชแบบอินฟราเรด กล้องหน้า 5 เมกะพิกเซล พร้อมแฟลช ตัวอ่านลายนิ้วมือแบบ 360 องศา พร้อมเซนเซอร์อื่นๆ จำนวนมาก รวมถึงอุณหภูมิ รองรับ 2G/3G/4G LTE Wi-Fi 802.11 a/b/g/n/ac, NFC, Infrared, Bluetooth 4.1, Micro USB 2.0 ระบบปฏิบัติการ Android 6.0 รองรับการเข้ารหัสตาม AES 256-bit มีหลากสี และเวอร์ชันเคลือบทองคำหรู    ", 
  "Date": "10/June/2016", 
  "Image-Link": [
    "https://www.blognone.com/sites/default/files/styles/thumbnail/public/topics-images/lumigon.png?itok=Klv0MYR7", 
    "https://i.imgur.com/F6y2XJ4.jpg", 
    "https://i.imgur.com/UAoefmQ.jpg", 
    "https://i.imgur.com/aFWECy8.png", 
    "https://i.imgur.com/xNQZwfE.png", 
    "/sites/all/themes/blognone42/images/linebutton.png"
  ], 
  "Link": "https://www.blognone.com/node/82100", 
  "News": "Lumigon เปิดตัว T3 สมาร์ทโฟนหรู มาพร้อมกล้อง Night Vision", 
  "Tags": [
    "Luxury", 
    "Mobile", 
    "Lumigon"
  ], 
  "Time": "10:56"
}