{
  "By": "nismod", 
  "Contents": " หลังการประกาศยกเลิกการผลิต BlackBerry Classic ไปเมื่อวันก่อน ล่าสุด Alex Thurber รองประธานอาวุโสของ BlackBerry ที่ดูแลยอดขายผลิตภัณฑ์ทั่วโลกได้ทวีตยืนยันว่า คีย์บอร์ด QWERTY ยังคงมีอนาคตกับบริษัท การออกมาทวีตครั้งนี้ของผู้บริหาร อาจพอช่วยเพิ่มน้ำหนักให้กับภาพหลุดมือถือ BlackBerry ระดับกลางสองรุ่น ที่ภาพชี้ว่าหนึ่งในนั้นมาพร้อมคีย์บอร์ดได้ระดับหนึ่งเลย ที่มา - @Alex_Thurber via PhoneArena In response to some recent press reports, I want to be clear that @BlackBerry users have nothing to fear -- the keyboard is here to stay... — Alex Thurber (@Alex_Thurber) July 6, 2016   ", 
  "Date": "8/July/2016", 
  "Image-Link": [
    "https://www.blognone.com/sites/default/files/styles/thumbnail/public/topics-images/blackberry.png?itok=UF9IMwyw", 
    "/sites/all/themes/blognone42/images/linebutton.png"
  ], 
  "Link": "https://www.blognone.com/node/83167", 
  "News": "รองประธานอาวุโส BlackBerry ทวีต คีย์บอร์ด QWERTY ยังไม่หายไปไหน", 
  "Tags": [
    "BlackBerry", 
    "Mobile"
  ], 
  "Time": "13:37"
}