{
  "By": "nuntawat", 
  "Contents": " เมื่อต้นปี HP ได้เปิดตัว HP Elite x3 สมาร์ทโฟน Windows 10 Mobile จับตลาดผู้ใช้องค์กร พร้อมอุปกรณ์เสริมครบครัน ล่าสุด บริษัทได้เผยรายชื่ออุปกรณ์เสริมทั้งหมด ซึ่งนอกจากจะมีเคสเพิ่มเข้ามาแล้ว ยังมี passive stylus ให้เลือกซื้อด้วย สไตลัสดังกล่าวรองรับการวาดเขียนบนหน้าจอ และการสั่งการเครื่องผ่านจอสัมผัสได้ครับ ที่มา: HP (PDF) ผ่าน WindowsBlogItalia ผ่าน MSPoweruser    ", 
  "Date": "9/July/2016", 
  "Image-Link": [
    "https://www.blognone.com/sites/default/files/styles/thumbnail/public/topics-images/hp.png?itok=wwPRX9uc", 
    "http://i.imgur.com/quCwoQi.jpg", 
    "/sites/all/themes/blognone42/images/linebutton.png"
  ], 
  "Link": "https://www.blognone.com/node/83216", 
  "News": "HP Elite x3 สมาร์ทโฟน Windows 10 Mobile มี passive stylus เป็นอุปกรณ์เสริม", 
  "Tags": [
    "HP", 
    "Windows 10 Mobile", 
    "Stylus", 
    "Mobile"
  ], 
  "Time": "14:36"
}