{
  "By": "BlackMiracle", 
  "Contents": " มือถือคุ้มค่าราคาย่อมเยาอย่าง Android One มีผู้เล่นมาร่วมด้วยอีกราย คราวนี้เป็น Sharp ที่เปิดตัวมือถือรุ่น 507SH ในญี่ปุ่น มาพร้อมคุณสมบัติเด่นคือกันน้ำกันฝุ่นตามมาตรฐาน IPX5 และ IP5X ตามลำดับ สเปกอื่นๆ ดังนี้  หน้าจอ IGZO ขนาด 5 นิ้ว ความละเอียด 720p ซีพียู Qualcomm Snapdragon 617 ความถี่ 1.5GHz แรม 2GB พื้นที่เก็บข้อมูลในตัว 16GB รองรับการ์ด microSD มากสุด 200GB กล้องหลังเซ็นเซอร์แบบ CMOS ความละเอียด 13 ล้านพิกเซล, กล้องหน้า 5 ล้านพิกเซล แบตเตอรี่ 3,010 mAh รับสัญญาณทีวีดิจิตอลของญี่ปุ่นได้ตามมาตรฐาน 1seg รองรับ Bluetooth 4.2 และ NFC รัน Android 6.0  มีสามสีให้เลือก คือสีดำ, ขาว และฟ้า ขายกับเครือข่าย Y!mobile เจ้าเดียว ส่วนราคายังไม่เปิดเผย ที่มา - AndroidAuthority, Sharp Japan       ", 
  "Date": "6/July/2016", 
  "Image-Link": [
    "https://www.blognone.com/sites/default/files/styles/thumbnail/public/topics-images/sharp.png?itok=A_96daeH", 
    "https://i.imgur.com/zhadG1B.jpg", 
    "https://i.imgur.com/FvrRDpT.jpg", 
    "https://i.imgur.com/tqqA1jt.jpg", 
    "https://i.imgur.com/dwqpTGn.jpg", 
    "/sites/all/themes/blognone42/images/linebutton.png"
  ], 
  "Link": "https://www.blognone.com/node/83092", 
  "News": "Sharp เปิดตัวมือถือ Android One ในญี่ปุ่น หน้าจอ 5 นิ้ว กันน้ำกันฝุ่น", 
  "Tags": [
    "Sharp", 
    "Android One", 
    "Mobile", 
    "Android"
  ], 
  "Time": "20:50"
}