{
  "By": "lew", 
  "Contents": " เฟรมเวิร์ค Ruby on Rails ออกรุ่น 5.0 เพิ่มฟีเจอร์สำคัญสองอย่างได้แก่ Action Cable และ API mode Action Cable เป็นเฟรมเวิร์คสำหรับการรองรับ WebSocket ใน Rails และเพื่อรองรับ WebSocket เซิร์ฟเวอร์สำหรับโหมดพัฒนาจะกลายเป็น Puma แทน Webrick API mode โหมดสำหรับรัน Rails โดยไม่มีหน้าเว็บ ตัวเฟรมเวิร์คจะบางลงและทำงานกับ JSON เป็นหลัก นอกจากนี้ Rails 5.0 ยังมาพร้อมกับ Turbolinks 5.0 เฟรมเวิร์คสำหรับการพัฒนาเว็บแอปพลิเคชั่นแบบหน้าเดียวโดยไม่ต้องโหลดหน้าเว็บใหม่ Rails 5.0 ต้องการ Ruby 2.2.2 ขึ้นไป และการออกรุ่น 5.0 ตัวจริงทำให้ Rails 4.1.x หยุดซัพพอร์ตไป คงเหลือตระกูล 5.0 และ 4.2 เท่านั้นที่ยังออกแพตช์ความปลอดภัยต่อไป ที่มา - Ruby on Rails   ", 
  "Date": "5/July/2016", 
  "Image-Link": [
    "https://www.blognone.com/sites/default/files/styles/thumbnail/public/topics-images/CDMbA57p.png?itok=BMWMsKPD", 
    "/sites/all/themes/blognone42/images/linebutton.png"
  ], 
  "Link": "https://www.blognone.com/node/83041", 
  "News": "Ruby on Rails 5.0 ออกแล้ว รองรับ WebSocket ในตัว, มีโหมด API อย่างเดียว", 
  "Tags": [
    "Rails", 
    "Ruby", 
    "Development"
  ], 
  "Time": "19:23"
}