{
  "By": "hisoft", 
  "Contents": " หลังจากผ่านมากว่าปีครึ่งหลังจากประกาศโอเพนซอร์ส .NET และอีกกว่าครึ่งปีหลังจากออกรุ่น RC ในที่สุด ตอนนี้ .NET Core ก็ได้ออกตัวจริงเป็นรุ่น 1.0 ที่รองรับการทำงานทั้งบน Windows, OS X และ Linux แล้วครับ .NET Core อยู่ในการดูแลของ .NET foundation และมีบ้านอยู่บน GitHub ครับ ที่มา - .NET Blog    ", 
  "Date": "28/June/2016", 
  "Image-Link": [
    "https://www.blognone.com/sites/default/files/styles/thumbnail/public/topics-images/dotnet.png?itok=gknnsic6", 
    "https://i.imgur.com/75nkaPB.png", 
    "/sites/all/themes/blognone42/images/linebutton.png"
  ], 
  "Link": "https://www.blognone.com/node/82729", 
  "News": "การเดินทางอันยาวนาน .NET Core ออกรุ่น 1.0 บน Windows, OS X และ Linux แล้ว", 
  "Tags": [
    "Microsoft", 
    "Open Source"
  ], 
  "Time": "00:24"
}