{
  "By": "nismod", 
  "Contents": " Warcraft ทำลายสถิติกลายเป็นภาพยนตร์จากเกมที่ทำรายได้สูงที่สุดในโลกไปแล้ว ด้วยรายได้ทั่วโลกอยู่ที่ 377 ล้านเหรียญ แซงหน้า Prince of Persia ที่เคยทำไว้ที่ 336 ล้านเหรียญ ถึงแม้ในช่วงสัปดาห์ที่ 2 หลังเข้าฉาย Warcraft จะทำรายได้ในสหรัฐไปได้เพียง 37 ล้านเหรียญขณะที่ผู้ชมก็ลดลงถึงกว่า 73% แต่หลังหนังเข้าฉายในจีน ซึ่งถือเป็นหนึ่งในประเทศที่มีผู้เล่น World of Warcraft มากเป็นอันดับต้นๆ กลับสามารถทำรายได้สูงถึงกว่า 200 ล้านเหรียญ ยังไม่นับรวมรายได้จากประเทศอื่นๆ ที่ทำให้ Warcraft กวาดรายได้นอกบ้านไปมากถึง 339 ล้านเหรียญ ถึงแม้ทางสตูดิโอ Universal และ Legendary จะยังไม่ประกาศเรื่องภาคต่ออย่างเป็นทางการ แต่รายได้ที่นับว่าเกินจุดคุ้มทุนมาแล้ว (รายได้เป็น 2 เท่าของต้นทุน 160 ล้านเหรียญ) ก็ยังพอมีหวังที่จะได้เห็นภาคต่อกันครับ ที่มา - SlashFilm   ", 
  "Date": "21/June/2016", 
  "Image-Link": [
    "https://www.blognone.com/sites/default/files/styles/thumbnail/public/topics-images/warcraft.png?itok=CH4JPcSL", 
    "/sites/all/themes/blognone42/images/linebutton.png"
  ], 
  "Link": "https://www.blognone.com/node/82496", 
  "News": "Warcraft กลายเป็นภาพยนตร์สร้างจากเกมที่ทำรายได้สูงที่สุด", 
  "Tags": [
    "Warcraft", 
    "Movie", 
    "Games"
  ], 
  "Time": "10:48"
}