{
  "By": "trinakub", 
  "Contents": " Batman: Return to Arkham คือโปรเจคที่นำเกม Batman: Arkham Asylum และ Batman: Arkham City มา Remaster ใหม่ แล้วนำมาขายคู่กัน เดิมทีมีกำหนดวางจำหน่ายวันที่ 26 กรกฎาคม 2559 บนเครื่อง PlayStation 4 และ Xbox One แต่ล่าสุด มีประกาศอย่างเป็นทางการจาก Warner Bros. Interactive Entertainment เลื่อนการวางจำหน่ายไปแบบไม่มีกำหนด ข้อความจากทาง Warner Bros. “หลังจากที่ได้ย้อนกลับมาดูความคืบหน้าของโปรเจคแล้ว ทีมจาก WB Game ของเราจึงได้ตัดสินใจที่จะเลื่อนวันวางจำหน่ายออกไป เพื่อให้เวลาแก่ทีมพัฒนาในการขัดเกลาตัวเกมให้สมบูรณ์แบบที่สุด ในส่วนของวันวางจำหน่ายที่เลื่อนออกไปนั้น พวกเรายังไม่ได้กำหนดออกมาแน่ชัด ซึ่งถ้าตัวเกมพร้อมสมบูรณ์แล้ว พวกเราจะประกาศให้ทุกคนได้รับรู้อย่างแน่นอน พวกเรารู้ดีว่าข่าวนี้อาจเป็นเรื่องที่น่าผิดหวัง แต่เวลาเสริมที่พวกเราได้เพิ่มมานั้น จะถูกนำไปสร้างเป็นประสบการณ์ที่ดีที่สุดให้แก่แฟน ๆ อย่างแน่นอน” ที่มา – Polygon    ", 
  "Date": "28/June/2016", 
  "Image-Link": [
    "https://www.blognone.com/sites/default/files/styles/thumbnail/public/news-thumbnails/Batman%20Logo.jpg?itok=d0t9KMRP", 
    "http://i.imgur.com/QlVbQXN.jpg", 
    "/sites/all/themes/blognone42/images/linebutton.png"
  ], 
  "Link": "https://www.blognone.com/node/82776", 
  "News": "Batman: Return to Arkham Remaster ประกาศเลื่อนไม่มีกำหนด", 
  "Tags": [
    "Batman: Return to Arkham", 
    "Games"
  ], 
  "Time": "20:36"
}