{
  "By": "Surawijit", 
  "Contents": " สำหรับเกมนี้ก็เป็นเกมที่โหลดมาเล่นได้ฟรี วิธีการเล่นก็แค่เรียงตัวเลขที่เหมือนกันตั้งแต่ 2 ตัวขึ้นไป โดยการลากนิ้วขึ้น ลง ซ้าย ขวา เช่น 3 เรียงกัน 2 ตัว ก็จะเพิ่มค่าเป็น 6 และเมื่อได้ตัวเลขที่กำหนดตามจำนวนก็จะผ่านเลเวล สำหรับเกมนี้มีทั้งหมด 54 เลเวล ถ้าเล่นแล้วไม่ผ่านเลเวลไหน ผู้เล่นสามารถเริ่มเล่นใหม่ได้ทันทีโดยกดปุ่ม retry หรือจะเปลี่ยนเลเวลโดยกดปุ่ม menu เพื่อเลือกเลเวลที่เล่นผ่านมาแล้ว สำหรับเลเวลที่สูงขึ้นก็มีการเรียงตัวเลขเพื่อสร้างหรือทำลาย block สีต่างๆ ตามหลักของตัวเลขที่ได้จากการเพิ่มค่า เช่น 12 สร้าง block สีส้ม 192 ทำลาย block สีฟ้า เรียงตัวเลขเพื่อเปลี่ยนตัวเลขที่มีช็อกโกแลตเคลือบเป็นตัวเลขธรรมดา เรียงตัวเลขเพื่อเคลื่อนย้ายโดนัทไปหาจาน เป็นต้น ถ้าเล่นเกมนี้แล้วชอบ อย่าลืมแชร์ให้เพื่อนมาเล่นกันเยอะๆ โดยกดปุ่มแชร์ ก็จะแชร์เกมนี้ได้ทั้ง Facebook, Twitter และอื่นๆ ดาวน์โหลดได้ฟรีที่ App Store รูปภาพการเล่นเกม 3612 Puzzle  ตัวอย่างวิดีโอการเล่นเกม 3612 Puzzle คุณสมบัติและความสามารถของเกม 3612 Puzzle:  เกมมีทั้งหมด 54 เลเวล มี 3 ดาวให้สะสมในทุกๆ เลเวล สามารถเริ่มเล่นใหม่ได้ทันทีโดยกดปุ่ม retry  สามารถแชร์คะแนนรวมทั้งหมดในเกมโดยกดปุ่ม leaderboard  สำหรับเกมนี้ก็เป็นเกมที่ยี่สิบสามที่พัฒนาบนระบบ iOS ซึ่งใช้การลากนิ้วขึ้น ลง ซ้าย ขวา ในการเล่นเกม เป็นหลัก สำหรับเว็บไซต์ของผู้พัฒนา -> Sabaiplay.com   ", 
  "Date": "20/May/2016", 
  "Image-Link": [
    "https://www.blognone.com/sites/default/files/styles/thumbnail/public/news-thumbnails/icon100_4.png?itok=P9rmRQ5I", 
    "http://sabaiplay.com/wp-content/uploads/2016/04/puzzle3612.jpg", 
    "/sites/all/themes/blognone42/images/linebutton.png"
  ], 
  "Link": "https://www.blognone.com/node/81224", 
  "News": "[App.th] 3612 Puzzle เรียงตัวเลขที่เหมือนกันตั้งแต่ 2 ตัวขึ้นไป เพื่อเพิ่มค่า", 
  "Tags": [
    "App.th", 
    "Games"
  ], 
  "Time": "10:01"
}