{
  "By": "aitimz", 
  "Contents": " Bomb Bomb Run เกมแนว Endless Running ที่พัฒนาโดย meCUTE Game House มีรูปแบบการเล่นที่ง่าย ใช้เพียงแค่การแตะที่ตรงไหนของหน้าจอก็ได้เพื่อเป็นการบังคับตัวละครให้วิ่งหลบระเบิดที่ตกลงมาจากฟ้า เป้าหมายของเกมคืออยู่รอดให้ได้นานที่สุด  ภายในเกมมีตัวละครสุดน่ารักให้ปลดล็อกกว่า 70 ตัว มีฉากอันเป็นเอกลักษณ์ให้ปลดล็อกกว่า 7 ฉาก เกมนี้เป็นเกมแรกที่ผมสร้างสำเร็จ หลังจากล้มเหลวมาแล้วหลายเกม อาจเป็นเกมเล็ก ๆ ไม่ซับซ้อนแต่ก็ดีใจที่ทำเสร็จและได้เผยแพร่ ท่านใดที่เล่นแล้วขอคำแนะนำเพื่อใช้ในการพัฒนาเกมต่อ ๆ ไปด้วยครับ ดาวน์โหลดฟรีได้แล้ววันนี้ที่ Google Play Google Play ติดตามเราได้ที่ Facebook         ", 
  "Date": "3/June/2016", 
  "Image-Link": [
    "https://www.blognone.com/sites/default/files/styles/thumbnail/public/news-thumbnails/icon512.png?itok=8BfUP249", 
    "https://www.img.in.th/images/998d10ba20dbc1873b8064a21d28c557.png", 
    "https://www.img.in.th/images/feef65d93a625105ec4082cc43131227.png", 
    "https://www.img.in.th/images/ae736f10c0d90d23c8c51b6cd5144961.png", 
    "https://www.img.in.th/images/fb20f96955dc3b1ef9b2419251e32947.png", 
    "https://www.img.in.th/images/929289af268c3e18ef03fc0b352e7a72.png", 
    "https://www.img.in.th/images/d34bc8efd40ecf2fc6ddeb02a24af6c4.png", 
    "/sites/all/themes/blognone42/images/linebutton.png"
  ], 
  "Link": "https://www.blognone.com/node/81801", 
  "News": "[App.th] Bomb Bomb Run เกมแนว Endless Running ที่เล่นง่ายแต่ท้าทายว่าคุณจะรอดชีวิตได้นานแค่ไหน", 
  "Tags": [
    "App.th", 
    "Games"
  ], 
  "Time": "11:17"
}