{
  "By": "ByteCode", 
  "Contents": " เคยไหมที่เสียเวลาเดินห้างฯ เพื่อหาร้านค้าโดยไม่รู้ว่าอยู่ชั้นไหน ห้างฯ เปิดปิดเวลาอะไร หรือเดินทางไปอย่างไร ปัญหาเหล่านี้จะหมดไป ByteCode Team ได้พัฒนาแอพพลิเคชันสดใหม่ \"Thai Shopping Mall\" แอพฯ ที่ช่วยให้ชีวิตคุณง่ายขึ้น ภายในแอพฯ ประกอบด้วยข้อมูลของห้างฯ ชั้นนำทั่วประเทศกว่า 60 ห้างฯ  ซึ่งมี features หลักดังนี้  รายชื่อห้างสรรพสินค้าชั้นนำ ทั่วประเทศไทย   รายละเอียดเกี่ยวกับห้างฯ เช่น สายรถเมล์, BTS, MRT, website เป็นต้น   รายชื่อร้านค้าต่างๆ ในแต่ละชั้นของห้างฯ   แสดงตำแหน่งของห้างฯ บนแผนที่   นำทางไปยังห้างฯ โดยระบบขนส่งสาธารณะ   แผนที่ภายในอาคารโดย Google Map    Download ได้ที่นี่ (เฉพาะ Android ส่วน iOS อาจจะตามมาทีหลังครับ)     หมายเหตุ: ข้อมูลอาจจะยังไม่ครบถ้วนสมบูรณ์ ทางทีมงานจะอัพเดทข้อมูลเรื่อยๆ ครับ   ", 
  "Date": "5/May/2016", 
  "Image-Link": [
    "https://www.blognone.com/sites/default/files/styles/thumbnail/public/news-thumbnails/app_logo_512.png?itok=6kmxZSeN", 
    "https://lh3.googleusercontent.com/YF_ixagsREvzWzkYB4yAtpVwXAdAtzIXTXraKQnOi4iftNUtYaVq2vjfOQrP14ZNCEk=h500-rw", 
    "https://lh3.googleusercontent.com/A4LfHODN2GwQzTcT4oP3IahvNxmxd_YJpXZTY-IE8v8El5CzS6dMXaKKhxsmkXrIGvzB=h500-rw", 
    "https://lh3.googleusercontent.com/7m0U7POBX6mKO9YfVWwptDnFdyvgttYWHbCdufqFBw0F_51LG5Y12PH12qIrr3vyvVA=h500-rw", 
    "https://lh3.googleusercontent.com/oJrFgLEtD767UxnEdlXfWzym7-wwzTYLT1f8ro7UWzk9GZSQovJUfsxIJIT6QqeFRA=h500-rw", 
    "https://lh3.googleusercontent.com/8R5pG9aDimlQDlq5pVNlLphaQ0Bf4D9jaiWedJdblOBQkjg0sg5BPYVhYiB31nP6NRrE=h500-rw", 
    "https://lh3.googleusercontent.com/dv8Q10dP37Vf01ox_98BEj8zfaPs35JAQpFKVzIKM0BjI-9k4GjK6LqA8oYCAABsVVo=h500-rw", 
    "https://play.google.com/intl/en_us/badges/images/generic/en_badge_web_generic.png", 
    "/sites/all/themes/blognone42/images/linebutton.png"
  ], 
  "Link": "https://www.blognone.com/node/80655", 
  "News": "[App.th] ไม่ต้องเสียเวลาเดินหาร้านค้าในห้างฯ อีกต่อไป แอพพลิเคชัน Thai Shopping Mall ช่วยคุณได้", 
  "Tags": [
    "App.th"
  ], 
  "Time": "18:47"
}