{
  "By": "nuntawat", 
  "Contents": " หลังจากไมโครซอฟท์ถอดแอปฟังวิทยุ FM ออกจาก Windows 10 Mobille รุ่นทดสอบ 14322 โดยไม่มีการชี้แจง ล่าสุดผู้จัดการทีม Windows Insider Engineering เผยว่า บริษัทตั้งใจถอดแอปฟังวิทยุ FM จาก development branch ของ Windows 10 Mobile และจะไม่ปรากฏแอปดังกล่าวใน Windows 10 Mobile อีกต่อไปหลังจากนี้ โดยแนะนำให้ผู้ใช้ใช้แอปจากนักพัฒนารายอื่นบน Windows Store แทน ที่มา: @NorthFaceHiker @gradea_rudolf @brandonleblanc FM Radio has been removed from dev branch builds and is being cut. May use third party radio apps from store — Jason (@NorthFaceHiker) 29 เมษายน 2559   ", 
  "Date": "10/May/2016", 
  "Image-Link": [
    "https://www.blognone.com/sites/default/files/styles/thumbnail/public/topics-images/Windows_10_movilw.png?itok=tDLWK0tY", 
    "/sites/all/themes/blognone42/images/linebutton.png"
  ], 
  "Link": "https://www.blognone.com/node/80781", 
  "News": "ไมโครซอฟท์ถอดแอปฟังวิทยุ FM ออกจาก Windows 10 Mobile", 
  "Tags": [
    "Windows 10 Mobile", 
    "Microsoft", 
    "Radio"
  ], 
  "Time": "08:30"
}