{
  "By": "mk", 
  "Contents": " คนที่ชอบฟังวิทยุ คงทราบกันดีว่าหนึ่งในสถานีวิทยุที่ดีเป็นอันดับต้นๆ ของโลกคือ BBC Radio ซึ่งมีช่องวิทยุให้เลือกฟังหลากหลาย โดยเฉพาะช่องข่าว BBC World Service English ที่รายงานข่าวทั่วโลกตลอดทั้งวัน ในยุควิทยุออนไลน์เฟื่องฟู BBC ก็มีแอพวิทยุชื่อ BBC iPlayer Radio ให้ดาวน์โหลดมาตั้งแต่ปี 2012 (ยอดดาวน์โหลดเกิน 10 ล้านครั้ง) แต่ช่วงที่ผ่านมา BBC iPlayer Radio กลับเปิดให้ใช้งานเฉพาะในสหราชอาณาจักรเท่านั้น ถ้าอยากฟังออนไลน์มีทางเดียวคือต้องเข้าฟังผ่านหน้าเว็บของ BBC Radio ล่าสุด BBC ปรับนโยบายใหม่ เริ่มปล่อยแอพ BBC iPlayer Radio ให้คนนอกประเทศดาวน์โหลดได้แล้ว โดยจะเริ่มจากไอร์แลนด์เป็นประเทศแรก และค่อยๆ ขยายไปยังประเทศอื่นต่อไปในอนาคต ใครที่ชอบฟังข่าวจาก BBC ก็อดใจรอกันอีกสักนิด แอพมีให้ใช้งานทั้งบน iOS, Android และ Amazon Fire ที่มา - BBC    ", 
  "Date": "10/July/2016", 
  "Image-Link": [
    "https://www.blognone.com/sites/default/files/styles/thumbnail/public/topics-images/bbc.png?itok=OTN0w22h", 
    "https://i.imgur.com/M5vQ3zD.jpg", 
    "/sites/all/themes/blognone42/images/linebutton.png"
  ], 
  "Link": "https://www.blognone.com/node/83231", 
  "News": "BBC เริ่มเปิดให้คนนอกอังกฤษ โหลดแอพวิทยุออนไลน์ BBC Radio ได้แล้ว", 
  "Tags": [
    "BBC", 
    "Radio", 
    "Mobile App"
  ], 
  "Time": "09:45"
}