{
  "By": "mk", 
  "Contents": " Alex Holden นักวิจัยความปลอดภัย ผู้ก่อตั้งบริษัท Hold Security ที่มีผลงานค้นพบข้อมูลหลุด (data breach) ชุดใหญ่มาแล้วหลายครั้ง (Adobe ปี 2013 และ แก๊งแฮ็กเกอร์รัสเซียปี 2014) ประกาศพบข้อมูลรั่วไหลอีก 272.3 ล้านบัญชีในฟอรั่มของแฮ็กเกอร์รัสเซีย ข้อมูลชุดนี้มีที่มาจากหลายแหล่ง ก้อนใหญ่ที่สุดเป็นบัญชีผู้ใช้ Mail.ru ที่นิยมในรัสเซียจำนวน 57 ล้านบัญชี ส่วนบัญชีอีเมลยอดฮิตก็มีครบทั้ง Yahoo Mail 40 ล้านบัญชี, Hotmail 33 ล้านบัญชี และ Gmail 24 ล้านบัญชี ที่เหลือเป็นบัญชีอีเมลและรหัสผ่านขององค์กรอื่นๆ จำนวนมาก สิ่งที่น่าตกใจคือแฮ็กเกอร์รัสเซียที่แฮ็กข้อมูลก้อนนี้มา แทบจะให้ข้อมูลแบบแจกฟรี โดยตอนแรกเรียกราคาเพียง 50 รูเบิล (ประมาณ 27 บาท) เท่านั้น แต่เมื่อ Holden ไปคุยและขอแลกกับการโพสต์คอมเมนต์ชื่นชมในฟอรั่มแฮ็กเกอร์แทน แฮ็กเกอร์รายนี้ก็ยินดีมอบข้อมูลให้เลย Holden แจ้งเรื่องนี้ไปยังผู้ให้บริการอีเมลทุกรายแล้ว ซึ่งบางรายกำลังตรวจสอบข้อมูล และจะรีบแจ้งผู้ใช้ที่อยู่ในบัญชีรายชื่อทราบทันที ที่มา - Reuters, Hold Security   ", 
  "Date": "5/May/2016", 
  "Image-Link": [
    "https://www.blognone.com/sites/default/files/styles/thumbnail/public/topics-images/mailru.png?itok=5Xqhogxl", 
    "/sites/all/themes/blognone42/images/linebutton.png"
  ], 
  "Link": "https://www.blognone.com/node/80642", 
  "News": "พบข้อมูลหลุดชุดใหญ่ 272 ล้านบัญชีจากแฮ็กเกอร์รัสเซีย มีบัญชี Gmail/Hotmail/Yahoo ด้วย", 
  "Tags": [
    "Security", 
    "Data Breach", 
    "Mail.ru"
  ], 
  "Time": "12:21"
}