{
  "By": "iDan", 
  "Contents": " เมื่อวานนี้เกม Pokemon Go เปิดให้ดาวน์โหลดแล้วสำหรับผู้เล่นในประเทศญี่ปุ่น ออสเตรเลียและนิวซีแลนด์ เกมนี้สร้างความฮือฮาให้กับผู้คนทั่วโลกเป็นอย่างมาก บางท่านถึงกับกระหายที่จะหาดาวน์โหลดมาเล่นให้ได้ แต่ตอนนี้ตัวเกมเหมือนว่าจะสร้างปัญหาให้กับทางผู้ผลิตเกมอย่าง Niantic Lab และผู้เล่นเกมซะแล้ว เนื่องจากว่ามีผู้เล่นบางท่านรู้สึกว่าแบตเตอรี่ในสมาร์ทโฟนหมดเร็วกว่าปกติมาก บางคนถึงกับบ่นออกทางทวิตเตอร์ว่า เขาไม่เคยเห็นเกมไหนที่บริโภคพลังงานมากอย่าง Pokemon Go มาก่อน แม้กระทั่งแบตเตอรี่ iPhone 6s ของผมหายไป 10% ภายใน 20 นาที ทั้งที่เสียบสายชาร์จอยู่ Never seen a game drain battery like Pokemon Go. Even my 6s loses 10% in 20 minutes - WITH the charger connected! — ℃améron Davis (@Gazunta) July 6, 2016 From 90% to 34% real quick....#PokémonGO why so draining sa battery. Hahahahaha — Christian Reasonda (@ChanReasonda) July 6, 2016 #PokemonGO has been fun, too bad it destroys my battery. First time in ages it actually went down to 0% in a day xD — superhiero (@eRonin) July 6, 2016 ภายหลังทางเว็บไซต์ CyberShack เปิดเผยว่า ตัวเกมเปิดใช้ GPS และกล้องหลังของสมาร์ทโฟนอย่างหนัก ทำให้ตัวสมาร์ทโฟนต้องใช้พลังงานจากแบตเตอรี่เพิ่มขึ้นเป็นเงาตามตัว ทาง Niantic เปิดเผยบนเว็บไซต์ Pokemon Go ในส่วนของ Known Issues ว่าทราบถึงปัญหาที่เกิดขึ้นแล้ว และกำลังหาทางแก้ไขกับปัญหาที่เกิดขึ้นต่อไป Heavy battery use Some devices may experience battery drain while playing Pokémon GO for prolonged periods of time. We are working on a solution. เราก็ได้แต่หวังว่า ทาง Niantic จะออกเวอร์ชั่นใหม่มาแก้ไขเร็วๆ นี้ครับ ที่มา: CyberShack ผ่าน Kotaku   ", 
  "Date": "7/July/2016", 
  "Image-Link": [
    "https://www.blognone.com/sites/default/files/styles/thumbnail/public/topics-images/pokemon.png?itok=7HuOXT6S", 
    "/sites/all/themes/blognone42/images/linebutton.png"
  ], 
  "Link": "https://www.blognone.com/node/83098", 
  "News": "ผู้เล่นเกม Pokemon Go โวย ตัวเกมบริโภคแบตเตอรี่มากเกินไป", 
  "Tags": [
    "Pokemon", 
    "Games", 
    "Niantic Labs"
  ], 
  "Time": "00:21"
}