{
  "By": "lew", 
  "Contents": " Pornhub ประกาศรางวัลสำหรับการแจ้งช่องโหว่เว็บ มูลค่าตั้งแต่ 50 ดอลลาร์ไปจนถึง 25,000 ดอลลาร์ โดยครอบคลุมเว็บทุกโดเมนของ pornhub.com เงื่อนไขของการรับรางวัล ได้แก่ ต้องแจ้งช่องโหว่ภายใน 24 ชั่วโมงหลังพบ, ทางเว็บมีเวลาตอบกลับ 30 วัน เวลาแก้ไขอีก 90 วัน และต้องไม่โพสในแง่ลบต่อโครงการหรือตัวเว็บ,  การตรวจสอบต้องไม่ทำให้บริการโดยรวมแย่ลง ไม่ใช้เครื่องมือทดสอบอัตโนมัติ, การเข้าถึงข้อมูลบัญชีต้องเป็นบัญชีของตัวเองเท่านั้น และไม่ดึงข้อมูลผู้ใช้อื่นไปเปิดเผย จากประวัติของ Pornhub ทางเว็บเคยให้รางวัลแฮกเกอร์บางคนมาก่อนแล้ว แต่เพิ่งเปิดโครงการเป็นทางการก็วันนี้ ถ้าคุณเห็นคนทำงานด้านความปลอดภัยกำลังเปิด Pornhub บางทีพวกเขาอาจจะกำลังหาช่องโหว่เว็บอยู่ ที่มา - HackerOne, Motherboard   ", 
  "Date": "11/May/2016", 
  "Image-Link": [
    "https://www.blognone.com/sites/default/files/styles/thumbnail/public/topics-images/pornhub.png?itok=O-cDze6r", 
    "/sites/all/themes/blognone42/images/linebutton.png"
  ], 
  "Link": "https://www.blognone.com/node/80821", 
  "News": "เพิ่มเหตุผลให้คนไอทีเข้าเว็บ, Pornhub ประกาศรางวัลสำหรับการแจ้งช่องโหว่", 
  "Tags": [
    "Pornhub", 
    "Security", 
    "Bug Bounty"
  ], 
  "Time": "00:40"
}