{
  "By": "lew", 
  "Contents": " Orange Pi อัพเดตบอร์ด Orange Pi PC ที่เปิดตัวมาปีที่แล้ว ด้วยการเพิ่ม eMMC ขนาด 8GB และ Wi-Fi 802.11b/g/n โดยเพิ่มราคาจาก 15 ดอลลาร์เป็น 19.99 ดอลลาร์ ตัวเสาอากาศเชื่อมต่อผ่านพอร์ต uFL และราคาบอร์ดรวมค่าเสาอากาศมาแล้ว อุปกรณ์อื่นๆ ยังเหมือนเดิม คือ Allwinner H3 แรม 1GB, 100Mbps Ethernet, USB 2.0 3 พอร์ต, HDMI, GPIO 40 ขา, ไมโครโฟน, ตัวรับรีโมตอินฟราเรด ค่าส่งมาไทย 3.43 ดอลลาร์ ที่มา - CNX-Software    ", 
  "Date": "10/June/2016", 
  "Image-Link": [
    "https://www.blognone.com/sites/default/files/styles/thumbnail/public/topics-images/orangepi.png?itok=6ERh7Rxc", 
    "//upic.me/i/wy/htb1ypm_jvxxxxxrxpxxq6xxfxxxl.jpg", 
    "/sites/all/themes/blognone42/images/linebutton.png"
  ], 
  "Link": "https://www.blognone.com/node/82083", 
  "News": "จบในตัว บอร์ด Orange Pi PC Plus เพิ่ม Wi-Fi, eMMC 8GB ราคา 19.99 ดอลลาร์", 
  "Tags": [
    "China", 
    "Orange Pi", 
    "ARM", 
    "micropc"
  ], 
  "Time": "01:10"
}