{
  "By": "lew", 
  "Contents": " ชิป ESP8266 นับแต่เปิดตัวมาก็พลิกวงการ IoT ไปอย่างมาก เพราะเป็นชิปที่เชื่อมต่อ Wi-Fi ได้ในราคาถูก (ตอนนี้เหลือโมดูลละไม่ถึง 3 ดอลลาร์แล้ว) ข้อจำกัดอย่างหนึ่งของ ESP8266 คือมันไม่มีรอมในตัว ต้องเชื่อมต่อหน่วยความจำแบบแฟลชภายนอกทำให้โมดูลแต่ละรุ่นมีสเปคต่างกันไป ตอนนี้ ESP8285 ที่มีหน่วยความจำแฟลชในตัวขนาด 1MB ก็เริ่มวางขายแล้ว ชิปตัวนี้เปิดตัวมาตั้งแต่เดือนมีนาคมที่ผ่านมา แต่เพิ่งเริ่มมีขายปลีกไม่นานนัก ตอนนี้บอร์ดพัฒนาขายอยู่ในเว็บ tindie อยู่ที่ราคา 24.95 ดอลลาร์ (แถมมีค่าส่งมาไทย 14.95 ดอลลาร์) ผู้พัฒนาบอร์ดคือ Pesky Products ยอมรับว่ามันราคาค่อนข้างแพง แต่บนบอร์ดก็มีเซ็นเซอร์ความชื้นมาให้ด้วย และในอนาคตหากมีปริมาณการผลิตมากพอก็จะลดราคาลงมาได้อีกมาก ตัวแทนจำหน่ายอย่าง AI-Thinker ก็ดูเหมือนจะมีชิปพร้อมให้สั่งแล้ว ที่มา - CNX Software, Hack A Day    ", 
  "Date": "23/June/2016", 
  "Image-Link": [
    "https://www.blognone.com/sites/default/files/styles/thumbnail/public/topics-images/espressif.png?itok=1Bkrx69t", 
    "//upic.me/i/un/20160425042215227.jpg", 
    "/sites/all/themes/blognone42/images/linebutton.png"
  ], 
  "Link": "https://www.blognone.com/node/82568", 
  "News": "Espressif เริ่มขายชิปใหม่ ESP8285 มีรอมในตัวขนาด 1MB", 
  "Tags": [
    "Espressif", 
    "Hardware", 
    "Internet of Things"
  ], 
  "Time": "01:15"
}