{
  "By": "lew", 
  "Contents": " หลังจากโนเกียเปิดตัวซอฟต์แวร์ IMPACT สำหรับการจัดการอุปกรณ์จำนวนมาก ฝั่งผู้ใช้ตามบ้านเองทางโนเกียก็เปิดตัวโซลูชั่น Smart Home ออกมาพร้อมกัน โซลูชั่นนี้ไม่ได้ทำออกมาขายผู้ใช้ตามบ้านโดยตรง แต่ขายกับผู้ให้บริการบรอดแบนด์ไปให้ผู้ใช้ตามบ้านอีกทีหนึ่ง โดยโนเกียจะมีโมเด็มสำหรับติดตั้งที่บ้านผู้ใช้ ทำหน้าที่เป็นเราท์เตอร์ Wi-Fi พร้อมกับเกตเวย์ IoT ในตัว รองรับทั้ง ZigBee และ Z-Wave ตัวแอพสำหรับให้ผู้ใช้ติดตั้งเพื่อควบคุมอุปกรณ์ในบ้าน และซอฟต์แวร์จัด ทางโนเกียระบุว่าผู้ให้บริการบรอดแบนด์ที่ให้บริการเพิ่มเติม เช่น การรักษาความปลอดภัยบ้าน หรือการควบคุมบ้านอัตโนมัติเช่นนี้ มีโอกาสเพิ่มรายได้จากลูกค้าเดือนละ 10-20 ดอลลาร์ เพิ่มเติมจากแนวทาง triple play ของผู้ให้บริการอินเทอร์เน็ต จากเดิมที่ให้บริการโทรศัพท์, วิดีโอ, อินเทอร์เน็ต  มาเพิ่มการควบคุมบ้านเพิ่มเติม ที่มา - Nokia    ", 
  "Date": "15/June/2016", 
  "Image-Link": [
    "https://www.blognone.com/sites/default/files/styles/thumbnail/public/topics-images/nokia.png?itok=b6obgyXg", 
    "//upic.me/i/sq/g-240wz-a_4ra_small.jpg", 
    "/sites/all/themes/blognone42/images/linebutton.png"
  ], 
  "Link": "https://www.blognone.com/node/82255", 
  "News": "โนเกียเปิดโซลูชั่น Smart Home เปิดทางผู้ให้บริการบรอดแบนด์ให้บริการจัดการบ้านลูกค้า", 
  "Tags": [
    "Nokia", 
    "Internet of Things"
  ], 
  "Time": "01:15"
}