{
  "By": "vvkungx", 
  "Contents": " ระหว่างงาน Google I/O 2016 ที่ผ่านมา ทาง Google ได้ประกาศผลรางวัล Google Play Awards 2016 เป็นที่เรียบร้อย ซึ่งถือเป็นครั้งแรกที่มีการมอบรางวัลนี้แก่นักพัฒนาแอพบน Google Play มีเกณฑ์การให้คะแนนที่คุณภาพของแอพ, นวัตกรรมและการเปิดตัวหรือพัฒนาแอพในช่วง 12 เดือนที่ผ่านมาซึ่งตัดสินโดยทีมของ Google Play โดยมีผลรางวัล 10 ประเภทดังต่อไปนี้ Standout Startup : แอพที่พัฒนาโดยนักพัฒนาหน้าใหม่ ไม่ซ้ำใครและมีการเติบโตของการใช้งาน มีผู้เข้าชิงได้แก่  ผู้ได้รับรางวัลคือ Hopper Standout Indie : แอพที่พัฒนาโดยนักพัฒนาสายอินดี้ มีความโดดเด่นเรื่องการออกแบบ,คุณภาพและนวัตกรรมในการเล่น มีผู้เข้าชิงได้แก่  ผู้ได้รับรางวัลคือ Alphabear Best Families App : แอพหรือเกมที่เหมาะสำหรับครอบครัว มีผู้เข้าชิงได้แก่  ผู้ได้รับรางวัลคือ Thinkrolls 2 Best Use of Material Design : แอพที่นำไอเดียของ Material Design ไปใช้อย่างโดดเด่น มีผู้เข้าชิงได้แก่  ผู้ได้รับรางวัลคือ Robinhood Best Use of Google Play Game Services : เกมชั้นดีที่ใช้ฟีเจอร์ของ Google Play Game Services ได้อย่างลงตัว มีผู้เข้าชิงได้แก่  ผู้ได้รับรางวัลคือ Table Tennis Touch Early Adopter : กลุ่มนักพัฒนาสมัยใหม่ที่นำเทคโนโลยีมาพัฒนาใช้กับแอพได้อย่างดี มีผู้เข้าชิงได้แก่  ผู้ได้รับรางวัลคือ World Around Me Go Global : แอพหรือเกมที่พัฒนาให้เข้ากับภาษาหรือวัฒนธรรมของผู้ใช้ทั่วโลก มีผู้เข้าชิงได้แก่  ผู้ได้รับรางวัลคือ Pokemon Shuffle Mobile Most Innovative : แอพหรือเกมที่เปิดประสบการณ์แปลกใหม่ไม่เหมือนใคร มีผู้เข้าชิงได้แก่  ผู้ได้รับรางวัลคือ NYT VR Best App : แอพที่มีความสวยงาม, UX สมบูรณ์แบบและดึงดูดความสนใจแก่ผู้ใช้ มีผู้เข้าชิงได้แก่  ผู้ได้รับรางวัลคือ Houzz Best Game : เกมที่มีระบบแข็งแรง, แนะนำการเล่นอย่างเข้าใจและมีดีไซน์ที่ลงตัว มีผู้เข้าชิงได้แก่  ผู้ได้รับรางวัลคือ Clash Royale ขอแสดงความยินดีกับนักพัฒนาแอพทั้ง 10 รางวัลนี้ด้วยครับ  ที่มา : Android Developers Blog(1,2)   ", 
  "Date": "23/May/2016", 
  "Image-Link": [
    "https://www.blognone.com/sites/default/files/styles/thumbnail/public/topics-images/google-play-new.png?itok=rDa4mjxu", 
    "//upic.me/i/cu/batch_google-play-award_03.jpg", 
    "//upic.me/i/kp/batch_google-play-award_06.jpg", 
    "//upic.me/i/uf/batch_google-play-award_08.jpg", 
    "//upic.me/i/0f/batch_google-play-award_10.jpg", 
    "//upic.me/i/8s/batch_google-play-award_12.jpg", 
    "//upic.me/i/tq/batch_google-play-award_14.jpg", 
    "//upic.me/i/6i/batch_google-play-award_16.jpg", 
    "//upic.me/i/ed/batch_google-play-award_18.jpg", 
    "//upic.me/i/6z/batch_google-play-award_20.jpg", 
    "//upic.me/i/xi/batch_google-play-award_22.jpg", 
    "//upic.me/i/hw/image00.png", 
    "/sites/all/themes/blognone42/images/linebutton.png"
  ], 
  "Link": "https://www.blognone.com/node/81263", 
  "News": "Google ประกาศผลรางวัล Google Play Awards 2016", 
  "Tags": [
    "Google Play"
  ], 
  "Time": "01:31"
}