{
  "By": "mk", 
  "Contents": " ชื่อ Daydream เคยเป็นฟีเจอร์หนึ่งของ Android รุ่นก่อนๆ แต่กูเกิลนำมันกลับมาใช้เรียกแพลตฟอร์ม Virtual Reality ของตัวเอง แนวทางของ Daydream จะยังเดินตามรอยของ Google Cardboard คือใช้หน้าจอมือถือเป็นจอแสดงผล (ไม่ได้สร้างแว่นเองทั้งอันเหมือน Oculus) แต่จะปรับปรุงให้การแสดงผลมีประสิทธิภาพสูงขึ้นกว่า Cardboard  องค์ประกอบของแพลตฟอร์ม Daydream ประกอบด้วย 3 ส่วนคือ  สมาร์ทโฟนประสิทธิภาพสูง และ latency ต่ำ ตัวครอบศีรษะแบบใหม่ + คอนโทรลเลอร์ แอพแบบ VR   ส่วนของสมาร์ทโฟน กูเกิลจะออกสเปกสมาร์ทโฟนที่ผ่านมาตรฐาน Daydream โดยฟีเจอร์ต่างๆ ฝั่งซอฟต์แวร์จะมาพร้อมกับ Android N ตั้งแต่ต้น  ผู้ผลิตมือถือรายใหญ่ๆ เข้าร่วมโครงการกันเกือบหมด ไม่ว่าจะเป็น Samsung, HTC, LG, Xiaomi, Huawei, ZTE, ASUS, Alcatel โดยมือถือที่รองรับมาตรฐาน Daydream จะเริ่มเปิดตัวภายในปีนี้  ส่วนของแว่นครอบศีรษะ กูเกิลเริ่มพัฒนาต้นแบบร่วมกับผู้ผลิตฮาร์ดแวร์แล้ว และของที่เพิ่มเข้ามาใหม่คือคอนโทรลเลอร์สำหรับควบคุมโลก VR รูปแบบการใช้งานจะคล้ายรีโมทของ Wii  สุดท้ายคือแพลตฟอร์มแอพแบบ VR เริ่มจากมี Google Play เวอรชัน VR สามารถติดตั้งแอพได้จากในโลก VR เลย  พันธมิตรเนื้อหาและแอพที่ร่วมสร้างโลก VR กับกูเกิลได้แก่  ผู้พัฒนาเกมที่เข้าร่วมกับ Daydream  ส่วนแอพของกูเกิลเอง ที่จะปรับให้เข้ากับ Daydream VR ก็มีตั้งแต่ YouTube, Street View, Google Play Movies และ Google Photos  Daydream จะเปิดตัวช่วงครึ่งหลังของปีนี้ น่าจะไล่เลี่ยหรือพร้อมกับ Android N ตัวจริง   ", 
  "Date": "19/May/2016", 
  "Image-Link": [
    "https://www.blognone.com/sites/default/files/styles/thumbnail/public/topics-images/daydream.png?itok=4FpCOa7K", 
    "http://i.imgur.com/RZDH6KH.jpg", 
    "http://i.imgur.com/03UL7Dd.png", 
    "http://i.imgur.com/N3bdBoj.png", 
    "https://i.imgur.com/kovauGn.png", 
    "http://i.imgur.com/9wi4YT8.png", 
    "http://i.imgur.com/ewZvCVV.jpg", 
    "http://i.imgur.com/PuEh7nV.png", 
    "http://i.imgur.com/qEyNiRk.png", 
    "http://i.imgur.com/NZub2Dd.jpg", 
    "/sites/all/themes/blognone42/images/linebutton.png"
  ], 
  "Link": "https://www.blognone.com/node/81170", 
  "News": "กูเกิลเปิดตัว Daydream แพลตฟอร์ม VR ที่ประสิทธิภาพสูงกว่า Cardboard", 
  "Tags": [
    "Daydream", 
    "Google Cardboard", 
    "Virtual Reality", 
    "Google", 
    "Google I/O"
  ], 
  "Time": "02:07"
}