{
  "By": "lew", 
  "Contents": " ตู้เอทีเอ็มในญี่ปุ่นถูกใช้ข้อมูลบัตรเครดิตที่ขโมยมากดเงินพร้อมกันจำนวนมากภายในเวลาสองชั่วโมง รวมมูลค่าความเสียหาย 1,400 ล้านเยน นับเป็นการก่ออาชญากรรมครั้งใหญ่ คาดว่ามีผู้ร่วมขบวนการกว่าร้อยคน ข้อมูลบัตรที่ใช้ในการกดเงินครั้งนี้มีทั้งหมด 1,600 ใบ และตู้เอทีเอ็มที่ถูกกดเงินมีถึง 1,400 ตู้ รวมการกดประมาณ 14,000 ครั้ง ครั้งละไม่เกิน 100,000 เยน โดยตำรวจคาดว่าจะใช้บัตรปลอมที่เขียนข้อมูลบัตรที่รั่วไหลออกมาลงไปในบัตร ตู้เอทีเอ็มที่ถูกกดเงินสูงสุดครั้งละ 100,000 เยนเป็นของ Seven Bank และบัตรทั้งหมดเป็นบัตรที่ออกโดยธนาคารแห่งหนึ่งในแอฟริกาใต้ ที่มา - The Mainichi  ภาพจาก Pixabay   ", 
  "Date": "23/May/2016", 
  "Image-Link": [
    "https://www.blognone.com/sites/default/files/styles/thumbnail/public/topics-images/flag-of-japan.png?itok=E37979Qt", 
    "http://i.imgur.com/V4v9GZX.jpg", 
    "/sites/all/themes/blognone42/images/linebutton.png"
  ], 
  "Link": "https://www.blognone.com/node/81264", 
  "News": "ตู้เอทีเอ็มในญี่ปุ่นถูกกลุ่มคนร้ายใช้บัตรปลอมกดเงินจำนวนมาก ความเสียหายรวม 1,400 ล้านเยน", 
  "Tags": [
    "Banking", 
    "Data Breach", 
    "Japan"
  ], 
  "Time": "02:18"
}