{
  "By": "mk", 
  "Contents": " กูเกิลโชว์ฟีเจอร์เพิ่มเติมของ Android N นอกเหนือจากที่เคยประกาศมาครั้งหนึ่งแล้วตอนเปิดตัว Android N เมื่อเดือนมีนาคม ฟีเจอร์ของ N ถูกแบ่งออกเป็น 3 กลุ่มคือ ประสิทธิภาพ ความปลอดภัย และการทำงานที่ดีขึ้น   ประสิทธิภาพ ส่วนของกราฟิกรองรับ Vulkan API ที่ช่วยให้ประสิทธิภาพของเกมดีขึ้นมาก, ส่วนของตัวแอพทั่วไป ปรับปรุงประสิทธิภาพของ JIT Compiler ติดตั้งแอพเร็วขึ้น แอพมีขนาดเล็กลง และวัดเบนช์มาร์คแล้วดีขึ้นจาก Marshmallow อย่างชัดเจน   ความปลอดภัย ปรับปรุงการเข้ารหัสข้อมูล จากของเดิมระดับบล็อคมาเป็นระดับไฟล์ ช่วยยกระดับเรื่อง isolation มากขึ้น, แยกส่วน Media Server และปรับปรุงวิธีการอัพเดตระบบปฏิบัติการ ระบบจะดาวน์โหลดอิมเมจของระบบปฏิบัติการเวอร์ชันใหม่มารอไว้ เมื่อรีสตาร์ตเครื่อง ก็จะเห็นระบบปฏิบัติการเวอร์ชันใหม่โผล่ขึ้นมาทำงานทันที ไม่ต้องรอ (เรียกว่า seamless updates กระบวนการเหมือน Chrome OS)  ปรับปรุงวิธีการทำงาน จุดหลักคือหน้าจอ multi-tasking เพิ่มปุ่ม x เพื่อปิดแอพแล้ว (เย่), เพิ่มท่าใหม่กดปุ่ม Recent Apps เบิ้ลสองที เพื่อสลับกลับไปยังแอพล่าสุดที่ใช้งาน  โหมดรันแอพพร้อมกันสองตัว ยังแยกเป็นโหมด multi-window สำหรับแท็บเล็ตและสมาร์ทโฟน  และโหมด picture-in-picture สำหรับ Android TV (ในภาพ แอพอีกตัวรันอยู่มุมขวาบน)  ระบบ Notification ถูกปรับปรุงใหม่ รองรับ Direct Reply ตอบข้อความโดยไม่ต้องเปิดแอพ, สามารถเลือกปิด Notification บางอันจากหน้า Notification ได้ทันที ไม่ต้องเข้า Settings ก่อน  สุดท้ายคือรองรับ Emoji ตามมาตรฐาน Unicode 9.0 แล้ว  วันนี้กูเกิลยังออก Android N Developer Preview 3 ที่ถือเป็นรุ่น Beta ตัวแรกของ N ให้ทดสอบกัน อุปกรณ์ที่ใช้งานได้คือ Nexus 6, 9, 5X, 6P, Nexus Player, Pixel C, Android One (General Mobile 4G)  ที่มา - Android Developers Blog   ", 
  "Date": "19/May/2016", 
  "Image-Link": [
    "https://www.blognone.com/sites/default/files/styles/thumbnail/public/topics-images/nougat.png?itok=g2Ax37hW", 
    "http://i.imgur.com/XBpxeVn.jpg", 
    "http://i.imgur.com/n9E6k24.png", 
    "http://i.imgur.com/1A6AK58.png", 
    "http://i.imgur.com/4w7nGy5.png", 
    "http://i.imgur.com/MBOduVq.png", 
    "http://i.imgur.com/dpCf7QW.png", 
    "http://i.imgur.com/9akt5jj.png", 
    "http://i.imgur.com/bWnjWxb.png", 
    "http://i.imgur.com/FU0Q22i.png", 
    "http://i.imgur.com/pXhtQyy.png", 
    "https://3.bp.blogspot.com/-7aUQt2W9K6s/VzwBclQxDzI/AAAAAAAADC4/TmYm_i1KUe0GYjvmGqENICoDPGxZ5n5wwCLcB/s640/NEXUS-iO-GROUP1_v2b-no-N%2B%25281%2529.jpg", 
    "/sites/all/themes/blognone42/images/linebutton.png"
  ], 
  "Link": "https://www.blognone.com/node/81172", 
  "News": "รวมฟีเจอร์ใหม่ของ Android N จากงาน Google I/O 2016 (หน้า Recent มีปุ่มปิดแอพแล้ว!)", 
  "Tags": [
    "Nougat", 
    "Android", 
    "Google I/O", 
    "Google"
  ], 
  "Time": "02:35"
}