{
  "By": "ตะโร่งโต้ง", 
  "Contents": " บริษัท Sandstone Diagnostics ได้ผลิต Trak ชุดทดสอบนับจำนวนอสุจิในน้ำเชื้อเพื่อตรวจภาวะเจริญพันธุ์เพศชาย ซึ่งล่าสุดได้รับการรับรองจาก FDA ให้สามารถวางจำหน่าย Trak ได้แล้ว โดยชุดทดสอบนี้จะสามารถทำงานเชื่อมต่อกับแอพในสมาร์ทโฟนได้ ชุดทดสอบ Trak ที่ว่านี้ประกอบไปด้วยกระเปาะเก็บตัวอย่างน้ำเชื้อ และแท่นเหวี่ยงกระเปาะ ตัวกระเปาะที่ว่ามีลักษณะเป็นกระจกใสและถูกออกแบบให้มีปลายกระเปาะเรียวแคบ และมีเครื่องหมายบอกจำนวนอสุจิกำกับอยู่ด้านข้าง เมื่อเก็บตัวอย่างน้ำเชื้อได้แล้ว ก็เพียงนำกระเปาะนั้นไปวางบนแท่นเหวี่ยงเพื่อทำการเหวี่ยงให้เกิดการแยกชั้นของน้ำเชื้อ เมื่อทำการเหวี่ยงกระเปาะเก็บตัวอย่างน้ำเชื้อแล้ว ตัวอสุจิในน้ำเชื้อนั้นจะโดนแรงเหวี่ยงหนีศูนย์กลางจนไปกระจุกที่ปลายกระเปาะ ทำให้ผู้ใช้สามารถอ่านค่าจำนวนอสุจิได้โดยดูปริมาณที่ของอสุจิที่แยกชั้นเทียบกับขีดเครื่องหมายที่อยู่บนกระเปาะนั้น โดยจะแบ่งค่าการวัดออกเป็นระดับอิงตามประกาศของ WHO คือ ระดับต่ำ (15 ล้านตัวต่อมิลลิลิตร), ปานกลาง (15 - 55 ล้านตัวต่อมิลลิลิตร) และดีเยี่ยม (มากกว่า 55 ล้านตัวต่อมิลลิลิตร) ในขณะนี้ชุดทดสอบ Trak ผ่านการทดสอบการใช้งานจน FDA รับรองแล้ว มีการสาธิตการใช้งานผลิตภัณฑ์ในงานต่างๆ หลายครั้ง ทว่าตัวแอพที่ทำงานคู่กันนั้นยังไม่พร้อม ในอนาคตเมื่อ Sandstone Diagnostics พัฒนาแอพจนสำเร็จ ตัวแอพจะสามารถบอกค่าจำนวนอสุจิของผู้ใช้ได้โดยไม่ต้องอ่านค่าเอง นอกจากนี้แอพจะเก็บข้อมูลจากผู้ใช้จำนวนมากเพื่อหาค่าเฉลี่ยของผลการวัดที่ได้ มันจะเปรียบเทียบให้ผู้ใช้แต่ละรายรู้ได้ว่าตนเองมีจำนวนอสุจิมากหรือน้อยกว่าค่าเฉลี่ยของผู้ใช้รายอื่นในพื้นที่ใกล้เคียงกัน และยังให้ข้อมูลแนะนำแก่ผู้ใช้เพื่อปรับปรุงสุขภาพให้ดีขึ้นด้วย Trak ถือเป็นการตอบโจทย์ปัญหายุ่งยากลำบากของผู้ชายหลายราย ไม่เพียงแต่ประหยัดเวลาเดินทางไปตรวจที่ห้องปฏิบัติการเท่านั้น แต่ยังแก้ปัญหาที่บางคนรู้สึกเขินอายเมื่อต้องไปตรวจกับคนอื่นด้วย Sandstone Diagnostics จะเปิดให้สั่งจอง Trak ได้ในราคาชุดละ 160 ดอลลาร์ โดยตัวแอพซึ่งมีทั้งระบบ iOS และ Android นั้นจะพร้อมใช้งานภายในเดือนตุลาคมปีนี้ ที่มา - medGadget, MobiHealthNews    ", 
  "Date": "12/June/2016", 
  "Image-Link": [
    "https://www.blognone.com/sites/default/files/styles/thumbnail/public/topics-images/health.png?itok=Ii1bRrE2", 
    "//upic.me/i/tx/trak-selfmalefertilitycheckkit3.jpg", 
    "/sites/all/themes/blognone42/images/linebutton.png"
  ], 
  "Link": "https://www.blognone.com/node/82153", 
  "News": "Trak ชุดทดสอบภาวะเจริญพันธุ์เพศชายแบบตรวจเองได้ที่บ้าน", 
  "Tags": [
    "Medical", 
    "Health"
  ], 
  "Time": "03:09"
}