{
  "By": "mk", 
  "Contents": " ที่งาน Google I/O 2016 กูเกิลเปิดตัว Android Wear 2.0 ซึ่งถือเป็นการอัพเดตใหญ่ครั้งแรกของ Android Wear ของใหม่ที่สำคัญคือ Android Wear สามารถทำงานแบบสแตนด์อโลน รันแอพในนาฬิกาโดยไม่ต้องพึ่งการเชื่อมต่อกับมือถือเลย สามารถต่อเน็ตได้ผ่านเครือข่ายมือถือหรือ Wi-Fi ได้โดยตรง ช่วยทำลายข้อจำกัดของแอพให้สามารถทำอะไรเพิ่มได้เองอีกมาก ของใหม่อื่นๆ คือรองรับอินพุตแบบใหม่คือ ลายมือ (handwriting) และคีย์บอร์ด จากเดิมที่ Android Wear สั่งงานจากปุ่มและเสียงพูดเท่านั้น, ปรับปรุงการเก็บสถิติฟิตเนสกับ Google Fit เพื่อให้ซิงก์ข้อมูลระหว่างอุปกรณ์ต่างๆ ได้ราบรื่นมากขึ้น ตอนนี้ Android Wear 2.0 ยังมีสถานะเป็น Developer Preview ให้นักพัฒนาทดสอบ ตัวจริงจะออกช่วงปลายปี ที่มา - Android Developer Blog     ", 
  "Date": "19/May/2016", 
  "Image-Link": [
    "https://www.blognone.com/sites/default/files/styles/thumbnail/public/topics-images/android-wear.png?itok=3cTHcWDj", 
    "http://i.imgur.com/Kkow3zc.jpg", 
    "http://i.imgur.com/RhjE8JG.png", 
    "/sites/all/themes/blognone42/images/linebutton.png"
  ], 
  "Link": "https://www.blognone.com/node/81173", 
  "News": "Android Wear 2.0 เปิดตัวรุ่นพรีวิว ทำงานได้โดยไม่ต้องพึ่งพาโทรศัพท์", 
  "Tags": [
    "Android Wear", 
    "Google I/O", 
    "Android", 
    "Wearable Computing"
  ], 
  "Time": "06:56"
}