{
  "By": "nutmos", 
  "Contents": " เว็บไซต์ 9to5Google ค้นพบว่า บริการ Google Play Music แบบเหมาจ่ายและ YouTube Red เริ่มให้ผู้ใช้ได้ทดลองใช้ฟรีเป็นเวลา 4 เดือนแล้ว จากเดิมที่ให้ทดลองใช้ฟรีได้แค่ 1 เดือนเท่านั้น และเมื่อพ้น 4 เดือนจึงจะเริ่มจ่าย 9.99 ดอลลาร์ต่อเดือน (สำหรับ plan ผู้ใช้คนเดียว ส่วน plan อื่นก็จะแตกต่างกันไป) โปรโมชั่นทดลองใช้ฟรี 4 เดือนนี้ จะใช้ได้เฉพาะผู้ที่สมัครใหม่เท่านั้น ฉะนั้นถ้าเกิดใครเคยสมัครหรือใช้ฟรี 1 เดือนไปแล้วก็หมดสิทธิ์ที่จะได้ลองใช้ฟรี 4 เดือน และแน่นอนว่าทั้งสองบริการนี้ Google ยังไม่ได้เปิดให้ใช้ในไทย ที่มา - 9to5Google    ", 
  "Date": "3/July/2016", 
  "Image-Link": [
    "https://www.blognone.com/sites/default/files/styles/thumbnail/public/topics-images/Google_2015_logo.svg_.png?itok=bd4RvVLK", 
    "http://i.cubeupload.com/d9GHLO.png", 
    "/sites/all/themes/blognone42/images/linebutton.png"
  ], 
  "Link": "https://www.blognone.com/node/82944", 
  "News": "Google ขยายเวลาให้ทดลอง Play Music และ YouTube Red ฟรีเป็น 4 เดือน", 
  "Tags": [
    "Google", 
    "YouTube", 
    "Google Play Music", 
    "Google Play"
  ], 
  "Time": "07:16"
}