{
  "By": "nutmos", 
  "Contents": " Yahoo! ประกาศเตรียมปิดบริการ Messenger เก่าของตัวเองใน 5 สิงหาคมนี้ หลังจากที่เปิดตัว Yahoo! Messenger โฉมใหม่ไปเมื่อปลายปีที่แล้ว ตอนนี้ แอพ Messenger เก่าของ Yahoo! ไม่มีให้ดาวน์โหลดบนหน้าเว็บของ Yahoo! แล้ว แต่ผู้ใช้ที่มีแอพอยู่ยังคงใช้งานได้ตามปกติ หรือใช้ผ่านแอพที่เรียกใช้ API ของ Yahoo! ซึ่งหลังจากวันที่ 5 สิงหาคมนี้ บริการ Messenger เก่าของ Yahoo! จะไม่สามารถใช้งานได้อีก ทั้งผ่านแอพของ Yahoo! บน Windows, Mac, Android, iOS หรือว่าผ่านแอพที่เรียกใช้ API นี้อีกที Yahoo! Messenger เวอร์ชันเก่านี้เปิดตัวมาตั้งแต่ช่วงปลายทศวรรษ 1990 ซึ่งเป็นที่นิยมใช้มากในเหล่านักเทรดหุ้นและผู้ใช้ในประเทศแถบเอเชียแปซิฟิก ที่มา - VentureBeat, Yahoo!   ", 
  "Date": "11/June/2016", 
  "Image-Link": [
    "https://www.blognone.com/sites/default/files/styles/thumbnail/public/topics-images/yahoo300.png?itok=UI6QXwjg", 
    "/sites/all/themes/blognone42/images/linebutton.png"
  ], 
  "Link": "https://www.blognone.com/node/82141", 
  "News": "Yahoo! Messenger เวอร์ชันเก่าเตรียมปิดบริการ 5 สิงหาคมนี้", 
  "Tags": [
    "Yahoo!"
  ], 
  "Time": "07:37"
}