{
  "By": "mk", 
  "Contents": " ก่อนหน้านี้เคยมีข่าวลือว่า Twitter จะขยายลิมิต 140 ตัวอักษรเป็น 10,000 ตัวอักษร แต่ถูกคัดค้านอย่างหนัก สุดท้ายบริษัทต้องออกมาประกาศยืนยันว่า ข้อจำกัด 140 ตัวอักษรจะยังคงอยู่เหมือนเดิม แต่ประเด็นเรื่องพื้นที่ข้อความที่จำกัดก็ถือเป็นอุปสรรคประการสำคัญในการใช้งาน Twitter ส่งผลให้ล่าสุดมีข่าวลือรอบใหม่ว่า Twitter จะปรับวิธีนับจำนวนตัวอักษรใหม่ ไม่นับรวมลิงก์และรูปภาพที่แนบมากับข้อความด้วย ช่วยให้ผู้ใช้เขียนข้อความได้ยาวขึ้นอีกนิด คาดว่าบริษัทจะประกาศเรื่องนี้ในอีก 2 สัปดาห์ข้างหน้า ที่มา - Bloomberg    ", 
  "Date": "17/May/2016", 
  "Image-Link": [
    "https://www.blognone.com/sites/default/files/styles/thumbnail/public/topics-images/twitter300.png?itok=DkxsrWCR", 
    "https://i.imgur.com/P1CVQqo.png", 
    "/sites/all/themes/blognone42/images/linebutton.png"
  ], 
  "Link": "https://www.blognone.com/node/81048", 
  "News": "[ข่าวลือ] Twitter จะไม่นับลิงก์และรูปภาพใน 140 ตัวอักษร ช่วยให้ทวีตได้ยาวขึ้นอีกนิด", 
  "Tags": [
    "Twitter", 
    "Rumor"
  ], 
  "Time": "07:38"
}