{
  "By": "mk", 
  "Contents": " Amazon มีบริการวิดีโอออนไลน์ชื่อ Amazon Video อยู่แล้ว ตอนแรกขายหรือให้เช่าภาพยนตร์และซีรีส์ชื่อดัง แต่ภายหลังก็ขยายมาเป็นซีรีส์ที่บริษัทผลิตเองด้วย ล่าสุด Amazon เปิดตัวบริการใหม่ชื่อ Amazon Video Direct (AVD) ที่เปิดให้ผู้สร้างเนื้อหารายย่อย (creators) นำวิดีโอมาเผยแพร่ผ่านแพลตฟอร์มนี้ เจาะตลาดลูกค้า Amazon Video อีกช่องทางหนึ่ง หรืออธิบายง่ายๆ คือ Amazon กำลังเปิดศึกกับ YouTube โดยตรงนั่นเอง Amazon Video Direct มีรูปแบบการหารายได้หลากหลายให้เลือก เช่น การซื้อขาด, เช่า, สมัครสมาชิกรายเดือน หรือแสดงโฆษณาแบบนับตามวิวด้วย ในช่วงแรก Amazon ต้องการดึงดาราวิดีโอออนไลน์ดังๆ มาเข้าร่วมแพลตฟอร์ม จึงออกโครงการชื่อ AVD Stars จ่ายโบนัสเพิ่มให้กับวิดีโอที่ติด Top 100 ในแต่ละเดือนด้วย ที่มา - Amazon    ", 
  "Date": "11/May/2016", 
  "Image-Link": [
    "https://www.blognone.com/sites/default/files/styles/thumbnail/public/news-thumbnails/avd.png?itok=V0Emm-jn", 
    "https://i.imgur.com/KCjJvFs.png", 
    "/sites/all/themes/blognone42/images/linebutton.png"
  ], 
  "Link": "https://www.blognone.com/node/80827", 
  "News": "Amazon เปิดตัว Direct Video บริการวิดีโอจากผู้สร้างรายย่อย คู่แข่งโดยตรง YouTube", 
  "Tags": [
    "Amazon", 
    "Online Video"
  ], 
  "Time": "07:43"
}