{
  "By": "nutmos", 
  "Contents": " Twitter ได้ประกาศเข้าซื้อ Magic Pony Technology สตาร์ทอัพด้าน machine learning จากลอนดอนที่เน้นในด้าน visual processing โดยจากคำกล่าวของ Twitter ที่บอกไว้ในบล็อกคือ Magic Pony นั้นทำ \"อัลกอริทึมที่สามารถเข้าใจลักษณะของภาพวาด\" พนักงานของ Magic Pony นั้นจะเข้ามาทำงานกับ Twitter ในส่วนของ Twitter Cortex ซึ่งเป็นทีมงานด้าน machine learning โดยพนักงานเหล่านี้จะมีความเชี่ยวชาญด้าน computer vision, high-performance computing และ computational neuroscience ซึ่งบุคคลเหล่านี้เคยทำงานอยู่ในแล็บดัง ๆ ของโลกมาแล้ว ที่มา - Twitter, Recode   ", 
  "Date": "21/June/2016", 
  "Image-Link": [
    "https://www.blognone.com/sites/default/files/styles/thumbnail/public/topics-images/twitter300.png?itok=DkxsrWCR", 
    "/sites/all/themes/blognone42/images/linebutton.png"
  ], 
  "Link": "https://www.blognone.com/node/82483", 
  "News": "Twitter เข้าซื้อ Magic Pony สตาร์ทอัพด้าน machine learning", 
  "Tags": [
    "Twitter", 
    "Acquisition", 
    "Machine Learning"
  ], 
  "Time": "07:40"
}