{
  "By": "nutmos", 
  "Contents": " Facebook เริ่มใช้มาตรการบังคับให้ผู้ใช้ติดตั้งแอพถัดไปนอกจาก Messenger แล้ว แอพนั้นก็คือแอพแชร์ภาพแบบส่วนตัวหรือ Moments โดยตอนนี้ Facebook เริ่มเตือนผู้ใช้ว่า ภาพบางภาพจะถูกลบถ้าไม่ติดตั้งแอพนี้ และกำหนดวันสุดท้ายไว้เป็นวันที่ 7 กรกฎาคม ภาพที่จะได้รับผลกระทบจากการลบของ Facebook นั้นคือภาพที่เกิดจากการใช้ฟีเจอร์ Synced Photos ที่มีใน Facebook มาตั้งแต่ 4 ปีที่แล้ว โดยถ้าไม่ติดตั้งแอพ Moments เพื่อย้ายภาพจาก Synced Photos ไป ผู้ใช้ก็จะต้องดาวน์โหลดภาพเอง และหลังจากวันที่กำหนด Facebook จะลบภาพจากการใช้ฟีเจอร์ Synced Photos Facebook ได้เริ่มเตือนผู้ใช้ผ่านระบบแจ้งเตือนของ Facebook เอง และส่งอีเมลเตือนผู้ใช้อีกทางหนึ่งด้วย โดย Facebook จะยกเลิก Sync Photos บนแอพและให้ผู้ใช้ติดตั้ง Moments ตั้งแต่ปลายปีที่แล้ว หลังจากที่ Facebook เริ่มเตือนผู้ใช้แล้ว แอพ Moments ก็มีอันดับที่ก้าวกระโดดขึ้นมาทันที ซึ่งก็ได้ผลเหมือนกับคราวก่อนที่เคยทำกับ Messenger (พร้อมเสียงสวดอีกมากมาย) ที่มา - TechCrunch    ", 
  "Date": "12/June/2016", 
  "Image-Link": [
    "https://www.blognone.com/sites/default/files/styles/thumbnail/public/topics-images/fb-500.png?itok=7KEmyKx1", 
    "http://i.cubeupload.com/bQ5Wpt.png", 
    "/sites/all/themes/blognone42/images/linebutton.png"
  ], 
  "Link": "https://www.blognone.com/node/82154", 
  "News": "Facebook จะลบรูปจาก Synced Photos ถ้าผู้ใช้ไม่ติดตั้งแอพ Moments ในวันที่ 7 กรกฎาคมนี้", 
  "Tags": [
    "Facebook", 
    "Mobile App"
  ], 
  "Time": "07:42"
}