{
  "By": "arjin", 
  "Contents": " ช่วงเช้าวันนี้ เวลา 4:39น. จรวด Falcon 9 ของ SpaceX ได้พาดาวเทียมไทยคม 8 (Thaicom 8) ปล่อยสู่วงจรสำเร็จเรียบร้อย โดยส่วนของจรวดในขั้นแรกได้กลับลงสู่พื้นโลกสำเร็จอีกเป็นครั้งที่ 4 ในประวัติศาสตร์ของ SpaceX ดาวเทียมไทยคม 8 มีน้ำหนัก 3,100 กิโลกรัม ผลิตโดยบริษัท Orbital ATK โดยส่งขึ้นวงโคจรที่ตำแหน่ง 78.5 องศาตะวันออก ตำแหน่งเดียวกับไทยคม 5 และไทยคม 6 รองรับการออกอากาศและบริการข้อมูลในพื้นที่ เอเชียใต้, เอเชียตะวันออกเฉียงใต้ และแอฟริกา ที่มา: BusinessWire    ", 
  "Date": "28/May/2016", 
  "Image-Link": [
    "https://www.blognone.com/sites/default/files/styles/thumbnail/public/topics-images/thaicom.png?itok=stU7vLSC", 
    "http://i.imgur.com/MLochiC.png", 
    "/sites/all/themes/blognone42/images/linebutton.png"
  ], 
  "Link": "https://www.blognone.com/node/81529", 
  "News": "ดาวเทียมไทยคม 8 ขึ้นสู่อวกาศสำเร็จแล้วในช่วงเช้าวันนี้", 
  "Tags": [
    "Thaicom", 
    "SpaceX", 
    "Satellite"
  ], 
  "Time": "07:57"
}