{
  "By": "mk", 
  "Contents": " เมื่อกลางปีที่แล้ว ไมโครซอฟท์รองรับ Apache Spark ประมวลผลข้อมูลในหน่วยความจำบน Azure HDInsight โดยมีสถานะเป็นรุ่นพรีวิว หนึ่งปีผ่านมา ไมโครซอฟท์ปรับสถานะเป็นรุ่นใช้งานจริง (general availability - GA) แล้ว รุ่นที่ใช้งานคือ Apache Spark v1.6.1 ไมโครซอฟท์ระบุว่า Spark ได้รับความนิยมสูงในหมู่ผู้ใช้ HDInsight และการเข้าสถานะ GA น่าจะยิ่งทำให้ Spark ได้รับความนิยมมากขึ้น HDInsight คือการนำแพลตฟอร์มประมวลผลข้อมูล big data อย่าง Hadoop ไปรันบนคลาวด์ Azure ของไมโครซอฟท์ ส่วน Spark เป็นซอฟต์แวร์ในชุดเดียวกันที่ประมวลผลข้อมูลทั้งหมดในแรม เพื่อประสิทธิภาพที่สูงขึ้นจาก Hadoop ปกติ ที่มา - Microsoft    ", 
  "Date": "8/June/2016", 
  "Image-Link": [
    "https://www.blognone.com/sites/default/files/styles/thumbnail/public/topics-images/spark.png?itok=YlidPF3-", 
    "https://i.imgur.com/QQVmBSq.png", 
    "/sites/all/themes/blognone42/images/linebutton.png"
  ], 
  "Link": "https://www.blognone.com/node/81987", 
  "News": "Azure HDInsight รองรับ Apache Spark อย่างเป็นทางการ", 
  "Tags": [
    "Apache Spark", 
    "Microsoft", 
    "Microsoft Azure", 
    "Hadoop", 
    "Big Data"
  ], 
  "Time": "07:53"
}