{
  "By": "twometre", 
  "Contents": " Slack แอพทวงงาน ที่หลายท่านกำลังใช้อยู่ ล่าสุดเปิดตัวคุณสมบัติ Sign in with Slack ให้แอพหรือแพลตฟอร์มอื่นพาผู้ใช้ลงทะเบียนได้ด้วยบัญชี Slack ที่ตนมีได้ทันที ข้อดีน่าจะเหมาะกับองค์กรที่ใช้แอพหรือเครื่องมืออื่นเพิ่มเติมแล้วควบคุมดูแลการใช้งานให้ง่ายขึ้น ทั้งยังรองรับการเข้าระบบแบบสองตัวแปร อย่าง OAuth 2.0 ด้วย ตอนนี้มีแอพอย่าง Quip, Figma ใช้คุณสมบัติใหม่นี้แล้ว ที่มา - Slack Developer Blog    ", 
  "Date": "11/May/2016", 
  "Image-Link": [
    "https://www.blognone.com/sites/default/files/styles/thumbnail/public/topics-images/slack300.png?itok=OVmaZ12O", 
    "//upic.me/i/ef/oupic.png", 
    "/sites/all/themes/blognone42/images/linebutton.png"
  ], 
  "Link": "https://www.blognone.com/node/80828", 
  "News": "Slack เปิดตัว Sign in with Slack ให้แอพอื่นลงทะเบียนด้วยบัญชีตนได้แล้ว", 
  "Tags": [
    "Slack"
  ], 
  "Time": "07:51"
}