{
  "By": "nutmos", 
  "Contents": " Digiday รายงานข้อมูลจากแหล่งข่าวว่า Snapchat กำลังพัฒนาการพัฒนาการแสดง feed ที่เรียงตามอัลกอริทึม แทนการอัพเดตตามเวลาเหมือนเดิม โดยจะนำปัจจัยต่าง ๆ มาคิดด้วย ซึ่งนอกจากจะทำให้ผู้ใช้สามารถดูเนื้อหาใน feed ที่เยอะมากมายได้สะดวกขึ้นแล้ว ยังทำให้ผู้ที่โฆษณาสามารถซื้อพื้นที่ในการมองเห็นได้ง่ายขึ้นด้วย โดยยังไม่มีกำหนดการเปิดใช้ฟีเจอร์นี้อย่างแน่ชัด ปัจจุบัน Snapchat มีผู้ใช้รายวันราว 100 ล้านคน ซึ่งปัจจุบันเนื้อหาที่โพสต์โดยพาร์ทเนอร์นั้นจะอยู่ในแท็บ Discover ที่อนุญาตให้มีโฆษณาได้ และถ้าแบรนด์ต้องการให้ผู้ใช้ทั่วไปเห็นในหน้า feed ปกติเหมือนเห็นเพื่อน ก็ต้องสมัครบัญชีส่วนตัวขึ้นมาใหม่ ที่มา - Digiday, Engadget   ", 
  "Date": "19/May/2016", 
  "Image-Link": [
    "https://www.blognone.com/sites/default/files/styles/thumbnail/public/topics-images/snapchat.png?itok=JyM_TIkc", 
    "/sites/all/themes/blognone42/images/linebutton.png"
  ], 
  "Link": "https://www.blognone.com/node/81176", 
  "News": "[ไม่ยืนยัน] Snapchat กำลังพัฒนาการแสดง feed ตามอัลกอริทึม ไม่เรียงตามเวลา", 
  "Tags": [
    "Snapchat"
  ], 
  "Time": "08:03"
}