{
  "By": "mk", 
  "Contents": " ข่าวใหญ่วงการไอทีสัปดาห์นี้คือ ไมโครซอฟท์ซื้อ LinkedIn ด้วยมูลค่าถึง 26.2 พันล้านดอลลาร์ ซึ่งสูงสุดเท่าที่ไมโครซอฟท์ซื้อกิจการมา วันนี้เริ่มมีข้อมูลเบื้องหลังดีลนี้ออกมาแล้วว่า เหตุผลที่ราคาพุ่งสูง เป็นเพราะมี Salesforce มาร่วมเสนอซื้อกิจการ LinkedIn แข่งกับไมโครซอฟท์ด้วย Bloomberg รายงานว่าไมโครซอฟท์ไม่ได้เป็นฝ่ายขอซื้อ LinkedIn แต่ LinkedIn เองต่างหากที่สอบถามไปยังไมโครซอฟท์ว่าสนใจซื้อหรือไม่ (สอดคล้องกับการวิเคราะห์ของหลายสำนัก ที่มองว่า LinkedIn ผลประกอบการไม่ค่อยดี และราคาหุ้นตกลงมากในช่วงหลัง) ไมโครซอฟท์และ LinkedIn ไม่ยืนยันข่าวนี้ แต่ Marc Benioff ซีอีโอของ Salesforce ก็ยืนยันกับเว็บไซต์ Recode ว่าร่วมเสนอซื้อจริง เขายังให้ความเห็นว่าช่วงนี้เป็น \"ฤดูซื้อขายกิจการ\" และเราจะเห็นข่าวการซื้อขายกิจการกันอีกมาก ที่มา - Bloomberg, Recode    ", 
  "Date": "17/June/2016", 
  "Image-Link": [
    "https://www.blognone.com/sites/default/files/styles/thumbnail/public/topics-images/salesforce.png?itok=6juwa_aj", 
    "http://i.imgur.com/gMyTlak.jpg", 
    "/sites/all/themes/blognone42/images/linebutton.png"
  ], 
  "Link": "https://www.blognone.com/node/82358", 
  "News": "เบื้องหลังไมโครซอฟท์ซื้อ LinkedIn มี Salesforce มาเสนอซื้อแข่งด้วย", 
  "Tags": [
    "Salesforce.com", 
    "LinkedIn", 
    "Microsoft"
  ], 
  "Time": "08:07"
}