{
  "By": "BlackMiracle", 
  "Contents": " มีข่าวลือ (1, 2) กันมาตั้งแต่ช่วงต้นปีว่า HTC อาจได้ทำสมาร์ทโฟนตระกูล Nexus ในปีนี้ถึง 2 รุ่นด้วยกัน แบ่งเป็นรุ่นจอเล็กกับจอใหญ่ ล่าสุดมีสเปกตัวจอเล็กโค้ดเนม Sailfish หลุดออกมาแล้ว  หน้าจอ 1080p ขนาด 5 นิ้ว ความหนาแน่นพิกเซลอยู่ที่ราว 440 PPI ซีพียูควอดคอร์ 2.0 GHz แบบ 64 บิต ยังไม่ทราบรุ่น แรม 4 GB แบตเตอรี่ความจุ 2770 mAh พื้นที่เก็บข้อมูล 32 GB และยังไม่รู้ว่าจะมีความจุอื่นหรือไม่ กล้องหลังความละเอียด 12 ล้านพิกเซล, กล้องหน้าความละเอียด 8 ล้านพิกเซล มีเซ็นเซอร์สแกนลายนิ้วมืออยู่ด้านหลัง ใช้ USB-C ลำโพงอยู่สันด้านล่าง (แบบ iPhone) และยังไม่ทราบว่าเป็นลำโพงคู่หรือเดี่ยว รูหูฟังอยู่ด้านบน ใช้บลูทูธ 4.2  น่าสนใจว่าขนาดเป็นรุ่นเล็ก ยังให้แรมมาถึง 4 GB โดย Nexus 5X ให้แรมมาเพียง 2 GB ซึ่งให้ประสบการณ์การใช้งานที่ไม่ดีนัก จึงมีความเป็นไปได้ว่ากูเกิลเลยตัดสินใจให้แรมมาเยอะในคราวนี้ เว็บไซต์ต้นทางให้คะแนนความน่าเชื่อถือของข่าวลือนี้ที่ 8 จาก 10 คะแนนเลยทีเดียว เนื่องจากแหล่งข่าวเคยให้ข้อมูลที่ถูกต้องในอดีตครับ ที่มา - Android Police    ", 
  "Date": "24/June/2016", 
  "Image-Link": [
    "https://www.blognone.com/sites/default/files/styles/thumbnail/public/topics-images/htc.png?itok=5TBfl4iq", 
    "https://i.imgur.com/6kBJg5g.jpg", 
    "/sites/all/themes/blognone42/images/linebutton.png"
  ], 
  "Link": "https://www.blognone.com/node/82611", 
  "News": "[ข่าวลือ] หลุดสเปกสมาร์ทโฟน Nexus จาก HTC โค้ดเนม Sailfish มาพร้อมแรม 4 GB", 
  "Tags": [
    "HTC", 
    "Google Nexus", 
    "Rumors", 
    "Mobile"
  ], 
  "Time": "08:19"
}