{
  "By": "nuntawat", 
  "Contents": " หลังจากเผลอปล่อยข่าววันปล่อยอัพเดต Windows 10 Anniversary Update ไปเมื่อสองวันก่อน ล่าสุดไมโครซอฟท์ก็เปิดเผยอย่างเป็นทางการว่าจะปล่อยอัพเดตดังกล่าวในวันที่ 2 ส.ค. ไมโครซอฟท์กล่าวว่า วันดังกล่าวจะปล่อยอัพเดตให้ Xbox One เช่นกัน ซึ่งจะเพิ่ม Cortana, Windows Store รองรับเกมที่สนับสนุน Xbox Play Anywhere (ซื้อครั้งเดียวเล่นได้บน Xbox One และพีซี), รองรับการเลือกภาษาในเกม และเล่นเพลงเบื้องหลังขณะใช้งานอย่างอื่นได้ ที่มา: Microsoft - Windows Experience Blog   ", 
  "Date": "30/June/2016", 
  "Image-Link": [
    "https://www.blognone.com/sites/default/files/styles/thumbnail/public/topics-images/Windows_logo_Cyan_rgb_D.png?itok=bKOyx4bD", 
    "/sites/all/themes/blognone42/images/linebutton.png"
  ], 
  "Link": "https://www.blognone.com/node/82838", 
  "News": "ไมโครซอฟท์ยืนยัน ปล่อย Windows 10 Anniversary Update วันที่ 2 ส.ค. รวม Xbox One ด้วย", 
  "Tags": [
    "Windows 10", 
    "Xbox One", 
    "Microsoft", 
    "Operating System"
  ], 
  "Time": "08:10"
}