{
  "By": "nutmos", 
  "Contents": " Spotify ได้ออกรายการวิทยุใหม่ 2 รายการ ได้แก่ AM/PM และ Secret Genius โดยช่องรายการวิทยุของ Spotify ทั้งคู่จะเน้นการนำเหล่าคนที่อยู่ในวงการเพลงมาพูดถึงการฟังเพลงขณะกำลังสร้างสรรค์ผลงาน ช่อง AM/PM จะเน้นการเชิญเหล่าศิลปินอย่างเช่น Jean-Michel Jarre ผู้บุกเบิกเพลงประเภทอิเล็กทรอนิกส์ และ Terry Hall แห่ง The Special มาพูดว่าเพลงอะไรที่ใช้ฟังในช่วงเช้าก่อนเริ่มงาน และตอนกลางคืนหลังจากทำงานเสร็จเรียบร้อยแล้ว ส่วนช่อง Secret Genius จะเป็นการนำนักแต่งเพลงและโปรดิวเซอร์ที่อยู่เบื้องหลังงานเพลง อย่างเช่น James Blake มาพูดถึงเพลงที่ใช้ฟังเช่นกัน The Verge กล่าวว่าว่ารายการวิทยุ 2 รายการใหม่ของ Spotify นี้น่าจะเป็นการทำขึ้นตอบโต้กับ Beats 1 ที่มีรายการลักษณะนี้เหมือนกัน แต่สิ่งที่ต่างกันคือศิลปินและผู้สร้างสรรค์ผลงานเพลงที่ Spotify เชิญมาออกรายการจะเน้นเหล่าศิลปินที่กำลังเริ่มดัง, คนที่มีวิสัยทัศน์ในการบุกเบิก และอาจมีศิลปินในยุคเก่า ๆ บ้าง ส่วน Beats 1 จะมีศิลปินระดับซุปเปอร์สตาร์อย่าง Drake หรือ Adele มาออกรายการ ที่มา - The Verge   ", 
  "Date": "14/July/2016", 
  "Image-Link": [
    "https://www.blognone.com/sites/default/files/styles/thumbnail/public/topics-images/spotify500.png?itok=skNKsnYA", 
    "/sites/all/themes/blognone42/images/linebutton.png"
  ], 
  "Link": "https://www.blognone.com/node/83410", 
  "News": "Spotify ออกรายการวิทยุใหม่ นำคนในวงการเพลงพูดถึงเพลงที่ฟัง", 
  "Tags": [
    "Spotify"
  ], 
  "Time": "08:25"
}