{
  "By": "mk", 
  "Contents": " ต่อจากข่าว HTC เตรียมแยกหน่วยธุรกิจ VR ออกเป็นบริษัทลูก ล่าสุด HTC ยืนยันการตั้งบริษัทลูกแล้ว โดยใช้ชื่อว่า HTC Vive Tech Corporation ในโอกาสเดียวกัน HTC ยังประกาศตั้งกลุ่มพันธมิตร Virtual Reality Venture Capital Alliance (VRVCA) รวมเอาบริษัทลงทุน (VC) ด้าน VR จำนวน 30 ราย มาร่วมกันลงทุนในสตาร์ตอัพด้าน VR, AR และ Mixed Reality สมาชิกในกลุ่มมีเงินลงทุนรวมกันมากถึง 1 หมื่นล้านดอลลาร์ โดยมี Alvin Wang Graylin ประธานฝ่าย VR ของ HTC China เป็นประธานกลุ่ม ที่มา - The Verge, UploadVR    ", 
  "Date": "30/June/2016", 
  "Image-Link": [
    "https://www.blognone.com/sites/default/files/styles/thumbnail/public/topics-images/htc.png?itok=5TBfl4iq", 
    "http://i.imgur.com/aYxzLLu.jpg", 
    "/sites/all/themes/blognone42/images/linebutton.png"
  ], 
  "Link": "https://www.blognone.com/node/82839", 
  "News": "HTC แยก Vive เป็นบริษัทลูก, ตั้งกลุ่มพันธมิตร VRVCA รวมบริษัทลงทุนด้าน VR", 
  "Tags": [
    "HTC", 
    "HTC Vive", 
    "Virtual Reality", 
    "Venture Capital"
  ], 
  "Time": "08:24"
}