{
  "By": "twometre", 
  "Contents": " Sean Rad ซีอีโอของ Tinder แอพหาคู่ เผยว่ากำลังพัฒนาแอพให้ผู้ที่มีเพศสภาพซับซ้อนกว่าเพศชายและหญิงใช้งานได้สะดวกขึ้น จากเดิมที่ต้องระบุเพศตนก่อนเข้าใช้ว่าเป็นผู้หญิงหรือผู้ชาย และแอพก็จะเลือกจับคู่กับเฉพาะเพศตรงข้ามให้ (วิธีแก้ไขที่ผมเห็นคือ ผู้ใช้บางรายก็บอกว่าตนเป็น ladyboy ka) ซีอีโอท่านเดิมกล่าวต่ออีกว่า การเปลี่ยนแปลงนี้จะเห็นภายในเดือนถึงสองเดือนข้างหน้านี้ครับ ที่มา - Recode    ", 
  "Date": "3/June/2016", 
  "Image-Link": [
    "https://www.blognone.com/sites/default/files/styles/thumbnail/public/topics-images/tinder_0.png?itok=IAa6k7Q9", 
    "//upic.me/i/kz/d7a0e789c966e2bae6ac31a13c130adb-640.jpg", 
    "/sites/all/themes/blognone42/images/linebutton.png"
  ], 
  "Link": "https://www.blognone.com/node/81786", 
  "News": "ปัดขวาหารักแท้: Tinder เผย จะทำให้ผู้ใช้ \"ข้ามเพศ\" พบรักแท้ได้สะดวกขึ้น", 
  "Tags": [
    "Tinder", 
    "Love"
  ], 
  "Time": "08:28"
}