{
  "By": "mk", 
  "Contents": " พบกันทุกครึ่งเดือนกับ Windows Insider รุ่นใหม่ เลขเวอร์ชันล่าสุดรอบนี้เพิ่มเป็น Build 14352 (ตัวเก่า 14342 ขึ้นทีละสิบ) ของใหม่ได้แก่  เปลี่ยนไอคอน File Explorer (Windows Explorer เดิม) อีกรอบ หลังจากเปลี่ยนเป็นสีขาวล้วนแล้วโดนบ่นมาก เลยกลับมาใช้สีเหลืองเหมือนเดิม Cortana - สั่งให้เล่นเพลงได้แล้ว แต่ต้องใช้กับบริการ Groove Music Pass ด้วย, สั่งให้ตั้งเวลาเตือน (set a timer) ได้ Windows Ink - เพิ่มเข็มทิศบนไม้บรรทัด, ปรับปรุงความสามารถให้ Sticky Notes เข้าใจเนื้อหาในโน้ตมากขึ้น, ปรับปรุงความสามารถของ Sketchpad หลายจุด Game DVR ฟีเจอร์อัดวิดีโอขณะเล่นเกม รองรับเกมดังๆ ในการเล่นแบบเต็มหน้าจอ เช่น League of Legends, World of Warcraft, DOTA 2, Battlefield 4, Counterstrike: Global Offensive, Diablo III ปรับปรุงวิธีการอัพเกรดรุ่นจาก Pro เป็น Enterprise จากของเดิมต้องดาวน์โหลดอิมเมจใหม่หมด คราวนี้เปลี่ยนคีย์แล้วใช้งานได้เลย  ที่มา - Windows Experience Blog     ", 
  "Date": "27/May/2016", 
  "Image-Link": [
    "https://www.blognone.com/sites/default/files/styles/thumbnail/public/topics-images/Windows_logo_Cyan_rgb_D.png?itok=bKOyx4bD", 
    "https://i.imgur.com/BCoP8An.png", 
    "https://i.imgur.com/t5lPcPF.png", 
    "/sites/all/themes/blognone42/images/linebutton.png"
  ], 
  "Link": "https://www.blognone.com/node/81489", 
  "News": "Windows 10 Insider Build 14352 - เปลี่ยนสีไอคอน File Explorer กลับเป็นสีเหลือง", 
  "Tags": [
    "Windows 10", 
    "Microsoft"
  ], 
  "Time": "08:28"
}