{
  "By": "mk", 
  "Contents": " ต่อจากข่าว พบข้อมูลหลุดชุดใหญ่ 272 ล้านบัญชีจากแฮ็กเกอร์รัสเซีย บัญชีจำนวนมากเป็นของบริษัทอินเทอร์เน็ตรัสเซีย Mail.ru ซึ่งทาง Mail.ru ตรวจสอบข้อมูลที่ได้แล้ว พบว่า 99.8% ของบัญชีเป็นของปลอม โดยในจำนวนนี้ 23% เป็นบัญชีที่ไม่มีอยู่จริง, 65% เป็นบัญชีจริงแต่รหัสผ่านผิด, 12% เป็นบัญชีที่ถูกแบนไปแล้ว ฝั่งของ Gmail ก็ออกมาให้ข้อมูลคล้ายๆ กันว่า 98% ของบัญชี Gmail ในข้อมูลหลุดชุดนี้ไม่สามารถใช้งานได้จริง ส่วน Yahoo Mail และ Microsoft Hotmail ยังไม่ออกมาแถลงเรื่องนี้ บัญชีก้อนนี้ไม่ได้มาจากการแฮ็กผู้ให้บริการอีเมลโดยตรง แต่เกิดจากการรวบรวมบัญชีอีเมลหลุดจากแหล่งข้อมูลอื่นๆ แล้วนำมายำรวมกันเป็นรายชื่อขนาดใหญ่แทน ที่มา - Ars Technica   ", 
  "Date": "8/May/2016", 
  "Image-Link": [
    "https://www.blognone.com/sites/default/files/styles/thumbnail/public/topics-images/mailru.png?itok=5Xqhogxl", 
    "/sites/all/themes/blognone42/images/linebutton.png"
  ], 
  "Link": "https://www.blognone.com/node/80728", 
  "News": "Mail.ru ตรวจสอบข้อมูลหลุดชุดใหญ่ 272 ล้านบัญชี พบส่วนใหญ่เป็นข้อมูลปลอม", 
  "Tags": [
    "Mail.ru", 
    "Data Breach", 
    "Security", 
    "Russia"
  ], 
  "Time": "08:37"
}