{
  "By": "nuntawat", 
  "Contents": " ดูเหมือนมีหลายคนจะพยายามฟื้นคืนชีพ Windows 95 ให้มารันบนอุปกรณ์สมัยใหม่ อย่าง Gear Live บน Android Wear, Nintendo 3DS, Apple Watch หรือกระทั่งผ่านเว็บ ล่าสุด มีนักพัฒนารายหนึ่งนำ Windows 95 ไปรันบน Xbox One โดยเขาพอร์ต DOSBox โอเพนซอร์สอีมูเลเตอร์ DOS เป็นแอปแบบ UWP บน Xbox One อย่างไรก็ตาม นักพัฒนาเผยว่า Windows 95 ยังทำงานช้าเพราะถูกประมวลผลจากซีพียูเพียงอย่างเดียว ดูคลิปเดโมการรันเกม Duke Nukem 3D บน Windows 95 ที่รันบน Xbox One ได้ที่ท้ายข่าว ที่มา: YouTube ผ่าน EuroGamer.net   ", 
  "Date": "24/May/2016", 
  "Image-Link": [
    "https://www.blognone.com/sites/default/files/styles/thumbnail/public/topics-images/xbox-big_0.png?itok=5eYWc84O", 
    "/sites/all/themes/blognone42/images/linebutton.png"
  ], 
  "Link": "https://www.blognone.com/node/81314", 
  "News": "จะเป็นอย่างไรเมื่อ Xbox One รัน Windows 95?", 
  "Tags": [
    "Xbox One", 
    "Hacking", 
    "UWP", 
    "Windows"
  ], 
  "Time": "08:35"
}