{
  "By": "nrad6949", 
  "Contents": " Polaroid ผู้ผลิตอุปกรณ์อิเล็กทรอนิกส์จากสหรัฐอเมริกา ประกาศเปิดตัวทีวีอัจฉริยะรุ่นใหม่ที่รองรับความละเอียด 4K พร้อมกับ Google Cast มาในตัวอย่างเป็นทางการ ทีวีรุ่นนี้เป็น LED-backlit ที่ความละเอียด 4K, Refresh rate ที่ 120 Hz, รองรับการถอดรหัสตามมาตรฐาน HEVC และรองรับมาตรฐาน Google Cast มาในตัว โดยมีขนาดหน้าจอให้เลือกทั้ง 43, 65 และ 75 นิ้ว ส่วนราคาอยู่ที่ 499 ดอลลาร์สหรัฐ (43 นิ้ว), 999 ดอลลาร์สหรัฐ (65 นิ้ว) และ 1,899 ดอลลาร์สหรัฐ (75 นิ้ว) ยังไม่ระบุว่าจะวางจำหน่ายเมื่อใด ยกเว้นรุ่น 75 นิ้วที่ระบุว่าจะมาช่วงฤดูใบไม้ร่วงของสหรัฐฯ ครับ ที่มา - Engadget    ", 
  "Date": "24/May/2016", 
  "Image-Link": [
    "https://www.blognone.com/sites/default/files/styles/thumbnail/public/topics-images/polaroid.png?itok=YNzw6y4N", 
    "https://i.imgur.com/pj97gou.jpg", 
    "/sites/all/themes/blognone42/images/linebutton.png"
  ], 
  "Link": "https://www.blognone.com/node/81313", 
  "News": "Polaroid เปิดตัวทีวีอัจฉริยะ ความละเอียด 4K รองรับ Google Cast", 
  "Tags": [
    "Polaroid", 
    "Google Cast", 
    "Television"
  ], 
  "Time": "08:32"
}