{
  "By": "twometre", 
  "Contents": " ต่อประเด็นจากข่าวจอ Thunderbolt Display เริ่มของขาด ล่าสุดมีความคืบหน้าของจอแยกตัวใหม่นี้อีกนิดหนึ่งครับแหล่งข่าวนี้รายงานว่าสื่อเริ่มได้หมายเชิญไปงาน WWDC วันที่ 13 มิถุนายน และคาดว่าหนึ่งในของใหม่ก็จะเป็นจอรุ่นนี้ ใช้ความละเอียด 5K แม้จะมาเป็นจอเปล่าๆ แต่ก็จะมีกราฟิกการ์ดแยกในตัวจอด้วย ยังไม่มีสเปคของกราฟิกการ์ดข้างใน แต่ถ้าเชื่อมต่อด้วยพอร์ต USB-C จริงก็น่าจะเป็นไปได้แบบที่ Razer Core ทำกล่องกราฟิกการ์ดแยกก่อนออกไปต่อจอครับ ที่มา - NextPowerup  จอภาพ Apple Thunderbolt Display รุ่นปัจจุบัน ขนาด 27\" ละเอียด 1440p ที่ด้านหลังจอมีพอร์ต GbE, USB2.0 และ Thunderbolt เพิ่มเติมเป็นไว้ต่อเป็น daisy chain ทั้งหมดนี้ต่อกับต้นทางด้วยสาย Thunderbolt เส้นเดียวครับ   ", 
  "Date": "3/June/2016", 
  "Image-Link": [
    "https://www.blognone.com/sites/default/files/styles/thumbnail/public/topics-images/apple.png?itok=dltl_31c", 
    "//upic.me/i/sq/f76th.png", 
    "/sites/all/themes/blognone42/images/linebutton.png"
  ], 
  "Link": "https://www.blognone.com/node/81788", 
  "News": "[ลือ] จอ 27\" Apple Retina Display ตัวใหม่จะมากับกราฟิกการ์ดในตัว", 
  "Tags": [
    "Apple", 
    "Hardware", 
    "GPU", 
    "USB-C"
  ], 
  "Time": "08:47"
}