{
  "By": "mk", 
  "Contents": " บัญชีทวิตเตอร์ Motorola Support ตอบคำถามผู้ใช้ ยืนยันข้อมูลว่านาฬิกาอัจฉริยะ Moto 360 รุ่นแรกสุด (Gen 1) ที่เปิดตัวในปี 2014 จะไม่ได้อัพเดตซอฟต์แวร์เป็น Android Wear 2.0 แน่นอนแล้ว อย่างไรก็ตาม นาฬิกาจะยังได้อัพเดตแพตช์ความปลอดภัยในอนาคต Moto 360 ถือเป็นนาฬิกา Android Wear รุ่นแรกสุดที่เปิดตัวร่วมกับ LG G Watch ที่มา - Android Central @timo_capa Unfortunately, Moto360 1 Gen will not receive the new update 2.0 — Motorola Support (@Moto_Support) June 10, 2016   ", 
  "Date": "12/June/2016", 
  "Image-Link": [
    "https://www.blognone.com/sites/default/files/styles/thumbnail/public/topics-images/motorola.png?itok=Pff47JHy", 
    "/sites/all/themes/blognone42/images/linebutton.png"
  ], 
  "Link": "https://www.blognone.com/node/82155", 
  "News": "ยืนยันแล้ว Moto 360 รุ่นแรกไม่ได้ไปต่อกับ Android Wear 2.0", 
  "Tags": [
    "Moto 360", 
    "Motorola", 
    "Android Wear"
  ], 
  "Time": "08:42"
}