{
  "By": "nutmos", 
  "Contents": " AdBlock และ AdBlock Plus ได้ออกส่วนเสริมสำหรับ Microsoft Edge เป็นที่เรียบร้อยแล้ว หลังจากรรอให้ Microsft อนุมัติอยุ่ช่วงหนึ่ง ปัจจุบัน Microsoft Edge ที่สามารถติดตั้งส่วนเสริมได้ยังอยู่ในช่วงพรีวิวเท่านั้น ผู้ที่จะทดสอบต้องลงทะเบียน Windows Insider Preview และอัพเดต Windows 10 ก่อน และดาวน์โหลด AdBlock กับ AdBlock Plus ได้เลย ที่มา - Engadget    ", 
  "Date": "8/May/2016", 
  "Image-Link": [
    "https://www.blognone.com/sites/default/files/styles/thumbnail/public/topics-images/abp.png?itok=NVU9qKop", 
    "http://i.cubeupload.com/xZ3WjV.jpg ", 
    "/sites/all/themes/blognone42/images/linebutton.png"
  ], 
  "Link": "https://www.blognone.com/node/80731", 
  "News": "AdBlock และ AdBlock Plus ออกส่วนเสริมสำหรับ Microsoft Edge แล้ว", 
  "Tags": [
    "AdBlock Plus", 
    "Microsoft Edge", 
    "Ad Blocking"
  ], 
  "Time": "08:54"
}