{
  "By": "mk", 
  "Contents": " ไมโครซอฟท์เปิดตัว Xbox Play Anywhere การซื้อเกมครั้งเดียว จ่ายเงินทีเดียว เล่นได้ทั้งบน Xbox One และพีซี Windows 10 แถมยังซิงก์สถานะการเล่นบนอุปกรณ์ทุกตัว เกมใหม่ของ Microsoft Studios ที่เปิดตัวในงาน E3 2016 จะรองรับ Xbox Play Anywhere ทั้งหมด ที่ระบุชื่อแล้วคือ Forza Horizon 3, Gears of War 4, Halo Wars 2, Recore, State of Decay, Scalebound, Sea of Thieves ในคลิปโปรโมทของไมโครซอฟท์ก็ชูจุดขายเรื่องการเล่นเกมต่อเนื่องได้บนทุกอุปกรณ์ และการเล่นเกมร่วมกันระหว่าง Xbox One และพีซี ที่มา - Xbox Wire   ", 
  "Date": "14/June/2016", 
  "Image-Link": [
    "https://www.blognone.com/sites/default/files/styles/thumbnail/public/topics-images/xbox-big_0.png?itok=5eYWc84O", 
    "/sites/all/themes/blognone42/images/linebutton.png"
  ], 
  "Link": "https://www.blognone.com/node/82220", 
  "News": "ไมโครซอฟท์เปิดตัว Xbox Play Anywhere ซื้อเกมครั้งเดียว เล่นได้บน Xbox One และ Windows 10", 
  "Tags": [
    "Xbox One", 
    "Microsoft", 
    "Games", 
    "Windows 10"
  ], 
  "Time": "08:51"
}