{
  "By": "nuntawat", 
  "Contents": " เมื่อวานนี้ไมโครซอฟท์ปล่อย Windows 10 และ Windows 10 Mobile รุ่นทดสอบ 14361 ให้ Windows Insider กลุ่ม Fast ring รายละเอียดมีดังนี้ Windows 10  เพิ่ม Hyper-V Container รองรับ Docker ปรับปรุงและแก้บั๊ก Windows Ink ปรับปรุงการแสดงผลในแอป Settings อาทิ มีแถบสีระบุหน้าตั้งค่าที่เปิดอยู่ แก้บั๊ก อาทิ Microsoft Edge/IE เปิดเว็บอย่าง YouTube ไม่ได้ หรือการตั้งค่าในTask Manager หายหลังอัพเกรดเป็น build ใหม่ เป็นต้น  Windows 10 Mobile  เพิ่มการสนับสนุนคีย์บอร์ดสำหรับการใช้งานมือเดียวบนมือถือหน้าจอ 5 นิ้วเพิ่มเติม อาทิ Lumia 640 และ 830 แก้บั๊ก อาทิ การตั้งค่า DPI หายหลังอัพเกรดไป build ใหม่ หรือปุ่มเปิดแฟลชบน Lumia 535 และ 540 ไม่ทำงาน เป็นต้น  Known issue ที่สำคัญบน Windows 10 Mobile อาทิ ตัวเลือกเครือข่าย \"3G Only\" และ \"Only 3G and 4G\" อาจไม่ทำงาน ทำให้เครื่องเลือกเครือข่าย 2G แทน ที่มา: Microsoft - Windows Experience Blog   ", 
  "Date": "10/June/2016", 
  "Image-Link": [
    "https://www.blognone.com/sites/default/files/styles/thumbnail/public/topics-images/Windows_logo_Cyan_rgb_D.png?itok=bKOyx4bD", 
    "/sites/all/themes/blognone42/images/linebutton.png"
  ], 
  "Link": "https://www.blognone.com/node/82089", 
  "News": "ไมโครซอฟท์ปล่อย Windows 10/Windows 10 Mobile รุ่นทดสอบ 14361", 
  "Tags": [
    "Windows 10", 
    "Windows 10 Mobile", 
    "Microsoft"
  ], 
  "Time": "08:52"
}