{
  "By": "mk", 
  "Contents": " กูเกิลอัพเดต Google Play Services เป็นเวอร์ชัน 9.0 ในงาน Google I/O ของใหม่ได้แก่  โฆษณาแบบใหม่ที่เรียกว่า Native Ads Express สามารถใส่ CSS กำหนดฟอร์แมตให้โฆษณาได้เอง ปรับปรุงวิธีการค้นหา Bluetooth LE ใกล้ตัว (Nearby Messages) ปรับปรุงตัวเก็บสถิติเกม Player Stats API Video recording API ช่วยให้แอพสามารถถ่ายวิดีโอแล้วแชร์ขึ้น YouTube ได้ง่ายขึ้น  ที่มา - Android Developers Blog   ", 
  "Date": "20/May/2016", 
  "Image-Link": [
    "https://www.blognone.com/sites/default/files/styles/thumbnail/public/topics-images/play-service.png?itok=kdWR_g_H", 
    "/sites/all/themes/blognone42/images/linebutton.png"
  ], 
  "Link": "https://www.blognone.com/node/81221", 
  "News": "[Google I/O] Google Play Services อัพเดตเวอร์ชัน 9.0", 
  "Tags": [
    "Google Play Services", 
    "Google I/O", 
    "Android", 
    "Development"
  ], 
  "Time": "09:09"
}