{
  "By": "nutmos", 
  "Contents": " ก่อนหน้านี้เคยมีข่าวว่า Apple ได้ประกาศเปลี่ยนสกุลเงินรับชำระบน App Store, iTunes Store เป็นเงินบาทไทย ซึ่งตอนนี้ Apple ก็ได้เปลี่ยนสกุลเงินที่ใช้ชำระบริการออนไลน์ของ Apple ในประเทศไทยเป็นเงินบาทเรียบร้อยแล้ว สำหรับการเปลี่ยนสกุลเงินที่รับชำระของ Apple นั้น จะมีผลทั้ง iTunes Store, App Store รวมถึงบริการอื่นๆ ของ Apple ทั้ง Apple Music, iTunes Match และการซื้อพื้นที่บน iCloud จะรับชำระเงินด้วยสกุลบาททั้งหมด ที่มา - ค้นพบด้วยตัวเอง   ", 
  "Date": "2/June/2016", 
  "Image-Link": [
    "https://www.blognone.com/sites/default/files/styles/thumbnail/public/topics-images/apple.png?itok=dltl_31c", 
    "/sites/all/themes/blognone42/images/linebutton.png"
  ], 
  "Link": "https://www.blognone.com/node/81725", 
  "News": "Apple เริ่มใช้เงินสกุลบาทไทยกับการซื้อสินค้าและบริการผ่าน iTunes Store, App Store แล้ว", 
  "Tags": [
    "Apple", 
    "Thailand", 
    "iTunes Store", 
    "App Store", 
    "Apple Music"
  ], 
  "Time": "09:03"
}