{
  "By": "mk", 
  "Contents": " รวมข่าว Pokemon Go ประจำวันครับ เพื่อไม่ให้รกจนเกินไปก็รวมเป็นข่าวเดียวเลย  ยอดติดตั้ง Pokemon Go บน Play Store ทะลุหลัก 10 ล้านเรียบร้อยแล้ว (ใน Play Store เขียนว่าอยู่ในระดับ 10-50 ล้าน) Android Central พบข้อความเขียนถึง Google Cardboard ในหน้าสัญญาอนุญาตใช้งานของ Pokemon Go ดังนั้นเราน่าจะได้จับโปเกมอนแบบ VR กันในเร็ววันนี้ Android Central John Hanke ซีอีโอของ Niantic Labs ให้สัมภาษณ์ว่าในอนาคตจะมีระบบเทรดโปเกมอนแน่นอน, ระบบ leaderboard ของทั้งโลก และฟีเจอร์อีกอย่างที่จะตามมาคือระบบ sponsored location ซึ่งเป็นวิธีการหารายได้ของ Niantic จากโฆษณาด้วย Business Insider    ", 
  "Date": "13/July/2016", 
  "Image-Link": [
    "https://www.blognone.com/sites/default/files/styles/thumbnail/public/topics-images/pokemon.png?itok=7HuOXT6S", 
    "/sites/all/themes/blognone42/images/linebutton.png"
  ], 
  "Link": "https://www.blognone.com/node/83365", 
  "News": "Pokemon Go จะมีระบบเทรดโปเกมอน, อาจรองรับ Google Cardboard เร็วๆ นี้", 
  "Tags": [
    "Pokemon", 
    "Games", 
    "Niantic Labs"
  ], 
  "Time": "09:02"
}