{
  "By": "nrad6949", 
  "Contents": " เว็บไซต์ข่าวโทรศัพท์มือถือ Phone Arena รายงานข่าวลือที่ระบุว่ามาจากประเทศจีนว่า Microsoft กำลังพิจารณาปรับโครงสร้างแผนกมือถือโดยจะมีการขายส่วนผลิตฟีเจอร์โฟนและยุบทีม Lumia เข้ากับ Surface หลังจากทำยอดขายได้ย่ำแย่กว่าที่คาด ตามข่าวลือดังกล่าวนี้ Microsoft จะขายส่วนที่ผลิตฟีเจอร์โฟนและสิทธิในการผลิตฟีเจอร์โฟนภายใต้แบรนด์ Nokia ให้กับ Foxconn ผู้รับจ้างผลิตสินค้าอิเล็กทรอนิกส์จากจีน และในขณะเดียวกันก็จะยุบรวมทีม Lumia เข้ากับทีม Surface ซึ่งจะส่งผลให้มีการปลดคนในทีม Lumia ออกจากบริษัทราวๆ ครึ่งหนึ่ง ซึ่งถ้าข่าวลือนี้เป็นจริง ตัวเลขจากข่าวที่ระบุว่าจะปลดคนออกจากบริษัทเกือบ 18,000 คน อาจจะสูงกว่านี้ รวมไปถึงเป็นข้อสนับสนุนว่าอาจมี Surface Phone เกิดขึ้นได้ อนึ่ง ในช่วงที่ผ่านมา Microsoft สามารถทำรายได้จากข้อตกลงอนุญาตที่ไปตกลงไว้กับผู้ผลิตแอนดรอยด์ต่างๆ มากกว่ารายได้ของกลุ่มโทรศัพท์มือถือที่ตัวเองผลิตและจำหน่าย ที่มา - Phone Arena    ", 
  "Date": "16/May/2016", 
  "Image-Link": [
    "https://www.blognone.com/sites/default/files/styles/thumbnail/public/topics-images/MSFT_logo_rgb_C-Gray.png?itok=j3hJhqua", 
    "https://i.imgur.com/vXPIO35.jpg", 
    "/sites/all/themes/blognone42/images/linebutton.png"
  ], 
  "Link": "https://www.blognone.com/node/81002", 
  "News": "ลือ Microsoft เตรียมปรับโครงสร้างแผนกมือถือ ขายส่วนฟีเจอร์โฟน ยุบทีม Lumia เข้ากับ Surface", 
  "Tags": [
    "Microsoft", 
    "Mobile", 
    "Lumia", 
    "Rumor"
  ], 
  "Time": "09:05"
}