{
  "By": "nrad6949", 
  "Contents": " เมื่อวานนี้ B&O Play แบรนด์ลูกของ Bang & Olufsen บริษัทผู้ผลิตสินค้าอิเล็กทรอนิกส์และเครื่องเสียงของเดนมาร์ก ประกาศเปิดตัวลำโพง A9 และ A6 รุ่นใหม่ โดยรองรับคุณสมบัติ Google Cast เพิ่มเติม หลังจากรุ่นแรกรองรับเฉพาะ Airplay, Bluetooth และ DLNA อย่างเดียว การเพิ่มคุณสมบัติดังกล่าว ทำให้ผู้ใช้โทรศัพท์หรืออุปกรณ์ที่รองรับการส่งสัญญาณเสียงผ่าน Google Cast สามารถทำได้ทันที ไม่ต้องพึ่งอุปกรณ์เสริมอย่าง Chromecast Audio แต่อย่างใด ข่าวดีก็คือใครที่มีลำโพงทั้งสองรุ่นที่ออกมาในตอนแรก ทาง B&O Play รับปากว่าจะปล่อยอัพเดตให้เพื่อรองรับคุณสมบัตินี้ ส่วนถ้ายังไม่มี สามารถหาซื้อได้โดยอยู่ที่ 2,199 ยูโร (ประมาณ 88,400 บาท) สำหรับ A9 และ 999 ยูโร (ประมาณ 40,000 บาท) สำหรับ A6 ครับ ที่มา - B&O Play (หน้าผลิตภัณฑ์,ข่าวที่แถลง (เป็นภาษาเดนมาร์ก)) ผ่าน Ausdroid     ", 
  "Date": "13/May/2016", 
  "Image-Link": [
    "https://www.blognone.com/sites/default/files/styles/thumbnail/public/topics-images/bo.png?itok=v7Xb65sW", 
    "https://i.imgur.com/DEKItCI.jpg", 
    "https://i.imgur.com/ypsG6T3.png", 
    "/sites/all/themes/blognone42/images/linebutton.png"
  ], 
  "Link": "https://www.blognone.com/node/80915", 
  "News": "B&O Play เปิดตัวลำโพง A9 และ A6 รุ่นใหม่ รองรับ Google Cast ในตัว", 
  "Tags": [
    "Bang & Olufsen", 
    "Google Cast", 
    "Audio", 
    "Luxury"
  ], 
  "Time": "09:15"
}