{
  "By": "mk", 
  "Contents": " Kevin Gallo ผู้บริหารฝ่าย Windows ของไมโครซอฟท์ไปพูดที่ลอนดอน เขาตอบคำถามผู้ฟังเรื่องอนาคตของ Windows Phone โดยยืนยันว่าไมโครซอฟท์จะไม่ทิ้งระบบปฏิบัติการสำหรับสมาร์ทโฟนอย่างแน่นอน (we’re not abandoning the phone) และทิศทางการพัฒนาระบบปฏิบัติการจะยังเดินหน้าต่อไปเหมือนเดิม แต่ Gallo ยอมรับว่าไมโครซอฟท์ปรับทิศทางการสร้างฮาร์ดแวร์สมาร์ทโฟน เขาให้ความเห็นว่ายุทธศาสตร์ของโนเกียเดิมที่เน้นมือถือตลาดล่างนั้นไม่ทำเงิน และความแข็งแกร่งของไมโครซอฟท์อยู่ที่ตลาดองค์กร (enterprise) มากกว่า ทิศทางใหม่ของไมโครซอฟท์คือสร้างฮาร์ดแวร์ไฮเอนด์ จับตลาดบน และจะสร้างอุปกรณ์ชนิดใหม่ๆ แบบเดียวกับ Surface ซึ่งส่งผลให้ผู้ผลิตฮาร์ดแวร์รายอื่นๆ หันมาทำอุปกรณ์แบบเดียวกันตามมา หนึ่งในอุปกรณ์ที่เข้าข่ายตามนิยามของ Gallo คงหนีไม่พ้น HP Elite x3 ที่เปิดตัวตั้งแต่ต้นปีนี้ ส่วนฮาร์ดแวร์ของไมโครซอฟท์จะใช้ชื่อ Surface Phone หรือไม่ก็ต้องรอดูกันต่อไป ที่มา - The Register    ", 
  "Date": "25/June/2016", 
  "Image-Link": [
    "https://www.blognone.com/sites/default/files/styles/thumbnail/public/topics-images/MSFT_logo_rgb_C-Gray.png?itok=j3hJhqua", 
    "https://i.imgur.com/hg3lRwv.jpg", 
    "/sites/all/themes/blognone42/images/linebutton.png"
  ], 
  "Link": "https://www.blognone.com/node/82651", 
  "News": "ยืนยันแล้ว ไมโครซอฟท์บอกฮาร์ดแวร์มือถือรุ่นหน้า จับตลาดบน-เน้นลูกค้าองค์กร", 
  "Tags": [
    "Microsoft", 
    "Windows 10 Mobile", 
    "Enterprise"
  ], 
  "Time": "09:17"
}