{
  "By": "nrad6949", 
  "Contents": " เมื่อสัปดาห์ที่ผ่านมา IBM ประกาศนำเอา NVIDIA Tesla M60 GPU accelerator เข้าเป็นส่วนหนึ่งของ IBM Cloud ระบบคลาวด์ของตัวเองแล้ว โดยมาพร้อมกับ NVIDIA GRID เทคโนโลยี virtualization ของ NVIDIA IBM ระบุว่าการนำเอา Tesla M60 GPU เข้ามาเสริมทำให้สมรรถนะของการประมวลผลดีขึ้นกว่าเดิม โดยเฉพาะการประมวลผลที่อาศัยประโยชน์จาก GPU อย่างเช่นงานด้านกราฟิกหรือการวิเคราะห์ข้อมูล ทั้งนี้ IBM เดิมมี Tesla K80 และ K10 GPU อยู่ในระบบคลาวด์ของตัวเองอยู่แล้ว ที่มา - IBM   ", 
  "Date": "23/May/2016", 
  "Image-Link": [
    "https://www.blognone.com/sites/default/files/styles/thumbnail/public/topics-images/ibm300.png?itok=QToF6k8H", 
    "/sites/all/themes/blognone42/images/linebutton.png"
  ], 
  "Link": "https://www.blognone.com/node/81271", 
  "News": "IBM ประกาศเพิ่ม NVIDIA Tesla M60 GPU accelerator เข้าสู่ IBM Cloud", 
  "Tags": [
    "IBM", 
    "NVIDIA", 
    "Cloud Computing"
  ], 
  "Time": "09:23"
}