{
  "By": "nismod", 
  "Contents": " เกมบนสมาร์ทโฟนที่มีคนรอคอยมากที่สุดเกมหนึ่งอย่าง Pokemon Go ที่อาศัยเทคโนโลยี Augmented Reality ผสานเข้ากับการเล่นโดยอิงอยู่กับแผนที่บนโลกจริงแบบ Ingress เปิดให้ดาวน์โหลดฟรีบน Play Store และ App Store แล้ว อย่างไรก็ตามเบื้องต้นทาง Niantic Labs เปิดให้เฉพาะผู้เล่นในญี่ปุ่น ออสเตรเลียและนิวซีแลนด์ดาวน์โหลดไปเล่นก่อนเท่านั้น ขณะเดียวกันก็มีผู้ใช้รีวิวไว้บน Play Store ด้วยว่าตอนนี้ตัวเกมยังไม่รองรับ Android N ที่มา - Gamespot   ", 
  "Date": "6/July/2016", 
  "Image-Link": [
    "https://www.blognone.com/sites/default/files/styles/thumbnail/public/topics-images/pokemon.png?itok=7HuOXT6S", 
    "/sites/all/themes/blognone42/images/linebutton.png"
  ], 
  "Link": "https://www.blognone.com/node/83057", 
  "News": "Pokemon Go เปิดให้โหลดแล้ว ไทยยังโหลดไม่ได้", 
  "Tags": [
    "Pokemon", 
    "Games", 
    "Niantic Labs"
  ], 
  "Time": "09:32"
}