{
  "By": "nutmos", 
  "Contents": " BlackBerry ได้ออกประกาศอย่างเป็นทางการบนเว็บไซต์ โดยมี Ralph Pini ซีโอโอและผู้จัดการทั่วไปในฝ่ายอุปกรณ์เป็นผู้โพสต์ว่า BlackBerry จะอัพเดตไลน์สินค้าใหม่ ซึ่งก็เป็นไปตามข่าวก่อนหน้าที่ BlackBerry เคยให้รายละเอียดไว้ ภายในโพสต์กล่าวว่า BlackBerry จะทำการอัพเดตไลน์สินค้าสมาร์ทโฟน ซึ่งจะไม่มีการผลิต BlackBerry Classic รวมถึงมือถือ BBOS รุ่นก่อน ๆ ทุกรุ่นอีกต่อไปแล้ว โดยให้เหตุผลว่า Classic รวมถึงอุปกรณ์ในตระกูล BBOS เดิมอยู่ในตลาดมานานเกินกว่าอายุเฉลี่ยของสมาร์ทโฟนในตลาดปัจจุบันมาก ตอนนี้ผู้ใช้ยังต้องการ Classic นั้น BlackBerry แนะนำให้ไปหาซื้อได้ผ่านร้านที่วางจำหน่าย หรือซื้อผ่านช่องทางออนไลน์ และถึงแม้ว่า BlackBerry Classic จะเลิกผลิตไปแล้ว แต่ทางบริษัทจะยังคงสนับสนุนซอฟต์แวร์ BlackBerry 10 อยู่ โดยจะมีอัพเดตเวอร์ชัน 10.3.3 ในเดือนหน้า และอัพเดตถัดมาในปีหน้า ที่มา - BlackBerry, The Next Web    ", 
  "Date": "6/July/2016", 
  "Image-Link": [
    "https://www.blognone.com/sites/default/files/styles/thumbnail/public/topics-images/blackberry.png?itok=UF9IMwyw", 
    "http://i.cubeupload.com/qYd1sk.png", 
    "/sites/all/themes/blognone42/images/linebutton.png"
  ], 
  "Link": "https://www.blognone.com/node/83056", 
  "News": "BlackBerry ประกาศเลิกผลิตมือถือ BlackBerry Classic อย่างเป็นทางการ", 
  "Tags": [
    "BlackBerry"
  ], 
  "Time": "09:30"
}