{
  "By": "mk", 
  "Contents": " Automattic บริษัทแม่ของ WordPress.com ประกาศว่าซื้อสิทธิบริหารโดเมนเนม .blog มาเรียบร้อยแล้ว และจะเปิดให้บริการภายในปีนี้ ใครก็สามารถมาจดโดเมน .blog ได้ โดยไม่จำเป็นต้องมีบัญชี WordPress.com ตอนนี้ Automattic ยังไม่ระบุราคาของโดเมน .blog แต่บอกกว้างๆ ว่าราคาจะใกล้เคียงกับ top-level domain (TLD) รุ่นใหม่ๆ และพวกชื่อสวยๆ อาจมีราคาเพิ่มจากปกติอยู่บ้าง ใครอยากได้ชื่อ .blog ก็เตรียมคิดๆ กันไว้ได้ครับ ที่มา - WordPress.com    ", 
  "Date": "13/May/2016", 
  "Image-Link": [
    "https://www.blognone.com/sites/default/files/styles/thumbnail/public/topics-images/wordpress.png?itok=IRtt0Xe5", 
    "https://i.imgur.com/8VfoKDt.jpg", 
    "/sites/all/themes/blognone42/images/linebutton.png"
  ], 
  "Link": "https://www.blognone.com/node/80918", 
  "News": "โดเมน .blog เตรียมเปิดให้บริการในเร็วๆ นี้", 
  "Tags": [
    "WordPress", 
    "Automattic", 
    "Domain Name"
  ], 
  "Time": "09:45"
}