{
  "By": "nismod", 
  "Contents": " อย่างที่ทราบกันว่าอิหร่านเป็นประเทศที่พยายามตัดขาดตนเองจากโลกตะวันตก ทั้งสังคม วัฒนธรรมและเทคโนโลยี โดยสื่อโซเชียลมีเดียยักษ์ใหญ่ของโลกอย่างเฟซบุ๊กและทวิตเตอร์ก็ล้วนถูกแบนในอิหร่าน ล่าสุด Supreme Council of Cyberspace ได้ออกกฎหมายใหม่ที่บังคับให้บริษัทที่ให้บริการแอพส่งข้อความของต่างชาติ เก็บข้อมูลเกี่ยวกับผู้ใช้ชาวอิหร่านไว้ภายในประเทศ โดยกำหนดเส้นตายหลังจากนี้ 1 ปี ทาง Reuters ระบุว่า แอพเป้าหมายสำคัญของกฎหมายนี้น่าจะเป็น Telegram ที่ค่อนข้างได้รับความนิยมสูงในอิหร่าน โดยผู้ใช้ Telegram ชาวอิหร่านบางคนระบุว่าจะเลิกใช้ Telegram หากข้อมูลทั้งหมดถูกย้ายมาเก็บไว้ในประเทศ เพราะพวกเขาจะไม่ปลอดภัยอีกต่อไป ที่มา - Reuters   ", 
  "Date": "30/May/2016", 
  "Image-Link": [
    "https://www.blognone.com/sites/default/files/styles/thumbnail/public/news-thumbnails/Flag_of_Iran_%28official%29.svg_.png?itok=KWr7fQrX", 
    "/sites/all/themes/blognone42/images/linebutton.png"
  ], 
  "Link": "https://www.blognone.com/node/81589", 
  "News": "อิหร่านสั่งบริษัทแอพเมสเสจต่างชาติ ให้เก็บข้อมูลผู้ใช้อิหร่านไว้ในประเทศ", 
  "Tags": [
    "Iran", 
    "Social Media"
  ], 
  "Time": "09:59"
}