{
  "By": "magnamonkun", 
  "Contents": " ที่งาน Computex 2016 ผู้ผลิตชิปรายใหญ่อย่าง Qualcomm ได้ออกมาแถลงข่าวเปิดตัวซีพียูรุ่นที่ 2 ของ Snapdragon Wear ในรหัสต่ำกว่าอย่าง Snapdragon Wear 1100 SoC โดยมีจุดประสงค์เพื่อจับตลาดอุปกรณ์ IoT และ Wearable Device เป็นหลัก และวางตำแหน่งให้รุ่นนี้เป็นรุ่นรองของ Snapdragon Wear 2100 ที่เปิดตัวก่อนเสียด้วย Qualcomm ระบุว่า Snapdragon Wear 1100 จะมาพร้อมกับความสามารถในการเชื่อมต่อเครือข่าย LTE (CAT 1)/3G แบบรองรับทุกคลื่นความถี่ทั่วโลก รวมถึงมีความสามารถในการเชื่อมต่อ Wi-Fi/Bluetooth รองรับการใช้งานด้วยเสียง และในตัว Snapdragon Wear 1100 จะมีหน่วยประมวลผล Qualcomm iZat (แบบเดียวกับ Apple M) สำหรับใช้งานด้านการติดตามตำแหน่งทั้งผ่าน GNSS/Cell-ID และยังรองรับกับแอพพลิเคชันที่ใช้ในการติดตามตัวได้อย่างเต็มความสามารถ ทั้งนี้ Snapdragon Wear 1100 จะเริ่มส่งชิปให้ผู้ผลิตได้ตั้งแต่วันนี้เป็นต้นไป โดยตอนนี้มี Aricent, Borqs, Infomark, และ SurfaceInk ประกาศพัฒนาอุปกรณ์ด้วยชิปนี้เรียบร้อยแล้ว ที่มา - Qualcomm    ", 
  "Date": "31/May/2016", 
  "Image-Link": [
    "https://www.blognone.com/sites/default/files/styles/thumbnail/public/news-thumbnails/snap-wear.png?itok=-Uzo_E3q", 
    "//upic.me/i/de/snapdragon.png", 
    "/sites/all/themes/blognone42/images/linebutton.png"
  ], 
  "Link": "https://www.blognone.com/node/81633", 
  "News": "Qualcomm เปิดตัว Snapdragon Wear 1100 รุ่นราคาถูกสำหรับตลาด IoT และ Wearable Device", 
  "Tags": [
    "Snapdragon", 
    "Qualcomm", 
    "Internet of Things", 
    "Wearable Computing", 
    "SoC", 
    "Smart Watch"
  ], 
  "Time": "09:55"
}