{
  "By": "nismod", 
  "Contents": " Apple ประกาศลงทุนกว่า 1 พันล้านเหรียญสหรัฐฯกับ Didi Chuxing บริการเรียกรถแท็กซี่ของจีนที่เปลี่ยนชื่อมาจาก Didi Kuaidi และมีส่วนแบ่งการตลาดในบริการเรียกรถของจีนกว่า 80% Tim Cook ซีอีโอของแอปเปิลแถลงว่า บริษัทพยายามลงทุนด้วยเหตุผลเชิงยุทธศาสตร์ อย่างการมีโอกาสได้เรียนรู้ segment ต่างๆ ของตลาดจีน โดย Tim Cook มีแผนจะเดินทางไปประเทศจีนในช่วงปลายเดือนนี้ด้วย ซึ่งสื่อต่างประเทศคาดว่าน่าจะเกี่ยวข้องกับยอดขาย iPhone และการเซ็นเซอร์ต่างๆ ด้าน Didi แถลงว่าการลงทุนครั้งนี้เป็นการลงทุนที่มากที่สุดในครั้งเดียวที่บริษัทเคยได้รับ ที่มา - Engadget, Tech in Asia   ", 
  "Date": "13/May/2016", 
  "Image-Link": [
    "https://www.blognone.com/sites/default/files/styles/thumbnail/public/topics-images/apple.png?itok=dltl_31c", 
    "/sites/all/themes/blognone42/images/linebutton.png"
  ], 
  "Link": "https://www.blognone.com/node/80919", 
  "News": "Apple ลงทุนในบริษัทเรียกแท็กซี่ของจีน, Tim Cook ระบุต้องการเข้าใจตลาดจีน", 
  "Tags": [
    "Apple", 
    "Didi Kuaidi", 
    "China"
  ], 
  "Time": "09:50"
}