{
  "By": "nrad6949", 
  "Contents": " Nomura บริษัทด้านการเงินจากญี่ปุ่น ออกรายงานวิจัยตลาดเกี่ยวกับ iPhone SE โดยระบุว่าแม้จะทำยอดขายได้มาก แต่ในตลาดประเทศที่พัฒนาแล้ว iPhone SE อาจจะแข่งขันและกินตลาดของ iPhone 6s ไป Jeffery Kvaal นักวิเคราะห์ของบริษัทระบุว่า iPhone SE แม้จะประสบความสำเร็จในตลาดซึ่งสมาร์ทโฟนยังมีโอกาสโต โดยเฉพาะอย่างยิ่งกับผู้ใช้รายใหม่ในประเทศจีน แต่ในตลาดประเทศพัฒนาแล้ว iPhone SE จะเข้าแย่งลูกค้าของ iPhone 6s โดยในรายงานระบุว่า Apple อาจเลือกใช้แนวทางที่อนุรักษ์นิยม (conservative view) สำหรับการผลิต iPhone รุ่นใหม่ เพื่อให้สินค้าคงคลังเหลือน้อยลงกว่าเดิม ทั้งนี้ Nomura ระบุว่ายอดขาย iPhone SE ประมาณกึ่งหนึ่งมาจากยอดขายในสหรัฐฯ และจีน โดยคาดการณ์ว่าอาจขายได้มากกว่า 30 ล้านเครื่องภายในปีแรก ที่มา - USA Today    ", 
  "Date": "25/May/2016", 
  "Image-Link": [
    "https://www.blognone.com/sites/default/files/styles/thumbnail/public/topics-images/iphone-se.jpg?itok=QKo3tLxU", 
    "https://i.imgur.com/wTpYNdX.jpg", 
    "/sites/all/themes/blognone42/images/linebutton.png"
  ], 
  "Link": "https://www.blognone.com/node/81370", 
  "News": "Nomura ออกรายงานวิเคราะห์ คาด iPhone SE อาจกินตลาด iPhone 6s", 
  "Tags": [
    "iPhone SE", 
    "Apple", 
    "iPhone 6s", 
    "Analysis"
  ], 
  "Time": "09:58"
}