{
  "By": "nrad6949", 
  "Contents": " เว็บไซต์ข่าวไอที Recode รายงานข่าวลือที่รายงานอีกทีใน Wall Street Journal ว่า Amazon เตรียมขายสินค้าอุปโภคบริโภค ภายใต้แบรนด์ของตนเอง (house brand) ในเวลาอันไม่ช้านี้ รายงานข่าวระบุว่า ชื่อที่จะใช้คือ Happy Belly (แปลเป็นไทยคงเป็น \"พุงสำราญ\") และ Mama Bear โดยจะมีให้สั่งซื้อเฉพาะสมาชิก Amazon Prime เท่านั้น ทั้งนี้แนวทางในการมีแบรนด์ของตัวเอง (house brand, private-labeling) ไม่ใช่เรื่องใหม่ เพราะห้างสรรพสินค้าและร้านค้าขนาดใหญ่หลายร้านก็มีแบรนด์สินค้าเป็นของตนเอง โดยมีราคาถูกกว่าแบรนด์ของผู้ผลิตทั่วไป ที่มา - Recode    ", 
  "Date": "16/May/2016", 
  "Image-Link": [
    "https://www.blognone.com/sites/default/files/styles/thumbnail/public/topics-images/amazon300.png?itok=pDQ3CyTi", 
    "https://c2.staticflickr.com/6/5456/17454990406_88ef19dbe9_z.jpg", 
    "/sites/all/themes/blognone42/images/linebutton.png"
  ], 
  "Link": "https://www.blognone.com/node/81007", 
  "News": "ลือ Amazon เตรียมจะขายสินค้าอุปโภคบริโภคด้วยแบรนด์ของตนเอง", 
  "Tags": [
    "Amazon", 
    "Rumor"
  ], 
  "Time": "10:06"
}