{
  "By": "arjin", 
  "Contents": " จากข่าวก่อนหน้านี้ว่า Dropbox ย้ายระบบจาก AWS มาใช้ศูนย์ข้อมูลของตนเอง ล่าสุด Dropbox เปิดเผยว่า Hewlett Packard Enterprise หรือ HPE คือพาร์ทเนอร์ที่ให้ความร่วมมือในการออกแบบและพัฒนาฮาร์ดแวร์เพื่อการนี้ Drew Houston ซีอีโอ Dropbox ระบุว่าการได้ร่วมมือกับ HPE นี้ เป็นประโยชน์ต่อ Dropbox ในการเข้าสู่ลูกค้าองค์กรขนาดใหญ่ เพราะมี HPE ช่วยเพิ่มความเชื่อมั่นในระบบการดูแลข้อมูล ซึ่งทาง HPE เองก็เป็นลูกค้าแบบองค์กรของ Dropbox ด้วย Houston ยังเผยว่าในการออกแบบฮาร์ดแวร์สำหรับใช้งานนั้น ทาง HPE ได้ช่วยปรับเซิร์ฟเวอร์ให้สามารถบรรจุดิสก์ต่อเครื่องเพิ่มมากขึ้น เพราะ Dropbox ต้องการประหยัดต้นทุนให้มากที่สุด ที่มา: WSJ    ", 
  "Date": "8/June/2016", 
  "Image-Link": [
    "https://www.blognone.com/sites/default/files/styles/thumbnail/public/topics-images/dropbox.png?itok=GxDzN6Rj", 
    "http://i.imgur.com/lvhmWdk.png", 
    "/sites/all/themes/blognone42/images/linebutton.png"
  ], 
  "Link": "https://www.blognone.com/node/81990", 
  "News": "Dropbox เผยได้ร่วมมือกับ HPE ในการพัฒนาฮาร์ดแวร์ใช้สำหรับศูนย์ข้อมูล", 
  "Tags": [
    "Dropbox", 
    "Hewlett Packard Enterprise", 
    "Data Center"
  ], 
  "Time": "10:14"
}