{
  "By": "mk", 
  "Contents": " Injong Rhee หัวหน้าฝ่ายวิจัยและพัฒนาของซัมซุง พูดในงานประชุมนักพัฒนาของบริษัทที่ซานฟรานซิสโก เผยว่าซัมซุงกำลังทำแว่น Gear VR รุ่นใหม่ที่ทำงานได้อย่างอิสระ ไม่ต้องใช้มือถือของซัมซุงเป็นจอภาพอย่างในปัจจุบันอีกแล้ว แว่นรุ่นใหม่จะเป็นแว่นไร้สาย (wireless) แต่ยังไม่มีข้อมูลว่าเป็นแว่นที่ร่วมพัฒนากับ Oculus เหมือนเดิม หรือซัมซุงแยกออกมาทำเอง เขายังบอกว่าซัมซุงมองถึงฟีเจอร์การติดตามความเคลื่อนไหวของมือ (hand tracking) ด้วย แต่คงอีกนานกว่าจะได้เห็นฟีเจอร์เหล่านี้ในผลิตภัณฑ์รุ่นขายจริง เพราะวงการ VR เพิ่งเริ่มต้นเท่านั้น ที่มา - Variety    ", 
  "Date": "1/May/2016", 
  "Image-Link": [
    "https://www.blognone.com/sites/default/files/styles/thumbnail/public/topics-images/gearvr.png?itok=LJcyDy_v", 
    "https://i.imgur.com/b6RLZUV.jpg", 
    "/sites/all/themes/blognone42/images/linebutton.png"
  ], 
  "Link": "https://www.blognone.com/node/80513", 
  "News": "ซัมซุงกำลังทำ Gear VR รุ่นใหม่ ไม่ต้องใช้คู่กับมือถือแล้ว", 
  "Tags": [
    "Gear VR", 
    "Samsung", 
    "Virtual Reality"
  ], 
  "Time": "10:21"
}