{
  "By": "nrad6949", 
  "Contents": " Ran Poliakine ผู้ก่อตั้ง Powermat บริษัทผลิตเทคโนโลยีการชาร์จไร้สาย ประกาศเปิดตัว TAP อุปกรณ์สวมมือแบบใหม่ที่แปลงทุกพื้นผิวให้กลายเป็นคีย์บอร์ดสำหรับใช้พิมพ์ ร่วมกับหุ้นส่วนอีกสองคนในนามบริษัท TAP System, Inc. อุปกรณ์ดังกล่าวนี้ ผู้ใช้จะต้องสวมเข้าไป หลังจากนั้นอุปกรณ์จะแปลงตำแหน่งการเคาะบนพื้นผิวใดๆ ก็ตาม ออกมาเป็นตัวอักษรบนอุปกรณ์ที่เราใช้งานด้วย ตัวอุปกรณ์ทำมาจากผ้าที่มีการผสานตัวตรวจวัดจำนวนมาก โดยก่อนใช้งานผู้ใช้ต้องฝึกให้ชินจากแอพที่มีชื่อว่า TapGenius ก่อน ทางบริษัทอ้างว่านอกจากจะทำให้คนทั่วไปสะดวกขึ้นที่จะใช้แป้นพิมพ์ในสถานการณ์ที่ไม่เอื้อให้หยิบคีย์บอร์ดออกมารวมถึงใช้เสียงแล้ว ยังเหมาะกับผู้ที่มีความบกพร่องหรือพิการทางสายตา ที่การพิมพ์บนคีย์บอร์ดปกติทำได้ยาก รวมทั้งสามารถเอาไปประยุกต์ใช้ได้กับงานด้านอื่นๆ เช่นดนตรี ได้เช่นกัน บริษัทเริ่มส่งของให้กับผู้ทดสอบที่ได้รับการคัดเลือกในย่าน Bay Area ของ San Francisco แล้ว และคาดว่าจะจำหน่ายจริงเชิงพาณิชย์ได้ก่อนสิ้นปีนี้ ส่วนนักพัฒนาก็จะมี Development Kit ออกมาให้ด้วย ที่มา - TAP Systems ผ่าน Bloomberg    ", 
  "Date": "14/May/2016", 
  "Image-Link": [
    "https://www.blognone.com/sites/default/files/styles/thumbnail/public/news-thumbnails/K1A1397-Retuchedsq.jpg?itok=pd0NArmf", 
    "https://i.imgur.com/77VTOQG.jpg", 
    "/sites/all/themes/blognone42/images/linebutton.png"
  ], 
  "Link": "https://www.blognone.com/node/80973", 
  "News": "ผู้ก่อตั้ง Powermat เผย TAP อุปกรณ์สวมมือแบบใหม่ที่แปลงทุกพื้นผิวเป็นคีย์บอร์ด", 
  "Tags": [
    "Keyboard", 
    "Gadget"
  ], 
  "Time": "10:29"
}