{
  "By": "nrad6949", 
  "Contents": " Bluetooth Special Interest Group (Bluetooth SIG) องค์กรกำหนดมาตรฐานของ Bluetooth ประกาศเปิดตัวมาตรฐาน Bluetooth 5 อย่างเป็นทางการเมื่อวันพฤหัสบดีที่ผ่านมา (ตามเวลาท้องถิ่น) ซึ่งตรงกับรายงานข่าวก่อนหน้านี้ แถลงการณ์ระบุว่า Bluetooth 5 จะเพิ่มรัศมีทำการมากขึ้นถึง 4 เท่า ทำให้ใช้งานได้ไกลขึ้น (ไม่ระบุว่าเทียบกับมาตรฐาน Bluetooth รุ่นไหน) รวมไปถึงเพิ่มความเร็วมากขึ้นในขณะที่ยังคงใช้พลังงานต่ำ ทำให้เหมาะกับอุปกรณ์ในสาย Internet of Things ส่วนถ้าเป็นแบบ broadcast (กระจายข้อมูลอย่างเดียว) จะสามารถเพิ่มความสามารถ (capacity) ในการกระจายข้อมูลเพิ่มถึง 800% Bluetooth SIG ระบุว่าอุปกรณ์ที่เริ่มใช้มาตรฐาน Bluetooth 5 จะออกสู่ตลาด ภายในช่วงครึ่งหลังของปีนี้ (late 2016) ไปจนถึงต้นปีหน้า (early 2017) ครับ ที่มา - Bluetooth SIG   ", 
  "Date": "18/June/2016", 
  "Image-Link": [
    "https://www.blognone.com/sites/default/files/styles/thumbnail/public/topics-images/2000px-bluetooth.svg_1024.png?itok=52oNb7gf", 
    "/sites/all/themes/blognone42/images/linebutton.png"
  ], 
  "Link": "https://www.blognone.com/node/82400", 
  "News": "Bluetooth SIG เปิดตัว Bluetooth 5 ชูจุดเด่นใช้งานได้ไกล เร็วขึ้นกว่าเดิม", 
  "Tags": [
    "Bluetooth", 
    "Standard"
  ], 
  "Time": "10:30"
}