{
  "By": "nrad6949", 
  "Contents": " Oculus ประกาศโครงการ VR for Good โครงการด้านการกุศลที่จะช่วยเหลือองค์กรการกุศล องค์กรที่ไม่หวังผลกำไร และสถาบันการศึกษาในการสร้างเนื้อหาสำหรับ virtual reality (VR) โครงการดังกล่าว แบ่งออกเป็นสองโครงการย่อยคือ  360 Filmmakers Challenge for Students ที่ร่วมมือกับโรงเรียนรอบ Bay Area ของ San Francisco อบรมและแจกอุปกรณ์ด้าน VR ให้ (มีทั้งอุปกรณ์และซอฟต์แวร์) เพื่อสร้างเนื้อหาและพัฒนาระบบ VR ยาวนาน 6 สัปดาห์ โดยจะเผยแพร่ผลงานให้สาธารณะบน Facebook และ Oculus Video 360 Bootcamp for Nonprofits ที่เป็นลักษณะเดียวกัน แต่เน้นไปที่ผู้สร้างภาพยนตร์หน้าใหม่ โดยจะจัดอบรมที่สำนักงานใหญ่ Facebook และได้รับกล้อง Nokia OZO เพื่อการถ่ายทำ ผลงานจะได้รับการแสดงที่เทศกาลภาพยนตร์ Sundance 2017  สมัครได้ในวันที่ 30 พฤษภาคมนี้ ใครสนใจสามารถไปติดตามรายละเอียดเพิ่มเติมจากที่มาครับ ที่มา - Oculus ผ่าน Engadget    ", 
  "Date": "17/May/2016", 
  "Image-Link": [
    "https://www.blognone.com/sites/default/files/styles/thumbnail/public/topics-images/oculus.png?itok=Aknc-ywY", 
    "https://i.imgur.com/lM2aki6.jpg", 
    "/sites/all/themes/blognone42/images/linebutton.png"
  ], 
  "Link": "https://www.blognone.com/node/81060", 
  "News": "Oculus ประกาศโครงการ VR for Good ช่วยองค์กรการกุศลสร้างสื่อ VR", 
  "Tags": [
    "Oculus", 
    "Virtual Reality", 
    "Charity", 
    "Entertainment"
  ], 
  "Time": "10:36"
}