{
  "By": "nutmos", 
  "Contents": " Safari 10 ที่มาพร้อมกับ macOS Sierra มีหนึ่งในฟีเจอร์ที่น่าสนใจคือการปิด Flash เป็นค่าเริ่มต้นในการใช้งานเว็บ เพื่อเป็นการผลักดันการใช้งาน HTML5 แต่เดิมถ้าปิดการใช้งาน Flash บน Safari เว็บไซต์จะแสดงมีลิงก์สำหรับดาวน์โหลด Flash จากเว็บ Adobe โดยสำหรับ Safari เวอร์ชันใหม่จะเปลี่ยนเป็นคำถามผู้ใช้แทน คือเปิดตลอดเวลา, เปิดเฉพาะครั้งนี้ และปิด โดยถ้าผู้ใช้ยืนยันให้เปิดแล้ว Safari ก็จะดาวน์โหลดเนื้อหา Flash ตามปกติ ลักษณะการทำงานของฟีเจอร์นี้จะคล้ายกับปลั๊กอิน Click-To-Flash ซึ่งหลายคนอาจจะมีใช้แล้วนั่นเอง โดยการที่ Apple ปิด Flash เป็นค่าเริ่มต้นบน Safari แบบนี้ก็ถือเป็นการผลักดัน HTML5 ได้เป็นอย่างดี รวมถึงเป็นการเพิ่มประสิทธิภาพและประหยัดพลังงานอีกด้วย นอกจากนี้ Apple ก็แจ้งไว้ว่า Safari จะไม่มีการแจ้งเว็บไซต์แล้วว่ามีปลั๊กอินปกติทั่วไปที่ติดตั้งไว้ ไม่ว่าจะเป็น Flash, Java, Silverlight หรือ QuickTime ก็ตาม ใน navigator.plugins และ navigator.mimeTypes ซึ่งจะทำให้การเขียนเว็บไซต์ที่รองรับทั้งปลั๊กอินแบบเดิมและ HTML5 ทำได้ง่ายขึ้น ที่มา - 9to5Mac, WebKit    ", 
  "Date": "15/June/2016", 
  "Image-Link": [
    "https://www.blognone.com/sites/default/files/styles/thumbnail/public/topics-images/safari.png?itok=xg_a7YpI", 
    "http://i.cubeupload.com/ssL3qI.jpg", 
    "/sites/all/themes/blognone42/images/linebutton.png"
  ], 
  "Link": "https://www.blognone.com/node/82269", 
  "News": "Safari บน macOS Sierra จะปิด Flash เป็นค่าเริ่มต้น พร้อมตัวเลือกเปิดเมื่อต้องการใช้งานเป็นครั้งคราว", 
  "Tags": [
    "Safari", 
    "macOS", 
    "Sierra", 
    "Adobe Flash"
  ], 
  "Time": "10:32"
}