{
  "By": "trinakub", 
  "Contents": " หลังจากที่มีข่าวลือออกมาก่อนหน้า วันนี้ต้นสังกัด Hello Games ประกาศออกมาเป็นทางการแล้วว่าเกม No Man’s Sky นั้นเลื่อนแน่นอน จากวันที่ 21 มิถุนายน 2559 กลายเป็นวันที่ต่าง ๆ ตามภูมิภาคดังนี้  9 สิงหาคม 2559 เขต North America 10 สิงหาคม 2559 เขต Europe 12 สิงหาคม 2559 เขต United Kingdom  ส่วนสาเหตุของการเลื่อนนั้น ผู้กำกับ Sean Murray บอกว่า “การพัฒนาเกมกำลังไปได้ดี แต่ส่วนที่สำคัญยังต้องได้รับการปรับปรุงเพิ่มเติมเพื่อให้ได้คุณภาพตามมาตรฐานของเรา ผมขอเวลาอีกแค่ไม่กี่อาทิตย์ รับรองว่าผมจะนำสิ่งที่ไม่ธรรมดามาให้พวกคุณได้สัมผัสกัน” มากล่าวถึงตัวเกมกันบ้าง ตัวเกม No Man’s Sky นั้นเป็นเกมแนวผจญภัยเพื่อเอาตัวรอดตามดวงดาวต่าง ๆ ที่มีอยู่มากมายได้อวกาศ ซึ่งทางผู้พัฒนาได้กล่าวว่ามีจำนวนมากถึง 18 ล้านล้านล้าน ดวง ด้วยกันและในแต่ละดวงจะมีสภาพแวดล้อมที่เป็นเอกลักษณ์ของแต่ละดาวเองด้วย เกมนี้ได้ปล่อยตัวอย่างมาให้ชมกันครั้งแรกในปี 2013 เป็นเวลากว่า 2 ปีแล้วที่พวกเรารอคอย อีกเพียงแค่เล็กน้อยเราก็จะได้ไปผจญภัยบนห้วงอวกาศอันไร้ที่สิ้นสุดกันแล้ว (เกมลง PS4 และพีซี) ที่มา - Gamespot   ", 
  "Date": "28/May/2016", 
  "Image-Link": [
    "https://www.blognone.com/sites/default/files/styles/thumbnail/public/news-thumbnails/image_7.jpg?itok=rd59Zxxi", 
    "/sites/all/themes/blognone42/images/linebutton.png"
  ], 
  "Link": "https://www.blognone.com/node/81534", 
  "News": "เกม No Man’s Sky ประกาศเลื่อนวันจำหน่ายเป็นเดือนสิงหาคม 2559", 
  "Tags": [
    "Games", 
    "No Man's Sky"
  ], 
  "Time": "10:45"
}