{
  "By": "maeklong", 
  "Contents": " ทีมงาน JetBrains ส่งอีเมลถึงผู้ที่ใช้งานให้รีบอัพเดต IDE สาย IntelliJ ของ JetBrains โดยเร็ว แม้ยังไม่มีรายงานการถูกโจมตีผ่านทางช่องโหว่ระดับรุนแรงที่เป็นที่มาของการอัพเดตครั้งนี้ก็ตาม ช่องโหว่นี้พบในเว็บเซิร์ฟเวอร์ที่มาพร้อม IDE สามารถเป็นช่องทางให้ผู้ไม่หวังดีใช้เทคนิค CSRF (cross-site request forgery) เพื่อเข้าถึงแฟ้มข้อมูลระบบได้ รวมถึงช่องโหว่ในส่วนควบคุม CORS ทำให้เข้าถึง API ภายใน หรือแม้แต่ข้อมูลที่จัดเก็บโดย IDE ได้ ที่มา : JetBrains    ", 
  "Date": "12/May/2016", 
  "Image-Link": [
    "https://www.blognone.com/sites/default/files/styles/thumbnail/public/news-thumbnails/jetbrains_250x250.png?itok=JFl4oU1v", 
    "https://i.imgur.com/P03UzZM.png", 
    "/sites/all/themes/blognone42/images/linebutton.png"
  ], 
  "Link": "https://www.blognone.com/node/80870", 
  "News": "JetBrains แจ้งผู้ใช้รีบอัพเดต IDE สาย IntelliJ หลังพบช่องโหว่ความปลอดภัย", 
  "Tags": [
    "JetBrains", 
    "IntelliJ", 
    "IDE", 
    "Security"
  ], 
  "Time": "10:58"
}