{
  "By": "nutmos", 
  "Contents": " Unicode Consortium ได้ออกสเปคของมาตรฐาน Unicode 9.0 ซึ่งเตรียมจะประกาศใช้จริงใน 21 มิถุนายนนี้ ตอนนี้มีอีโมจิที่ Apple และ Microsoft คัดค้านการบรรจุลงในมาตรฐานใหม่นี้ คือรูปปืนไรเฟิล จากรายงานของ Buzzfeed เผยว่า Apple ได้เริ่มพูดถึงการถอดอีโมจิรูปปืนไรเฟิลออก โดยบอกว่า Apple จะไม่รองรับปืนไรเฟิลบนแพลตฟอร์มตัวเอง และบอกให้ Unicode ไม่ให้ทำเป็นอีโมจิซึ่ง Microsoft ก็เห็นด้วย ซึ่งแหล่งข่าวบอกว่าในที่ประชุมนั้นไม่ได้มีการโต้เถียงกันแต่อย่างใด และนอกจากรูปไรเฟิลแล้ว ก็ยังมีอีโมจิอีกตัวที่มีโอกาสจะถูก Unicode ตัดออกก็คือรูป modern pentathlon ที่เป็นรูปผู้ชายยิงปืนพก Mark Davis ประธาน Unicode เผยว่ามีเรื่องนี้จริง แต่ไม่ได้กล่าวถึงว่าใครเป็นคนพูด บอกเพียงว่า \"มีสมาชิกที่ตัดสินใจว่าจะไม่ให้บางตัวเป็นอีโมจิแต่ให้เป็นแค่คาแรคเตอร์แทน\" (คาแรคเตอร์ ต่างกับ emoji ตรงที่เป็นสัญลักษณ์สีขาวดำ) อีโมจิรูปไรเฟิลนั้นจะถูกใส่ไว้ในเซตของอีโมจิในธีมโอลิมปิค (เพราะการยิงปืนไรเฟิลเป็นกีฬาโอลิมปิค) โดยหลังจากอีโมจินี้ออกมาในสเปคของ Unicode ก็ถูกกลุ่มควบคุมปืนแห่งสหราชอาณาจักร (British gun control group) กล่าวคัดค้านผ่านสำนักข่าว BBC ว่า \"มันจะเป็นการทำให้ภาพเกี่ยวกับอาวุธเป็นที่คุ้นเคยและแพร่หลาย ซึ่งไม่ใช่ไอเดียที่ดี\" ซึ่ง Davis เคยกล่าวถึงกรณีนี้ไว้กับสำนักข่าว New York Times ว่าที่ใส่มานี้เพราะจัดอยู่ในเซตของกีฬาโอลิมปิก ที่มา - Ars Technica, Buzzfeed   ", 
  "Date": "18/June/2016", 
  "Image-Link": [
    "https://www.blognone.com/sites/default/files/styles/thumbnail/public/topics-images/unicode.png?itok=DVIfiyBR", 
    "/sites/all/themes/blognone42/images/linebutton.png"
  ], 
  "Link": "https://www.blognone.com/node/82401", 
  "News": "Apple และ Microsoft ค้านการบรรจุรูปปืนไรเฟิลเป็นอีโมจิใน Unicode 9.0", 
  "Tags": [
    "Unicode", 
    "Emoji", 
    "Apple", 
    "Microsoft"
  ], 
  "Time": "10:50"
}