{
  "By": "nismod", 
  "Contents": " ถึงแม้ภาพถ่ายและวิดีโอจะเป็นสื่อกลางสำคัญบน Instagram แต่ดูเหมือนทาง Instagram เองจะมองว่าคำบรรยายต์ก็มีความสำคัญไม่แพ้กัน จากการประกาศเตรียมเพิ่มจะฟีเจอร์แปลภาษาเข้ามาเร็วๆ นี้ แอคเคาท์ Instagram ได้โพสต์ภาพพร้อมข้อความระบุว่า ปุ่มแปลข้อความจะถูกเพิ่มเข้ามาภายในเดือนหน้า (in the coming month) ซึ่งฟีเจอร์นี้จะใช้แปลคำบรรยายภาพบนฟีตและช่องประวัติของผู้ใช้ในโปรไฟล์ ที่มา - Digital Trend, Instagram    ", 
  "Date": "23/June/2016", 
  "Image-Link": [
    "https://www.blognone.com/sites/default/files/styles/thumbnail/public/topics-images/ig.png?itok=IUjEmhEC", 
    "https://c4.staticflickr.com/8/7134/27849581275_c6be79eb8f_z.jpg", 
    "/sites/all/themes/blognone42/images/linebutton.png"
  ], 
  "Link": "https://www.blognone.com/node/82574", 
  "News": "Instagram เตรียมเพิ่มฟีเจอร์แปลภาษา", 
  "Tags": [
    "Instagram"
  ], 
  "Time": "10:50"
}