{
  "By": "mk", 
  "Contents": " แอพจัดการรหัสผ่าน LastPass ออกส่วนขยาย (extension) สำหรับเบราว์เซอร์ Microsoft Edge แล้ว เบื้องต้นคนที่อยากใช้งานต้องติดตั้ง Windows 10 Insider รุ่นล่าสุด 14352 เท่านั้น (ดาวน์โหลดได้จาก Windows Store) LastPass ถือเป็นหนึ่งในส่วนขยายชื่อดังที่ไมโครซอฟท์เคยประกาศชื่อไว้ ตอนนี้ส่วนขยายที่มีให้ใช้แล้วคือ AdBlock, AdBlock Plus, Add to Pocket, OneNote และในอนาคตจะมี Amazon กับ Evernote ตามมา ที่มา - Neowin, WinSuperSite    ", 
  "Date": "28/May/2016", 
  "Image-Link": [
    "https://www.blognone.com/sites/default/files/styles/thumbnail/public/topics-images/lastpass.png?itok=LBMrQRv5", 
    "https://i.imgur.com/qy9uBSD.png", 
    "/sites/all/themes/blognone42/images/linebutton.png"
  ], 
  "Link": "https://www.blognone.com/node/81536", 
  "News": "ตัวจัดการรหัสผ่าน LastPass ออกส่วนขยายสำหรับ Microsoft Edge แล้ว", 
  "Tags": [
    "LastPass", 
    "Microsoft Edge", 
    "Extension"
  ], 
  "Time": "11:03"
}