{
  "By": "nismod", 
  "Contents": " เฟซบุ๊กเคยออกเกมบาสเก็ตบอลบน Messengerไปเมื่อช่วงเดือนมีนาคม ล่าสุดได้เพิ่มเกมฟุตบอลเข้ามาอีกเกม ท่ามกลางกระแส Euro 2016 แล้วครับ การเข้าเกมก็เหมือนเดิมด้วยการส่งอีโมจิรูปฟุตบอลไปหาเพื่อน ขณะที่การเล่นจะแตกต่างจากบาสเก็ตบอลเล็กน้อยตรงนี้คราวนี้เป็นการแข่งเดาะลูกฟุตบอล ด้วยการกดที่ลูกให้ได้มากที่สุด ดูเหมือนง่ายแต่บอกเลยครับว่าไม่ เพราะลูกบอลจะเปลี่ยนทิศทางไปตามมุมที่เรากดและจะกระเด้งกับขอบของหน้าจอด้วย ที่มา - Facebook via Android Community    ", 
  "Date": "17/June/2016", 
  "Image-Link": [
    "https://www.blognone.com/sites/default/files/styles/thumbnail/public/topics-images/messenger-500.png?itok=We0tzOrE", 
    "https://c4.staticflickr.com/8/7330/27720977555_f20dd77324_z.jpg", 
    "/sites/all/themes/blognone42/images/linebutton.png"
  ], 
  "Link": "https://www.blognone.com/node/82365", 
  "News": "Facebook Messenger เพิ่มเกมเดาะลูกฟุตบอลเข้ามาอีกเกม", 
  "Tags": [
    "Facebook Messenger", 
    "Facebook"
  ], 
  "Time": "11:15"
}