{
  "By": "nismod", 
  "Contents": " หลัง Blizzard นำเกม Overwatch ออกทดสอบแบบ Open Beta เมื่อวันที่ 5-10 พฤศภาคมที่ผ่านมา ล่าสุดก็ออกมาแถลงว่ามีผู้ที่สนใจเข้าร่วมทดสอบเกมสูงถึงกว่า 9.7 ล้านคน มีจำนวนแมทช์กว่า 37 ล้านแมทช์ โดยผู้เล่นใช้เวลาเล่นรวมกันทั้งหมดกว่า 81 ล้านชั่วโมง (เฉลี่ยคนละ 8 ชั่วโมง) จำนวนผู้เล่นเพียงอย่างเดียวอาจไม่เห็นภาพนัก แต่หากนำไปเปรียบเทียบกับจำนวนผู้เล่น World of Warcraft ในปี 2010 ที่เคยขึ้นสูงสุดถึง 12 ล้านคนแล้ว จำนวนผู้ทดสอบถือว่าได้ค่อนข้างมากพอสมควร สำหรับแฟรนไชส์เกมใหม่ของ Blizzard อย่าง Overwatch หลังหากินอยู่กับ Warcraft, Diablo และ Starcraft มานานกว่า 20 ปี ที่มา - CNET, @PlayOverwatch The world needed heroes, and an incredible 9.7 MILLION of you answered the call. Here's to our next adventure! pic.twitter.com/YIusT0rCUa — Overwatch (@PlayOverwatch) May 12, 2016   ", 
  "Date": "13/May/2016", 
  "Image-Link": [
    "https://www.blognone.com/sites/default/files/styles/thumbnail/public/topics-images/overwatch.png?itok=TLgOiXnG", 
    "/sites/all/themes/blognone42/images/linebutton.png"
  ], 
  "Link": "https://www.blognone.com/node/80929", 
  "News": "Blizzard ระบุมีผู้ร่วมทดสอบ Overwatch ช่วงเบต้ากว่า 9.7 ล้านคน", 
  "Tags": [
    "Overwatch", 
    "Activision Blizzard"
  ], 
  "Time": "11:26"
}