{
  "By": "nismod", 
  "Contents": " ในช่วงระยะหลังมานี้ เรามักจะได้เห็นข่าวเกี่ยวกับงานวิจัย ที่ระบุถึงความไม่แม่นยำในการเก็บข้อมูลด้านสุขภาพของอุปกรณ์สวมใส่ต่างๆ ขณะที่ Mark Lynch อดีตผู้ก่อตั้ง Autonomy ก็ออกมาตั้งข้อสงสัยถึงอุปกรณ์กลุ่มนี้ด้วยเช่นกันว่า น่าจะสร้างความยากลำบากให้กับบุคลากรทางการแพทย์มากกว่าความสะดวกสบาย Lynch ตั้งคำถามว่าบุคลากรทางการแพทย์ จะสามารถทำอะไรกับข้อมูล (ด้านสุขภาพที่อุปกรณ์เหล่านี้เก็บ) เหล่านี้ได้สักแค่ไหนกันเชียว เพราะทุกวันนี้บุคลากรทางการแพทย์ก็ต้องเผชิญกับข้อมูลจำนวนมหาศาล ที่เพิ่มมากขึ้นเรื่อยๆ อยู่แล้ว ขณะที่ข้อมูลจากอุปกรณ์สวมใส่ก็ไม่รู้ว่า จะก่อให้เกิดผลลัพธ์หรือประโยชน์ทางการแพทย์ได้มากน้อยแค่ไหน โดย Lynch ให้เหตุผลว่าเพราะอุปกรณ์สวมใส่ ไม่ได้ถูกพัฒนาและผลิตขึ้นมาจากฐานและงานวิจัยทางการแพทย์ แต่เป็นกลุ่มทุนจาก Silicon Valley อดีตผู้ก่อตั้ง Autonomy พูดถึงอุปกรณ์สวมใส่เหล่านี้ด้วยว่า เป็นแค่อุปกรณ์เสริมส่วนเกิน (over-instrumentation) เท่านั้น ที่มา - Business Insider   ", 
  "Date": "30/May/2016", 
  "Image-Link": [
    "https://www.blognone.com/sites/default/files/styles/thumbnail/public/topics-images/watch_s.jpg?itok=KPASDPQe", 
    "/sites/all/themes/blognone42/images/linebutton.png"
  ], 
  "Link": "https://www.blognone.com/node/81593", 
  "News": "อดีตผู้บริหาร Autonomy ตั้งแง่กับบทบาทของอุปกรณ์สวมใส่ด้านสุขภาพ", 
  "Tags": [
    "Wearable Computing", 
    "Health", 
    "Autonomy"
  ], 
  "Time": "11:22"
}