{
  "By": "nismod", 
  "Contents": " Nintendo เปิดเผยในงาน E3 ว่าจะปล่อยเกม Pokemon Go ให้เล่นกันในช่วงเดือนหน้า ขณะที่อุปกรณ์สวมข้อมืออย่าง Pokemon Go Plus จะวางจำหน่ายในราคา $34.99 เหรียญ (ประมาณ 1,200 บาท) Nintendo ระบุด้วยว่าเมื่อผู้เล่นจับโปเกมอนได้ จะได้ไอเท็ม \"candy\" ซึ่งเอาไว้ใช้สำหรับการเปลี่ยนร่างของโปเกมอน พร้อมทั้งระบุว่ากำลังพัฒนาระบบเทรด และน่าจะเปิดตัวฟีเจอร์นี้อย่างเร็วก็หลังจากปล่อยเกมออกไปแล้ว ด้วยเหตุผลว่าต้องการพัฒนาตัวเกมให้ออกมาดีที่สุดก่อน นอกจากนี้ Pokemon Go จะมีความเชื่อมโยงกับ Pokemon ภาคใหม่อย่างภาค Sun และ Moon ไม่ทางใดก็ทางหนึ่งด้วย ปัจจุบัน Pokemon Go กำลังอยู่ระหว่างการทดสอบแบบจำกัดผู้เข้าร่วมในหลายประเทศอย่าง สหรัฐ ญี่ปุ่น ออสเตรเลียและนิวซีแลนด์ ที่มา - Polygon   ", 
  "Date": "16/June/2016", 
  "Image-Link": [
    "https://www.blognone.com/sites/default/files/styles/thumbnail/public/topics-images/pokemon.png?itok=7HuOXT6S", 
    "/sites/all/themes/blognone42/images/linebutton.png"
  ], 
  "Link": "https://www.blognone.com/node/82325", 
  "News": "เตรียมผจญภัย! Nintendo ระบุจะปล่อย Pokemon Go ให้เล่นเดือนหน้า", 
  "Tags": [
    "Pokemon", 
    "Nintendo", 
    "Niantic Labs"
  ], 
  "Time": "11:37"
}