{
  "By": "nutmos", 
  "Contents": " Facebook ได้นำ Instant Articles ซึ่งเป็นระบบแสดงผลเว็บไซต์ในฟอร์แมตตัวเอง ช่วยให้ผู้ใช้โหลดได้เร็วขึ้น จากเดิมที่จำกัดเฉพาะแอพ Facebook เท่านั้น ตอนนี้ได้นำมาลงแอพ Facebook Messenger แล้ว สำหรับวิธีดูว่าบทความไหนรองรับ Instant Articles บน Messenger คือเมื่อได้รับลิงก์มาแล้วมุมขวาบนจะมีรูปสายฟ้าเล็ก ๆ เพื่อบอกว่าเมื่อกดเข้าไปจะโหลดหน้านั้นมาเป็น Instant Article ตอนนี้ Instant Articles สำหรับ Messenger นั้นสามารถใช้งานได้บนแอพสำหรับ Android แล้ว ส่วนแอพบน iOS จะตามมาในสัปดาห์หน้า ที่มา - Facebook    ", 
  "Date": "15/July/2016", 
  "Image-Link": [
    "https://www.blognone.com/sites/default/files/styles/thumbnail/public/topics-images/messenger-500.png?itok=We0tzOrE", 
    "http://i.cubeupload.com/ydK2zG.png", 
    "/sites/all/themes/blognone42/images/linebutton.png"
  ], 
  "Link": "https://www.blognone.com/node/83465", 
  "News": "Facebook Messenger รองรับ Instant Articles แล้ว", 
  "Tags": [
    "Facebook Messenger", 
    "Facebook", 
    "Instant Articles"
  ], 
  "Time": "11:39"
}