{
  "By": "Polwath", 
  "Contents": " ประกาศสั้นๆ จากทาง Apple ประเทศไทย จะมีการเปลี่ยนแปลงสกุลเงินที่ชำระบน App Store, iTunes Store และ Apple Music จากเดิมที่เป็นดอลลาร์สหรัฐเป็นค่าเงินบาทไทย ซึ่งจะมีผลในเร็วๆ นี้ โดยที่ผู้ใช้งานไม่ต้องทำการเปลี่ยนแปลง หรือดำเนินการใดๆ ทั้งสิ้น ซึ่งผลของการเปลี่ยนแปลงครั้งนี้จะมีผลกับประวัติการซื้อที่จะเปลี่ยนเป็นค่าเงินบาททั้งหมด และการสมัครบริการต่างๆ ทั้งสมัครใหม่และต่ออายุ รวมถึงการสั่งซื้อล่วงหน้าหลังจากนี้จะใช้ราคาเป็นเงินบาทไทยทั้งหมด ที่มา : Apple Support   ", 
  "Date": "27/May/2016", 
  "Image-Link": [
    "https://www.blognone.com/sites/default/files/styles/thumbnail/public/topics-images/itunes.png?itok=ez1P2oMo", 
    "/sites/all/themes/blognone42/images/linebutton.png"
  ], 
  "Link": "https://www.blognone.com/node/81498", 
  "News": "Apple ประเทศไทย ประกาศเปลี่ยนสกุลเงินรับชำระบนบริการ App Store, iTunes Store และ Apple Music เป็นค่าเงินบาทไทย", 
  "Tags": [
    "iTunes", 
    "App Store", 
    "Thailand"
  ], 
  "Time": "11:39"
}