{
  "By": "nismod", 
  "Contents": " สมาชิกวุฒิสภาของสหรัฐฯ จำนวนหนึ่งร่วมกันเสนอกฎหมาย Stop Mass Hacking Act ที่ควบคุมอำนาจในการแฮ็กของกระทรวงยุติธรรมและ FBI ที่อ้างหตุผลของการแฮ็กว่าการก่ออาชญากรรมในปัจจุบัน มีความล้ำหน้ามากยิ่งขึ้น แนวคิดเรื่องกฎหมายนี้มีขึ้น หลังจากเมื่อเดือนที่แล้วศาลสูงของสหรัฐได้แก้กฎของหนึ่ง ที่อนุญาตให้ผู้พิพากษามีอำนาจในการสั่งค้นอุปกรณ์หรือคอมพิวเตอร์ต้องสงสัย โดยไม่จำเป็นว่าอุปกรณ์นั้นจะต้องอยู่ภายใต้กรอบอำนาจของศาล (jurisdiction) ซึ่งฝ่ายที่ไม่เห็นด้วยก็แย้งว่า การแก้กฎนี้เหมือนกับมอบอำนาจให้กับ FBI ในการแฮ็กหรือค้นอุปกรณ์คอมพิวเตอร์จากทางไกล (remote access) ได้อย่างไม่ถูกจำกัด ที่มา  - Engadget   ", 
  "Date": "20/May/2016", 
  "Image-Link": [
    "https://www.blognone.com/sites/default/files/styles/thumbnail/public/topics-images/fbi.png?itok=Ht9lUzUa", 
    "/sites/all/themes/blognone42/images/linebutton.png"
  ], 
  "Link": "https://www.blognone.com/node/81229", 
  "News": "วุฒิสมาชิกสหรัฐเสนอกฎหมาย ควบคุมอำนาจการแฮ็กของกระทรวงยุติธรรม ", 
  "Tags": [
    "Department of Justice", 
    "FBI", 
    "USA", 
    "Law"
  ], 
  "Time": "11:40"
}