{
  "By": "trinakub", 
  "Contents": " Perfect World Entertainment เผยเกมใหม่ Dynasty Warriors Mobile ครั้งแรกของเกมต่อสู้สามก๊กบนอุปกรณ์พกพาบน Android และ iOS The Dynasty Warriors เป็นตระกูลเกมที่ประสบความสำเร็จและเป็นที่ชื่นชอบในหมู่นักเล่นเกมของบริษัท Koei Tecmo และมียอดขายรวมกันทั่วโลกเกิน 18 ล้านก๊อบปี้ เกมจะเปิดให้ทดลองเล่นได้ที่งาน E3 2016 ที่สหรัฐอเมริกา ระหว่าง 14-16 มิถุนายน 2559 ที่มา - mmoculture     ", 
  "Date": "2/June/2016", 
  "Image-Link": [
    "https://www.blognone.com/sites/default/files/styles/thumbnail/public/news-thumbnails/dw-01.jpg?itok=cHMoRj5T", 
    "http://i.imgur.com/olTTwdQ.jpg", 
    "http://i.imgur.com/5wRa4Lv.jpg", 
    "/sites/all/themes/blognone42/images/linebutton.png"
  ], 
  "Link": "https://www.blognone.com/node/81742", 
  "News": "ครั้งแรกกับสามก๊กบนมือถือ Dynasty Warriors Mobile เปิดให้เล่นที่งาน  E3 2016", 
  "Tags": [
    "Dynasty Warriors", 
    "Games", 
    "Koei Tecmo"
  ], 
  "Time": "11:42"
}