{
  "By": "nutmos", 
  "Contents": " ก่อนหน้านี้เคยมีข่าวว่า Instagram กำลังทดสอบโปรไฟล์สำหรับธุรกิจ ซึ่งมีจุดประสงค์คล้าย Facebook Page ซึ่งตอนนี้รายละเอียดออกมาแล้วว่าโปรไฟล์สำหรับธุรกิจนี้จะมีความพิเศษอีกอย่าง คือสามารถดูสถิติต่างๆ ได้ ภาพหน้าจอใหม่ของ Instagram แสดงให้เห็นถึงสถิติสำหรับบัญชี Instagram แบบธุรกิจ โดยปุ่มแสดงสถิตินี้จะเป็นรูปกราฟอยู่ทางด้านขวาบนของโปรไฟล์ ข้อมูลสถิติที่มีแสดง มีข้อมูลของภาพที่แสดงไปแล้ว คือ Top Posts เช่น ภาพไหนเป็นที่นิยมที่สุด, มีคนเห็นภาพนั้นกี่คนในช่วง 7 วันหรือ 30 วัน กับเรื่องจำนวนผู้ติดตาม หรือ Followers เช่น ช่วงเวลาที่ผู้ติดตามบัญชีนี้ใช้ Instagram ในแต่ละวัน, ผู้ติดตามมาจากประเทศไหน หรือเมืองไหนมากที่สุด และ Insights ที่แสดงการคลิกของเว็บไซต์, ความประทับใจ, ยอดที่เข้าถึง (reach) และอื่นๆ ที่มา - PetaPixel    ", 
  "Date": "17/May/2016", 
  "Image-Link": [
    "https://www.blognone.com/sites/default/files/styles/thumbnail/public/topics-images/ig.png?itok=IUjEmhEC", 
    "http://i.cubeupload.com/jtSlCg.png", 
    "/sites/all/themes/blognone42/images/linebutton.png"
  ], 
  "Link": "https://www.blognone.com/node/81068", 
  "News": "โปรไฟล์ธุรกิจบน Instagram จะมีเครื่องมือแสดงสถิติเข้ามาด้วย", 
  "Tags": [
    "Instagram"
  ], 
  "Time": "11:41"
}