{
  "By": "nismod", 
  "Contents": " เมื่อวานนี้ Xiaomi ได้เปิดตัว Mi Drone โดรนตัวแรกของบริษัทแล้ว ตามที่มีข่าวออกมาก่อนหน้านี้ โดยรูปทรงของโดรนไม่แตกต่างจากโดรนของ DJI มากนัก แต่ราคาถูกกว่ากันเกือบครึ่ง Mi Drone ถูกแบ่งเป็นสองรุ่นย่อยตามความละเอียดของกล้องคือรุ่น 1080p (กล้องความละเอียด 16 ล้านพิกเซล) และรุ่น 4K (กล้องความละเอียด 12 ล้านพิกเซล รองรับการถ่ายภาพนิ่งเป็นไฟล์ RAW) พร้อมกับเลนส์ที่กว้างถึง 104 องศาและรองรับการถ่ายทอดสดวิดีโอที่ความละเอียด 720p ได้ไกลสูงสุด 2 กิโลเมตร พร้อมแกนกันสั่น 3 แกน แบตเตอรี่ความจุ 5,100 mAh สามารถบินได้ต่อเนื่องนานถึง 27 นาที นอกจากนี้ยังมาพร้อมกับ GPS และ GLONASS ช่วยระบุตำแหน่งของโดรนได้แม่นยำมากขึ้น รองรับฟีเจอร์ Auto-Pilot ที่แบ่งออกเป็น 4 โหมดย่อยคือ ออกตัวและแลนดิ้ง, บินตามเส้นทางที่กำหนด, บินไปยังจุดหมายที่กำหนดบนแผนที่ และโหมดบินวนรอบวัตถุ พร้อมกับฟังก์ชันบินกลับจุดออกตัวเมื่อแบตเตอรี่ใกล้หมดหรือขาดการเชื่อมต่อจากคอนโทรลเลอร์ สำหรับราคาของ Mi Drone รุ่น 1080p อยู่ที่ 2,499 หยวน (ประมาณ 13,500 บาท) และรุ่น 4K อยู่ที่ 2,999 หยวน (ประมาณ 16,200 บาท) ยังไม่ระบุวันวางจำหน่ายครับ ที่มา - MIUI          ", 
  "Date": "26/May/2016", 
  "Image-Link": [
    "https://www.blognone.com/sites/default/files/styles/thumbnail/public/topics-images/xiaomi.png?itok=W_8-Phci", 
    "https://c7.staticflickr.com/8/7381/26649998934_a9479d7f44_z.jpg", 
    "https://c5.staticflickr.com/8/7707/27159539052_fd82f4f3bd_z.jpg", 
    "https://c8.staticflickr.com/8/7014/27256657335_9edc4ca732_z.jpg", 
    "https://c7.staticflickr.com/8/7286/27159538462_f17d0264aa_z.jpg", 
    "https://c6.staticflickr.com/8/7330/27256657205_63844d424f_z.jpg", 
    "https://c2.staticflickr.com/8/7110/27256657185_e055041ac4_z.jpg", 
    "https://c6.staticflickr.com/8/7343/27256657045_06412a7469_z.jpg", 
    "/sites/all/themes/blognone42/images/linebutton.png"
  ], 
  "Link": "https://www.blognone.com/node/81436", 
  "News": "Xiaomi เปิดตัวโดรนตัวแรกของบริษัท มาพร้อมกล้องความละเอียด 4K ", 
  "Tags": [
    "Xiaomi", 
    "Drone"
  ], 
  "Time": "11:54"
}