{
  "By": "nutmos", 
  "Contents": " Walmart เริ่มเตรียมการนำโดรนมาใช้ในบริษัท ซึ่งจะเริ่มใช้ที่คลังสินค้าก่อน โดย Walmart จะนำโดรนมาใช้ในการจัดการสิ่งของที่มีอยู่ในคลัง หน้าที่ของโดรนที่ Walmart ตั้งใจจะให้ใช้ในคลังสินค้า คือใช้บินไปรอบๆ โกดังที่มีขนาดใหญ่ เพื่อดูว่าสินค้าอะไรใกล้หมดแล้วบ้าง และต้องการเติมหรือไม่ โดย Shekar Natarajan ผู้บริหาร Walmart กล่าวว่าโดรนช่วยการจัดการสินค้าได้เร็วขึ้น เหลือในระดับไม่กี่วัน แต่ถ้าใช้มนุษย์อาจใช้เวลาเป็นเดือน สำหรับโดรนใช้ในคลังสินค้าของ Walmart นี้ จะทดสอบและใช้จริงให้ได้ในคลังสินค้าของบริษัทภายใน 6-9 เดือน และ Walmart ยังบอกว่าโดรนสามารถใช้งานในสถานที่อื่นๆ เช่นในร้านค้าได้อีก แต่ไม่ได้เผยรายละเอียดในเรื่องนี้ ที่มา - The New York Times, The Verge   ", 
  "Date": "3/June/2016", 
  "Image-Link": [
    "https://www.blognone.com/sites/default/files/styles/thumbnail/public/topics-images/walmart.png?itok=WcVkpdXc", 
    "/sites/all/themes/blognone42/images/linebutton.png"
  ], 
  "Link": "https://www.blognone.com/node/81806", 
  "News": "Walmart เตรียมนำโดรนมาใช้ในการจัดการคลังสินค้า", 
  "Tags": [
    "Walmart", 
    "Drone"
  ], 
  "Time": "11:58"
}