{
  "By": "sunnywalker", 
  "Contents": " เหตุเกิดเมื่อวันศุกร์ที่ผ่านมา เมื่อผู้ขับขี่จักรยานและรถบรรทุกชนกันระหว่างเลี้ยว ขณะมุ่งหน้าไปทางเดียวกันในเขตชิคาโก ส่งผลให้ผู้ขับจักรยานผู้ชายวัย 25 ปีเสียชีวิต และถือเป็นครั้งแรกในสหรัฐฯที่มีนักปั่นเสียชีวิตระหว่างการใช้บริการ bike-sharing บริการ bike-sharing เป็นธุรกิจที่ประสบความสำเร็จมาก ด้วยเทรนด์เศรษฐกิจและการบริการแบบแบ่งปันหมุนเวียนกันหรือ sharing economy และยิ่งมีระบบจ่ายเงินอิเล็กทรอนิกส์ ระบบการติดตามช่วยป้องกันการขโมยจักรยาน bike-sharing จึงทวีความนิยมมากขึ้น อัมสเตอร์ดัมและโคเปนเฮเกนทำเป็นที่แรก และมาได้รับความนิยมในสหรัฐฯตั้งแต่ปี 2007 โดยมีผู้ใช้บริการในสหรัฐฯแล้วเป็นล้านทริปการเดินทาง เหตุการณ์ครั้งนี้จะสร้างปัญหาให้บริการ bike-sharing หรือไม่? เพราะแม้มีการวิจัยออกมาว่า bike-sharing ปลอดภัยกว่าการขับจักรยานส่วนตัว เพราะมีไฟหน้าใหญ่กว่าและมีฟีเจอร์เพื่อความปลอดภัยมากกว่า แต่ก็ยังคงมีสถิติอุบัติเหตุให้เห็นเช่นในแคนาดาและเม็กซิโก อีกทั้งจากรายงานจากหน่วยงานทางหลวงและความปลอดภัยทางจราจร ผู้ได้รับผลกระทบจากอุบัติเหตุมากที่สุดคือนักปั่นและคนเดินเท้า ฟีเจอร์ความปลอดภัยของจักรยานจึงอาจยังไม่เพียงพอต่อการป้องกันชีวิต เพราะสิ่งนั้นต้องมาคู่กับระบบและการออกแบบถนนที่ดี จักรยานจากบริการ bike-share ในนิวยอร์ก ที่มาภาพ วิกิพีเดีย ที่มา - Fortune   ", 
  "Date": "4/July/2016", 
  "Image-Link": [
    "https://www.blognone.com/sites/default/files/styles/thumbnail/public/topics-images/Flag_of_the_United_States.svg_.png?itok=D_Hwf4EE", 
    "http://i.imgur.com/1jKRISm.jpg", 
    "/sites/all/themes/blognone42/images/linebutton.png"
  ], 
  "Link": "https://www.blognone.com/node/82963", 
  "News": "นักปั่นประสบอุบัติเหตุเสียชีวิตระหว่างใช้บริการ bike-sharing ถือเป็นครั้งแรกในสหรัฐฯ", 
  "Tags": [
    "Bicycle", 
    "Sharing Economy", 
    "USA"
  ], 
  "Time": "11:59"
}