{
  "By": "trinakub", 
  "Contents": " หลังจากที่มีข่าวลือว่าเกม  RF Online 2 (Rising Force Online 2) นั้นอาจกลับมาเปิดให้บริการอีกครั้งไม่ทันใด Locojoy ได้มีการประกาศว่าทางค่ายเปิดให้บริการเกม RF Online 2 ที่เซิร์ฟเวอร์จีนเป็นที่เรียบร้อยแล้ว และอาจเปิดให้บริการแพลตฟอร์มอื่นๆนอกจาก PC อย่าง Xbox One, Steam และมือถืออีกด้วย RF Online เป็นเกม Action MMORPG แนววิทยาศาสตร์ที่ดำเนินเนื้อเรื่องในอวกาศไกลโพ้น บริเวณสุดขอบระบบสุริยะจักรวาลชื่อ Novus จะมีการทำสงครามเป็นเนื้อเรื่องหลักและแสดงให้เห็นถึงฉากการต่อสู้ที่เปี่ยม ไปด้วยพลังและความยอดเยี่ยม Locojoy ประกาศออกมาแบบนี้รอฟังอัพเดตและข้อมูลเกมกันได้เลย  ที่มา - mmoculture   ", 
  "Date": "1/June/2016", 
  "Image-Link": [
    "https://www.blognone.com/sites/default/files/styles/thumbnail/public/news-thumbnails/%E0%B8%94%E0%B8%B2%E0%B8%A7%E0%B8%99%E0%B9%8C%E0%B9%82%E0%B8%AB%E0%B8%A5%E0%B8%94.png?itok=7NCP06kr", 
    "http://i.imgur.com/7N4GimV.jpg", 
    "/sites/all/themes/blognone42/images/linebutton.png"
  ], 
  "Link": "https://www.blognone.com/node/81696", 
  "News": "Rising Force Online 2 กลับมาเปิดบริการอีกครั้ง มีเซิร์ฟเวอร์ที่จีนแล้ว !", 
  "Tags": [
    "RF Online", 
    "MMORPG", 
    "Games"
  ], 
  "Time": "11:53"
}