{
  "By": "mk", 
  "Contents": " Facebook ประกาศจะแสดงภาพถ่ายแบบ 360 องศาบน News Feed หน้าปกติในเร็วๆ นี้ ถ้าหากเห็นเพื่อนของเราโพสต์ภาพ 360 องศาลักษณะนี้ เราสามารถใช้เมาส์ลากเพื่อดูมุมอื่นๆ ได้เลย หรือถ้าดูบนสมาร์ทโฟน-แท็บเล็ตก็สามารถหมุนเครื่องตามภาพได้ ภาพที่โพสต์ขึ้น Facebook ยังสามารถดูได้จากแอพ Oculus 360 Photos บนสมาร์ทโฟนของซัมซุง และบนแว่น Gear VR ส่วนการถ่ายภาพแบบ 360 องศาเพื่อโพสต์ขึ้น Facebook สามารถใช้ได้ทั้งกล้องถ่ายภาพ 360 องศาในท้องตลาด หรือจากสมาร์ทโฟนโดยตรงก็ได้เช่นกัน ที่มา - Oculus    ", 
  "Date": "12/May/2016", 
  "Image-Link": [
    "https://www.blognone.com/sites/default/files/styles/thumbnail/public/topics-images/fb-500.png?itok=7KEmyKx1", 
    "https://i.imgur.com/v7ZXYi3.jpg", 
    "/sites/all/themes/blognone42/images/linebutton.png"
  ], 
  "Link": "https://www.blognone.com/node/80873", 
  "News": "Facebook เตรียมแสดงภาพ VR 360 องศาบน News Feed เร็วๆ นี้", 
  "Tags": [
    "Facebook", 
    "Oculus", 
    "Virtual Reality"
  ], 
  "Time": "11:53"
}