{
  "By": "sunnywalker", 
  "Contents": " Adobe Sign เดิมชื่อ  Document Cloud eSign  เพิ่มความสามารถเซ็นเอกสารผ่านสมาร์ทโฟนและแพลตฟอร์มต่างๆได้ทันทีโดยไม่ต้องปรินท์ เชื่อมต่อผ่าน Adobe Marketing Cloud ย่นระยะเวลาขั้นตอนการรับรองเอกสาร โปรเจกต์งานต่างๆที่ต้องได้รับการอนุมัติให้สั้นลง Adobe Sign เชื่อมต่อกับ  Adobe Marketing Cloud ซอฟต์แวร์วิเคราะห์ข้อมูลการตลาด เจาะกลุ่มองค์กรบริษัท (เป็นหนึ่งในกลุ่ม Cloud ทั้งสามของ Adobe ประกอบด้วย Creative Cloud,Document Cloud และ Marketing Cloud)  การผนวกรวมกันของบริการทั้งสองตัว สามารถรองรับการปรับแต่งตามความต้องการของบุคคล วิเคราะห์ ปรับปรุงประสิทธิภาพของงานได้  ด้วยความสามารถของ Adobe Target และ Adobe Analytics ซึ่งเป็นเครื่องมือที่ประกอบอยู่ใน Marketing Cloud  ช่วยกำหนดเป้าหมายประสบการณ์ดิจิทัล  และเป็นเครื่องมือวิเคราะห์ข้อมูลการตลาดได้ Adobe Sign รองรับกฎระเบียบ eIDAS ซึ่งเป็นกฎระเบียบเรื่องลายเซ็นของ EU องค์กรในประเทศกลุ่ม EU สำหรับ Tablet และ Smartphone สามารถทำงานเอกสารได้ด้วยแอพพลิเคชั่น Adobe Sign สำหรับ iOS และ Android รุ่นใหม่ที่มาแทน eSign ตัวเดิม รองรับการอนุมัติเซ็นเอกสารระหว่างอยู่นอกสถานที่ได้ด้วย    ที่มา-งานแถลงข่าว Adobe   ", 
  "Date": "11/May/2016", 
  "Image-Link": [
    "https://www.blognone.com/sites/default/files/styles/thumbnail/public/news-thumbnails/unnamed_32.png?itok=KbgEUVCM", 
    "//i.imgur.com/8aeBfOe.jpg”", 
    "//i.imgur.com/XQRm6F1.jpg”", 
    "//i.imgur.com/bD0MsAa.jpg”", 
    "/sites/all/themes/blognone42/images/linebutton.png"
  ], 
  "Link": "https://www.blognone.com/node/80838", 
  "News": "Adobe เปิดตัว Adobe Sign เปลี่ยนจากชื่อเดิม Document Cloud eSign  ", 
  "Tags": [
    "Adobe", 
    "Cloud"
  ], 
  "Time": "12:06"
}