{
  "By": "nismod", 
  "Contents": " ไมโครซอฟท์ประกาศความร่วมมือกับ Kind สตาร์ทอัพจากแอลเอในการพัฒนาระบบและโซลูชันติดตามการปลูกและการขายกัญชาอย่างถูกกฎหมาย โดยทางไมโครซอฟท์ ซึ่งนับเป็นบริษัทใหญ่บริษัทแรกที่ประกาศทำธุรกิจเกี่ยวโยงกับกัญชา จะเข้ามาดูแลเรื่องการทำงานบนคลาวด์ Azure ความร่วมมือระหว่างไมโครซอฟท์กับ Kind มีขึ้นเพื่อช่วยเหลือภาครัฐระดับท้องถิ่นที่รองรับกัญชาตามกฎหมาย ติดตามกระบวนการตั้งแต่การปลูกจนไปถึงการขายเพื่อให้แน่ใจว่ากระบวนการเหล่านั้น ยังคงอยู่ภายใต้กรอบที่กฎหมายกำหนด ทั้งนี้ Kind เป็นบริษัทที่พยายามผลักดันธุรกิจต่างๆ เกี่ยวกับกัญชาในสหรัฐ อย่างการผลักดันตู้ kiosk ที่ขายกัญชาเป็นต้น ซึ่งแน่นอนว่าไมโครซอฟท์ไม่ได้เข้าไปมีส่วนกับ Kind ในประเด็นเหล่านี้แต่อย่างใด ที่มา - WSJ via The Verge   ", 
  "Date": "17/June/2016", 
  "Image-Link": [
    "https://www.blognone.com/sites/default/files/styles/thumbnail/public/topics-images/MSFT_logo_rgb_C-Gray.png?itok=j3hJhqua", 
    "/sites/all/themes/blognone42/images/linebutton.png"
  ], 
  "Link": "https://www.blognone.com/node/82372", 
  "News": "ไมโครซอฟท์ประกาศพัฒนาโซลูชัน ที่ช่วยเหลือภาครัฐติดตามอุตสาหกรรมกัญชา", 
  "Tags": [
    "Microsoft", 
    "Microsoft Azure"
  ], 
  "Time": "12:03"
}