{
  "By": "nismod", 
  "Contents": " Hitachi ประกาศจัดตั้งหน่วยธุรกิจด้าน IoT ภายใต้ชื่อ Hitachi Insight Group ซึ่งจะมีสำนักงานใหญ่ตั้งอยู่ในเมือง Santa Clara มลรัฐแคลิฟอร์เนีย โดยทาง Hitachi มีการพัฒนาทั้งผลิตภัณฑ์และการบริการที่เกี่ยวกับ IoT มาได้ระยะหนึ่งแล้ว ก่อนที่จะจัดตั้งบริษัทเพื่อดูแลธุรกิจด้านนี้โดยตรง รวมถึงเปิดตัว Lumada คอร์แพลตฟอร์ม IoT ของตัวเองด้วย Hitachi Insight Group จะดูแลด้านการวิจัยและพัฒนา (R&D) และด้านการหาตลาด IoT ของบริษัท โดยจะเน้นไปที่ 4 ตลาดคือ Smart City, Smart Healthcare, Smart Energy และ Smart Industry เป็นหลัก พร้อมกันนี้ Hitachi ยังได้จัดตั้งกลุ่ม IoT Alliance Ecosystem เพื่อร่วมกันพัฒนาโซลูชัน IoT โดยมีบริษัทใหญ่ๆ อย่าง Intel, SAP, Microsoft, AT&T และ PTC เข้าร่วมด้วย ที่มา - eWeek   ", 
  "Date": "11/May/2016", 
  "Image-Link": [
    "https://www.blognone.com/sites/default/files/styles/thumbnail/public/topics-images/hitachi.png?itok=41dyXMhV", 
    "/sites/all/themes/blognone42/images/linebutton.png"
  ], 
  "Link": "https://www.blognone.com/node/80837", 
  "News": "Hitachi ประกาศตั้งหน่วยธุรกิจด้าน IoT พร้อมแพลตฟอร์ม Lumada", 
  "Tags": [
    "Hitachi", 
    "Internet of Things"
  ], 
  "Time": "12:05"
}