{
  "By": "nismod", 
  "Contents": " ก่อนจะเปิดตลาดขาย IPO อย่างเป็นทางการในวันที่ 15 กรกฎาคมนี้ LINE ประกาศราคาเริ่มต้นของ IPO ล่าสุดขึ้นไปอยู่ที่หุ้นละ 32.80 เหรียญสหรัฐ เพิ่มขึ้นจากการประกาศก่อนหน้านี้มาประมาณ 8 เหรียญ Tech in Asia ระบุว่าความเปลี่ยนแปลงนี้ส่วนหนึ่งเกิดจากความผันผวนในตลาดหลังประชามติในสหราชอาณาจักร และจะทำให้ยอดระดมทุนเพิ่มขึ้นจากเดิมมาอยู่ที่ประมาณ 1.3 พันล้านเหรียญสหรัฐ โดย LINE จะขาย IPO ที่ 35 ล้านหุ้น พร้อมด้วยเป็นหุ้นส่วนเกิน (Over-Allotment Portion) อีก 5.25 ล้านหุ้น ที่มา - Tech in Asia   ", 
  "Date": "11/July/2016", 
  "Image-Link": [
    "https://www.blognone.com/sites/default/files/styles/thumbnail/public/topics-images/line300.png?itok=EJ65plDD", 
    "/sites/all/themes/blognone42/images/linebutton.png"
  ], 
  "Link": "https://www.blognone.com/node/83258", 
  "News": "LINE ปรับราคา IPO ก่อนขายจริง ราคาเริ่มต้นขึ้นไปอยู่ที่ $32.80", 
  "Tags": [
    "LINE", 
    "IPO", 
    "Naver"
  ], 
  "Time": "12:18"
}