{
  "By": "nrad6949", 
  "Contents": " ที่งาน Google I/O ประจำปีนี้ Xiaomi ประกาศเปิดตัว Xiaomi Mi Box อุปกรณ์ set-top box สาย Android TV ตัวใหม่อย่างเป็นทางการ โดย Clay Bavor เป็นคนประกาศข่าวดังกล่าว Mi Box จะเป็น set-top box ที่ใช้ระบบปฏิบัติการเป็น Android TV และรองรับการแสดงผลที่ความละเอียด 4K HDR โดยมีรีโมทที่รองรับการสั่งงานด้วยเสียงผ่าน Bluetooth มาให้ด้วย และจะขายอุปกรณ์เสริมเป็น Mi Game Controller จอยสำหรับการเล่นเกมคู่กับ Mi Box ด้วย (สเปกเต็มอ่านได้ท้ายข่าว) ยังไม่มีการประกาศว่าจะวางขายเมื่อใด แต่ประกาศแล้วว่ามีวางขายในสหรัฐอเมริกาอย่างแน่นอน ที่มา - @xiaomi, โพสต์ Facebook ของ Xiaomi ผ่าน Ausdroid  Mi Box, our 4K HDR Android TV set-top box with bluetooth voice remote, will be coming to the US soon! #io16 pic.twitter.com/O5Nt1Vlnf6 — Mi (@xiaomi) May 18, 2016 Mi Box  รองรับการแสดงผลที่ความละเอียด 4K, 60 fps รองรับ HDR10 และ HDMI 2.0 a ระบบเสียง Dolby Digital Plus และ DTS surround sound รีโมทส่งคำสั่งเสียงผ่าน Bluetooth พอร์ต USB สำหรับเพิ่มความจุของเครื่อง Wi-Fi 802.11ac รองรับ Mi Game Controller    ", 
  "Date": "19/May/2016", 
  "Image-Link": [
    "https://www.blognone.com/sites/default/files/styles/thumbnail/public/topics-images/xiaomi.png?itok=W_8-Phci", 
    "https://i.imgur.com/vCLEmOq.jpg", 
    "/sites/all/themes/blognone42/images/linebutton.png"
  ], 
  "Link": "https://www.blognone.com/node/81188", 
  "News": "Xiaomi แถลงเปิดตัว Mi Box ที่งาน Google I/O ใช้ Android TV เป็นระบบปฏิบัติการ", 
  "Tags": [
    "Xiaomi", 
    "Android TV", 
    "Google", 
    "Google I/O", 
    "Television"
  ], 
  "Time": "12:19"
}