{
  "By": "advertorial", 
  "Contents": " GrabBike (Ride) ออกโปรโมชั่นใหม่ ใช้บริการไม่จำกัดระยะทางภายในเขตพื้นที่ร่วมโปรโมชั่นทั้งต้นทางและปลายทาง รับสิทธิ์นั่งฟรีหรือจ่ายค่าบริการสูงสุดเพียง 5 บาท* ตั้งแต่วันนี้ ถึง 17 พ.ค. 2559 นี้เท่านั้น จำกัดจำนวน 10 ครั้งต่อผู้ใช้ เลือกจ่ายได้ทั้งเงินสด และบัตรเครดิต ใช้รหัส “CHEAP”  เฉพาะการเดินทางในระยะทางไม่เกิน 13 กิโลเมตร หรือค่าบริการไม่เกิน 100 บาท หากเกินกว่านี้ ระบบจะคิดเป็นส่วนลด 100 บาทแทน สำหรับพื้นที่ร่วมโปรโมชั่น ครอบคลุม สยาม สีลม สาทร อนุสาวรีย์ชัยสมรภูมิ และพื้นที่อื่นตามแผนที่ด้านล่าง     ", 
  "Date": "10/May/2016", 
  "Image-Link": [
    "https://www.blognone.com/sites/default/files/styles/thumbnail/public/topics-images/grab_0.png?itok=cZumEDP8", 
    "//upic.me/i/95/1200x628.jpg", 
    "/sites/all/themes/blognone42/images/linebutton.png"
  ], 
  "Link": "https://www.blognone.com/node/80792", 
  "News": "โปรโมชั่นใหม่ นั่ง GrabBike นั่งไกลแค่ไหนก็จ่ายไม่เกิน 5 บาท", 
  "Tags": [
    "Grab", 
    "Advertorial"
  ], 
  "Time": "12:17"
}