{
  "By": "lew", 
  "Contents": " บอร์ดเสริม Raspberry Pi มักมีความสามารถเฉพาะอย่าง แต่บอร์ด MATRIX Creator เป็นเหมือนห้องทดลองที่ใส่อุปกรณ์ทุกอย่างมาแทบครบแล้ว ตั้งแต่เซ็นเซอร์ไปจนถึงไมโครคอนโทรลเลอร์และ FPGA ชิปหลักของ MATRIX Creator คือ Spartan 6 และไมโครคอนโทรลเลอร์ Atmel ATSAM3S2C Cortex-M3 ส่วนการเชื่อมต่อรองรับ ZigBee, Z-Wave, Thread, และ NFC บนบอร์ดมีเซ็นเซอร์ทั้งอุณหภูมิ, ความชื้น, ความกดดัน, ระดับรังสีอัลตร้าไวโอเล็ต, accelerometer, gyroscope, เซ็นเซอร์แม่เหล็ก, และชุดไมโครโฟน 8 ตัว นอกจากนี้ยังมีไฟ LED แบบปรับสีได้ RGBW อีก 35 ดวงเป็นวงกลม และเซ็นเซอร์รับส่งอินฟราเรด ตัวพอร์ตเชื่อมต่อกับพอร์ต I/O 40 ขาของ Rapsberry Pi ได้พอดี ราคา 99 ดอลลาร์ เริ่มส่งสัปดาห์หน้า ที่มา - CNX Software    ", 
  "Date": "7/July/2016", 
  "Image-Link": [
    "https://www.blognone.com/sites/default/files/styles/thumbnail/public/topics-images/rpi.png?itok=6foMUDiT", 
    "//upic.me/i/e5/website-bg.jpg", 
    "/sites/all/themes/blognone42/images/linebutton.png"
  ], 
  "Link": "https://www.blognone.com/node/83117", 
  "News": "MATRIX Creator บอร์ดเสริม Raspberry Pi ใส่อุปกรณ์ IoT เกือบทุกอย่าง", 
  "Tags": [
    "Hardware", 
    "Raspberry Pi", 
    "Internet of Things"
  ], 
  "Time": "12:16"
}