{
  "By": "sunnywalker", 
  "Contents": " TFL หรือหน่วยงานการคมนาคมของลอนดอนร่วมมือกับ Twitter ให้แจ้งเตือนผ่าน direct message ของทุกคนโดยตรงเมื่อเกิดเหตุรถไฟฟ้าชำรุด ซึ่งอาจเป็นครั้งแรกของการร่วมมือของหน่วยงานคมนาคมกับโซเชียลมีเดีย การทำงานคือ ชาวลอนดอนต้องเข้าไปที่เว็บไซต์ TFL เพื่อเลือกเส้นทางรถไฟที่ต้องการรับการแจ้งเตือน ขณะนี้มีให้เลือกสี่เส้นทางคือ Central Line, District Line, London Overground และ TfL Rail ส่วนเส้นทางอื่นๆกำลังจะตามมาเนื่องจากยังอยู่ในช่วงพัฒนาและทดลองใช้ ผู้ใช้ยังสามารถตั้งเวลาได้ว่าเวลาไหนที่ต้องการรับการแจ้งเตือน จะได้ไม่ต้องรับข้อความแจ้งเตือนในวันหยุด  ภาพจาก Travel Alerts on Twitter ที่มา - Engadget   ", 
  "Date": "10/June/2016", 
  "Image-Link": [
    "https://www.blognone.com/sites/default/files/styles/thumbnail/public/topics-images/twitter300.png?itok=DkxsrWCR", 
    "http://i.imgur.com/9imiRIG.png", 
    "/sites/all/themes/blognone42/images/linebutton.png"
  ], 
  "Link": "https://www.blognone.com/node/82110", 
  "News": "คมนาคมลอนดอนร่วมกับ Twitter แจ้งเตือนผู้โดยสารหากรถไฟฟ้าชำรุด ", 
  "Tags": [
    "Twitter", 
    "London"
  ], 
  "Time": "12:25"
}