{
  "By": "nismod", 
  "Contents": " Disney ได้ประกาศปิดตัว Disney Infinity ซึ่งเป็นเกมที่เอาตุ๊กตาของ Disney และ Pixar มาเล่นบนวิดีโอเกม หลังเปิดตัวและดำเนินงานมา 3 ปี พร้อมทั้ง Avalache สตูดิโอที่พัฒนาเกม โดย Disney ให้เหตุผลว่าตลาด toys-to-life ไม่เติบโตเท่าที่ควร ประกอบกับต้นทุนที่สูงขึ้นเรื่อยๆ หลังจากนี้ จะไม่มีการอัพเดต Disney Infinity ที่ปัจจุบันเดินทางมาถึงเวอร์ชัน 3.0 แล้ว แต่ตัวละครจาก Alice Through the Looking Glass อีก 3 ตัวและเซ็ตของ Finding Dory ที่มีกำหนดจะออกในเร็วๆ นี้ จะยังวางจำหน่ายตามกำหนดการเดิม ที่มา - Venture Beat    ", 
  "Date": "11/May/2016", 
  "Image-Link": [
    "https://www.blognone.com/sites/default/files/styles/thumbnail/public/topics-images/Disney_Logo.png?itok=hkMW23-M", 
    "https://farm8.staticflickr.com/7342/26672794340_c25ab6bb07_z.jpg", 
    "/sites/all/themes/blognone42/images/linebutton.png"
  ], 
  "Link": "https://www.blognone.com/node/80839", 
  "News": "Disney ปิดโครงการเกม Disney Infinity เหตุต้นทุนสูงและไม่โตตามเป้า", 
  "Tags": [
    "Disney", 
    "Games"
  ], 
  "Time": "12:23"
}