{
  "By": "nismod", 
  "Contents": " หลัง Pokemon Go ถูกปล่อยให้เล่นในออสเตรเลียและนิวซีแลนด์เมื่อวาน สถานที่ต่างๆ จำนวนมากได้กลายเป็นเสา PokeStop สำหรับเก็บของและยิม ซึ่งแน่นอนว่าการจะเก็บของและเล่นยิมนั้นก็ต้องเดินเข้าไปใกล้ๆ สถานที่จริงที่เป็นที่ตั้งของเสาเหล่านั้น ด้วยเหตุนี้ทำให้สถานีตำรวจ Darwin ในออสเตรเลีย ซึ่งกลายเป็น PokeStop คราคร่ำไปด้วยผู้เล่นที่เดินขึ้นไปในสถานีตำรวจเพื่อเก็บของ จนเจ้าหน้าที่ไม่เป็นอันทำงานทำการ ทางเพจ Northern Territory Police, Fire and Emergency Services ของออสเตรเลียจึงประกาศเตือนอย่างเป็นกันเองว่า ผู้เล่นไม่จำเป็นต้องเดินเข้าไปในสถานีตำรวจ ก็สามารถเก็บโปเกบอลได้ อีกทั้งยังแนะนำให้เงยหน้าจากโทรศัพท์ขึ้นมาดูทางเวลาข้ามถนนด้วย ที่มา - เพจ Nothern Territory Police, Fire and Emergency Services via The Verge   ", 
  "Date": "7/July/2016", 
  "Image-Link": [
    "https://www.blognone.com/sites/default/files/styles/thumbnail/public/topics-images/pokemon.png?itok=7HuOXT6S", 
    "/sites/all/themes/blognone42/images/linebutton.png"
  ], 
  "Link": "https://www.blognone.com/node/83118", 
  "News": "สถานีตำรวจออสเตรเลียโพสต์เตือนผู้เล่น Pokemon Go หลังผู้เล่นแห่เข้าสถานีเพื่อเก็บของ", 
  "Tags": [
    "Pokemon", 
    "Australia", 
    "Games"
  ], 
  "Time": "12:29"
}