{
  "By": "mk", 
  "Contents": " ก่อนหน้านี้มีข่าว Sony ออก Xperia Z5 Premium Pink สีชมพู โดยวางขายเฉพาะในบางประเทศ ล่าสุดวันนี้ Sony Thai ประกาศว่าจะนำสีพิเศษนี้เข้ามาขายด้วย ชื่ออย่างเป็นทางการคือ Xperia Z5 Premium Rose Gold Xperia Z5 Premium Rose Gold ตั้งราคา 24,990 บาท ขายในจำนวนจำกัดตั้งแต่วันที่ 19 พฤษภาคมนี้ ถ้าซื้อในงาน Thailand Mobile Expo จะแถมกระเป๋าเดินทาง เคส ฟิล์มกันรอยอีกด้วย ที่มา - อีเมลประชาสัมพันธ์ Sony Thai   โซนี่ไทยพร้อมวางตลาด Xperia™Z5 Premium Rose Gold จำนวนจำกัด พบโปรโมชั่นสุดพิเศษในงาน Thailand Mobile Expo       บริษัท โซนี่ ไทย จำกัด เปิดตัวสมาร์ทโฟน Xperia™ Z5 Premium Rose Gold สวยหรู ครบเครื่องด้วยวิศวกรรมทางเทคโนโลยีสุดล้ำของโซนี่ โดดเด่นแข็งแกร่งด้วยดีไซน์ และวัสดุสุดพรีเมียม อัดแน่นด้วยคุณสมบัติอันทรงประสิทธิภาพรอบตัว เริ่มวางจำหน่ายตั้งแต่วันที่ 19 พฤษภาคม ศกนี้ ในจำนวนจำกัด พร้อมรับสิทธิพิเศษสุด เมื่อซื้อ Xperia™ Z5 Premium Rose Gold ภายในงาน Thailand Mobile Expo ที่ศูนย์การประชุมแห่งชาติสิริกิติ์ ในระหว่างวันที่ 19 – 22 พฤษภาคม ศกนี้    Xperia™ Z5 Premium Rose Gold อัดแน่นด้วยคุณสมบัติระดับพรีเมียม เฉกเช่นเดียวกับ Xperia™ Z5 Premium เป็นสมาร์ทโฟนเครื่องแรกของโลกที่โดดเด่นด้วยหน้าจอ 4K Triluminos™ หน้าจอขนาด 5.5 นิ้ว ที่ให้รายละเอียดสุดคมชัด และสีสันสดใสสมจริง โดย Xperia™ Z5 Premium Rose Gold  มาพร้อมกล้องความละเอียด 23 ล้านพิกเซล ใช้เซ็นเซอร์ Exmor RS™ 1/2.3 พร้อมเลนส์ G F2.0 โฟกัสอัตโนมัติแบบไฮบริดเร็วถึง 0.03 วินาที การซูมภาพคมชัด 5 เท่า, ISO 12800 สำหรับโหมดถ่ายภาพกลางคืน ISO 3200 สำหรับวิดีโอ พร้อม SteadyShot™ ลดการสั่นไหว สามารถบันทึกวิดีโอในระดับ 4K อีกทั้งสามารถอัพสเกลคอนเทนต์ต่างๆ ให้มีความคมชัดในระดับ 4K ด้วย สามารถรับชมภาพ 4K บนทีวีผ่าน DLNA หรือ MHL 3.0 ได้ด้วย โดยหัวใจของระบบประมวลผลอันทรงพลังของ Xperia™ Z5 Premium มาจาก Qualcomm Snapdragon 810 processor พร้อมแบตเตอรี่ความจุ 3430 mAh ใช้งานได้นานสูงสุดถึง 2 วัน รวมทั้งระบบชาร์จเร็ว ใช้เวลาชาร์จเพียง 10 นาที ใช้งานได้นานถึง 5.5 ชั่วโมง  หน่วยความจำภายในเครื่องมีขนาด 32GB และสามารถเพิ่มพื้นที่จัดเก็บข้อมูลได้ด้วย microSD™ card ความจุสูงสุด 200GB เพื่อเก็บคอนเทนต์ระดับ 4K รวมทั้งรูปถ่ายความละเอียดสูงได้อย่างจุใจ  ขณะเดียวกันโซนี่ยังได้นำความความแข็งแกร่งทางเทคโนโลยีเสียง และเกม เพื่อเพิ่มอรรถรส    ด้านความบันเทิงได้อย่างครบครัน อาทิ เทคโนโลยี High-Res Audio ที่ให้ความละเอียดเสียงคมชัดในทุกระดับเสียง เทคโนโลยี DSEE HX™ ที่ช่วยยกระดับคุณภาพเสียงของไฟล์เพลงดิจิตอลที่ถูกบีบอัดในรูปแบบ MP3, AAC เป็นต้นให้ใกล้เคียงกับระดับไฮเรสออดิโอ รวมทั้งเทคโนโลยี LDAC™ ของโซนี่ที่ช่วยให้การฟังเพลงไฮเรสออดิโอแบบไร้สายได้อย่างเต็มอิ่มโดยไม่สูญเสียอรรถรสแต่อย่างใด Xperia™ Z5 Premium Rose Gold พร้อมวางจำหน่ายในราคา 24,990 บาท พร้อมรับโปรโมชั่นพิเศษ รับฟรี กระเป๋าเดินทางดีไซน์เท่ห์ พร้อมเคส และฟิล์มกันรอย เมื่อซื้อภายในงาน Thailand Mobile Expo ระหว่างวันที่ 19 – 22 พฤษภาคม ทั้งนี้ Xperia™ Z5 Premium Rose Gold จะวางจำหน่ายในจำนวนจำกัด     ", 
  "Date": "12/May/2016", 
  "Image-Link": [
    "https://www.blognone.com/sites/default/files/styles/thumbnail/public/topics-images/xperia.png?itok=Gm29-0hl", 
    "https://i.imgur.com/4sN2Ke6.jpg", 
    "/sites/all/themes/blognone42/images/linebutton.png"
  ], 
  "Link": "https://www.blognone.com/node/80876", 
  "News": "Xperia Z5 Premium สี Rose Gold เข้ามาขายในไทยด้วย ราคา 24,990 บาท", 
  "Tags": [
    "Xperia", 
    "Sony", 
    "Mobile"
  ], 
  "Time": "12:27"
}