{
  "By": "nismod", 
  "Contents": " คำว่าเก่าแต่เก๋าอาจจะใช้ไม่ได้กับ Flash ในฐานะตัวเล่นวิดีโอบนเว็บ หลังในช่วง 1-2 ปีที่ผ่านมาเราเห็น Flash มีที่ยืนน้อยลงเรื่อยๆ ตรงกันข้ามกับ HTML 5 ที่โตขึ้นอย่างต่อเนื่อง แม้แต่ Adobe เองก็สนับสนุน HTML 5 แทน Flash ประกอบกับการค้นพบช่องโหว่ของ Flash ที่มีออกมาอย่างต่อเนื่อง ซึ่งก็ไม่ทราบเหมือนกันว่ายังคงมีช่องโหว่อะไรอีกบ้างที่ยังไม่ถูกค้นพบ หนึ่งในวิธีแก้หรือป้องกันปัญหาก็คงหนีไม่พ้นการปิดการใช้งานปลั๊กอิน Flash เป็นค่าเริ่มต้นและให้เปิดใช้งานเป็นครั้งคราวตามที่เราต้องการ ซึ่งที่ผมเลือก Google Chrome ขึ้นมาเพราะเห็นว่าเป็นหนึ่งในเบราว์เซอร์ที่มีผู้ใช้งานมากที่สุดครับ  การปิดใช้งานปลั๊กอินบน Chrome ให้ไปที่แถบสามขีดขวามือด้านบน แล้วเลือกที่ Setting  เมื่ออยู่ที่หน้า Setting แล้ว พิมพ์คำว่า \"plug-in\" ในแถบเสิร์ชด้านบนขวามือ แล้วเลือกไปที่ Content Setting ในแถบ Privacy  เมื่อมีหน้าปีอบอัพขึ้นมา ให้เลื่อนลงมาจนเจอหัวข้อ Plug-in แล้วให้เลือกตัวเลือกที่ 3 ครับ เพื่อที่ว่าปลั๊กอิน Flash จะรันได้ก็ต่อเมื่อเราอนุญาตเท่านั้น  เท่านี้ทุกครั้งที่เจอตัวเล่นวิดีโอแบบ Flash บนเว็บ ตัวเล่นจะกลายเป็นหน้าจิ๊กซอว์สีเทาและหากเราต้องการรันปลั๊กอิน ให้คลิ๊กขวาแล้วเลือก Run This Plug-in ครับ  หรืออีกกรณีหากไม่คิดจะรันปลั๊กอิน Flash และต้องการปิดถาวรให้เลือกที่ Manage Individual Plug-in ด้านล่างสุดของหัวข้อ Plug-in ครับ แล้วกด Disable ที่ปลั๊กอิน Adobe Flash Player เลยครับ  Forums: Howto  ", 
  "Date": "20/June/2016", 
  "Image-Link": [
    "https://c6.staticflickr.com/8/7280/27176149453_ca91014c1f_z.jpg", 
    "https://c2.staticflickr.com/8/7378/27176147153_b088acb572_o.png", 
    "https://c7.staticflickr.com/8/7490/27686538342_c8252b3f18_z.jpg", 
    "https://c5.staticflickr.com/8/7228/27508601140_a3cbcaa589_z.jpg", 
    "https://c3.staticflickr.com/8/7286/27508765730_c69131bac9_z.jpg", 
    "https://c2.staticflickr.com/8/7047/27752888306_cdb2d98a06_o.png", 
    "/sites/all/themes/blognone42/images/linebutton.png"
  ], 
  "Link": "https://www.blognone.com/node/82451", 
  "News": "[Howto] ตั้งค่า Flash ใน Chrome ให้ทำงานเฉพาะเมื่อต้องการ", 
  "Tags": "-", 
  "Time": "12:37"
}