{
  "By": "lew", 
  "Contents": " UL บริษัทเอกชนผู้ออกใบรับรองความปลอดภัยเครื่องใช้ไฟฟ้า ออกมาตรฐาน UL 2900 มาตรฐานความปลอดภัยของอุปกรณ์ IoT ความน่าสนใจของมาตรฐานนี้คือความปลอดภัยกลายเป็นเรื่องความมั่นคงปลอดภัยทางไซเบอร์ไปด้วย มาตรฐาน UL 2900 แบ่งออกเป็น 3 ส่วน ได้แก่  UL 2900-1: เงื่อนไขความปลอดภัยไซเบอร์ทั่วไป UL 2900-2-1: เงื่อนไขเฉพาะสำหรับอุปกรณ์ทางการแพทย์ UL 2900-2-2: เงื่อนไขเฉพาะสำหรับอุปกรณ์ควบคุมอุตสาหกรรม  ทาง UL ในส่วนห้องแล็บทดสอบเองก็มีโครงการ UL CAP (UL’s Cybersecurity Assurance Program) ให้บริการทดสอบความปลอดภัยไซเบอร์ ตั้งแต่การทดสอบเจาะระบบ, ทดสอบกระบวนการเข้ารหัส, ไปจนถึงกระบวนการอัพเดตซอฟต์แวร์ สินค้าที่เข้าข่ายขอรับการทดสอบได้มีตั้งแต่ ยานยนต์, ระบบแสงสว่าง, เครื่องใช้ไฟฟ้า, ระบบบ้านอัจริยะ, ระบบควบคุมอุณหภูมิในอาคาร, ระบบควบคุมอาคาร, สัญญาณกันขโมย, มิเตอร์อัจริยะ, อุปกรณ์ทางการแพทย์, ระบบควบคุมอุตสาหกรรม, และอุปกรณ์ IoT อื่นๆ UL 2900 จะเริ่มรับรอสินค้าจากผู้ผลิตได้ตั้งแต่ไตรมาสสามปีนี้เป็นต้นไป ที่มา - CNX Software, UL    ", 
  "Date": "5/July/2016", 
  "Image-Link": [
    "https://www.blognone.com/sites/default/files/styles/thumbnail/public/news-thumbnails/rUZELqAc.jpeg?itok=6FUohs_o", 
    "//upic.me/i/8z/10180-cybersecurity-infographic_v2.jpeg", 
    "/sites/all/themes/blognone42/images/linebutton.png"
  ], 
  "Link": "https://www.blognone.com/node/83016", 
  "News": "ความปลอดภัยไซเบอร์คือความปลอดภัย, UL ออกมาตรฐานอุปกรณ์ IoT", 
  "Tags": [
    "Security", 
    "Open Standard"
  ], 
  "Time": "12:37"
}