{
  "By": "nismod", 
  "Contents": " dtac ประกาศรีแบรนด์ระบบเติมเงินให้เหลือเพียงแบรนด์เดียว โดยเปลี่ยนจากแฮปปี้เป็น dtac prepaid ที่เน้นการใช้งานอินเทอร์เน็ตมากขึ้น หลังพฤติกรรมผู้บริโภคเปลี่ยนไปจากการใช้ดาต้ามากขึ้น ว๊อยซ์น้อยลง โดย dtac ระบุว่าลูกค้าในระบบเติมเงินกว่า 68% เป็นผู้ใช้สมาร์ทโฟน ดู YouTube มากกว่า 94% และมีการใช้งานอินเทอร์เน็ตเติบโตขึ้นกว่า 46% เมื่อเทียบกับปีที่แล้ว dtac ได้ออกซิม dtac prepaid Super 4G ราคา 49 บาท โดยค่าโทรคิดเป็นวินาที วินาทีละ 1.5 สตางค์, SMS ข้อความละ 2 บาท, MMS ข้อความละ 3 บาท ผู้ใช้ซิม dtac prepaid Super 4G จะได้รับสิทธิใช้งาน YouTube ไม่เสียค่าเน็ตตั้งแต่เที่ยงคืนถึง 8 โมงเช้านาน 12 เดือน (เดือนแรกดูฟรี เดือนที่ 2-12 ต้องเติมเงินสะสมไม่ต่ำกว่า 150 บาท), ได้รับบริการ Music Infinite ฟรีเดือนแรก หลังจากนั้นได้จะเฉพาะกรณีสมัครแพ็คเกจเสริม 59 บาท/สัปดาห์ หรือ 199 บาท/เดือนขึ้นไป รวมถึงได้รับสิทธิ์อินเทอร์เน็ตฟรีเดือนละ 1GB นาน 12 เดือน เมื่อเติมเงินขั้นต่ำ 150 บาท/เดือน ส่วนแพ็คเกตเสริมมีทั้งแบบรายวันเริ่มที่ 29 บาทไปจนถึงแบบรายเดือน 1099 บาท พร้อมสิทธิโทรฟรีเบอร์ dtac ทั้งวันและเน็ตสามารถทบไปเดือนหน้าได้ (ดูทั้งหมดที่เว็บ dtac)     ", 
  "Date": "7/June/2016", 
  "Image-Link": [
    "https://www.blognone.com/sites/default/files/styles/thumbnail/public/topics-images/dtac.png?itok=QeorLnmc", 
    "https://c5.staticflickr.com/8/7041/27238428820_35ecdc5d3f_z.jpg", 
    "https://c5.staticflickr.com/8/7395/27238447380_d889ebb44c_z.jpg", 
    "/sites/all/themes/blognone42/images/linebutton.png"
  ], 
  "Link": "https://www.blognone.com/node/81949", 
  "News": "dtac รีแบรนด์ระบบเติมเงินเปลี่ยนเป็น dtac prepaid พร้อมดู YouTube, ฟังเพลงไม่เสียเน็ต", 
  "Tags": [
    "DTAC"
  ], 
  "Time": "12:38"
}