{
  "By": "trinakub", 
  "Contents": " หลังจากมีภาคแพะน้อยลุยโลกเกม MMO (Goat MMO Simulator) แพะนักปล้น (Goat Simulator: PAYDAY) และแพะฝ่าฝูงซอมบี้ (Goat Simulator: GoatZ) ไปแล้ว ในคราวนี้ได้มีการประกาศภาคเสริมใหม่ขึ้นมานั่นคือ Goat Simulator: Waste of Space แพะบรรลัยบุกตะลุยอวกาศ เมื่อวันที่ 25 พฤษภาคม 2559 ที่ผ่านมานี้ ทั้งใน iOS Android และ PC เกมแพะตะลุยอวกาศยังคงมาในรูปแบบเดิม นั่นคือเป็น Sandbox ให้เราได้บังคับเล่นเป็นแพะออกผจญภัยทำลายทุกสิ่งที่ขวางหน้าแต่ต่างจากภาคก่อนตรงที่ คราวนี้เราจะตะลุยอวกาศกันแทน ขี่ยานอวกาศ สำรวจฐานทัพลับ ต่อสู้กับเอเลี่ยน พร้อมกับค้นหาความลับต่าง ๆ อันลึกลับของอวกาศอันกว้างใหญ่แห่งนี้ ในเกมยังมีการล้อเลียนถึงหนังและเกมดังต่าง ๆ อย่างเช่น Star Wars, Star Citizen หรือ Mass Effect แฝงอยู่เป็นจำนวนมากอีกด้วย รับประกันความฮาได้เต็มที่ สามารถหาซื้อได้ตาม Steam หรือร้านค้าบน Android และ iOS ด้วยราคา 4.99 เหรียญสหรัฐเท่านั้น (ประมาณ 180 บาท) ที่มา - Androidpolice   ", 
  "Date": "29/May/2016", 
  "Image-Link": [
    "https://www.blognone.com/sites/default/files/styles/thumbnail/public/topics-images/goat.png?itok=1-5qTz7t", 
    "/sites/all/themes/blognone42/images/linebutton.png"
  ], 
  "Link": "https://www.blognone.com/node/81566", 
  "News": "Goat Simulator ออกภาคเสริมใหม่ Waste of Space แพะตะลุยอวกาศ แปลกใหม่กว่าเดิม", 
  "Tags": [
    "Games", 
    "Goat Simulator"
  ], 
  "Time": "12:34"
}