{
  "By": "mk", 
  "Contents": " ZTE มือถือแบรนด์จีน ที่เริ่มเปิดไลน์รุ่นเรือธง Axon ไปเมื่อปีที่แล้ว กลับมาอีกครั้งกับตัวต่อของซีรีส์ Axon ที่กระโดดข้ามเลขมาเป็น Axon 7 เลย ZTE Axon 7 เป็นมือถือหน้าจอ Super AMOLED ขนาด 5.5\" 1440x2560 กระจกจอ 2.5D, ใช้หน่วยประมวลผล Snapdragon 820, กล้องความละเอียด 20MP เซ็นเซอร์ซัมซุง OIS f/1.8, กล้องหน้า 8MP, แบตเตอรี่ถอดเปลี่ยนไม่ได้ขนาด 3250 mAh รองรับ QuickCharge 3.0, ระบบปฏิบัติการ Android 6.0 เวอร์ชันปรับแต่ง MiFavor 4.0, ตัวเครื่องเป็นวัสดุโลหะพรีเมียม ออกแบบโดยบริษัท BMW Designworks จุดเด่นของ Axon 7 คือมีสตอเรจให้เลือกสองรุ่นย่อย แรม 4GB/พื้นที่ 64GB และ แรม 6GB/พื้นที่ 128GB และใส่ microSD เพิ่มเองได้   ฟีเจอร์สำคัญอีกอย่างคือรองรับ Daydream แพลตฟอร์ม VR ของกูเกิล (น่าจะเป็นมือถือตัวแรกในตลาดที่ประกาศรองรับอย่างเป็นทางการ) และใช้คู่กับแว่น ZTE VR ที่เปิดตัวพร้อมกันได้ด้วย  นอกจากนี้ Axon 7 ยังชูจุดเด่นเรื่องชิปเสียง AKM4961 + AKM4490, มี DAC ในตัว มาพร้อมลำโพงสเตอริโอที่เว็บไซต์ Engadget บอกว่าเสียงดังกว่า HTC Boomsound ซะอีก ด้านหูฟังก็รองรับเทคโนโลยี Dolby Atmos อีกด้วย  ZTE เริ่มวางจำหน่าย Axon 7 ในประเทศจีนแล้ว และจะทำตลาดสหรัฐอเมริกาด้วย รุ่นแรม 4GB ราคา 450 ดอลลาร์ (ประมาณ 16,000 บาท) ส่วนรุ่นแรม 6GB ราคาประมาณ 639 ดอลลาร์ ที่มา - ZTE Device, VentureBeat, Engadget   ", 
  "Date": "28/May/2016", 
  "Image-Link": [
    "https://www.blognone.com/sites/default/files/styles/thumbnail/public/topics-images/zte.png?itok=rf5uYwbD", 
    "http://i.imgur.com/CXIuLdX.png", 
    "http://i.imgur.com/pDtHIbL.png", 
    "http://i.imgur.com/Usw3XO4.png", 
    "http://i.imgur.com/u3y0hEO.png", 
    "/sites/all/themes/blognone42/images/linebutton.png"
  ], 
  "Link": "https://www.blognone.com/node/81537", 
  "News": "ZTE เปิดตัวมือถือเรือธง Axon 7 มาพร้อมแรม 6GB ชูจุดขายเรื่องกล้อง-ระบบเสียง", 
  "Tags": [
    "ZTE", 
    "Mobile", 
    "Daydream"
  ], 
  "Time": "12:43"
}