{
  "By": "sunnywalker", 
  "Contents": " จริงๆ แล้วเป็นข่าวเก่าช่วงเดือนมีนาคมที่ผ่านมา แต่เห็นบางสำนักข่าวลงข่าวเรื่องนี้เมื่อวาน ทาง Blognone เห็นว่าประเด็นนี้น่าสนใจจึงหยิบมาเขียน โรงเรียน Baldwin County Public Schools ที่ Alabama ยกเลิกการใช้ MacBook เพื่อการเรียนการสอนด้วยเหตุผลแสนเรียบง่ายคือ \"แพง\" โดยจะขายเครื่อง MacBook ทั้งหมดกว่า 20,000 เครื่อง เพื่อนำไปซื้อ Chromebook แทน แบรนด์ที่ทางโรงเรียนเล็งไว้คือ Lenovo N21 Chromebook ราคาต่อเครื่องอยู่ที่ 280 ดอลลาร์ คงไม่ใช่เรื่องแปลกเพราะเคยมีข่าวทำนองนี้มาแล้วคือ หนึ่งในทีมงาน Gizmodo เผยเปลี่ยนจาก MacBook Air เป็น Chromebook เพราะถูกกว่า แถมทำงานส่วนใหญ่แทนได้เกือบหมด แต่เผอิญว่าซีอีโอของแอปเปิล Tim Cook ดันเป็นศิษย์เก่าของโรงเรียน Baldwin นี่สิ โรงเรียน Baldwin จ่ายเงินกว่า 24 ล้านดอลลาร์ซื้อ MacBook ให้นักเรียนและครูใช้ในการศึกษามาสามปีแล้ว ด้าน Homer Coffman ผู้บริหารฝ่ายเทคโนโลยีของโรงเรียน บอกว่า Chromebook และระบบปฏิบัติการ ChromeOS ใช้งานง่ายกว่า ครูและนักเรียนเองก็ใช้แอพพลิเคชั่นในการศึกษาจาก Google อยู่แล้วด้วย และมันเข้ากันได้ดีกับ Chromebook Coffman กล่าวเพิ่มเติมว่า Baldwin จะไม่ใช้เทคโนโลยีใหม่สุดๆ (bleeding edge) เราจะใช้สิ่งที่ทดสอบมาแล้วเท่านั้น  ภาพจาก วิกิพีเดีย ที่มา - Washington Post   ", 
  "Date": "22/June/2016", 
  "Image-Link": [
    "https://www.blognone.com/sites/default/files/styles/thumbnail/public/topics-images/tim-cook.jpeg?itok=g62IDVyD", 
    "http://i.imgur.com/OSpdXFk.jpg", 
    "/sites/all/themes/blognone42/images/linebutton.png"
  ], 
  "Link": "https://www.blognone.com/node/82542", 
  "News": "เอาล่ะสิ! โรงเรียนเก่าของ Tim Cook ขาย MacBook ทั้งหมด หันไปใช้ Chromebook แทน", 
  "Tags": [
    "Tim Cook", 
    "Chromebook", 
    "Education", 
    "MacBook", 
    "Chrome OS"
  ], 
  "Time": "12:41"
}