{
  "By": "nismod", 
  "Contents": " ZTE ผู้ผลิตสมาร์ทโฟนจากจีนตั้งเป้าพัฒนาโซลูชัน \"Big Video 4K+\" ซึ่งประกอบไปด้วยสมาร์ทดีไวซ์ ที่รองรับวิดีโอความละเอียดสูงและ VR, เน็ตเวิร์คโซลูชัน ที่มีแบนด์วิดท์สูงและมี latency ต่ำสำหรับการสตรีมวิดีโอ และระบบประเมินและวิเคราะห์ประสบการณ์ใช้งานของซึ่งอิงข้อมูลจาก big data โซลูชัน Big Video จะทำงานอยู่บนเครือข่าย Pre5G ที่ ZTE กำลังพัฒนา โดยขณะนี้บริษัทได้จับมือกับ China Mobile, China Unicom และ China Telecom ในการพัฒนาผลิตภัณฑ์และ ecosystem อยู่ด้วย ZTE มองว่าวิดีโอความละเอียดสูงและ VR จะได้รับความนิยมมากขึ้นเรื่อยๆ สอดคล้องกับรายงานจากสมาคม GSMA (GSM Association) ที่ระบุว่าวิดีโอมีทราฟฟิกมากกว่าครึ่งหนึ่งของทราฟฟิกดาต้าในจีน ขณะที่ Cisco ก็คาดการณ์ว่ากว่า 82% ของอินเทอร์เน็ตทราฟฟิกจะมาจากวิดีโอ ที่มา - South China Morning Post   ", 
  "Date": "4/July/2016", 
  "Image-Link": [
    "https://www.blognone.com/sites/default/files/styles/thumbnail/public/topics-images/zte.png?itok=rf5uYwbD", 
    "/sites/all/themes/blognone42/images/linebutton.png"
  ], 
  "Link": "https://www.blognone.com/node/82964", 
  "News": "ZTE ตั้งเป้าพัฒนาโซลูชันรองรับการสตรีมวิดีโอความละเอียดสูง", 
  "Tags": [
    "ZTE", 
    "Virtual Reality", 
    "Network"
  ], 
  "Time": "12:45"
}