{
  "By": "nismod", 
  "Contents": " พ่อแม่ผู้ปกครองในสหราชอาณาจักรอาจจะมีทางเลือกในการหากิจกรรมให้ลูกๆ ช่วงในปิดเทอมฤดูร้อนมากขึ้น เมื่อ Google ในสหราชอาณาจักรจัดกิจกรรม Summer Squad ซึ่งเป็นคอร์สสอนการเขียนโปรแกรมเบื้องต้นสำหรับเด็กวัย 8-13 ปี เป็นระยะเวลา 8 สัปดาห์โดยไม่เสียค่าใช้จ่าย เซสชันที่สอนมีทั้งที่เกี่ยวกับ Raspberry Pi, การเขียนโปรแกรมภาษา Python หรือแม้แต่การสร้างหุ่นยนต์เบื้องต้น โดยใช้ชุด Mindstorms EV3 ของเลโก้เป็นต้น โดยเด็กๆ จะได้รับรางวัลเป็นเข็มกลัดและเสื้อเชิ้ต หากสามารถผ่านการทดลองหรือเงื่อนไขในแต่ละเซสชันได้ กิจกรรมนี้จัดขึ้นทั้งในกรุงลอนดอน 2 แห่งและในเขตมณฑลเอสเซ็กซ์อีก 1แห่ง ตั้งแต่วันที่ 12 กรกฎาคมไปจนถึง 1 กันยายนนี้ ที่มา - Engadget   ", 
  "Date": "7/July/2016", 
  "Image-Link": [
    "https://www.blognone.com/sites/default/files/styles/thumbnail/public/topics-images/Google_2015_logo.svg_.png?itok=bd4RvVLK", 
    "/sites/all/themes/blognone42/images/linebutton.png"
  ], 
  "Link": "https://www.blognone.com/node/83120", 
  "News": "Google สหราชอาณาจักรเปิดคอร์ส Summer Squad ให้เด็กได้เรียนการเขียนโปรแกรม", 
  "Tags": [
    "Google", 
    "Programming", 
    "UK"
  ], 
  "Time": "12:46"
}