{
  "By": "nuntawat", 
  "Contents": " เมื่อวานนี้ LINE บน Windows 10 มีอัพเดตโดยไม่ได้ระบุรายละเอียดการปรับเปลี่ยน แต่เมื่ออัพเดตจะพบฟีเจอร์ใหม่สองอย่าง คือ สามารถพิมพ์ตอบผู้สนทนาได้ทันทีจากการแจ้งเตือน (notification) โดยไม่ต้องเปิดแอปขึ้นมา และ Live Tiles สามารถแสดงข้อความและภาพโปรไฟล์ของผู้ส่งข้อความที่ยังไม่ถูกเปิดอ่านได้แล้ว อัพเดตแอปได้จาก Windows Store ครับ ที่มา: MSPoweruser   ", 
  "Date": "20/May/2016", 
  "Image-Link": [
    "https://www.blognone.com/sites/default/files/styles/thumbnail/public/topics-images/line300.png?itok=EJ65plDD", 
    "/sites/all/themes/blognone42/images/linebutton.png"
  ], 
  "Link": "https://www.blognone.com/node/81231", 
  "News": "LINE บน Windows 10 เพิ่มฟีเจอร์ส่งข้อความโดยไม่ต้องเปิดแอป", 
  "Tags": [
    "LINE", 
    "UWP", 
    "Windows 10"
  ], 
  "Time": "12:55"
}