{
  "By": "sunnywalker", 
  "Contents": " เวลาเล่น Facebook มีหลายครั้งที่อยากโพสรูป ข้อความ แชร์บางสิ่งให้เพื่อนๆรู้ หรือเห็นอะไรน่าสนใจก็อยากแท็กเพื่อนเรา  แต่การแท็กเพื่อนเท่ากับว่าเพื่อนของเพื่อนที่เราแท็ก (ซึ่งไม่ใช่ friends list ของเรา) ก็จะสามารถเห็นโพสที่เราแท็กเพื่อนไป วันนี้มีวิธีง่ายมากที่จะทำให้โพสของเราเห็นกันเฉพาะแค่ friends จริงๆ สามารถตั้งค่าถาวรให้โพสของเรา (ไม่ใช่แค่โพสที่แท็กเพื่อน แต่เป็นทุกโพสของเรา) มีแค่ friends เท่านั้นที่เห็นได้ คลิกมุมบนขวาที่เป็นลูกศรชี้ลง และเลือก \"settings\"  เลือก \"privacy\"  เลือก \"Edit\" แถวมุมบนขวามือ  จะเห็นได้ว่าหน้าจอนี้ตั้งค่าเป็น public มาก่อน เปลี่ยนโดยคลิกตรงคำว่า public  เลือก \"more options\"  เลือก \"custom\"  นอกจากจะให้โพสของเราเห็นเฉพาะ Friends แล้ว ในกล่องข้อความด้านล่างยังระบุคนที่เราไม่อยากให้เห็นโพสของเราเลยได้ด้วย (คนๆนั้นต้องเป็นเพื่อนใน Facebook) ระบุได้มากกว่า 1 คน  ทุกโพสจะเป็นไปตามที่เราตั้งค่า custom privacy ไว้ ถ้าต้องการเปลี่ยนแปลงเป็นรายโพสก็เลือกที่ปุ่มสถานะของโพสได้เลย เช่น โพสนี้เป็นข่าวสาร อยากให้เห็นแบบสาธารณะ ก็เปลี่ยนให้เป็น public ได้ แต่โพสถัดไปต้องเปลี่ยนสถานะของโพสให้กลับมาเป็น Custom เหมือนเดิม หากไม่เปลี่ยนโพสถัดไปจะเป็นสาธารณะโดยอัตโนมัติตามที่มีการเปลี่ยนแปลงก่อนหน้านี้  Forums: Howto  ", 
  "Date": "26/May/2016", 
  "Image-Link": [
    "http://i.imgur.com/6FXfQuN.png", 
    "http://i.imgur.com/iaXE8O1.png", 
    "http://i.imgur.com/R8vGnTl.png", 
    "http://i.imgur.com/YU0CKm1.png", 
    "http://i.imgur.com/viWuX59.png", 
    "http://i.imgur.com/2u1ptia.png", 
    "http://i.imgur.com/AdKAD2I.png", 
    "http://i.imgur.com/x440A0P.png", 
    "/sites/all/themes/blognone42/images/linebutton.png"
  ], 
  "Link": "https://www.blognone.com/node/81444", 
  "News": "[Howto] อยากแท็กเพื่อนใน Facebook แต่ไม่อยากให้เห็นกันเยอะ ", 
  "Tags": "-", 
  "Time": "12:50"
}