{
  "By": "mk", 
  "Contents": " จบไปอีกหนึ่งทัวร์นาเมนต์ของ ESL ลีกแข่งขัน e-sport ที่ใหญ่ที่สุดในโลก โดยการแข่งขัน ESL One Cologne 2016 ซึ่งเป็นทัวร์นาเมนต์แข่งเกม Counter-Strike: Global Offensive (CS: GO) รายใหญ่ของฝั่งยุโรป จัดขึ้นที่สนาม Lanxess Arena ในเมืองโคโลญจ์ ประเทศเยอรมนี การแข่งขันครั้งนี้มีทีมร่วมแข่ง 16 ทีม ชิงเงินรางวัลรวม 1 ล้านดอลลาร์ สุดท้ายทีม SK Gaming ซึ่งสมาชิกทุกคนเป็นชาวบราซิลล้วน สามารถโค่นทีม Team Liquid จากสหรัฐอเมริกาด้วยคะแนน 2:0 (แข่งทั้งหมด 3 ฉากคือ Train, Cbble, Nuke แต่ทีม SK ชนะตั้งแต่ฉากที่สอง) คว้าแชมป์พร้อมเงินรางวัล 5 แสนดอลลาร์ (17.5 ล้านบาท) ไปครอง ถือเป็นแชมป์ CS:GO รายการที่สองของทีม SK ช่วงการแข่งขันนัดชิงชนะเลิศ มีคนชมการถ่ายทอดสดผ่าน Twitch ประมาณเกือบ 500,000 คนพร้อมกัน บรรยากาศในสนามแข่ง ELS One Cologne 2016  ทีมแชมป์ SK Gaming จากบราซิล  คลิปรวมบรรยากาศในทัวร์นาเมนต์ คลิปบันทึกการแข่งขัน ฉาก Train คลิปบันทึกการแข่งขัน ฉาก Cbble ที่มา - ESL Gaming   ", 
  "Date": "11/July/2016", 
  "Image-Link": [
    "https://www.blognone.com/sites/default/files/styles/thumbnail/public/topics-images/counter.png?itok=EHsn_wru", 
    "http://i.imgur.com/uSdBP5G.jpg", 
    "http://i.imgur.com/8g3Qb5U.jpg", 
    "/sites/all/themes/blognone42/images/linebutton.png"
  ], 
  "Link": "https://www.blognone.com/node/83259", 
  "News": "ทีม SK Gaming จากบราซิล คว้าแชมป์ CS:GO ทัวร์นาเมนต์ ESL One Cologne 2016", 
  "Tags": [
    "Counter-Strike", 
    "ESL", 
    "Games", 
    "eSport"
  ], 
  "Time": "12:57"
}