{
  "By": "nismod", 
  "Contents": " PayPal ประกาศแก้ไขเงื่อนไขและข้อตกลงในการคุ้มครองผู้ซื้อ (Purchase Protection) ที่จะไม่ครอบคลุมการจ่ายเงิน เพื่อระดมทุนโปรเจ็คต่างๆ ทำให้ผู้ใช้ไม่สามารถเรียกร้องเงินคืนจาก PayPal ได้กรณีที่โปรเจ็คนั้นล้มเหลว โดยจะมีผลบังคับใช้ตั้งแต่วันที่ 25 มิถุนายนเป็นต้นไป PayPal ให้เหตุผลว่า ต้องการสะท้อนความไม่แน่นอนและความเสี่ยงที่เกิดขึ้นจากการสนับสนุนโครงการที่เปิดระดมทุน ที่ปัจจุบัน ซึ่งทาง Kickstarter ก็เคยออกมาเปิดเผยรายงานว่า มีโครงการราว 9% ที่ล้มเหลว ที่มา - Engadget   ", 
  "Date": "9/May/2016", 
  "Image-Link": [
    "https://www.blognone.com/sites/default/files/styles/thumbnail/public/topics-images/paypal-big.png?itok=-2j6sqPS", 
    "/sites/all/themes/blognone42/images/linebutton.png"
  ], 
  "Link": "https://www.blognone.com/node/80749", 
  "News": "PayPal แก้นโยบายคุ้มครองผู้ซื้อ ไม่ครอบคลุมการระดมทุนแล้ว", 
  "Tags": [
    "PayPal", 
    "Crowdfunding"
  ], 
  "Time": "13:09"
}