{
  "By": "sunnywalker", 
  "Contents": " คณะกรรมการสิทธิเสรีภาพในรัฐสภายุโรป เห็นชอบกฎหมายไซเบอร์ใหม่ เพิ่มอำนาจให้หน่วยงานตำรวจของยุโรป หรือ Europol ในการจัดการรับมือการก่อการร้าย ด้วยคะแนนเสียง 40 - 3 ส่งผลให้ Europol จะสามารถทำงานตอบสนองได้ทันทีเมื่อเกิดภัยคุกคามใดๆ โดยเฉพาะการก่ออาชญากรรมข้ามพรมแดน และภัยการก่อการร้าย  กฎหมายใหม่ตัวนี้ยังมอบอำนาจให้หน่วยเฝ้าระวังทางอินเทอร์เน็ต (internet referral unit) ที่จัดตั้งขึ้นเมื่อปี 2015 เพื่อรับมือกลุ่ม Isis สามารถดูเนื้อหาออนไลน์ที่อาจเกี่ยวข้องกับกลุ่มก่อการร้าย และโยงไปถึงผู้ให้บริการเครือข่ายที่อาจมีส่วนเกี่ยวข้องได้ กฎหมายตัวนี้ยังต้องรอการอนุมัติจากสมาชิกรัฐสภายุโรป ซึ่งจะมีการประชุมในเดือนพฤษภาคมนี้ที่ Strasbourg  และคาดว่าจะมีผลบังคับใช้เมษายนปี 2017 ที่มา - arstechnica   ", 
  "Date": "2/May/2016", 
  "Image-Link": [
    "https://www.blognone.com/sites/default/files/styles/thumbnail/public/news-thumbnails/flag_yellow_low.jpg?itok=14Ke7Wc8", 
    "//i.imgur.com/ILlqjYV.jpg”", 
    "/sites/all/themes/blognone42/images/linebutton.png"
  ], 
  "Link": "https://www.blognone.com/node/80521", 
  "News": "รัฐสภายุโรปไฟเขียวกฎหมายให้ Europol เพิ่มมาตรการเข้มข้นทางไซเบอร์ล่าผู้ก่อการร้าย", 
  "Tags": [
    "EU", 
    "Europol", 
    "Terrorism"
  ], 
  "Time": "13:03"
}