{
  "By": "nismod", 
  "Contents": " Sony ได้ปล่อยอัพเดตเวอร์ชัน 23.5.A.1.238 ให้กับแอนดรอยด์ Marshmallow เวอร์ชันเบต้าของ Xperia Z2,Z3,Z3 Compact ซึ่งเพิ่มฟีเจอร์ที่เรียกว่า Charging Optimization หรือ Soft Charging ในการช่วยยืดอายุการใช้งานของแบตเตอรี่มากยิ่งขึ้น อย่างที่ทราบกันว่าอายุการใช้งานแบตเตอรี่ลิเทียมไอออนในสมาร์ทโฟนในปัจจุบันขึ้นอยู่กับ Cycle ในการชาร์จ ขณะเดียวกันก็มีงานวิจัยที่ชี้ว่า แบตเตอรี่จะมีอายุการใช้งานที่นานขึ้น หากแบตเตอรี่ไม่ได้รับการชาร์จจนเต็ม 100% ในทุกๆ ครั้ง ซึ่งฟีเจอร์ Charging Optimization ก็ได้นำงานวิจัยตรงนี้มาประยุกต์ใช้ในการยืดอายุแบตเตอรี่ โดยฟีเจอร์นี้จะอยู่ใน Setting > About Phone > Status > Charging Optimization นอกจาก Charging Optimization อัพเดตนี้ยังทำให้ Home Launcher ของ Xperia รองรับหน้าจอแนวนอนแล้ว รวมถึงแก้ไขบั๊กเล็กน้อยอื่นๆ ที่มา - PhoneArena   ", 
  "Date": "24/June/2016", 
  "Image-Link": [
    "https://www.blognone.com/sites/default/files/styles/thumbnail/public/topics-images/xperia.png?itok=Gm29-0hl", 
    "/sites/all/themes/blognone42/images/linebutton.png"
  ], 
  "Link": "https://www.blognone.com/node/82630", 
  "News": "Sony เพิ่มฟีเจอร์ยืดอายุแบตเตอรี่บน Marshmallow เวอร์ชันเบต้าของ Xperia", 
  "Tags": [
    "Xperia", 
    "Sony", 
    "Battery", 
    "Marshmallow", 
    "Android"
  ], 
  "Time": "13:12"
}