{
  "By": "lew", 
  "Contents": " หลังจากรายงานช่องโหว่ CVE-2016-4117 ของ Adobe Flash ที่มีการโจมตีจริงแล้ว ตอนนี้ Adobe ก็ออกแพตช์แก้ช่องโหว่นี้ออกมาแล้ว นอกจากช่องโหว่ดังกล่าวแล้ว แพตช์รอบนี้ยังแก้ไขช่องโหว่อื่นๆ รวม 25 รายการ ช่องโหว่ทั้งหมดเปิดทางให้สามารถรันโค้ดได้ ช่องโหว่รอบนี้ถูกรายงานจากหลายแหล่ง เช่น Microsoft Vulnerability Research, Pangu LAB, Tencent, Project Zero, CSIRT.SK , NSFOCUS, และ FireEye ที่มา - Adobe   ", 
  "Date": "13/May/2016", 
  "Image-Link": [
    "https://www.blognone.com/sites/default/files/styles/thumbnail/public/topics-images/Adobe_Flash_Player_v10_icon.png?itok=THvOaOjz", 
    "/sites/all/themes/blognone42/images/linebutton.png"
  ], 
  "Link": "https://www.blognone.com/node/80939", 
  "News": "Adobe ปล่อยแพตช์ Flash แล้ว แก้ช่องโหว่เปิดทางรันโค้ด 25 จุด", 
  "Tags": [
    "Adobe Flash", 
    "Security"
  ], 
  "Time": "13:19"
}