{
  "By": "nrad6949", 
  "Contents": " เมื่อวันพุธที่ผ่านมา Samsung อินเดีย แถลงเปิดตัว Galaxy Tab Iris แท็บเล็ตรุ่นใหม่ล่าสุดที่รวมเอาเทคโนโลยีการยืนยันตัวตนผ่านม่านตา (Iris) เข้ามาเป็นส่วนหนึ่งของแท็บเล็ต และรองรับระบบชำระเงินของรัฐบาลอินเดีย Aadhaar ด้วย แท็บเล็ตดังกล่าวนี้ได้รับการรับรองว่าผ่านมาตรฐานทั้ง STQC, UIDAI (ระบบยืนยันตัวตนของรัฐบาลอินเดีย) และของ Aadhaar โดยพัฒนาขึ้นจากแผนกวิจัยและพัฒนาของบริษัทที่ตั้งอยู่ในอินเดีย Samsung ระบุว่าการเพิ่มคุณสมบัติยืนยันตัวตนผ่านการสแกนม่านตา จะทำให้ประชาชนชาวอินเดียเข้าใช้บริการที่เกี่ยวข้องได้ง่ายขึ้นกว่าเดิม และจะเปิด SDK ให้นักพัฒนาสามารถใช้คุณสมบัติดังกล่าวได้ด้วย (ตัวสแกนม่านตาอยู่ด้านหลังของเครื่อง คู่กับกล้อง) มีเพียงรุ่นเดียว ไม่มีรุ่นย่อยอื่น ใช้ได้กับเครือข่าย 2G และ 3G ส่วนราคาเปิดมา 13,499 รูปี (ประมาณ 7,100 บาท) สเปกเต็มและภาพอ่านได้ท้ายข่าวครับ ที่มา - Samsung Mobile India   Samsung Galaxy Tab Iris  หน้าจอขนาด 7 นิ้ว ที่ความละเอียด WSVGA (1024 x 600) หน่วยประมวลผลแบบสี่แกนประมวลผล ไม่ระบุผู้ผลิต ทำงานที่ความถี่ 1.2 GHz รองรับทั้ง 2G (900/1800) และ 3G (900/2100), Wi-Fi (b/g/n), Bluetooth 4.1, USB 2.0 พร้อม OTG กล้องหลัง 5 เมกะพิกเซลพร้อมโฟกัสอัตโนมัติ แรม 1.5 GB, พื้นที่เก็บข้อมูล 8 GB (รองรับ microSD สูงสุด 200 GB) มีระบบสแกนม่านตา (Iris) แบตเตอรี่ 3,600 mAh ขนาด 193.4 x 116.4 x 9.7 มม., หนัก 327 กรัม ระบบปฏิบัติการ Android 5.0    ", 
  "Date": "29/May/2016", 
  "Image-Link": [
    "https://www.blognone.com/sites/default/files/styles/thumbnail/public/topics-images/j8u2rhG1.jpg?itok=CJuE6qSo", 
    "https://i.imgur.com/g6BpAB6.jpg", 
    "https://i.imgur.com/ovW0iXQ.jpg", 
    "/sites/all/themes/blognone42/images/linebutton.png"
  ], 
  "Link": "https://www.blognone.com/node/81570", 
  "News": "Samsung อินเดียเปิดตัว Galaxy Tab Iris ยืนยันตัวตนผ่านม่านตา รองรับ Aadhaar", 
  "Tags": [
    "Samsung", 
    "Galaxy Tab", 
    "India", 
    "Biometric", 
    "Tablet", 
    "Android"
  ], 
  "Time": "13:27"
}