{
  "By": "nuntawat", 
  "Contents": " เว็บไซต์ DigiTimes เผยว่า ไมโครซอฟท์จะเปิดตัวพีซีออลอินวัน Surface ในไตรมาสสามของปีนี้ ซึ่งดูเหมือนจะอยู่ในทางเลือกของ Surface Book 2 สำหรับ Surface Book 2 นั้นแหล่งข่าวเผยว่าได้ถูกเลื่อนการเปิดตัวจากครึ่งปีหลังปีนี้เป็นครึ่งแรกของปีหน้า เนื่องจากปัญหาความล่าช้าในการส่งมอบซีพียูตระกูล Kaby Lake ของอินเทล ถ้าข่าวลือนี้เป็นความจริง จะได้เห็นทั้งสองทำตลาดในไทยไหมนะ ที่มา: DigiTimes   ", 
  "Date": "1/July/2016", 
  "Image-Link": [
    "https://www.blognone.com/sites/default/files/styles/thumbnail/public/topics-images/surface-book.png?itok=eHBLS5d-", 
    "/sites/all/themes/blognone42/images/linebutton.png"
  ], 
  "Link": "https://www.blognone.com/node/82899", 
  "News": "[ลือ] ไมโครซอฟท์จะเปิดตัวพีซีออลอินวัน Surface ไตรมาสสามปีนี้ เลื่อนเปิดตัว Surface Book 2 ไปปีหน้า", 
  "Tags": [
    "Surface Book", 
    "Rumors", 
    "Microsoft", 
    "All-in-One"
  ], 
  "Time": "13:26"
}