{
  "By": "nismod", 
  "Contents": " นาย Su Bin นักธุรกิจชาวจีนถูกศาลแขวงในลอสแอนเจลิสสั่งจำคุก 48 เดือน ปรับอีก 10,000 เหรียญสหรัฐ หลังเจ้าตัวยอมรับสารภาพว่าช่วยเหลือแฮ็กเกอร์ของกองทัพจีน ในการล้วงข้อมูลด้านความมั่นคงจากบริษัทคู่สัญญาของกระทรวงกลาโหมสหรัฐ นาย Su ที่ถูกจับเมื่อปี 2014 ในแคนาดา ก่อนถูกส่งตัวมายังสหรัฐ ยอมรับว่าร่วมกับแฮ็กเกอร์อีก 2 คนวางแผนขโมยดีไซน์เครื่องบินของกองทัพ ทั้งเครื่องบินขนส่งทางทหาร C-17 รวมถึงเครื่องบินเจ็ต F-22 และ F-35 ในช่วงปี 2008-2014 โดยรัฐบาลจีนปฏิเสธว่าไม่ได้มีส่วนเกี่ยวข้องในเรื่องนี้ ที่มา - Venturebeat   ", 
  "Date": "15/July/2016", 
  "Image-Link": [
    "https://www.blognone.com/sites/default/files/styles/thumbnail/public/topics-images/china.png?itok=DbpIQN62", 
    "/sites/all/themes/blognone42/images/linebutton.png"
  ], 
  "Link": "https://www.blognone.com/node/83471", 
  "News": "นักธุรกิจจีนถูกตัดสินจำคุก 48 เดือนฐานพยายามแฮ็กข้อมูลทางการทหารสหรัฐ", 
  "Tags": [
    "China", 
    "USA", 
    "Crime", 
    "Hacking", 
    "Security"
  ], 
  "Time": "13:23"
}