{
  "By": "sunnywalker", 
  "Contents": " Game of Thrones ตอนที่ 5 ถูกปล่อยลงออนไลน์ก่อนรอบฉายจริง 24 ชั่วโมง ไฟล์ดังกล่าวสามารถหาดูได้ใน torrent และเว็บไซต์สตรีมมิ่ง โดยต้นเหตุไม่ใช่ใครที่ไหนแต่เป็น HBO Nordic เอง โดยผู้ชมจำนวนหนึ่งระบุว่า HBO Nordic ปล่อยตอนล่าสุดลงในเว็บไซต์ ทางสำนักข่าว TorrentFreak ยืนยันว่าไฟล์ Game of Thrones ดังกล่าวเป็นของแท้เพราะมีคุณภาพสูง ส่วนไฟล์ copy ที่ละเมิดลิขสิทธิ์มีคุณภาพต่ำกว่า ในขณะที่สายเกินจะแก้เรื่องการรั่วไหลของไฟล์นี้ ทาง HBO ก็ยกระดับการควบคุมให้รัดกุมขึ้น โดยช่วงนี้ HBO ส่ง E-mail เตือนกว่าพันฉบับให้เว็บไซต์ต่างๆที่ละเมิดลิขสิทธิ์ปล่อย Game of Thrones  ทีมา - TorrentFreak   ", 
  "Date": "23/May/2016", 
  "Image-Link": [
    "https://www.blognone.com/sites/default/files/styles/thumbnail/public/topics-images/got.jp_.jpg?itok=aYOdwFVU", 
    "http://i.imgur.com/OfpvZ35.jpg", 
    "/sites/all/themes/blognone42/images/linebutton.png"
  ], 
  "Link": "https://www.blognone.com/node/81286", 
  "News": "Game of Thrones ตอนใหม่ถูกปล่อยในออนไลน์ก่อนรอบฉายจริง", 
  "Tags": [
    "Game of Thrones", 
    "Torrent"
  ], 
  "Time": "13:25"
}