{
  "By": "lew", 
  "Contents": " ระบบจัดการซอร์สโค้ดของโครงการเคอร์เนลนิลุกซ์เมื่อสิบปีที่แล้วไม่ได้ใช้ Git เช่นทุกวันนี้ แต่ใช้ซอฟต์แวร์ปิดซอร์สที่ชื่อว่า BitKeeper ที่เป็นซอฟต์แวร์จัดการซอร์สโค้ดแบบไร้ศูนย์กลางมาตั้งแต่ก่อนระบบจัดการแบบเดียวกันจะได้รับความนิยม แม้ว่า BitKeeper จะเป็นซอฟต์แวร์ปิดซอร์ส แต่ก็บริจาคให้โครงการโอเพนซอร์สใช้งานฟรีหลายโครงการ อย่างนั้นก็ตามชุมชนโอเพนซอร์สบางส่วนก็ไม่พอใจที่ซอฟต์แวร์โอเพนซอร์สต้องใช้ซอฟต์แวร์ปิดซอร์สในการพัฒนา เมื่อวันที่ 7 พฤษภาคม 2005 ไลนัสจึงประกาศเขียน \"สคริปต์\" เพื่อจัดการซอร์สโค้ดของตัวเอง และสคริปต์นั้นกลายมาเป็น Git ในที่สุด BitKeeper ประกาศเปลี่ยนเป็นโอเพนซอร์สโดยใช้สัญญาอนุญาตแบบ Apache License 2 ทำให้การใช้งานค่อนข้างอิสระและสามารถนำไปปรับแต่งได้ตามต้องการ สำหรับรุ่นโปรที่มีซัพพอร์ตยังคงขายซัพพอร์ตในราคา 19 ดอลลาร์ต่อเดือนต่อผู้ใช้และต้องซื้อขั้นต่ำ 10 ผู้ใช้ ที่มา - BitKeeper.org   ", 
  "Date": "12/May/2016", 
  "Image-Link": [
    "https://www.blognone.com/sites/default/files/styles/thumbnail/public/news-thumbnails/img-pyramid.png?itok=lg8e47WU", 
    "/sites/all/themes/blognone42/images/linebutton.png"
  ], 
  "Link": "https://www.blognone.com/node/80881", 
  "News": "ระบบจัดการซอร์สโค้ด BitKeeper เป็นโอเพนซอร์สแล้ว", 
  "Tags": [
    "Development", 
    "Version Control"
  ], 
  "Time": "13:20"
}