{
  "By": "lew", 
  "Contents": " Verisign เป็นผู้ดูแลโดเมน .com มาตั้งแต่เริ่มแรกและจนตอนนี้ก็ยังเป็นแหล่งรายได้สำคัญของบริษัท จากชื่อโดเมนทั้งหมด 125 ล้านชื่อ การได้ต่ออายุไปอีก 6 ปีจะรับรองว่าบริษัทจะมีรายได้มหาศาลต่อเนื่อง แต่ภายใต้ข้อตกลงครั้งนี้ ICANN ที่มอบสิทธิ์ให้ก็ขอความร่วมมือเพิ่มเติมจาก Verisign ในชื่อข้อตกลง root zone maintainer services agreement (RZMA) เพื่อให้ ICANN เข้าดูแลกระบวนการเปลี่ยนแปลง root zone file สัญญาเดิมในปี 2012 เคยอนุญาตให้ Verisign ขึ้นราคาขายส่งโดเมนจาก 6 ดอลลาร์เป็น 7.85 ดอลลาร์แต่สัญญาในรอบนี้ไม่มีประเด็นราคาแต่อย่างใด เหตุผลหนึ่งที่เป็นไปได้คือราคาขายส่งจริงๆ ไม่เคยขึ้นราคามาหลายปีแล้วจากการแข่งขันที่สูงขึ้น ผู้ให้บริการจดโดเมนบางรายอ้างว่าสามารถจะโดเมนได้ในราคา 1 ดอลลาร์เท่านั้น Verisign นอกจากจะเป็นผู้รับจดทะเบียน .com และ .net แล้ว ยังเป็นผู้ดูแล root server ในกลุ่ม A ซึ่ง root server อื่นๆ มักจะรับอัพเดตไป ที่มา - The Register   ", 
  "Date": "4/July/2016", 
  "Image-Link": [
    "https://www.blognone.com/sites/default/files/styles/thumbnail/public/topics-images/verising.png?itok=t5inJ5z_", 
    "/sites/all/themes/blognone42/images/linebutton.png"
  ], 
  "Link": "https://www.blognone.com/node/82968", 
  "News": "Verisign เตรียมต่อสัญญาดูแลโดเมน .com ไปจนถึงปี 2024", 
  "Tags": [
    "VeriSign", 
    "ICANN", 
    "Internet", 
    "DNS"
  ], 
  "Time": "13:20"
}