{
  "By": "nismod", 
  "Contents": " เฟซบุ๊กยินยอมร่วมมือกับรัฐบาลไทยในประเด็นด้านความมั่นคงอีกครั้ง โดยเพจ กูKult ที่มีเนื้อหาหมิ่นเบื้องสูง ถูกปิดกั้นไม่ให้เข้าถึงได้แล้วจากประเทศไทย โดยระบุแต่เพียงว่า กฎหมายของไทยไม่อนุญาตให้เข้าถึงเนื้อหาของเพจนี้ สิ่งหนึ่งที่ผมตั้งข้อสังเกตคือ เหตุการณ์ครั้งนี้เกิดขึ้นในเวลาไล่เลี่ยกับการที่ตำรวจ สามารถเข้าถึงบทสนทนาใน Messenger ของแอดมินเพจ \"เรารักพลเอกประยุทธ์\" ที่โดนตั้งข้อกล่าวหากระทำผิดกฎหมายอาญามาตรา 112 ซึ่งก็ไม่ทราบว่าเฟซบุ๊กได้ยื่นมือเข้ามาช่วยมากน้อยแค่ไหน อย่างไรก็ตามยังไม่มีรายงานการปิดกั้นเพจอื่นๆ ในลักษณะเดียวกันครับ ทั้งนี้ ครั้งนี้ไม่ใช่ครั้งแรกที่เฟซบุ๊กบล็อคคอนเทนต์ที่กระทบความมั่นคงตามคำขอของรัฐบาลไทย ที่มา - Khaosod English    ", 
  "Date": "5/May/2016", 
  "Image-Link": [
    "https://www.blognone.com/sites/default/files/styles/thumbnail/public/topics-images/fb-500.png?itok=7KEmyKx1", 
    "https://farm8.staticflickr.com/7785/26222224623_5b68341f8b_z.jpg", 
    "/sites/all/themes/blognone42/images/linebutton.png"
  ], 
  "Link": "https://www.blognone.com/node/80646", 
  "News": "เฟซบุ๊กตอบรับคำขอรัฐบาล บล็อคเพจหมิ่นเบื้องสูง", 
  "Tags": [
    "Facebook", 
    "Thailand"
  ], 
  "Time": "13:33"
}