{
  "By": "lew", 
  "Contents": " Ameba Arduino บอร์ดพัฒนาจาก Realtek ผู้ผลิตชิปเน็ตเวิร์ครายใหญ่ แกนกลางเป็นชิป Realtek RTL8195AM ตัวซีพียูเป็น Cortex-M3 รองรับการเชื่อมต่อทั้ง Wi-Fi, NFC, หรือแม้แต่อีเธอร์เน็ต (ต้องใช้บอร์ดเสริม) ตัวซีพียูทำงานที่สัญญาณนาฬิกา 166 MHz รอมขนาด 1 MB มีฮาร์ดแวร์เข้ารหัสในตัว ตัวซอฟต์แวร์สามารถใช้ Arduino IDE หรือจะใช้ชุด SDK ที่เป็น mbed + FreeRTOS ก็ได้เช่นกัน ราคา 24.99 ดอลลาร์ไม่รวมค่าส่ง ที่มา - CNX Software, ARM    ", 
  "Date": "30/June/2016", 
  "Image-Link": [
    "https://www.blognone.com/sites/default/files/styles/thumbnail/public/topics-images/arm.png?itok=T6ym1vuO", 
    "//upic.me/i/eq/ameba.png", 
    "/sites/all/themes/blognone42/images/linebutton.png"
  ], 
  "Link": "https://www.blognone.com/node/82851", 
  "News": "Ameba Arduino บอร์ด Realtek ใช้ Arduino IDE พร้อม Wi-Fi, NFC", 
  "Tags": [
    "Internet of Things", 
    "ARM"
  ], 
  "Time": "13:33"
}