{
  "By": "nismod", 
  "Contents": " กลุ่มมาตรฐานอุตสาหกรรม Bluetooth SIG ออกมาประกาศจะเปิดตัว Bluetooth เวอร์ชัน 5.0 ในวันที่ 16 มิถุนายนนี้ เวอร์ชันนี้ยังคงเน้นการทำงานแบบ low energy เช่นเดิม แต่สิ่งที่มีการปรับปรุงขึ้นจากเวอร์ชัน 4.2 คือระยะทางการเชื่อมต่อ ให้สามารถเชื่อมต่อได้ไกลกว่าเดิม 2 เท่า และรับส่งข้อมูลได้เร็วขึ้นกว่าเดิม 4 เท่า ส่วนสิ่งที่ถูกเพิ่มเข้ามาคือการรองรับความสามารถที่เกี่ยวข้องกับการเชื่อมต่อผ่านการระบุตำแหน่ง (location-based) อย่าง beacons รายละเอียดเต็มๆ ของมาตรฐาน Bluetooth ใหม่นี้จะถูกเปิดเผยภายในงานเปิดตัวครับ ที่มา - GSMArena   ", 
  "Date": "10/June/2016", 
  "Image-Link": [
    "https://www.blognone.com/sites/default/files/styles/thumbnail/public/topics-images/2000px-bluetooth.svg_1024.png?itok=52oNb7gf", 
    "/sites/all/themes/blognone42/images/linebutton.png"
  ], 
  "Link": "https://www.blognone.com/node/82117", 
  "News": "Bluetooth 5.0 เตรียมเปิดตัวอาทิตย์หน้า ส่งได้ไกลขึ้น เร็วขึนและประหยัดพลังงานมากขึ้น", 
  "Tags": [
    "Bluetooth"
  ], 
  "Time": "13:49"
}