{
  "By": "nrad6949", 
  "Contents": " เมื่อวานนี้ Oliver Morley ซีอีโอของ Driver Vehicle Licensing Agency (DVLA เทียบเท่ากรมการขนส่งทางบกในบ้านเรา) ประเทศอังกฤษ ออกมาทวิตตัวอย่างต้นแบบใบขับขี่แบบดิจิทัลที่ใช้กับ Apple Wallet ผ่านแอคเคาท์ส่วนตัว @omorley1 Morley ระบุว่าภาพที่เห็นเป็นเพียงต้นแบบเท่านั้น โดยยังไม่มีกำหนดการออกมาใช้จริง นอกจากนั้นแล้วจะไม่ได้เข้ามาแทนที่ใบขับขี่แบบปกติ แต่ถือเป็นส่วนเสริม และเป็นมาตรการเสริมความปลอดภัยอีกชั้นหนึ่งด้วย (ดูภาพได้ท้ายข่าว) ทั้งนี้ การพัฒนาความสามารถดังกล่าวเป็นไปได้เพราะการแก้ไขข้อกฎหมายในปีที่แล้ว ที่อังกฤษจะไม่ออกใบขับขี่เป็นกระดาษให้กับผู้ขับขี่อีกต่อไป ที่มา - 9to5Mac  So here's a little prototype of something we're working on #drivinglicence pic.twitter.com/a5eItrdiNI — Oliver Morley (@omorley1) May 13, 2016 1) prototype = no timeline yet2) not replacement for photocard, an add-on3) security our priority4) possible because #nomorecounterpart — Oliver Morley (@omorley1) May 13, 2016   ", 
  "Date": "14/May/2016", 
  "Image-Link": [
    "https://www.blognone.com/sites/default/files/styles/thumbnail/public/topics-images/car-99123_960_720.png?itok=JmY4hvDs", 
    "https://i.imgur.com/feijaQA.jpg", 
    "/sites/all/themes/blognone42/images/linebutton.png"
  ], 
  "Link": "https://www.blognone.com/node/80982", 
  "News": "หน่วยงานออกใบขับขี่ของอังกฤษ แสดงต้นแบบใบขับขี่ดิจิทัล ใช้กับ Apple Wallet", 
  "Tags": [
    "UK", 
    "Automobile", 
    "Apple", 
    "iOS"
  ], 
  "Time": "13:45"
}