{
  "By": "trinakub", 
  "Contents": " หนังเรื่อง Warcraft: The Beginning ก็ได้เข้าโรงเป็นที่เรียบร้อยแล้วไปเมื่อวันที่ 26 พฤษภาคม 2559 นี้ หลังจากที่ผู้เขียนก็ได้ไปรับชมหนังมาเองด้วยความที่เคยเล่นเกมมาก่อนทำให้ขณะดูไม่ติดขัดอะไร แต่ว่าด้วยความรีบรัดของหนังจึงอาจทำให้ผู้ที่ไม่เคยเล่นเกมมาก่อน มีจุดสงสัยขึ้นหลาย ๆ จุดระหว่างดูหนังได้ จึงขอรวบรวมข้อสงสัยที่อาจเกิดขึ้นระหว่างดูหนังไว้ ณ ที่นี้ครับ ชนเผ่าผิวสีฟ้าที่อยู่ในกรงตอนต้นเรื่องคือชนเผ่าอะไร? ชนเผ่าผิวสีฟ้าที่เห็นตอนต้นเรื่องคือชนเผ่า แดรไนน์ (Draenei) มีเอกลักษณ์คือผิวสีฟ้า มีหางแหลมคมคล้ายจิ้งจก เพศผู้จะมีเคราในลักษณะที่เหมือนหนวดปลาหมึก ส่วนเพศหญิงจะมีเขาลักษณะคล้ายเขาแพะ ชนเผ่าแดรไนน์อาศัยอยู่โลกเดียวกับชนเผ่า ออร์ค หรือก็คือโลก แดรนอร์ (Draenor) ซึ่งทั้งสองเผ่าเริ่มแรกได้อยู่อาศัยกันอย่างสงบสุข จนกระทั่งการแปดเปื้อนของ เฟล (Fel) ภายในเผ่าออร์คด้วยอิทธิพลของ กูลแดน (Gul’dan) ทำให้เกิดสงครามระหว่างเผ่าขึ้น และแดรไนน์ได้เป็นฝ่ายพ่ายแพ้ต่อพลังของ เฟล จากเผ่าออร์ค ทำให้แดรไนน์จำนวนมากถูกจับเป็นเชลยศึกเพื่อสูบวิญญาณเพื่อใช้ในการเปิดประตูมิติ ดาร์คพอร์ทอล (Dark Portal) ส่วนแดรไนน์ที่เหลือรอดต่างหลบหนีไปยังที่ต่าง ๆ และคอยซ่อนตัวอยู่เพื่อรอการโต้กลับ โดยบางส่วนได้หลบหนีมายังโลก อาซีรอธ (Azeroth) ด้วยเช่นกัน  กาโรน่า (Garona) เป็นลูกครึ่งอะไร? กาโรน่า ฮาล์ฟออร์เค็น (Garona Halforcen) เป็นลูกครึ่งระหว่างเผ่า แดรไนน์และออร์ค ซึ่งเกิดขึ้นจากฝีมือของกูลแดนที่ทำการทดลองสั่งให้นักรบของตนเองผสมพันธุ์กับกับเชลยศึกแดรไนน์หญิงคนหนึ่ง ภายหลังกาโรน่ากำเนิดขึ้นมา กาโรน่าได้ถูกกูลแดนจับไปทรมานและฝึกฝนให้เป็นนักฆ่าและสายลับประจำกลุ่มแชโดว์ (Shadow Council) ของกูลแดน  ผู้พิทักษ์ (Guardian of Trisfal) คืออะไร? ผู้พิทักษ์คือผู้ที่ถูกคัดเลือกจากกลุ่มสภาแห่งทริฟฟอล (Council of Trisfal) เพื่อต่อสู้กับศัตรูที่เป็นภัยต่อโลกอาซีรอธ ซึ่งพลัง เฟล ของกูลแดนก็เป็นหนึ่งในภัยที่คุกคาม อาซีรอธ เช่นกัน ผู้ที่ได้รับเลือกเป็นผู้พิทักษ์จะได้รับมอบพลังจากกลุ่มสภาทำให้มีพลังเวทย์เพิ่มพูนขึ้นเป็นจำนวนมาก และมีอายุที่ยืนยาวนานึขึ้น ซึ่ง เมดิฟห์ (Medivh) ถือเป็นหนึ่งในผู้พิทักษ์ที่ได้รับมอบพลังนี้มาเช่นกัน  มัคโกร่า (Mak’gora) นั้นเป็นพิธีอะไร? ในหนังจะพบว่ามีการทำ มัคโกร่า ด้วยกันทั้งหมด 2 ครั้ง ครั้งแรก ดูโรแทน (Durotan) สู้กับ กูลแดน และครั้งที่สอง โลธ่า (Lothar) สู้กับ แบลคแฮนด์ (Blackhand) มัคโกร่าคือพิธีกรรมอันศักดิ์สิทธิ์ของชนเผ่าออร์ค เป็นการดวลตัวต่อตัวเพื่อแสดงถึงความเหนือกว่าของตนเอง พิธีกรรมนี้มักถูกใช้ในการคัดเลือกผู้นำของกลุ่มออร์ค (Warchief) โดยการทำมัคโกร่ามีกฏเกณฑ์ต่าง ๆ ดังนี้  ผู้เข้าร่วมสามารถนำอาวุธติดตัวไปได้หนึ่งอย่าง สามารถให้ชาแมน (Shaman) ประจำเผ่าให้พรแก่อาวุธเพื่อเพิ่มอานุภาพได้ ห้ามใส่เกราะป้องกันตัว การทำมัคโกร่าแต่ละครั้งต้องมีพยานอย่างน้อยหนึ่งคน ถ้าผู้เข้าร่วมปฏิเสธไม่ต่อสู้กับอีกฝ่ายจะถูกขับไล่ออกจากเผ่า เป็นการต่อสู้ถึงแก่ความตายแต่ผู้ชนะสามารถเลือกที่จะไว้ชีวิตอีกฝ่ายได้ (ในกรณีที่อีกฝ่ายไม่อยู่ในสภาพที่ต่อสู้ต่อไปได้)   เนื้อเรื่องในหนังที่แตกต่างจากในเกม ทาง Blizzard ได้ประกาศไว้ว่าเนื้อเรื่องในหนังถูกดำเนินบนโลกคู่ขนานกับในเกมทำให้มีเนื้อเรื่องที่แตกต่างกัน ในส่วนที่แตกต่างนั้นมีจุดต่าง ๆ ดังนี้  ในหนังจะพบว่าแบลคแฮนได้เสียชิวิตลงในการมัคโกร่ากับโลธ่า แต่ว่าในเกมนั้นแบลคแฮนไม่ได้ถูกโลธ่าฆ่า แต่หากถูกออกริม ดูมแฮมเมอร์ (Orgrim Doomhammer) หักหลังและท้าประลองมัคโกร่า ซึ่งแบลคแฮนได้พ่ายแพ้และส่งผลให้ ออกริม ดูมแฮมเมอร์เป็นผู้นำของเหล่าออร์คแทน ดูโรแทนไม่ได้ทำมัคโกร่ากับกูลแดน ในเกมดูโรแทนหลังจากมายังโลกอาซีรอธแล้วได้ถูกกูลแดนขับไล่ออกจากฮอร์ด (Horde) กลุ่มฟรอสวูล์ฟจึงได้หนีไปตั้งถิ่นอาศัยอยู่บนภูเขาอัลเทอแรค (Alterac Mountain) แทน ซึ่ง โกเอล (Go’el) ได้ถือกำเนิดขึ้นที่นั่น หลังจากการถือกำเนิดของโกเอล ดูโรแทนที่หมดห่วงถึงการดำรงอยู่ของเผ่าแล้ว จึงได้เดินทางมาพับกับออกริมเพื่อวางแผนล้มล้างกูลแดน หลังจบการพบปะออกริมได้ให้นักรบของตนนำพาดูโรแทนและดราก้า (Draka) ไปยังที่ปลอดภัยโดยหารู้ไม่ว่านักรบของออกริมนั้นมีสายลับของกูลแดนปะปนอยู่ด้วย ทำให้ในขณะที่กำลังเดินทางกลับได้เกิดการต่อสู้ขึ้นระหว่างสายลับของกูลแดนและดูโรแทนจนถึงแก่ความตายของดูโรแทนและดราก้านั่นเอง ความสัมพันธ์ระหว่างกาโรน่าและเมดิฟห์ในหนังจะเป็นเพียงแค่กาโรน่านับถือเมดิฟห์เท่านั้น แต่ในเกมกาโรน่าจะตกหลุมรักเมดิฟห์และมีบุตรด้วยกัน 1 คน ชื่อ เมดอาน (Med’an) ผู้ซึ่งจะกลายเป็นผู้พิทักษ์รุ่นถัดไป ในตอนท้ายของเกมกูลแดนจะตกอยู่ในสภาพโคม่า เพราะกูลแดนได้ใช้เวทย์มนต์เข้าไปดูภายในจิตใจของเมดิฟห์เพื่อล้วงความลับบางอย่าง แต่ว่าในระหว่างที่กำลังล้วงความลับนั้น เมดิฟห์ได้ถูกแคดกา (Khadgar) และโลธ่าร่วมมือกันฆ่าเสียก่อน กูลแดนที่หยุดยั้งเวทย์มนต์ไม่ทันและยังอยู่ภายในจิตใจของเมดิฟห์จึงได้ตกสู่สภาวะโคม่า ราชาเลน วรินน์ (Llane Wrynn) ไม่ได้ตายที่ค่ายของฮอร์ด แต่ถูกกาโรน่าลอบสังหารภายในเมืองสตอร์มวินด์ (Stormwind) ภายใต้การควบคุมของกลุ่มแชโดว์ จุดร่วมที่มีเหมือนในหนังคือ กาโรน่าไม่ได้ตั้งใจจะฆ่าราชาลีแอน และเสียใจอย่างมากกับการกระทำครั้งนี้ ในตอนท้ายของหนังกาโรน่าไปกับราชาเลน แต่ในเกมกาโรน่าจะไปหยุดเมดิฟห์ร่วมกับโลธ่าและแคดกาแทน ลูกชายของโลธ่าปรากฏตัวในหนังเป็นครั้งแรก ไม่เคยถูกกล่าวถึงมาก่อนเลยในเกม   ทั้งหมดนี้เป็นเพียงแค่การตอบคำถามคร่าว ๆ ต่อข้อสงสัยที่ผู้เขียนคิดว่าจะเกิดขึ้นกับผู้รับชมหนังเท่านั้น หากใครสนใจในรายละเอียดเพิ่มเติมหรืออยากรู้เรื่องราวเพิ่มเติมสามารถติดตามต่อได้ในเกม World of Warcraft ครับ แหล่งค้นคว้า - Wowpedia   ", 
  "Date": "27/May/2016", 
  "Image-Link": [
    "https://www.blognone.com/sites/default/files/styles/thumbnail/public/topics-images/warcraft.png?itok=CH4JPcSL", 
    "http://i.imgur.com/Z5PaGF4.jpg", 
    "http://i.imgur.com/zBmSLQl.jpg", 
    "http://i.imgur.com/37Jf8Dy.jpg", 
    "http://i.imgur.com/6ILXFF3.jpg", 
    "http://i.imgur.com/gzL4LrS.jpg", 
    "/sites/all/themes/blognone42/images/linebutton.png"
  ], 
  "Link": "https://www.blognone.com/node/81503", 
  "News": "[Spoiler] รวมคำถามที่หลายคนอาจสงสัยหลังดูหนัง Warcraft เสร็จ", 
  "Tags": [
    "In-Depth", 
    "Warcraft", 
    "Movie", 
    "Games"
  ], 
  "Time": "13:53"
}