{
  "By": "sunnywalker", 
  "Contents": " เราอาจเห็นคอมเม้นท์ใน Instagram ของดาราเซเลบที่บางครั้งก็ออกไปในทางหยาบคาย หรือเกรียน (ที่เราคุ้นเคยและรำคาญกันคงเป็นฝากร้าน) ล่าสุด Instagram ยืนยันกับสำนักข่าว Techcrunch ว่าเปิดฟังก์ชั่นนำคอมเม้นท์ทำนองนี้ออกจากใต้รูปภาพได้ ผู้ใช้จะเห็นได้ตรงตั้งค่าบัญชีของตน มีเมนู Comment Moderation เพิ่มเข้ามา ซึ่งผู้ใช้สามารถเข้าไปเปิดตัวนี้ให้ทำงานได้ ไม่เพียงไอจีของเซเลบที่มีคอมเม้นท์แบบนี้เยอะ บัญชีแบรนด์สินค้าต่างๆ ก็เช่นกัน ฟีเจอร์นี้สามารถทำให้แบรนด์จัดการกับมลภาวะที่มาจากการคอมเม้นท์หยาบคายภายใต้รูปภาพสินค้าได้ ที่มา - Techcrunch   ", 
  "Date": "7/July/2016", 
  "Image-Link": [
    "https://www.blognone.com/sites/default/files/styles/thumbnail/public/topics-images/ig.png?itok=IUjEmhEC", 
    "/sites/all/themes/blognone42/images/linebutton.png"
  ], 
  "Link": "https://www.blognone.com/node/83123", 
  "News": "เซเลบคงดีใจ เมื่อ Instagram เปิดฟังก์ชั่นลบคอมเมนท์หยาบคาย สแปม ออกได้", 
  "Tags": [
    "Instagram", 
    "Social Network"
  ], 
  "Time": "14:06"
}