{
  "By": "twometre", 
  "Contents": " แม้กราฟิกการ์ด GeForce GTX 1060 ยังไม่เปิดตัวอย่างเป็นทางการ ณ เวลานี้ แต่มีประเด็นจากสองข่าวน่าติดตาม ขอสรุปดังนี้ครับ  ที่เว็บไซต์ XFastest มีผลคะแนนจาก 3DMark Firestrike ออกมา ผลชี้ว่าการ์ดรุ่นนี้ในความจุ 6GB แรงกว่า AMD Radeon RX 480 ราวร้อยละ 15  ที่เว็บไซต์ PurePC ทาง TechPowerUp มีภาพการ์ดแบบ reference design เต็มใบหน้าหลัง พบว่าไม่มีขั้ว SLI ดีไซน์เป็นแบบการ์ดสั้น-ฮีตซิงค์ยาว ใช้ไฟ PCI-E 6-pin หนึ่งช่องครับ (ต้นทางลบรูปออกไปแล้ว)     ", 
  "Date": "6/July/2016", 
  "Image-Link": [
    "https://www.blognone.com/sites/default/files/styles/thumbnail/public/topics-images/geforce.png?itok=VWfKZaQt", 
    "//upic.me/i/i4/wb3mru2.jpg", 
    "/sites/all/themes/blognone42/images/linebutton.png"
  ], 
  "Link": "https://www.blognone.com/node/83074", 
  "News": "คะแนน GeForce GTX 1060 หลุด: ยังแรงกว่า Radeon RX 480, ไม่มีขั้วต่อ SLI", 
  "Tags": [
    "GeForce", 
    "NVIDIA", 
    "NVIDIA Pascal", 
    "Hardware"
  ], 
  "Time": "14:00"
}