{
  "By": "nismod", 
  "Contents": " FTC หรือกสทช.ของสหรัฐได้ยื่นข้อเรียกร้องไปยัง Warnor Brothers Home Entertainment สตูดิโอที่ดูแลภาพยนตร์และเกมในเครือ Warner Bros ให้เปิดเผยว่ามีการจ่ายเงินสนับสนุนนักแคสต์เกมเพื่อโปรโมทเกมบน YouTube หลังจากเมื่อปี 2014 มีทาง Warner Bros. ได้จ่ายเงินสนับสนุนการแคสท์เกม Middle Earth: Shadow of Mordor โดยไม่แจ้งให้ผู้ชมทราบอย่างชัดเจน FTC ระบุว่า Warner Bros. ว่าจ้างบริษัทด้านการตลาดให้ติดต่อกับนักแคสท์เกมบน YouTube ซึ่งรวมถึง PewDiePie ด้วย เพื่อแคสท์เกม Shadow of Mordor และโปรโมทผ่านเฟซบุ๊กและทวิตเตอร์ ซึ่งถึงแม้นักแคสท์เกมบางรายจะระบุในหน้าข้อมูลใต้วิดีโอบน YouTube ว่าได้รับการสนับสนุนจาก Warner Bros. ก็ตาม แต่ข้อมูลนี้กลับอยู่ใต้แถบ \"Show More\" และรายถึงขั้นไม่มีการชี้แจง ขณะที่การชมผ่านเฟซบุ๊กและทวิตเตอร์ ผู้ชมก็ยิ่งจะไม่ได้รับทราบข้อมูลนี้เลย ตรงนี้เองที่ FTC เรียกร้องให้ Warner Bros. จริงใจกับผู้ชมและระบุให้ชัดเจนว่ามีการสนับสนุนการแคสท์เกม เนื่องจากเป็นสิทธิของผู้ชมที่ควรจะได้รับรู้ว่า ความคิดเห็นในคลิปนั้นเป็นความเห็นของนักแคสท์แต่เพียงคนเดียว หรือเป็นความคิดเห็นเพื่อต้องการโปรโมทสินค้า ที่มา - FTC via ArsTechnica   ", 
  "Date": "12/July/2016", 
  "Image-Link": [
    "https://www.blognone.com/sites/default/files/styles/thumbnail/public/topics-images/ftc.png?itok=BSUYmHPI", 
    "/sites/all/themes/blognone42/images/linebutton.png"
  ], 
  "Link": "https://www.blognone.com/node/83313", 
  "News": "FTC เรียกร้อง Warner Bro. ให้เปิดเผยว่าจ่ายเงินสนับสนุนการแคสท์เกมบน YouTube", 
  "Tags": [
    "FTC", 
    "Warner Bros.", 
    "YouTube", 
    "Game"
  ], 
  "Time": "14:28"
}