{
  "By": "BlackMiracle", 
  "Contents": " หากยังจำกันได้ เมื่อเดือนกันยายนปีที่แล้ว Volkswagen ผู้ผลิตรถยนต์ชื่อดังจากเยอรมนี ถูกจับได้ว่าใส่ซอฟต์แวร์โกงอัตราการปล่อยมลพิษให้ต่ำลงเมื่อรถยนต์กำลังถูกทดสอบ แต่หากวิ่งใช้งานปกติจะปล่อยมลพิษออกมามากกว่าผลทดสอบถึง 40 เท่า เวลาผ่านมาหลายเดือน ล่าสุด Volkswagen ถูกตัดสินลงโทษแล้ว ผู้ใช้รถ Volkswagen เครื่องยนต์ดีเซล 2.0 ลิตร รุ่น Beetle ปี 2013 - 2015, Golf ปี 2010 - 2015, Jetta ปี 2009 - 2015, Passat ปี 2012 - 2015 และ Audi A3 ปี 2010 - 2013 และ 2015 มีทางเลือกสองทาง คือ ขายรถคืนให้ Volkswagen หรือนำรถเข้าศูนย์บริการเพื่อแก้ไขให้ถูกกฎหมายการปล่อยมลพิษ หากผู้ใช้ต้องการขายรถคืน ทาง Volkswagen ต้องรับซื้อตามมูลค่าที่ National Automobile Dealers Association (NADA) กำหนด โดยราคาจะมากหรือน้อยขึ้นอยู่กับระยะทางที่รถวิ่งไปแล้ว และออปชันต่างๆ ของรถ ซึ่งจะยืนพื้นอยู่ที่ราคาของรถยนต์รุ่นนั้นๆ ของเดือนกันยายน ปี 2015 ก่อนที่ Volkswagen จะโดนจับได้ และสำหรับผู้ใช้ที่เช่ารถ ทาง Volkswagen ต้องยกเลิกสัญญาเช่าโดยไม่เก็บค่าฉีกสัญญาใดๆ จากผู้ใช้ การรับซื้อรถคืนจะเริ่มได้เร็วสุดในช่วงฤดูใบไม้ร่วงปีนี้ (ราวเดือนตุลาคมเป็นต้นไป) 2015 Volkswagen Passat estate 2.0 TDI หนึ่งในรุ่นที่ได้รับผลกระทบ สำหรับผู้ใช้ที่กู้เงินมาซื้อรถ Volkswagen จะต้องชำระหนี้ดังกล่าวแทนผู้ใช้ โดยต้องชำระหนี้ในวงเงินไม่เกิน 130% ของมูลค่ารับซื้อคืนของรถคันนั้น เช่นหากตีราคาซื้อคืนอยู่ที่ 20,000 ดอลลาร์สหรัฐ Volkswagen ต้องจ่ายไม่เกิน 26,000 ดอลลาร์สหรัฐ เป็นต้น หากผู้ใช้ต้องการใช้รถต่อ ก็สามารถนำรถยนต์ของตนเข้ารับบริการที่ศูนย์ เพื่อแก้ไขให้รถปล่อยมลพิษได้ถูกต้องตามกฎของรัฐ อีกทั้ง Volkswagen ยังต้องขยายระยะเวลารับประกันให้ยาวขึ้นด้วย ไม่ว่าผู้ใช้จะเลือกทางเลือกไหนก็ตาม Volkswagen ยังต้องจ่ายเงินชดเชยให้เจ้าของรถแต่ละคนเป็นเงินตั้งแต่ 5,100 ถึง 10,000 ดอลลาร์สหรัฐด้วย (ประมาณ 1.8 ถึง 3.52 แสนบาท) โดยผู้ที่ได้รับสิทธิ์นี้ต้องซื้อและรับรถไม่เกินวันที่ 18 กันยายน 2015 การลงโทษครั้งนี้คาดว่า Volkswagen ต้องสูญเงินราว 1.47 หมื่นล้านดอลลาร์สหรัฐ (ประมาณ 5 แสนล้านบาท) โดยเงินจำนวน 4.7 พันล้านจะถูกจ่ายไปกับเรื่องผลกระทบต่อสิ่งแวดล้อม และนี่ยังไม่รวมถึงคดีความอื่นๆ อีก เช่นกลุ่มรถยนต์ที่ใช้เครื่องยนต์ดีเซล 3.0 ลิตร ก็จะถูกจัดการแยกกัน โดยคำสั่งจากรัฐแคลิฟอร์เนียบอกว่า Volkswagen ต้องเรียกรถยนต์ดีเซล 2.0 ลิตรที่ได้รับผลกระทบคืนอย่างน้อย 85% ของรถที่ขายออกไปทั้งหมด ผู้ใช้รถยนต์ Volkswagen สามารถเข้าไปตรวจสอบที่เว็บไซต์ Volkswagen Court Settlement ว่ารถของตนเข้าข่ายหรือไม่ เพียงใส่เลขตัวถังรถยนต์ครับ ที่มา - CNET Roadshow   ", 
  "Date": "29/June/2016", 
  "Image-Link": [
    "https://www.blognone.com/sites/default/files/styles/thumbnail/public/topics-images/vw.png?itok=QTb39oFM", 
    "https://i.imgur.com/4uveazG.jpg", 
    "/sites/all/themes/blognone42/images/linebutton.png"
  ], 
  "Link": "https://www.blognone.com/node/82810", 
  "News": "ตัดสินแล้ว Volkswagen ต้องรับซื้อรถคืน หรือซ่อมรถให้ผู้ใช้ จากเหตุโกงค่ามลพิษรถยนต์", 
  "Tags": [
    "Volkswagen", 
    "Automobile"
  ], 
  "Time": "14:24"
}