{
  "By": "tekkasit", 
  "Contents": " ปัญหาอย่างหนึ่งของการอ่านอีบุ๊คที่ยังทำได้ไม่ค่อยดี คือการกรีดหนังสือหรือพลิกหน้าอย่างเร็ว หลายครั้งเวลาที่เราอ่านนิยายหรือหนังสือวิชาการที่มีการพูดถึง แผนที่, รูป, กราฟ, ตาราง หรือแม้แต่โน้ตหรือไฮไลท์ของตัวเองก่อนหน้า สิ่งที่คนอ่านส่วนใหญ่ทำคือ นั่งพลิกเปลี่ยนหน้าย้อนหลังไปเรื่อยๆ ทีละหน้าเพื่อหาเนื้อหาที่ต้องการจนกว่าจะเจอ แต่หลายครั้งมักจะเจอปัญหาว่าเมื่ออ่านกราฟหรือแผนที่ที่ต้องการแล้ว กลับลืมตำแหน่งเดิม ทำให้อ่านต่อไม่สนุก สองวันก่อนอเมซอนประกาศปรับปรุงฟีเจอร์ Page Flip ใหม่ให้ใช้งานง่าย เป็นธรรมชาติมากขึ้น สามารถเห็นหน้าหนังสือเป็นชุด 9 หน้าในลักษณะรูปย่อ (thubmnail) และสามารถพลิกข้ามได้ทีละชุด เพื่อให้ค้นได้เร็วขึ้น และสามารถกดปุ่มเดียวเพื่อกลับมาหน้าเดิมได้โดยไม่ต้องกลัวว่าจะหลง    หนังสือที่รองรับจะเป็นหนังสือที่มีคุณสมบัติ \"Page Flip: Enabled\" และอุปกรณ์ที่รองรับ Page Flip แบบใหม่ได้แก่ Android, iOS, Kindle e-Reader และ Kindle Fire ซึ่งจะทยอยปล่อยอัปเดตเร็วๆ นี้ หมายเหตุ: เท่าที่ผู้เขียนตรวจสอบด้วยตัวเอง พบว่าอุปกรณ์ดังต่อไปนี้ที่รองรับ Page Flip แบบใหม่แล้ว  Android: Kindle v7.0.0.49 iOS: Kindle v5.0 Kindle e-Reader: Paperwhite รุ่น 3 (5.8.1), Kindle Voyage (5.8.1) และ Kindle Oasis (5.8.1.0.1)  ที่มา: The Digital Reader, Amazon   ", 
  "Date": "30/June/2016", 
  "Image-Link": [
    "https://www.blognone.com/sites/default/files/styles/thumbnail/public/topics-images/kindle.png?itok=gWJTDc0W", 
    "https://lh3.googleusercontent.com/-iQ8wm1dJKpI/V3SPtxDgPrI/AAAAAAAA-vc/tYNg705YbJsCKv8G68nMli3W8KJ8CqmzwCCo/s640/PageFlip_iPhone_670.gif", 
    "https://lh3.googleusercontent.com/-EQu3b438CcQ/V3SPuMsNbOI/AAAAAAAA-vk/KE3VEkJmVLo00aEoJhOwV55rpx4hnVuegCCo/s640/PagFlip_Tablet_670.gif", 
    "https://lh3.googleusercontent.com/-4AGnn4dcfVk/V3SPtmY2YWI/AAAAAAAA-vU/IoOXPQWiKFcOk7-XgyGAnGMTyZWDr6fiQCCo/s640/PagFlip_eReader_670.gif", 
    "/sites/all/themes/blognone42/images/linebutton.png"
  ], 
  "Link": "https://www.blognone.com/node/82842", 
  "News": "อเมซอนปรับปรุงฟีเจอร์ Page Flip ใหม่ เตรียมปล่อยให้ใช้งานเร็วๆ นี้", 
  "Tags": [
    "Kindle", 
    "Amazon", 
    "eBook Reader"
  ], 
  "Time": "14:26"
}