{
  "By": "nismod", 
  "Contents": " เรื่องราวนี้เกิดขึ้นในเมือง Cleveland มลรัฐ Ohio เมื่อเด็กชาย Bryce วัย 9 ขวบ ถูกขโมยการ์ดโปเกมอนที่เขาสะสมไว้ตั้งแต่ 6 ขวบไปจากมือ ก่อนที่แม่ของ Bryce จะเรียกตำรวจและตามจับมือขโมยได้ แต่ทว่าการ์ดบางส่วนที่สะสมไว้ก็หายไป ด้วยความเข้าใจการสูญเสียของสะสมอันเป็นที่รักรวมถึงเป็นแฟนโปเกมอนตั้งแต่เด็ก จนท. James Grotenrath ที่เดินทางไปทำคดี ได้กลับบ้านไปรื้อลังเก่าๆ ก่อนจะนำคอลเลคชันโปเกมอนการ์ดที่เขาสะสมไว้ตั้งแต่เด็กมาให้กับ Bryce เพื่อเป็นการปลอบใจ โดยหนึ่งในนั้นมีการ์ด Ancient Mew ที่ค่อนข้างหายากและมีเพียงไม่กี่ใบในโลก จนท. Grotenrath ให้สัมภาษณ์ว่าถึงแม้ของที่เขาสะสมจะประเมินค่าไม่ได้ แต่ก็อยากจะเห็นผู้คนมีความสุข และอยากให้ประชาชนยิ้มให้กับตำรวจ แทนที่จะทำหน้าบึ้งตึงหรือหันหน้าใส่ ที่มา - Gamespot, คลิปจาก Rohan Trace   ", 
  "Date": "24/May/2016", 
  "Image-Link": [
    "https://www.blognone.com/sites/default/files/styles/thumbnail/public/topics-images/pokemon.png?itok=7HuOXT6S", 
    "/sites/all/themes/blognone42/images/linebutton.png"
  ], 
  "Link": "https://www.blognone.com/node/81334", 
  "News": "Gotta Give Away Them All ตำรวจบริจาคการ์ดโปเกมอนให้เด็กที่ถูกขโมยการ์ด", 
  "Tags": [
    "Pokemon", 
    "Games"
  ], 
  "Time": "14:32"
}