{
  "By": "nismod", 
  "Contents": " หน่วยงานเพื่อป้องกันและปราบปรามอาชญากรรมของสหราชอาณาจักร (National Crime Agency - NCA) ได้ยื่นเรื่องต่อศาล เพื่อให้ศาลออกคำสั่งให้นาย Lauri Love โปรแกรมเมอร์ที่ถูกทางการสหรัฐฯ กล่าวหาว่าแฮก Federal Reserve Bank ให้มอบกุญแจปลดล็อกรหัสหรือพาสเวิร์ด ให้กับทางการอังกฤษ ในการปลดล็อกโน้ตบุ๊กและฮาร์ดดิสก์ที่ถูกยึดไป Love ถูกทางการอังกฤษจับตั้งแต่ปี 2013 ก่อนที่ทาง NCA จะอาศัยอำนาจตามกฎหมาย Regulation of Investigatory Powers Act 2000 (RIPA) สั่งให้นาย Love มอบกุญแจปลดล็อกรหัสให้กับทางการ ซึ่งแน่นอนว่าถูกปฏิเสธ (ตามกฎหมาย RIPA การบังคับให้ผู้ต้องสงสัยมอบรหัสให้ ต้องมีเงื่อนไขและเหตุผลรองรับพอสมควร) ทาง NCA จึงหันไปหาศาล ซึ่งล่าสุดผู้พิพากษาปฏิเสธคำขอนี้ พร้อมให้เหตุผลว่า NCA ควรปฏิบัติตามกรอบของกฎหมาย RIPA ไม่ใช่หันมาพึ่งทางลัดอย่างศาล ที่มา - Ars Technica   ", 
  "Date": "11/May/2016", 
  "Image-Link": [
    "https://www.blognone.com/sites/default/files/styles/thumbnail/public/news-thumbnails/1024px-Flag_of_the_United_Kingdom.svg_.png?itok=666-NdKZ", 
    "/sites/all/themes/blognone42/images/linebutton.png"
  ], 
  "Link": "https://www.blognone.com/node/80844", 
  "News": "ศาลสหราชอาณาจักรตัดสิน ตำรวจไม่สามารถบังคับผู้ต้องสงสัยมอบพาสเวิร์ดให้", 
  "Tags": [
    "United Kingdom", 
    "Privacy"
  ], 
  "Time": "14:32"
}