{
  "By": "nismod", 
  "Contents": " Tencent ยักษ์ใหญ่วงการอินเทอร์เน็ตและเกมออนไลน์ของจีน ร่วมกับ Haier ผู้ผลิตเครื่องใช้ไฟฟ้าของจีนและ Intel เปิดตัวคอนโซลเกม Blade Box โดย Haier จะเป็นผู้ผลิตฮาร์ดแวร์ Intel จะรับผิดชอบเรื่องเทคโนโลยีและคอมพิวติ้งแพลตฟอร์ม ขณะที่ Tencent จะดูแลเรื่องการพัฒนาแพลตฟอร์มเกมและตัวเกม สเปคภายในเท่าที่ทราบคือใช้ชิปเซ็ตตระกูล Core Skylake  ของ Intel รันอยู่บน Windows 10 และ Tencent Games Platform (TGP) ซึ่งเท่ากับตัวคอนโซลสามารถทำงานได้ 2 โหมดคือโหมดวินโดวส์และโหมดเกม และจะมาพร้อมกับเทคโนโลยีของ Intel อย่าง Smart Sensing และ Smart Home Technology เบื้องต้นเกมที่เล่นได้บน Blade Box จะมีเฉพาะเกมที่ Tencent เป็นผู้จัดจำหน่ายอย่าง Leagues of Legend, FIFA Online 3, NBA 2K, Monster Hunter และ Need for Speed: Hot Pursuit Tournament ซึ่งทาง Tencent ระบุว่าจะมีเกมคุณภาพสูงจากบริษัทพัฒนาอื่นๆ เพิ่มเติมขึ้นอีกภายในปีนี้ ภาพของคอนโซลดูได้จากที่มาเลยครับ ที่มา - AllChinaTech via Neowin   ", 
  "Date": "17/May/2016", 
  "Image-Link": [
    "https://www.blognone.com/sites/default/files/styles/thumbnail/public/topics-images/tencent.png?itok=yAFj26PS", 
    "/sites/all/themes/blognone42/images/linebutton.png"
  ], 
  "Link": "https://www.blognone.com/node/81080", 
  "News": "Tencent เปิดตัว Blade Box คอนโซลเกมที่รัน Windows 10", 
  "Tags": [
    "Tencent", 
    "Haier", 
    "Intel", 
    "Console", 
    "Games", 
    "Windows 10"
  ], 
  "Time": "14:31"
}