{
  "By": "nutmos", 
  "Contents": " Uber ได้เปิดตัว UberRUSH API โดยเป็น API สำหรับให้นักพัฒนานำไปใช้ในการเพิ่มทางเลือกการส่งสินค้าให้กับผู้รับผ่าน Uber หลังจากที่บริการนี้เริ่มทดลองไปในแมนฮัตตันและเปิดให้บริการในหลายเมืองมาก่อนหน้านี้ ซึ่งในขณะนั้น Uber ยังกำหนดให้ UberRUSH ยังไม่ได้เปิดให้นักพัฒนาภายนอกนำ API ไปใช้ สำหรับ API นี้ Uber บอกว่าจะเหมาะกับบริษัทที่ต้องการสร้างทางเลือกหรือปรับปรุงการส่งสินค้า คือ API นี้เปิดให้ไปใช้ในการส่งสินค้าของธุรกิจ โดยใช้โครงข่ายการส่งสินค้าของ Uber เพื่อให้ธุรกิจไม่ต้องเสียเวลามาปวดหัวกับเรื่องการขนส่งสินค้า, ขยายพื้นที่ให้บริการได้, มีความน่าเชื่อถือมากยิ่งขึ้น และสามารถเอาเวลาไปโฟกัสกับเรื่องอื่นๆ ได้ Uber จะจัด workshop สำหรับ API นี้ที่ชิคาโก, นิวยอร์ก และซานฟรานซิสโกในอีก 3 สัปดาห์ โดยถ้าใครมีไอเดียดีๆ ในการนำ API ไปใช้ ให้นำไอเดียที่ทำเสร็จแล้วมาแสดง โดย Uber จะนำขึ้นบล็อก และผู้ที่แสดงไอเดียนี้จะได้รับเครดิตฟรีจาก Uber ด้วย ที่มา - Uber   ", 
  "Date": "10/June/2016", 
  "Image-Link": [
    "https://www.blognone.com/sites/default/files/styles/thumbnail/public/topics-images/uber_0.png?itok=6XhODw2-", 
    "/sites/all/themes/blognone42/images/linebutton.png"
  ], 
  "Link": "https://www.blognone.com/node/82121", 
  "News": "Uber เปิดตัว UberRUSH API ให้ธุรกิจนำไปใช้เพิ่มทางเลือกการส่งสินค้าผ่าน Uber", 
  "Tags": [
    "Uber", 
    "Logistics"
  ], 
  "Time": "14:47"
}