{
  "By": "nismod", 
  "Contents": " ฝ่ายอาชญากรรมทางคอมพิวเตอร์และทรัพย์สินทางปัญญา (Computer Crime and Intellectual Property Section) สังกัดกระทรวงยุติธรรมสหรัฐฯ ร่วมกับอัยการเขต Northern District of Georgia ฟ้องนาย Aaron Blake Buckley ฐานละเมิดทรัพย์สินทางปัญญา จากการนำแอพพลิเคชันบน Play Store มาปล่อยบน Applanet ซึ่งเป็นสโตร์เถื่อนของตัวเอง เป็นระยะเวลากว่า 2 ปี ซึ่งเจ้าตัวก็ยอมรับผิดต่อศาล นอกจากนาย Buckley แล้ว นาย Gary Edwin Sharp ก็ถูกยื่นฟ้องและยอมรับผิดในข้อหาเดียวกัน ในฐานะผู้มีส่วนร่วมและนำแอพไปปล่อยบน SnappzMarket สโตร์เถื่อนอีกแห่ง โดยทั้งคู่จะถูกตัดสินความผิดในวันที่ 1 สิงหาคมนี้ ทั้งนี้กระทรวงยุติธรรมสหรัฐฯ รายงานว่ามีแอพพลิเคชันมากกว่า 4 ล้านแอพถูกดาวน์โหลดผ่าน Applanet คิดเป็นมูลค่ารวมกันกว่า 17 ล้านเหรียญสหรัฐฯ ขณะที่บน SnappzMarket มีผู้ดาวน์โหลดแอพไปกว่า 1 ล้านรายการ คิดเป็นมูลค่ากว่า 1 ล้าน 7 แสนเหรียญสหรัฐฯ ที่มา - DoJ via Android Central   ", 
  "Date": "3/May/2016", 
  "Image-Link": [
    "https://www.blognone.com/sites/default/files/styles/thumbnail/public/topics-images/google-play-new.png?itok=rDa4mjxu", 
    "/sites/all/themes/blognone42/images/linebutton.png"
  ], 
  "Link": "https://www.blognone.com/node/80564", 
  "News": "นักพัฒนาเถื่อนรับสารภาพ ละเมิดลิขสิทธิ์แอพบน Play Store นำไปปล่อยฟรีบนสโตร์ตัวเอง", 
  "Tags": [
    "Mobile App", 
    "Google Play", 
    "Piracy", 
    "Crime"
  ], 
  "Time": "14:42"
}