{
  "By": "nismod", 
  "Contents": " ถึงแม้จะวางขายมา 11 ปีและใช้มาตรฐานเก่าอย่าง 802.11g และมีเพียงความถี่ 2.4GHz ความถี่เดียวก็ตาม แต่เราเตอร์รุ่น WRT54GL ของ Linksys ยังคงขายดีและทำรายได้ให้บริษัทปีละหลายล้านเหรียญสหรัฐ และเป็นเพียงรุ่นเดียวในซีรีส์ WRT54G ที่ยังขายอยู่ Vince La Duca ผู้จัดการด้านผลิตภัณฑ์ของ Linksys ยอมรับด้วยซ้ำว่ายังงงกับสถานการณ์เช่นนี้เหมือนกัน โดยเจ้าตัวคาดว่า ปัจจัยสำคัญที่ WRT54GL ยังคงขายได้ เป็นเพราะชื่อเสียงและความน่าเชื่อถือของตัวเราเตอร์ รวมถึงการรองรับเฟิร์มแวร์โอเพนซอร์ส ขณะที่เราเตอร์รุ่นใหม่ๆ ของ Linksys ที่รองรับโอเพนซอร์สจะอยู่ในรุ่นไฮเอนด์ที่มีราคาสูงกว่า WRT54GL 2-3 เท่า ขณะที่เสียงรีวิวิจากลูกค้าส่วนใหญ่ พูดไปในทางเดียวกันถึงความทนทาน ความคลาสสิค ใช้งานง่ายและการรองรับโอเพนซอร์ส ที่มา - Ars Technica    ", 
  "Date": "5/July/2016", 
  "Image-Link": [
    "https://www.blognone.com/sites/default/files/styles/thumbnail/public/topics-images/Linksys_Logo_2016.svg_.png?itok=xUdpH015", 
    "https://c4.staticflickr.com/8/7358/28099549395_5249f55aa8_z.jpg", 
    "/sites/all/themes/blognone42/images/linebutton.png"
  ], 
  "Link": "https://www.blognone.com/node/83026", 
  "News": "เราเตอร์ WRT54GL ของ Linksys ยังคงขายดี แม้จะวางขายมากว่า 10 ปีแล้วก็ตาม", 
  "Tags": [
    "Linksys", 
    "Wireless Router"
  ], 
  "Time": "14:48"
}