{
  "By": "nutmos", 
  "Contents": " Facebook ได้ออกอัพเดตแอพ Messenger บน iPhone โดยรอบนี้มีการรองรับ 3D Touch ซึ่งเป็นฟีเจอร์ที่มีใน iPhone 6s/6s Plus ผู้ใช้ iPhone 6s/6s Plus เมื่ออัพเดตแอพ Messenger แล้วจะสามารถใช้งานได้ทันที โดยมีทั้งฟีเจอร์ Peek and Pop คือเมื่อกดหนักไปที่การสนทนา, รูปภาพและไฟล์ภาพ GIF, วิดีโอ, สติ๊กเกอร์, ลิงก์ และอื่น ๆ ก็จะมีการพรีวิวขึ้นมา (Peek) และจากหน้าแสดงพรีวิว เมื่อปาดขึ้นก็จะมีเมนูขึ้นมาให้เลือกว่าจะจัดการสิ่งนั้นอย่างไร เช่น ถ้าเป็นการสนทนาก็จะมีการแจ้งให้ปิดเสียง, ถ้าเป็นโปรไฟล์อย่างย่อก็จะมีเปิดการสนทนา โดยในหน้าการสนทนา ถ้าผู้ใช้จะพรีวิวขึ้นมาก็จะส่งไปบอกอีกฝ่ายว่าคุณอ่านแล้วและปิดไม่ได้ ผู้ใช้แอพ Facebook Messenger สามารถอัพเดตแอพได้ทันทีผ่าน App Store ที่มา - 9to5Mac, The Verge   ", 
  "Date": "14/July/2016", 
  "Image-Link": [
    "https://www.blognone.com/sites/default/files/styles/thumbnail/public/topics-images/messenger-500.png?itok=We0tzOrE", 
    "/sites/all/themes/blognone42/images/linebutton.png"
  ], 
  "Link": "https://www.blognone.com/node/83432", 
  "News": "Facebook Messenger ออกอัพเดต รองรับ 3D Touch บน iPhone 6s แล้ว", 
  "Tags": [
    "Facebook Messenger", 
    "Facebook"
  ], 
  "Time": "14:49"
}