{
  "By": "nismod", 
  "Contents": " หลัง Qualcomm เปิดตัว Snapdragon 821 ไปไม่นาน ASUS ออกมาประกาศแล้วว่า ZenFone 3 Deluxe จะเป็นสมาร์ทโฟนรุ่นแรกที่ใช้ชิปเซ็ตตัวใหม่ของ Qualcomm หลังจากตอนเปิดตัวประกาศว่าจะใช้ Snapdragon 820 อย่างไรก็ตามไม่ใช่ Zenfone 3 Deluxe ทุกโมเดลจะได้ Snapdragon 821 โดยชิปเซ็ตตัวนี้จะมีเฉพาะในโมเดลความจุ 256GB พร้อมแรม 6GB เท่านั้น ส่วนโมเดลอื่นยังคงเป็น Snapdragon 820 เช่นเดิมครับ อัพเดตแก้ไขเนื้อหา ที่มา - Engadget   ", 
  "Date": "12/July/2016", 
  "Image-Link": [
    "https://www.blognone.com/sites/default/files/styles/thumbnail/public/topics-images/asus.png?itok=Jjx1LVLM", 
    "/sites/all/themes/blognone42/images/linebutton.png"
  ], 
  "Link": "https://www.blognone.com/node/83318", 
  "News": "ASUS เผย Zenfone 3 Deluxe จะอัพเกรดชิปเซ็ตเป็น Snapdragon 821", 
  "Tags": [
    "Zenfone", 
    "ASUS", 
    "Mobile", 
    "Snapdragon"
  ], 
  "Time": "14:44"
}