{
  "By": "trinakub", 
  "Contents": " จบกันไปแล้วกับงานเกม Heroes of the Storm Warcraft Pro League ชิงเงินรางวัลมูลค่ากว่า 40,000 บาท      เมื่อวันที่ 25 พฤษภาคม 2559  พร้อมรับชมภาพยนตร์ Warcraft รอบ  Gala Premiere รอบพิเศษก่อนฉายจริง งานนี้เปิดกว้างแก่ผู้เข้าแข่งขันทุกรูปแบบ ไม่ว่าจะเป็นทีมผู้เล่นหน้าเก่าที่ต้องการเข้าร่วม และทีมผู้เล่นใหม่ที่ต้องการสัมผัสประสบการณ์การแข่งขันที่ท้าทาย ผู้ชนะคือทีม Greedisgood 999+ ตัวแทนประเทศไทยคราวก่อนจากงาน Heroes of the Storm Thailand Championship นั่นเอง  บรรยากาศในงานยังมีกิจกรรมให้ร่วมทดลองเล่นเกม Heroes of the Storm และมีการจัดกิจกรรมถ่ายรูปคู่กับตัวละครในเกมเพื่อชิงของรางวัลพิเศษจาก HP   นี่คือโฉมหน้าของนักกีฬาในแต่ละทีมและขอแสดงความยินดีกับทีม Greedisgood 999+ ด้วยครับ  Champion : Greedisgood 999+ 1st runner up : Chillrax 2nd runner up : Rolling Girl 3rd runner up : Vayne & Vayne  การแข่งขัน Warcraft League ยังวนไปจัดตามภูมิภาคต่างๆ ทั่วไทย เพื่อให้เกมเมอร์ต่างจังหวัดมีสิทธิเข้าร่วมแข่งขันด้วย ที่มา - Heroes of the Storm Facebook   ", 
  "Date": "28/May/2016", 
  "Image-Link": [
    "https://www.blognone.com/sites/default/files/styles/thumbnail/public/topics-images/heroes.png?itok=8GeiL4ZU", 
    "http://i.imgur.com/nBs1m5s.jpg", 
    "http://i.imgur.com/MGDITvt.jpg", 
    "http://i.imgur.com/VIxRx4U.jpg", 
    "/sites/all/themes/blognone42/images/linebutton.png"
  ], 
  "Link": "https://www.blognone.com/node/81540", 
  "News": "การแข่ง Heroes of the Storm Warcraft ได้ทีมชนะเลิศรอบ Pro League", 
  "Tags": [
    "Heroes of the Storm", 
    "MOBA", 
    "Games", 
    "Competition", 
    "eSport"
  ], 
  "Time": "14:51"
}