{
  "By": "nutmos", 
  "Contents": " หลังจากที่ Megaupload ของ Kim Dotcom ถูกทางการสหรัฐสั่งปิดและตัวเขาได้ทำเว็บใหม่ที่ชื่อ Mega ซึ่งภายหลังได้ออกมาเพราะถูกซื้อจากจีน โดยในตอนนั้นเขาประกาศจะพัฒนาบริการขึ้นมาใหม่อีกครั้ง ตอนนี้ Dotcom นั้นได้ทวีตบอกรายละเอียดของบริการใหม่ที่ตัวเขากำลังพัฒนาอยู่ โดยบริการนี้จะมีพื้นที่เก็บข้อมูลบนคลาวด์ 100GB, มีการเข้ารหัส, ซิงค์ไฟล์ข้ามเครื่องได้ทุกเครื่อง และไม่มีข้อจำกัดด้านการถ่ายโอนไฟล์ พร้อมเปิดตัวมกราคมปีหน้า และติดแท็กในทวีตว่า #5thRaidAnniversary หรือครบรอบ 5 ปีของการบุกปิดเว็บ Megaupload ของ FBI Dotcom ได้เผยกับ TorrentFreak ว่าบริการเก็บข้อมูลบนคลาวด์ใหม่นี้กำลังอยู่ในขั้นของการพัฒนา ซึ่ง Dotcom บอกว่าจะเป็นแพลตฟอร์มที่ดีที่สุดที่เขาเคยทำมา ส่วนชื่อของบริการนั้นยังไม่ได้บอก เขาบอกเพียงแค่ชื่อนั้นจะทำให้คนมีความสุข (will make people happy) ที่มา - TorrentFreak A new site is in the making:100gb free cloud storageOn-the-fly encryptionSync all your devicesNO TRANSFER LIMITS#5thRaidAnniversary — Kim Dotcom (@KimDotcom) July 5, 2016   ", 
  "Date": "7/July/2016", 
  "Image-Link": [
    "https://www.blognone.com/sites/default/files/styles/thumbnail/public/topics-images/9qheijpvtu9g5dteqvvw.jpeg?itok=j1y86FaI", 
    "/sites/all/themes/blognone42/images/linebutton.png"
  ], 
  "Link": "https://www.blognone.com/node/83125", 
  "News": "Kim Dotcom เผยกำลังพัฒนาบริการพื้นที่เก็บข้อมูลบนคลาวด์ เตรียมเปิดตัวมกราคมปีหน้า", 
  "Tags": [
    "Kim Dotcom", 
    "Cloud Storage"
  ], 
  "Time": "14:58"
}