{
  "By": "nismod", 
  "Contents": " เว็บไซต์ The Register รายงานการวิจัยชิ้นหนึ่ง ที่เกี่ยวกับความถูกต้องของการตรวจวัดอัตราการเต้นหัวใจของอุปกรณ์สวมใส่ออกกำลังกายอย่าง Fitbit ผลปรากฎว่า อัตราการเต้นหัวใจที่อุปกรณ์ Fitbit แสดงผลนั้น ผิดจากไปความเป็นจริงที่เฉลี่ย 25 ครั้งต่อนาที การทดลองครั้งนี้ มีผู้เข้าร่วมทดสอบทั้งหมด 43 คน แต่ละคนจะถูกติดเครื่องตรวจคลื่นไฟฟ้าหัวใจ และสวม Fitbit Charge HR และ Fitbit Surge ไว้ที่ข้อมือทั้งสองข้าง ก่อนที่ผู้เข้าร่วมทดสอบจะออกกำลังกายนาน 65 นาที ซึ่ง ดร. Edward Jo และ ดร. Brett A. Dolezal ผู้ทำสำรวจระบุว่า เทคโนโลยี PurePulse ที่วัดชีพจรอย่างต่อเนื่องของ FitBit ไม่มีการแสดงผลที่ถูกต้อง และยิ่งไม่น่าเชื่อถือ หากนำไปใช้ขณะออกกำลังกายช่วงฮาร์ทเรทระดับกลางจนถึงระดับสูง ที่มา - The Register   ", 
  "Date": "23/May/2016", 
  "Image-Link": [
    "https://www.blognone.com/sites/default/files/styles/thumbnail/public/topics-images/fitbit.png?itok=ejCfTfYX", 
    "/sites/all/themes/blognone42/images/linebutton.png"
  ], 
  "Link": "https://www.blognone.com/node/81290", 
  "News": "งานวิจัยชี้ Fitbit แสดงผลอัตราการเต้นหัวใจผิดพลาดที่เฉลี่ย 25 bpm", 
  "Tags": [
    "Fitbit", 
    "Health"
  ], 
  "Time": "14:55"
}