{
  "By": "trinakub", 
  "Contents": " หลังจากที่ได้มีการนำภาค 5 และ 6 มาวางจำหน่ายใหม่ไปแล้ว ก็ถึงทีของภาค 4 บ้าง ล่าสุดเกม Resident Evil 4 ประกาศวันวางจำหน่าย วันที่ 30 สิงหาคม บนแพลตฟอร์ม PlayStation 4 และ Xbox One ในราคา 20 ดอลลาร์สหรัฐ ตัวเกมที่นำมาจำหน่ายใหม่นี้จะได้รับ bonus content ทั้งหมด จากตัวเกมออริจินอลในปี 2005 รวมถึงเนื้อหาอื่น ๆ ที่ได้รับเพิ่มเติมในเวอร์ชันถัด ๆ มาด้วย ภายในเนื้อหาดังกล่าวจะมีระบบ New Game plus, โหมด Mercenaries และ เนื้อเรื่องเสริมของ Ada Wong รวมอยู่ด้วย เกม Resident Evil 4 วางจำหน่ายในปี 2005 บนแพลตฟอร์ม GameCube กับ PlayStation 2 ซึ่งใช้เวลาเพียงแค่ปีเดียวก็มียอดขายที่สูงถึง 3 ล้านแผ่น และได้รับรางวัลเกมยอดเยี่ยมแห่งปีจำนวนมากในปี 2005 พร้อมกับได้รับคะแนนรีวิวที่สูงมาก จากเว็บไซต์รีวิวเกมต่าง ๆ (IGN: 9.8/10, GameSpot: 9.6/10, Metacritic: 96/100) เรียกได้ว่าเป็นภาคที่ยอดเยี่ยมที่สุดในบรรดาซีรี่ส์ Resident Evil ด้วยกัน อนึ่งเกม Resident Evil 7 เอง ก็ได้มีการประกาศวันวางจำหน่ายออกมาแล้วเช่นกัน เป็นวันที่ 24 มกราคม 2017 ผู้ที่สนใจสามารถทดลองดาวน์โหลดตัว Demo ไปเล่นก่อนได้ทาง PSN (ต้องเป็นสมาชิกของ PlayStation Plus) ที่มา – IGN    ", 
  "Date": "9/July/2016", 
  "Image-Link": [
    "https://www.blognone.com/sites/default/files/styles/thumbnail/public/topics-images/resident-evil.jpeg?itok=L6tLowRL", 
    "http://i.imgur.com/s88swPD.jpg", 
    "/sites/all/themes/blognone42/images/linebutton.png"
  ], 
  "Link": "https://www.blognone.com/node/83199", 
  "News": "ของเก่าเล่าใหม่ เกม Resident Evil 4 ประกาศวันวางจำหน่ายบน PS4 และ Xbox One แล้ว", 
  "Tags": [
    "Resident Evil", 
    "Games", 
    "PlayStation 4", 
    "Xbox One"
  ], 
  "Time": "15:21"
}