{
  "By": "nismod", 
  "Contents": " SpaceX บริษัทด้านอุตสาหกรรมการบินเชิงพาณิชย์ของ Elon Musk ที่สร้างความฮือฮาเมื่อต้นเดือนที่แล้ว จากการนำจรวด Falcon ร่อนลงจอดบนโดรนลอยน้ำ เพื่อนำกลับมาใช้ใหม่ได้สำเร็จเป็นครั้งแรก โดยไม่เกิดความผิดพลาดและความเสียหาย ซึ่งภาพและคลิปที่ออกมาก่อนหน้านี้เป็นการถ่ายจากระยะไกลเท่านั้น แต่ล่าสุด SpaceX ได้ปล่อยคลิปการลงจอดของจรวด Falcon แบบ 360 องศาลงบน YouTube เพื่อให้ประชาชนทั่วไปได้ชมความสำเร็จครั้งประวัติศาสตร์นี้แบบติดขอบแล้ว โดยเป็นมุมภาพจากฐานโดรนลอยน้ำครับ ที่มา - SpaceX   ", 
  "Date": "2/May/2016", 
  "Image-Link": [
    "https://www.blognone.com/sites/default/files/styles/thumbnail/public/topics-images/spacex.png?itok=sH0uARHZ", 
    "/sites/all/themes/blognone42/images/linebutton.png"
  ], 
  "Link": "https://www.blognone.com/node/80526", 
  "News": "SpaceX ปล่อยวิดีโอจรวด Falcon ลงจอดบนโดรนลอยน้ำแบบ 360 องศา", 
  "Tags": [
    "SpaceX"
  ], 
  "Time": "15:27"
}