{
  "By": "nismod", 
  "Contents": " อย่างที่ทราบกันว่ารัฐบาลจีน มีการควบคุมข่าวสารและการใช้งานอินเทอร์เน็ตภายในประเทศมาโดยตลอด ล่าสุดรัฐบาลกำลังเพิ่มมาตรการในการควบคุมเว็บไซต์วิดีโอออนไลน์สตรีมมิง เพื่อควบคุมและดูแลเนื้อหา รวมถึงกระบวนการผลิตด้วย หน่วยงานที่ดูแลการเซ็นเซอร์ของรัฐบาลจีน กำลังพิจารณามาตรการที่คาดว่าจะให้บริษัทที่รัฐบาลเป็นเจ้าของ เข้าซื้อหุ้นจากเว็บไซต์วิดีโอออนไลน์สตรีมมิงจำนวนหนึ่ง เพื่อให้ได้ที่นั่งในบอร์ดบริหาร และมีอำนาจในการควบคุมดูแลและกำหนดทิศทางของเว็บ นอกจากเว็บวิดีโอแล้ว ก่อนหน้านี้ยังมีรายงานว่า รัฐบาลกำลังพิจารณาใช้วิธีการเดียวกันนี้ ในการควบคุมเนื้อหาเว็บไซต์พอร์ทัลและโมบายล์แอพพลิเคชันด้วย ซึ่งหากบริษัทไหนปฏิเสธ ก็อาจไม่ได้รับการต่อใบอนุญาตจากรัฐบาล ที่มา - The Japan Times, Bloomsberg   ", 
  "Date": "23/May/2016", 
  "Image-Link": [
    "https://www.blognone.com/sites/default/files/styles/thumbnail/public/topics-images/china.png?itok=DbpIQN62", 
    "/sites/all/themes/blognone42/images/linebutton.png"
  ], 
  "Link": "https://www.blognone.com/node/81291", 
  "News": "รัฐบาลจีนเพิ่มมาตรการควบคุมดูแลเว็บไซต์วิดีโอออนไลน์สตรีมมิง", 
  "Tags": [
    "China", 
    "Video Streaming"
  ], 
  "Time": "15:33"
}