{
  "By": "lew", 
  "Contents": " ในงาน MiSS Day ที่ผ่านมามีการบรรยายถึงตู้ออกซิมการ์ดอัตโนมัติ (ในงานไม่ได้ระบุผู้ให้บริการแต่คุณ @FordAntitrust พบภายหลังว่าเป็น Service Vending ของ AIS) ที่สามารถออกซิมใหม่ได้ในกรณีที่ต้องการเปลี่ยนขนาดซิม, ซิมเสียหาย, หรือซิมหาย ทำให้มีความกังวลว่าอาจจะเป็นช่องทางในการปลอมแปลงตัวในกรณีที่บัตรประชาชนสูญหายไปก็สามารถนำไปออกซิมใหม่ได้ ผมสอบถามไปยัง AIS ได้คำตอบระบุว่านอกจากบัตรประชาชนแล้ว ผู้ขอซิมยังต้องระบุหมายเลขโทรศัพท์มือถือให้ตรงกับในระบบ จึงสามารถออกซิมใหม่ได้ และในกรณีของ OTP ของธนาคารนั้นก็ยังมีรหัสผ่านของธนาคารอยู่อีกชั้นหนึ่ง โดยทั่วไปผมยังคิดว่ากระบวนการออกซิมเช่นนี้ยังมีการตรวจสอบน้อยเกินไป ถ้าใครมีการผูกการรักษาความปลอดภัยบัญชีไว้ก็ต้องระวังกันสักหน่อยว่าหมายเลขยังใช้งานได้อยู่หรือไม่ ที่มา - ThaiCyberpoint, จดหมายจาก AIS    ", 
  "Date": "4/May/2016", 
  "Image-Link": [
    "https://www.blognone.com/sites/default/files/styles/thumbnail/public/topics-images/ais.png?itok=v9BMgBcj", 
    "//upic.me/i/51/150316045531619.jpg", 
    "/sites/all/themes/blognone42/images/linebutton.png"
  ], 
  "Link": "https://www.blognone.com/node/80615", 
  "News": "ตู้ Service Vending ของ AIS สามารถออกซิมใหม่ได้ด้วยบัตรประชาชนและหมายเลขโทรศัพท์", 
  "Tags": [
    "AIS", 
    "Thailand", 
    "Security"
  ], 
  "Time": "15:36"
}