{
  "By": "sunnywalker", 
  "Contents": " แม้ Amazon จะมีข้อครหาว่าเป็นพื้นที่ของปลอมปลิวว่อนอยู่ในเว็บไซต์ แต่จากงาน Prime Day mี่ผ่านมาแสดงให้เห็นว่า Amazon ยังสตรอง! วันนี้  Amazon  ออกมาแจงว่า วัน Prime Day ที่ผ่านมาเป็นวันที่ทำยอดได้ดีที่สุดเท่าที่เคยมีมา มียอดออเดอร์มากกว่าปีที่แล้ว 60% และเฉพาะในสหรัฐฯ มียอดมากกว่ากว่าปีที่แล้ว 50% Prime Day เป็นอีเว้นท์ฉลองครบรอบ 20 ปี จัดครั้งแรกในปี 2015 ครั้งนี้เป็นครั้งที่ 2 แล้ว นอกจากนี้ Amazon ยังบอกไฮไลท์ของวัน Prime Dayครั้งที่ 2 ที่เพิ่งผ่านไปด้วยว่า ขาย Amazon Fire TV มากกว่า 25,000 เครื่อง ของเล่น 2 ล้านชิ้น Kindle นับร้อยนับพันเครื่อง มีคนใช้แอพ Amazon เป็นครั้งแรกเพื่อซื้อสินค้าในวันดังกล่าวมากกว่าปีที่แล้ว 2 เท่า เป็นต้น  แม้ Amazon ไม่ได้แจงรายละเอียดเรื่องจำนวนคนและรายได้ในวันนั้น แต่บรรดานักวิเคราะห์เชิงธุรกิจก็วิเคราะห์ความสำเร็จไว้หลายประเด็นดังนี้  คาดว่าทำรายได้ไป 525 ล้านดอลลาร์ มากกว่ารายได้ปีที่แล้วที่ทำได้ 425 ล้านดอลลาร์ (Deborah Weinswig นักวิเคราะห์จาก FBIC) มีการสต็อกสินค้าเพื่อวัน Prime Day ไว้มาก ทำให้มีลูกค้าซื้อสินค้าในดีลที่เขาอยากได้มากขึ้น นอกจากนี้ยังประกาศลดราคา ทุกๆ 5 นาที (Colin Sebastian นักวิเคราะห์จาก R.W. Baird) มีเป้าหมายเพื่อเพิ่มจำนวนสมาชิก Prime ที่มีสิทธิพิเศษฟรีค่าจัดส่งที่กินเวลาไม่เกิน 2 วัน ราคาสมาชิก 10.99 ดอลลาร์/เดือน   ที่มา - CNBC   ", 
  "Date": "14/July/2016", 
  "Image-Link": [
    "https://www.blognone.com/sites/default/files/styles/thumbnail/public/topics-images/amazon300.png?itok=pDQ3CyTi", 
    "http://i.imgur.com/4VqUXna.jpg", 
    "/sites/all/themes/blognone42/images/linebutton.png"
  ], 
  "Link": "https://www.blognone.com/node/83429", 
  "News": "Amazon ปลื้ม งาน Prime Day ที่ผ่านมามียอดสั่งสินค้ามากกว่าปีที่แล้ว 60%", 
  "Tags": [
    "Amazon", 
    "Amazon Prime", 
    "E-commerce"
  ], 
  "Time": "15:36"
}