{
  "By": "nismod", 
  "Contents": " นิตยสาร Wired เคยนำเสนอทฤษฎีและหลักฐานเพื่อค้นหาตัวจริงของ Satoshi Nakamoto ผู้สร้าง Bitcoin โดยหนึ่งในนั้นมีชื่อของ Craig Steven Wright ที่เป็นชาวออสเตรเลียอยู่ด้วย โดยล่าสุดนาย Wright ผู้นี้ได้ออกมาเปิดเผยกับสื่อนอกแล้วว่า ตัวเองคือผู้สร้าง Bitcoin ตัวจริง หลังปริศนานี้ดำมืดมานาน Wright ได้แสดงหลักฐานเป็นกุญแจเข้ารหัส ที่ถูกสร้างขึ้นมาในกระบวนการพัฒนา Bitcoin ซึ่งกุญแจตัวนี้สามารถนำไปใช้กับ blockchain ขนาดใหญ่ที่เชื่อว่าถูกขุดโดย Satoshi Nakamoto โดย Wright ระบุว่า block นี้ถูกใช้ในการทำธุรกรรมของ Bitcoin เป็นครั้งแรกในปี 2009 ด้วย Wright ยอมรับว่าการสร้าง Bitcoin นั้นตัวเขาเองเป็นตังตั้งตัวตี ขณะเดียวกันก็มีคนอื่นๆ เข้ามาช่วยพัฒนาด้วย ที่มา - BBC    ", 
  "Date": "2/May/2016", 
  "Image-Link": [
    "https://www.blognone.com/sites/default/files/styles/thumbnail/public/topics-images/bitcoin.png?itok=gZ3OHhsT", 
    "https://farm2.staticflickr.com/1504/26495263930_0931fbafb6_z.jpg", 
    "/sites/all/themes/blognone42/images/linebutton.png"
  ], 
  "Link": "https://www.blognone.com/node/80528", 
  "News": "Craig Steven Wright ออกมายอมรับแล้วว่าเป็นผู้สร้าง Bitcoin", 
  "Tags": [
    "Bitcoin"
  ], 
  "Time": "15:49"
}