{
  "By": "arjin", 
  "Contents": " ซัมซุงรายงานผลประกอบการเบื้องต้นของไตรมาสที่ 2 ปี 2016 โดยคาดมีรายได้ราว 50 ล้านล้านวอน และกำไรจากการดำเนินงาน 8.1 ล้านล้านวอน เพิ่มขึ้นจากช่วงเดียวกันในปีก่อนที่มียอดขาย 48.54 ล้านล้านวอน และกำไรจากการดำเนินงาน 6.9 ล้านล้านวอน ตัวเลขนี้ถือว่าดีที่สุดในรอบ 2 ปีของซัมซุง ซึ่งปัจจัยหลักก็น่าจะมาจาก Galaxy S7 และ S7 edge ที่มีการขายแบบเต็มไตรมาสที่ผ่านมา (เริ่มขายมีนาคม) โดยซัมซุงจะรายงานตัวเลขแบบละเอียดอีกครั้งในช่วงปลายเดือนนี้ ที่มา: ซัมซุง และ Phone Arena    ", 
  "Date": "7/July/2016", 
  "Image-Link": [
    "https://www.blognone.com/sites/default/files/styles/thumbnail/public/topics-images/j8u2rhG1.jpg?itok=CJuE6qSo", 
    "http://i.imgur.com/rt6lycT.jpg", 
    "/sites/all/themes/blognone42/images/linebutton.png"
  ], 
  "Link": "https://www.blognone.com/node/83133", 
  "News": "ซัมซุงคาดผลประกอบการไตรมาสที่ผ่านมา จะออกมาดีที่สุดในรอบ 2 ปี", 
  "Tags": [
    "Samsung", 
    "Financial Report"
  ], 
  "Time": "16:17"
}