{
  "By": "nismod", 
  "Contents": " วันนี้ Acer เปิดตัว Predator G1 เกมมิ่งเดสก์ท็อปรุ่นเล็กในซีรีส์ Predator ในขนาดเล็กกระทัดรัดด้วยขนาด กว้าง 11.4 ซม. ยาว 34.8 ซม. และสูง 41.8 ซม. แต่สเปคภายในยังคงเต็มที่สำหรับคอเกมดังนี้  ซีพียู Intel Core i5 - Core i7 รหัส Skylake  การ์ดจอเริ่มต้น NVIDIA GeForce GTX 970 - GTX Titan X แรม 16GB - 64GB DDR4 รองรับ HDD สูงสุด 4TB, SSD สูงสุด 512GB พอร์ต USB 3.1 สี่พอร์ท, และ USB-C 3.1 Gen 2 หนึ่งพอร์ต,  รัน Windows 10 Home รองรับเทคโนโลยี Killer Double Shot Pro สามารถเชื่อมต่อเน็ตเวิร์คผ่านทั้ง Wi-Fi และสายแลนได้พร้อมกัน มาพร้อมอแดปเตอร์แยก 2 ตัว (เลี้ยงเมนบอร์ดและการ์ดจอแยกจากกัน) เพื่อลดความร้อนภายในเครื่อง  ทาง Acer เปิดให้พรีออเดอร์ Predator G1 ได้จนถึงสิ้นเดือนนี้ โดยราคาเริ่มต้นอยู่ที่ 54,900 บาท พร้อมแถมคีย์บอร์ดและเมาส์ให้ฟรี     นอกจากเดสก์ท็อปแล้ว Acer ยังเปิด Predator Shop แห่งแรกในกรุงเทพด้วย ร้านตั้งอยู่ที่ศูนย์การค้าพันธุ์ทิพย์ ประตูน้ำ ชั้น 3    ", 
  "Date": "16/June/2016", 
  "Image-Link": [
    "https://www.blognone.com/sites/default/files/styles/thumbnail/public/topics-images/predator.png?itok=z8Gk1Xvb", 
    "https://c3.staticflickr.com/8/7190/27604380962_de41886c8a_z.jpg", 
    "https://c2.staticflickr.com/8/7720/27630074321_1773384521_z.jpg", 
    "https://c2.staticflickr.com/8/7344/27630072801_84f3a68494_z.jpg", 
    "https://c2.staticflickr.com/8/7446/27630073561_ee44d09f84_z.jpg", 
    "https://c3.staticflickr.com/8/7061/27604381882_c4ac6ca0d3_z.jpg", 
    "/sites/all/themes/blognone42/images/linebutton.png"
  ], 
  "Link": "https://www.blognone.com/node/82337", 
  "News": "Acer เปิดตัวเกมมิงเดสก์ท็อป Predator G1 และ Predator Shop แห่งแรกในกรุงเทพ", 
  "Tags": [
    "Predator", 
    "Acer", 
    "Games"
  ], 
  "Time": "16:24"
}