{
  "By": "nrad6949", 
  "Contents": " ที่ประเทศบราซิล Samsung ได้ทำการเผยแพร่วิดีโอชุดหนึ่ง ซึ่งเผยโฉม Galaxy Surfboard กระดานโต้คลื่นอัจฉริยะซึ่งออกแบบมาสำหรับนักกีฬากระดานโต้คลื่นโดยเฉพาะ จากวิดีโอ (กดดูได้ท้ายข่าว) กระดานโต้คลื่นดังกล่าวนี้สามารถที่จะส่งต่อการแจ้งเตือนจากโทรศัพท์ไปแสดงผลที่หน้ากระดานซึ่งแสดงผลเป็นหน้าจอแบบ LED ขนาดใหญ่ ซึ่งสามารถรายงานได้ทั้งสภาพของทะเล สภาพอากาศที่เกี่ยวข้อง นอกจากนั้นแล้วผู้ฝึกสอนที่ดูจากระยะไกลสามารถส่งข้อความไปหาเพื่อแนะนำได้ระหว่างที่กำลังโต้คลื่นได้ด้วย ทั้งหมดนี้ผู้ใช้ต้องทำการเสียบ Galaxy S7 เข้าไปในช่องพิเศษที่ตัวของกระดานก่อนใช้งาน ไม่มีใครสามารถยืนยันได้ว่านี่เป็นผลิตภัณฑ์จริงหรือไม่ โดยทาง The Verge คาดว่านี่เป็นการเผยแนวคิด (concept) เฉยๆ เท่านั้น และไม่น่าจะเป็นผลิตภัณฑ์จริงได้ ที่มา - The Verge     ", 
  "Date": "12/May/2016", 
  "Image-Link": [
    "https://www.blognone.com/sites/default/files/styles/thumbnail/public/topics-images/j8u2rhG1.jpg?itok=CJuE6qSo", 
    "https://i.imgur.com/hHEM81e.png", 
    "https://i.imgur.com/ooC9B0U.png", 
    "/sites/all/themes/blognone42/images/linebutton.png"
  ], 
  "Link": "https://www.blognone.com/node/80899", 
  "News": "Samsung บราซิล เผยวิดีโอ Galaxy Surfboard แค่เสียบ Galaxy S7 ก็รับการแจ้งเตือนได้", 
  "Tags": [
    "Samsung", 
    "Galaxy S7", 
    "Mobile", 
    "Sport", 
    "Brazil"
  ], 
  "Time": "17:07"
}