{
  "By": "advertorial", 
  "Contents": " ซัมซุงออกโปรโมชั่นรับหน้าฝน นำมือถือหรือแท็บเล็ตรุ่นใดก็ได้ ทุกยี่ห้อ แลกรับส่วนลดซื้อ Galaxy S7 และ S7 edge เครื่องใหม่ได้ 3,000 บาท ได้จนถึงวันที่ 14 สิงหาคม 2559  Galaxy S7 จากราคาปกติ 23,900 บาท เหลือ 20,900 บาท Galaxy S7 Edge จากราคาปกติ 26,900 บาท เหลือ 23,900 บาท  รายละเอียดเพิ่มเติมอ่านได้ที่ Samsung Galaxy S7 Promotion หรือ Call Center 0-2689-3232  เงื่อนไขรายการส่งเสริมการขาย  สิทธิและเงื่อนใขในการแลกรับส่วนลดซื้อ Samsung Galaxy S7 ในราคา 20,900 บาท จากราคาแนะนำปกติ 23,900 บาท และ S7 Edge ในราคา 23,900 บาท จากราคาแนะนำปกติ 26,900 บาท โทรศัพท์มือถือและแท็บเล็ต ที่นำมาแลกรับส่วนลดต้องอยู่ภายใต้เงื่อนไขดังต่อไปนี้ ", 
  "Date": "5/July/2016", 
  "Image-Link": [
    "https://www.blognone.com/sites/default/files/styles/thumbnail/public/topics-images/galaxy-s7.PNG?itok=OQMRYc-k", 
    "https://i.imgur.com/w5GEUeq.jpg"
  ], 
  "Link": "https://www.blognone.com/node/83005", 
  "News": "ซัมซุงออกโปรโมชั่น มือถือเก่าแลกส่วนลด Galaxy S7 และ S7 edge ได้สูงสุด 3,000 บาท", 
  "Tags": [
    "Galaxy S7", 
    "Samsung", 
    "Advertorial"
  ], 
  "Time": "17:07"
}