{
  "By": "mk", 
  "Contents": " ธนาคารแห่งประเทศไทย (ธปท.) ออกประกาศเตือนร้านค้าและสถานประกอบการ ให้ระวังความเสี่ยงของการชำระเงินผ่าน \"ผู้ให้บริการต่างประเทศ\" ที่ไม่ได้รับใบอนุญาตบริการชำระเงินทางอิเล็กทรอนิกส์จาก ธปท. เพราะมีความเสี่ยงว่าถ้าหากถูกเชิดเงิน ผู้รับเงินจะไม่ได้รับความคุ้มครองจากทางการไทย ประกาศของ ธปท. มุ่งไปที่ร้านค้าในแหล่งท่องเที่ยว ที่ยอมรับการชำระเงินจากผู้ให้บริการในต่างประเทศที่ไม่ได้จดทะเบียนในไทย ถึงแม้ ธปท. ไม่ได้ระบุชื่อ แต่หนังสือพิมพ์โพสต์ทูเดย์และ ThaiPBS รายงานว่าผู้ให้บริการรายดังกล่าวคือ WeChat Pay ที่นักท่องเที่ยวจีนนิยมใช้งาน แต่ WeChat Pay ไม่ได้ขอรับใบอนุญาตจาก ธปท. ดังนั้น ธปท. จึงไม่สามารถให้ความคุ้มครองได้ถ้าเกิดปัญหาขึ้น ธปท. แนะนำให้ร้านค้าตรวจสอบ รายชื่อผู้ประกอบธุรกิจบริการการชำระเงินทางอิเล็กทรอนิกส์ ที่ได้รับใบอนุญาตจาก ธปท. เรียบร้อยแล้ว ที่มา - ธปท. (PDF), โพสต์ทูเดย์, ThaiPBS    ", 
  "Date": "20/May/2016", 
  "Image-Link": [
    "https://www.blognone.com/sites/default/files/styles/thumbnail/public/topics-images/wechat.png?itok=vLn9W362", 
    "https://i.imgur.com/J3kLowB.jpg", 
    "/sites/all/themes/blognone42/images/linebutton.png"
  ], 
  "Link": "https://www.blognone.com/node/81235", 
  "News": "ธปท. เตือนร้านค้าไทย ระวังการรับเงินผ่าน WeChat Pay จากนักท่องเที่ยวจีน", 
  "Tags": [
    "WeChat", 
    "China", 
    "Payment", 
    "Bank of Thailand"
  ], 
  "Time": "17:11"
}