{
  "By": "sunnywalker", 
  "Contents": " เรื่องการเมืองสหรัฐฯ ใครจะเป็นประธานาธิบดี พรรคไหนจะได้รับชัยชนะ ยังไม่มีใครรู้ แต่ตอนนี้ผู้สมัครเป็นวุฒิสมาชิกของรัฐแคลิฟอร์เนียสองท่าน กำลังต่อสู้แย่งชิงบัลลังก์ในศึก Pokemon Go เรื่องราวเริ่มต้นขึ้นเมื่อ Jane Kim ผู้สมัครวุฒิสภาของรัฐ ประกาศท้าแข่ง Pokemon Go กับ Scott Wiener ผ่านทวิตเตอร์ และ Wiener ผู้ซึ่งเป็นคู่แข่งสมัครชิงเก้าอี้ในสภาก็รับคำท้า เรียกได้ว่าแม้แต่นักการเมืองก็คลั่งไคล้เกมนี้ไม่แพ้เหล่าเกมเมอร์เลย   ลองคิดว่า Hillary Clinton กับ Donald Trump ท้าชน Pokemon Go กัน คงสนุกกว่าลุ้นว่าใครจะได้เป็นประธานาธิบดีสหรัฐฯซะอีก (ฮา) ที่มา - Venture Beat   ", 
  "Date": "14/July/2016", 
  "Image-Link": [
    "https://www.blognone.com/sites/default/files/styles/thumbnail/public/topics-images/pokemon.png?itok=7HuOXT6S", 
    "http://i.imgur.com/nQ1RFIc.png", 
    "http://i.imgur.com/vnKLPNA.png", 
    "/sites/all/themes/blognone42/images/linebutton.png"
  ], 
  "Link": "https://www.blognone.com/node/83440", 
  "News": "การเมืองเรื่องโปเกมอน ผู้สมัคร ส.ว. ท้องถิ่นสหรัฐฯ ท้าดวล Pokemon Go", 
  "Tags": [
    "Pokemon", 
    "USA", 
    "Politics"
  ], 
  "Time": "17:10"
}