{
  "By": "nismod", 
  "Contents": " PageFair สตาร์ทอัพที่ช่วยเจ้าของเว็บไซต์รับมือกับซอฟต์แวร์บล็อกโฆษณา เปิดเผยผลสำรวจที่ชี้ว่า ผู้ใช้สมาร์ทโฟนที่ใช้ซอฟต์แวร์บล็อกโฆษณาในปัจจุบันมีถึงราว 420 ล้านคนทั่วโลก เพิ่มขึ้นถึง 90% ภายในระยะเวลาหนึ่งปี และนับเป็น 1 ใน 5 ของจำนวนผู้ใช้สมาร์ทโฟนทั่วโลก ผู้ใช้ที่ใช้ซอฟต์แวร์บล็อกโฆษณาอย่างต่อเนื่องส่วนใหญ่อยู่ในประเทศจีน อินเดียและปากีสถาน ขณะที่ประเทศในแถบยุโรปและอเมริกามีอัตราส่วนในการใช้น้อยกว่ามาก โดยทาง PageFair ให้เหตุผลที่ประเทศกำลังพัฒนามีการใช้งานซอฟต์แวร์ประเภทนี้มากกว่า เป็นเพราะช่วยใช้ดาต้าลดลงและโหลดหน้าเว็บเร็วขึ้น ซึ่ง PageFair คาดว่าเมื่อปีที่แล้ว การบล็อกโฆษณา ทำให้รายได้ที่ผู้ผลิตคอนเทนต์ควรจะได้หายไปราย 21.8 พันล้านเหรียญสหรัฐ ที่มา - The Verge   ", 
  "Date": "31/May/2016", 
  "Image-Link": [
    "/sites/all/themes/blognone42/images/linebutton.png"
  ], 
  "Link": "https://www.blognone.com/node/81661", 
  "News": "งานวิจัยชี้ ผู้ใช้สมาร์ทโฟนใช้ซอฟต์แวร์บล็อกโฆษณาเพิ่มขึ้นถึง 90%", 
  "Tags": [
    "Ad Blocking", 
    "Mobile"
  ], 
  "Time": "17:16"
}