{
  "By": "sunnywalker", 
  "Contents": " Pokemon Go สร้างกระแสบนโลกออนไลน์ได้นาทีต่อนาที ล่าสุดเอาอีกแล้ว เมื่อผู้เล่นแห่กันไปที่อนุสาวรีย์ 9/11 เพื่อเก็บโปเกมอน งานนี้ดราม่าแน่นอน เพราะผู้ที่เข้าไปรำลึกผู้เสียชีวิตจากเหตุการณ์ 9/11 ลั่นวาจาว่า ที่นี่เป็นสถานที่รำลึกถึงผู้เสียชีวิต ไม่ใช่สถานที่เล่นเกม แม้แต่คนเล่นเกมยังบอกว่า รู้สึกไม่ดีเหมือนกันถ้าต้องจับโปเกมอนในสถานที่นี้ เพราะเป็นสถานที่ไว้เคารพผู้เสียชีวิต ไม่เพียงอนุสาวรีย์ 9/11 เท่านั้น แต่พิพิธภัณฑ์ศึกษาเหตุการณ์การสังหารหมู่โดยกองทัพนาซีที่วอชิงตันก็เป็นสถานที่ตาม GPS ของ Pokemon Go ด้วย Ninantic Lab ผู้พัฒนาเกมนี้ก็ยังไม่ออกมาบอกรายละเอียดใดๆ ต่อประเด็นนี้  ภาพจาก Facebook National September 11 Memorial & Museum ที่มา - TIME   ", 
  "Date": "13/July/2016", 
  "Image-Link": [
    "https://www.blognone.com/sites/default/files/styles/thumbnail/public/topics-images/pokemon.png?itok=7HuOXT6S", 
    "http://i.imgur.com/ZHZz673.jpg", 
    "/sites/all/themes/blognone42/images/linebutton.png"
  ], 
  "Link": "https://www.blognone.com/node/83389", 
  "News": "เป็นเรื่อง! แห่จับโปเกมอนในอนุสาวรีย์ 9/11 สร้างความไม่พอใจให้ผู้เยี่ยมชม", 
  "Tags": [
    "Pokemon", 
    "USA", 
    "Games"
  ], 
  "Time": "17:10"
}