{
  "By": "nuntawat", 
  "Contents": " ไมโครซอฟท์รีเสิร์ชเปิดตัว Conditional Action Programmer (CAP) บริการ workflow แบบเดียวกับ IFTTT และ Microsoft Flow แต่ที่ CAP พิเศษกว่าคือใช้ภาษามนุษย์ในรูปการเขียน IF-Then ในการสั่งการ (อาทิ \"When MSFT stock hits expected value send email\") ที่จะต้องกำหนดเงื่อนไขแนวการเขียนโปรแกรมให้ยุ่งยาก CAP รองรับการเชื่อมต่อ Facebook, RSS Feed, เว็บไซต์, Office 365 e-mail, OneDrive for Business และ Pocket เป็นต้น สามารถใช้งานได้จากหน้าเว็บและแอปบนแพลตฟอร์ม Android ที่มา: MSPoweruser หมายเหตุ: ณ เวลานี้ยังไม่เห็นแอปบน Google Play Store ครับ    ", 
  "Date": "10/July/2016", 
  "Image-Link": [
    "https://www.blognone.com/sites/default/files/styles/thumbnail/public/topics-images/MSFT_logo_rgb_C-Gray.png?itok=j3hJhqua", 
    "http://i.imgur.com/jsXtxC9.jpg", 
    "/sites/all/themes/blognone42/images/linebutton.png"
  ], 
  "Link": "https://www.blognone.com/node/83242", 
  "News": "Conditional Action Programmer: IFTTT ด้วยภาษามนุษย์จากไมโครซอฟท์รีเสิร์ช", 
  "Tags": [
    "Microsoft", 
    "Research", 
    "IFTTT"
  ], 
  "Time": "17:21"
}