{
  "By": "nismod", 
  "Contents": " สถาบันเทคโนโลยีแห่งสมาพันธ์สวิส (Swiss Federal Institute of Technology - EPFL) ในเมืองโลซาน ประสบความสำเร็จในการสร้าง Pleurobot หุ่นยนต์ที่มีการเคลื่อนเหมือนเลียนแบบตัวซาลามานเดอร์ได้เหมือนจริงมากที่สุด ชื่อ Pleurobot มาจากสายพันธุ์ Pleurodeles waltl ของซาลามานเดอร์ โดยกระบวนการสร้างอาศัยการศึกษาการเคลื่อนไหวแบบ 3 มิติของซาลามานเดอร์ ขณะที่โครงของ Pleurobot เป็นกระดูกจากเครื่องพิมพ์ 3 มิติ ข้อต่อเป็นมอเตอร์ที่เชื่อมต่อกับวงจรไฟฟ้า ซึ่งทำหน้าที่เหมือนระบบประสาทส่วนกลาง หุ่น Pleurobot อาจไม่สามารถทำอะไรได้มากนัก แต่ความสำเร็จในการจำลองกระแสไฟฟ้าบนหุ่นยนต์ ให้สอดคล้องกับการสั่งการระบบประสาทจริงของซาลามานเดอร์ อย่างกรณีที่หุ่นยนต์หรือซาลามานเดอร์เดิน กระแสไฟฟ้า/การสั่งการของระบบประสาทจะต่ำ ขณะที่ว่ายน้ำ กระแสไฟฟ้าและระบบประสาทจะมีการสั่งงานที่สูง เปิดโอกาสให้นักวิจัยทำความเข้าใจเกี่ยวกับความสัมพันธ์ระหว่างอุปกรณ์จำลองและระบบประสาทของสิ่งมีชีวิต ซึ่งจะนำไปสู่การพัฒนาอุปกรณ์ที่ช่วยเหลือผู้พิการหรือผู้ป่วยอัมพฤกษ์ อัมพาต ให้มีประสิทธิภาพดียิ่งขึ้น ที่มา - Engadget   ", 
  "Date": "30/June/2016", 
  "Image-Link": [
    "https://www.blognone.com/sites/default/files/styles/thumbnail/public/news-thumbnails/epfl-logo-500px.png?itok=4AyFBDar", 
    "/sites/all/themes/blognone42/images/linebutton.png"
  ], 
  "Link": "https://www.blognone.com/node/82865", 
  "News": "สถาบันเทคโนโลยีสหพันธ์สวิสสร้างหุ่นยนต์ที่เคลื่อนไหวเหมือนซาลามานเดอร์ได้สำเร็จ", 
  "Tags": [
    "Robotics", 
    "Switzerland"
  ], 
  "Time": "17:34"
}