{
  "By": "Lamicrosz", 
  "Contents": " id Software ผู้พัฒนาเกม Doom ประกาศรองรับเทคโนโลยี Vulkan บนพีซีแล้ว ทีมพัฒนาเผยว่าให้ความสำคัญไปที่ผลประโยชน์ของกลุ่มผู้เล่น และ Vulkan จะมาช่วยในการให้ค่าเฟรมเรตที่สูงขึ้น Vulkan เป็นมาตรฐานกราฟิกที่จะมาแทนที่ OpenGL เปิดตัวในปี 2015 และออกเวอร์ชัน 1.0 เมื่อเดือนกุมภาพันธ์ที่ผ่านมา สถาปัตยกรรมของ Vulkan ต่างไปจาก OpenGL มาก โดย Vulkan ถูกออกแบบให้เบากว่า OpenGL ทำหน้าที่เป็นตัวกลางในการสื่อสารและควบคุม GPU เท่านั้น งานหลายอย่างไม่จำเป็นต้องโหลดถ้าไม่ใช้งาน และมอบอำนาจเข้าถึงฮาร์ดแวร์ระดับล่างให้แอพพลิเคชันเป็นฝ่ายสั่งการแทน  ที่มา - Bethesda   ", 
  "Date": "13/July/2016", 
  "Image-Link": [
    "https://www.blognone.com/sites/default/files/styles/thumbnail/public/topics-images/doom.jpg?itok=hQ8wkg45", 
    "https://i.imgur.com/QdoWjdc.jpg", 
    "/sites/all/themes/blognone42/images/linebutton.png"
  ], 
  "Link": "https://www.blognone.com/node/83392", 
  "News": "Doom ออกอัพเดตรองรับ Vulkan แล้ว", 
  "Tags": [
    "Doom", 
    "Vulkan", 
    "Games"
  ], 
  "Time": "17:32"
}