{
  "By": "Lamicrosz", 
  "Contents": " เว็บไซต์ Polygon รายงานว่า ค่ายเกม Electronic Arts, ผู้พัฒนาเกม DICE และ Paramount Television กำลังวางแผนในการนำแฟรนไชส์เกมยิงชื่อดังอย่าง Battlefield มาดัดแปลงเป็นซีรีส์บนโทรทัศน์ โดยมี Michael Sugar ที่เคยมีส่วนร่วมใน The Keeping Room และ The Knick มานั่งตำแหน่งผู้อำนวยการผลิต ทาง Amy Powell ประธานบริษัท Paramount TV กล่าวถึงเกมตระกูล Battlefield ว่า เป็นเกมที่มีแนวทางการเล่าเรื่องเฉพาะตัว และมีแฟนเกมจำนวนมาก เรากำลังทำงานร่วมกันเพื่อนำมันมาลงในจอโทรทัศน์ ในส่วนของรายละเอียดของเนื้อเรื่องยังไม่มีข้อมูลออกมา ที่มา - Polygon    ", 
  "Date": "13/July/2016", 
  "Image-Link": [
    "https://www.blognone.com/sites/default/files/styles/thumbnail/public/topics-images/bf1.jpg?itok=uk4QjL0s", 
    "http://i.imgur.com/KHQgqbi.jpg", 
    "/sites/all/themes/blognone42/images/linebutton.png"
  ], 
  "Link": "https://www.blognone.com/node/83394", 
  "News": "EA มีแผนพัฒนาทีวีซีรีส์ อิงจากเกม Battlefield ร่วมกับ Paramount", 
  "Tags": [
    "Battlefield", 
    "EA", 
    "Paramount"
  ], 
  "Time": "17:58"
}