{
  "By": "trinakub", 
  "Contents": " ใกล้เข้ามาแล้วกับงานสัมมนาเกมครั้งใหญ่ E3 ของรอบปีนี้ เพื่อความสะดวกของผู้ที่สนใจจึงขอรวบรวมรายละเอียดต่าง ๆ ไว้ ณ ที่นี้ งาน E3 คืองานอะไร? งาน E3 ย่อมาจาก Electronic Entertainment Exposition เป็นงานที่ไว้จัดแสดงสัมมนาเกมใหม่ ๆ หรือเกมที่กำลังพัฒนาของบริษัทผู้พัฒนาเกมต่าง ๆ เช่น Sony, Nintendo, Microsoft ฯลฯ ภายในงานนอกจากการสัมมนาแล้ว ยังมีการจัดแบ่งพื้นที่บูธสำหรับค่ายเกมต่าง ๆ ด้วย ส่วนใหญ่ทุก ๆ ปีจะจัดที่ Los Angeles Convention Center (LACC) เมืองลอสแอนเจลิส ประเทศสหรัฐอเมริกา รัฐแคลิฟอร์เนีย ช่วงปลายเดือนพฤษภาคมหรือต้นเดือนมิถุนายน งาน E3 โดยปกติแล้วจะมีแค่ผู้ที่เกี่ยวข้องกับอุตสาหกรรมเกมที่ได้รับเชิญจาก Entertainment Software Association (ESA) เท่านั้นที่สามารถเข้าร่วมงานได้ แต่ผู้ที่ไม่ได้รับเชิญก็สามารถรับชมงานสัมมนาผ่านช่อง live ต่าง ๆ ได้เช่นกัน งาน E3 ของปี 2016 จัดที่ไหน เมื่อไร งาน E3 ของปีนี้จะถูกจัดระหว่างวันที่ 14 ถึง 16 มิถุนายน วันอังคารถึงวันพฤหัส แต่งานจะเริ่มตั้งแต่วันที่ 12 ซึ่งเป็นวันสัมมนาของค่าย EA และ Bethesda สถานที่คือ Los Angeles Convention Center เมืองลอสแอนเจลิส รัฐแคลิฟอร์เนีย ที่อยู่โดยละเอียด: 1201 S Figueroa St, Los Angeles, CA 90015, United States สามารถหารายละเอียดสถานที่เพิ่มเติมได้ที่ lacclink  ตารางเวลางานสัมมนาของแต่ละค่าย [นอกวงเล็บคือเวลา PST (Pacific Standard Time) ภายในวงเล็บคือเวลาไทย (GMT+07:00) ส่วนภายใน [] คือลิงก์ถ่ายทอดสดของแค่ละค่าย]  Electronic Arts – 12 มิถุนายน 13:00 น. (13 มิถุนายน 03:00 น.) [twitch.tv/ea] Bethesda – 12 มิถุนายน 19:00 น. (13 มิถุนายน 09:00 น.) [twitch.tv/bethesda] Microsoft – 13 มิถุนายน 09:30 น. (13 มิถุนายน 23:30 น.) [twitch.tv/xbox] PC Gaming Show – 13 มิถุนายน 11:30 น.  (14 มิถุนายน 01:30 น.) [pcgamingshow.com] Ubisoft – 13 มิถุนายน 13:00 น. (14 มิถุนายน 03:00 น.) [twitch.tv/ubisoft] Sony – 13 มิถุนายน 18:00 น. (14 มิถุนายน 08:00 น.) [twitch.tv/playstation] Nintendo Treehouse: Live – 14 มิถุนายน 09:00 น. (14 มิถุนายน 23:00 น.) [e3.nintendo.com]  รายชื่อเกมที่ยืนยันแล้วว่าปรากฏในงาน (ส่วนใหญ่ทางผู้พัฒนาและตัวแทนจำหน่ายจะเก็บบางเกมไว้เซอร์ไพรส์ตอนขึ้นสัมมนาด้วย)  ที่มา - VG247   ", 
  "Date": "5/June/2016", 
  "Image-Link": [
    "https://www.blognone.com/sites/default/files/styles/thumbnail/public/news-thumbnails/E3%20logo.png?itok=ml5pk_mh", 
    "http://i.imgur.com/JFhw4l9.jpg", 
    "http://i.imgur.com/lypNMwp.png", 
    "/sites/all/themes/blognone42/images/linebutton.png"
  ], 
  "Link": "https://www.blognone.com/node/81867", 
  "News": "รายละเอียดงานสัมมนาเกม Electronic Entertainment Expo (E3) ประจำปี 2016", 
  "Tags": [
    "E3", 
    "Games"
  ], 
  "Time": "18:10"
}