{
  "By": "mk", 
  "Contents": " IDC ออกรายงานส่วนแบ่งตลาดสวิตช์ (สำหรับ Ethernet หรือ Layer 2/3) และเราเตอร์สำหรับองค์กรและผู้ให้บริการ (service provider) ในไตรมาสแรกของปี 2016 สภาพตลาดสวิตช์รวมโตขึ้น 1.4% และเราเตอร์โตขึ้น 3.3% จากปีที่แล้ว เจ้าตลาดสวิตช์ยังเป็น Cisco ที่นำห่างด้วยส่วนแบ่งตลาด 59% (ลดลงจากไตรมาสก่อนหน้าเล็กน้อย) ตามด้วย HPE ครองส่วนแบ่ง 9.7%, อันดับที่เหลือคือ Arista, Huawei, Juniper ตามลำดับ ถ้านับเฉพาะตลาดสวิตช์แบบ 10Gb ผู้นำตลาดคือ Cisco ส่วนแบ่ง 55.7% สำหรับตลาดเราเตอร์ Cisco ก็ยังเป็นเจ้าตลาดด้วยส่วนแบ่ง 48.8% ครับ ที่มา - IDC, ภาพจาก Cisco    ", 
  "Date": "6/June/2016", 
  "Image-Link": [
    "https://www.blognone.com/sites/default/files/styles/thumbnail/public/topics-images/cisco.png?itok=g5qUC7lL", 
    "https://i.imgur.com/pUdM9aY.jpg", 
    "/sites/all/themes/blognone42/images/linebutton.png"
  ], 
  "Link": "https://www.blognone.com/node/81917", 
  "News": "[IDC] ส่วนแบ่งตลาดสวิตช์และเราเตอร์ ไตรมาส 1/2016 Cisco ยังนำแบบทิ้งห่าง", 
  "Tags": [
    "Cisco", 
    "IDC", 
    "Router", 
    "Network", 
    "Market Share"
  ], 
  "Time": "18:51"
}