{
  "By": "nismod", 
  "Contents": " 3DR บริษัทโดรนจากสหรัฐฯ เปิดตัว Solo โดรนส่วนบุคคลอัจฉริยะตัวแรกของโลกในประเทศไทย ที่มาพร้อมเทคโนโลยีด้านการบินและการถ่ายภาพในตัว ความแตกต่างของ Solo จากโดรนรุ่นอื่นๆ คือมาพร้อมกับระบบประมวลผลสองตัว หนึ่งตัวที่โดรน หนึ่งตัวที่คอนโทรลเลอร์ ที่คอยช่วยเหลือเรื่องการควบคุมกล้อง พร้อมด้วยระบบ GPS สำหรับนำร่อง ระบบบินขึ้นและบินลงจอดแบบอัตโนมัติ โดย Solo สามารถทำความเร็วได้สูงสุด 90 กิโลเมตรต่อชั่วโมง บินได้สูงสุด 400 ฟุตและระยะห่างระหว่างโดรนกับคอนโทรลเลอร์อยู่ที่ 1 กิโลเมตร สามารถสตรีมภาพได้ที่ความละเอียด 720p อีกทั้งยังมีโหมดซิมูเลชัน สำหรับฝึกบิน รวมถึงปุ่ม pause สำหรับเบรคฉุกเฉินด้วย  3DR ยังได้จับมือกับ GoPro ในการพัฒนาซอฟต์แวร์เฉพาะสำหรับกล้องผ่านทางแอพพลิเคชัน 3DR Solo บนสมาร์ทโฟนที่เชื่อมต่อกันด้วยสัญญาณ Wi-Fi โดยฟีเจอร์เรื่องกล้องของ Solo มีอยู่ด้วยกัน 4 ฟีเจอร์หลักๆ คือ  Selfie Mode Cable Cam เป็นโหมดที่จะทำให้โดรนบินตามเส้นทางที่กำหนดไว้ ขณะที่ผู้ใช้จะสามารถควบคุมกล้องได้อย่างอิสระ Orbit Mode สำหรับถ่ายภาพวนรอบวัตถุ Follow Mode โดรนจะบินตามวัตถุที่ล็อคเอาไว้   ตัว Solo มีน้ำหนักประมาณ 1.5 กิโลกรัมไม่รวมกล้อง แบตเตอร์รี่เป็น Li-Po ความจุ 5,200 mAh สามารถบินติดต่อกันได้นานสุด 20 นาทีหากติดกล้อง และ 25 นาทีหากไม่มีกล้อง ใช้เวลาชาร์จ 1 ชั่วโมงครึ่ง โดยแอพพลิเคชันจะช่วยคำนวนและแสดงเวลาที่เหลืออยู่ พร้อมแจ้งเตือนให้โดรนบินกลับที่ตั้งก่อนแบตจะหมด วางจำหน่ายแล้วในราคา 29,999 บาทที่ร้าน JayMart และร้านขายอุปกรณ์ไอทีทั่วไป         ", 
  "Date": "4/May/2016", 
  "Image-Link": [
    "https://www.blognone.com/sites/default/files/styles/thumbnail/public/news-thumbnails/3d_robotics_solo%202.jpg?itok=7vOV0PxM", 
    "https://farm8.staticflickr.com/7264/26206974473_89b09bce32_z.jpg", 
    "https://farm8.staticflickr.com/7385/26206064444_973da7c709_z.jpg", 
    "https://farm8.staticflickr.com/7202/26538828460_d32707ff64_z.jpg", 
    "https://farm8.staticflickr.com/7715/26717729832_175759b75b_z.jpg", 
    "https://farm8.staticflickr.com/7718/26538825200_20b638a7a5_z.jpg", 
    "https://farm8.staticflickr.com/7522/26810874405_cd44a55668_z.jpg", 
    "https://farm8.staticflickr.com/7608/26717726142_cde28555bd_z.jpg", 
    "https://farm8.staticflickr.com/7693/26538821850_4b457c19da_z.jpg", 
    "/sites/all/themes/blognone42/images/linebutton.png"
  ], 
  "Link": "https://www.blognone.com/node/80625", 
  "News": "3DR เปิดตัว Solo โดรนอัจฉริยะเจ้าแรกในไทย", 
  "Tags": [
    "Drone", 
    "Thailand"
  ], 
  "Time": "19:56"
}