{
  "By": "lew", 
  "Contents": " Walmart บริษัทค้าปลีกรายใหญ่ของสหรัฐฯ ยื่นฟ้อง VISA ต่อศาลนิวยอร์ค จากการที่ VISA ไม่ได้บังคับให้ผู้ใช้ต้องยืนยันการซื้อขายด้วยรหัสผ่าน (PIN) ปีนี้ VISA เริ่มบังคับให้ร้านค้าใช้บัตรชิป EMV แม้ว่าตัวบัตรและโปรโตคอลจะรองรับการยืนยันการจ่ายด้วยรหัสผ่านแล้วก็ตามแต่ VISA ยังอนุญาตให้ยืนยันการจ่ายด้วยลายเซ็นอยู่ และแม้บัตรจะเป็นแบบยืนยันด้วยรหัส ลูกค้าก็ยังสามารถร้องขอให้ร้านค้ายืนยันด้วยลายเซ็นได้ โดย Wall Street Journal รายงานว่าลูกค้าของ Walmart ประมาณ 10% ขอให้ทางห้างยืนยันการจ่ายด้วยลายเซ็นแทน ขณะที่ Mastercard อนุญาตให้ร้านค้าเป็นผู้กำหนดว่าจะยืนยันการจ่ายด้วยวิธีการใด การฟ้องครั้งนี้อาจจะมีประเด็นผลประโยชน์มากกว่าเรื่องของความปลอดภัยเพียงอย่างเดียว ค่าธรรมเนียมของการจ่ายแบบยืนยันด้วยลายเซ็นแพงกว่าแบบรหัสผ่าน 5 เซ็นต์ และตัว Walmart เองก็ลงทุนในระบบจ่ายเงิน CurrentC ที่ล้มเหลว และปีที่แล้วก็พยายามอีกครั้งที่จะทำระบบ Walmart Pay ที่มา - ArsTechnica    ", 
  "Date": "13/May/2016", 
  "Image-Link": [
    "https://www.blognone.com/sites/default/files/styles/thumbnail/public/topics-images/walmart.png?itok=WcVkpdXc", 
    "//upic.me/i/lk/2download.jpg", 
    "/sites/all/themes/blognone42/images/linebutton.png"
  ], 
  "Link": "https://www.blognone.com/node/80956", 
  "News": "Walmart ฟ้อง VISA เรียกร้องให้บังคับใช้ Chip + PIN", 
  "Tags": [
    "Walmart", 
    "Visa", 
    "Payment", 
    "Security"
  ], 
  "Time": "20:02"
}