{
  "By": "puffyhero", 
  "Contents": " ด้วยพฤติกรรมของไมโครซอฟท์หลัง ๆ มาเป็นที่รู้กันดีว่า คอลัมนิสต์สายข่าวสำนักต่าง ๆ พากันเมินหน้าหนีกันหมด ทั้ง Ed Bott จาก ZDNet, Tom Warren จาก The Verge, Mary Jo Foley จาก WinBeta และล่าสุด Kellogg Brengel จาก WinBeta หนึ่งในผู้ที่ยังเหลืออยู่คือนายคนนี้ Daniel Rubino คอลัมนิสต์สายไมโครซอฟท์ชื่อดังแห่งเว็บไซต์ Windows Central ที่ยังคงอยู่ฝั่งไมโครซอฟท์และผลิตคอนเทนท์ต่าง ๆ มาโดยตลอด   ล่าสุดได้มีแคมเปญจน์ใหม่ภายใต้ความร่วมมือกับไมโครซอฟท์ในชื่อว่า #DoMoreEveryDay ซึ่งทาง Windows Central ได้จัดขึ้นเป็นปีที่ 3 แล้ว (ข้อมูลจากคุณ Be1con) ทางผู้จัดเองมองผลผลิตจากแคมเปญจน์เหล่านี้แต่ละอย่างว่า Gems (Windows 10 Gems) ซึ่งผู้เขียนเข้าใจว่าหมายถึงการเปรียบเทียบคุณค่ากับอัญมณีอันกล่าวได้ว่า \"ทรงคุณค่า\" แคมเปญจน์นี้ได้เริ่มไปเมื่อวันที่ 30 พฤษภาคมที่ผ่านมา โดยหนึ่งในผลผลิตที่ผ่านมาเราได้พบไปแล้วนั่นคือ Starbucks ออกส่วนขยายให้ Outlook สำหรับนัดหมายคุยงานกันที่ร้าน Starbucks และอื่น ๆ (ดูจากที่มา) ทั้งนี้ในแต่ละช่วงของแคมเปญจน์จะมีกิจกรรมต่าง ๆ ให้ร่วมทำกันพร้อมทั้งมีรางวัลให้ด้วย ล่าสุดเป็น Surface 3 กับ Fluidmath gems (แนะนำสำหรับผู้ที่ใช้ Surface, Surface Book, Samsung Galaxy Tab Pro S, and Huawei MateBook) ความเห็นผู้เขียน : ผู้ที่ยังยืนหยัด (และยังหนีไปไม่ได้) ในสายวินโดวส์ลองเข้าไปร่วมสนุกดูนะครับโดยเฉพาะ Fluidmath ซึ่งผู้เขียนไม่มีโอกาสได้ลองแต่จะรอรีวิวนะครับ อัพเดต : Kellogg Brengel จาก WinBeta ก็ได้ประกาศว่า \"So long Windows 10 Mobile, hope we meet again.\" อย่างเป็นทางการ ณ วันที่เขียนข่าวนี้พอดี ขอบคุณข้อมูลจากคุณ mk ที่มา: Email แจ้งข่าว,#DoMoreEveryDay   ", 
  "Date": "23/June/2016", 
  "Image-Link": [
    "https://www.blognone.com/sites/default/files/styles/thumbnail/public/topics-images/MSFT_logo_rgb_C-Gray.png?itok=j3hJhqua", 
    "https://mp1gia.bn1303.livefilestore.com/y3mjOkz4Kxsb6ztIHwgPH1hOEzvwIVG5ti0uFYJHPrWwRCiS0TZLvmAyI_p_WscdHtIWW5lCvjMCCHF6ZwAyYYjy6weLl85bwd4rELIRRn__m8S-tCLO8VV-nP1-4I1Tto_qp47w5g8Yv6xuwzK4rRPKoj2cyDhg9JGDzRISDhYFa0?width=693&height=255&cropmode=none", 
    "/sites/all/themes/blognone42/images/linebutton.png"
  ], 
  "Link": "https://www.blognone.com/node/82599", 
  "News": "ร่วมเป็นส่วนหนึ่งในการพัฒนา Windows ด้วยแคมเปญ #DoMoreEveryDay", 
  "Tags": [
    "Microsoft", 
    "Windows 10"
  ], 
  "Time": "20:01"
}