{
  "By": "nutmos", 
  "Contents": " Uber ได้เผยภาพแรกของรถยนต์ไร้คนขับของบริษัทอย่างเป็นทางการ ซึ่งเป็นรถทดลองเทคโนโลยีของ Uber ที่เรียกว่า Advanced Technologies Center (ATC) ใน Pittsburgh รถยนต์นี้คือ Ford Fusion รุ่นไฮบริด ซึ่งจะทำการเก็บข้อมูลแผนที่พร้อมกับการทดสอบความสามารถในการขับเคลื่อนอัตโนมัติด้วยตนเอง โดยเมื่อรถยนต์ตั้งโหมดขับเคลื่อนอัตโนมัติ คนขับที่ถูกฝึกมาจะนั่งอยู่ในตำแหน่งคนขับเพื่อดูการทำงาน โดยรถยนต์ Uber ATC นี้จะมีเซนเซอร์รอบตัวอย่างเรดาร์, เลเซอร์สแกนเนอร์ และกล้องความละเอียดสูงเพื่อเก็บรายละเอียดสภาพแวดล้อม Uber กล่าวว่าการทดสอบรถยนต์บนท้องถนนจริง ๆ ถือเป็นสิ่งจำเป็นในการพัฒนารถยนต์ขับเคลื่อนอัตโนมัติ ซึ่งจะทำให้ช่วยชีวิตคนนับล้านและเพิ่มคุณภาพชีวิตให้กับคนทั่วโลก เพราะปัจจุบันมีผู้เสียชีวิตจากอุบัติเหตุบนท้องถนนทุกปีอยู่ที่ 1.3 ล้านคน โดย 94% เป็นความผิดพลาดจากมนุษย์ การทดสอบนี้ Uber กล่าวว่ายังอยู่ในขั้นต้น โดย Uber บอกว่าเทคโนโลยีนี้จะเน้นการทำให้ถนนปลอดภัยกับทุกคน ไม่ว่าจะคนเดินเท้า, คนปั่นจักรยาน และคนขับคนอื่น ๆ โดยทาง Uber ได้แจ้งเจ้าหน้าที่รัฐของเมือง Pittsburgh ให้ทราบแล้ว ที่มา - Uber    ", 
  "Date": "19/May/2016", 
  "Image-Link": [
    "https://www.blognone.com/sites/default/files/styles/thumbnail/public/topics-images/uber_0.png?itok=6XhODw2-", 
    "http://i.cubeupload.com/fHVrrK.jpg", 
    "/sites/all/themes/blognone42/images/linebutton.png"
  ], 
  "Link": "https://www.blognone.com/node/81207", 
  "News": "Uber เผยภาพแรกของการพัฒนารถยนต์ขับเคลื่อนอัตโนมัติอย่างเป็นทางการ", 
  "Tags": [
    "Uber", 
    "Automobile"
  ], 
  "Time": "20:18"
}