{
  "By": "nismod", 
  "Contents": " นอกจากจะรักษาสภาพอากาศแล้ว ดูเหมือน Tesla Motor จะช่วยทำให้อากาศสะอาดขึ้นไปในเวลาเดียวกันด้วย หลังออกมาเปิดเผยว่ากำลังทดสอบระบบกรองอากาศ ซึ่งสามารถกรองได้แม้กระทั่งอาวุธชีวภาพ ให้กลายมาเป็นอากาศบริสุทธิ์ ซึ่ง Tesla เรียกระบบนี้ว่า Bioweapon Defense Mode ในการทดสอบ Tesla ได้นำรถ Model X เข้าไปในโดมพลาสติก ที่เต็มไปด้วยอากาศที่สกปรกในระดับอันตรายต่อชีวิต (มีค่า PM 2.5 หรือค่าฝุ่นละอองที่มีขนาดไม่เกิน 2.5 ไมครอน สูงกว่าค่ามาตรฐานที่หน่วยงานด้านสิ่งแวดล้อมของสหรัฐฯ ระบุว่าปลอดภัยถึง 83 เท่า) ปรากฎว่า ระบบกรองอากาศสามารถทำให้อากาศในห้องโดยสารกลับมาสะอาดบริสุทธิ์ ชนิดที่ว่าเซ็นเซอร์ตรวจไม่พบสิ่งสกปรกและสารปนเปื้อนแม้แต่น้อย ซึ่ง Tesla บอกว่าระบบนี้ จะช่วยทำให้อากาศรอบๆ คันรถสะอาดขึ้น พร้อมเคลมว่าคุณจะสามารถขับรถฝ่าอาวุธระดับของกองทัพได้สบายๆ ถึงแม้รถที่นำมาทดสอบจะเป็นรุ่น Model X แต่ Tesla ระบุว่าระบบนี้จะถูกติดตั้งใน Model S ที่อยู่ระหว่างการผลิตขณะนี้ด้วย ที่มา - Tesla Motors via Engadget  ภาพจาก Tesla Motors   ", 
  "Date": "5/May/2016", 
  "Image-Link": [
    "https://www.blognone.com/sites/default/files/styles/thumbnail/public/topics-images/tesla.png?itok=J6-e8z4s", 
    "https://farm8.staticflickr.com/7416/26797594466_977cf9c513_z.jpg", 
    "/sites/all/themes/blognone42/images/linebutton.png"
  ], 
  "Link": "https://www.blognone.com/node/80663", 
  "News": "Tesla กำลังทดสอบระบบกรองอากาศ ชนิดรองรับอาวุธชีวภาพในรถยนต์", 
  "Tags": [
    "Tesla Motors"
  ], 
  "Time": "20:38"
}