{
  "By": "nutmos", 
  "Contents": " Facebook เริ่มเปิดใช้งานระบบการติดตามผู้ที่ไม่ใช่ผู้ใช้ Facebook ผ่านปุ่ม Like หรือปลั๊กอินอื่นๆ ที่ติดบนเว็บไซต์แล้ว ซึ่งจะทำให้ Facebook ใช้งานคุกกี้ติดตามทั้งผู้ใช้ Facebook และผู้ที่ไม่ได้ใช้งาน Facebook ได้ โดยเป้าหมายของการติดตามผู้ที่ไม่ใช่ผู้ใช้ Facebook ก็คือเพื่อแสดงโฆษณาให้ตรงกับความต้องการของผู้ใช้ Andrew Bosworth ผู้บริหาร Facebook ด้านแพลตฟอร์มโฆษณาและธุรกิจให้สัมภาษณ์กับสำนักข่าว The Wall Street Journal ว่า ผู้เขียนบทความและนักพัฒนาแอพต่างๆ มักจะมีผู้ใช้ที่ไม่ได้เป็นผู้ใช้ Facebook อยู่จำนวนหนึ่ง ซึ่ง Facebook คิดว่าจะสามารถเพิ่มประสิทธิภาพโฆษณาได้ ที่มา - The Verge, The Wall Street Journal   ", 
  "Date": "27/May/2016", 
  "Image-Link": [
    "https://www.blognone.com/sites/default/files/styles/thumbnail/public/topics-images/fb-500.png?itok=7KEmyKx1", 
    "/sites/all/themes/blognone42/images/linebutton.png"
  ], 
  "Link": "https://www.blognone.com/node/81520", 
  "News": "Facebook จะเริ่มติดตามผู้ที่ไม่ได้ใช้ Facebook ผ่านปลั๊กอินบนเว็บไซต์ เพื่อเพิ่มประสิทธิภาพการโฆษณา", 
  "Tags": [
    "Facebook", 
    "Privacy", 
    "Social Network"
  ], 
  "Time": "20:53"
}