{
  "By": "BlackMiracle", 
  "Contents": " วันนี้ NVIDIA เปิดตัวกราฟิกการ์ดที่หลายๆ คนรอคอย GeForce GTX 1060 ซึ่งตรงตามข่าวลือทุกประการ ชิปประมวลผลเป็น Pascal GP106 จับคู่กับแรม GDDR5 ขนาด 6GB ไม่มีขั้ว SLI ตัวการ์ดสั้นกว่ารุ่นพี่อย่าง GTX 1070/1080 เกือบ 1 นิ้ว ต้องต่อไฟเพิ่มแบบ 6 พิน และมาพร้อม DisplayPort 1.4 ขนาดเต็ม 3 พอร์ต, HDMI 2.0b 1 พอร์ต และ DVI-D อีก 1 พอร์ต โดยมีสเปกเต็มๆ ดังนี้  ชิป Pascal GP106 สถาปัตยกรรมขนาด 16 นาโนเมตรแบบ FinFET CUDA Cores จำนวน 1280 คอร์ Base clock ที่ 1506MHz Boost clock ที่ 1708MHz แรม GDDR5 ขนาด 6GB แบนด์วิดธ์ขนาด 192GB/s พลังประมวลผล 4.4 TFLOPs TDP 120 วัตต์ รองรับการแสดงผลความละเอียดสูงสุดถึง 7680 x 4320 พิกเซล ที่ 60Hz  NVIDIA ประกาศวางขาย GeForce GTX 1060 วันที่ 19 กรกฎาคมนี้ โดยราคาการ์ดแบบ reference (การ์ดจากผู้ผลิตทั่วไป) เริ่มที่ 249 เหรียญสหรัฐ ส่วนรุ่น Founders Edition (การ์ดที่ NVIDIA ผลิตเอง) อยู่ที่ 299 เหรียญสหรัฐ ที่มา - NVIDIA, AnandTech       ", 
  "Date": "7/July/2016", 
  "Image-Link": [
    "https://www.blognone.com/sites/default/files/styles/thumbnail/public/topics-images/nvidia.png?itok=4a7uUr5h", 
    "https://i.imgur.com/glqmgMi.jpg", 
    "https://i.imgur.com/YbkC0kO.jpg", 
    "https://i.imgur.com/4Y6r8ny.jpg", 
    "https://i.imgur.com/NmL5Kk2.jpg", 
    "/sites/all/themes/blognone42/images/linebutton.png"
  ], 
  "Link": "https://www.blognone.com/node/83143", 
  "News": "NVIDIA เปิดตัว GeForce GTX 1060 อย่างเป็นทางการ ราคา 249 เหรียญสหรัฐ ไม่มีขั้ว SLI", 
  "Tags": [
    "NVIDIA", 
    "GeForce", 
    "GPU", 
    "NVIDIA Pascal"
  ], 
  "Time": "21:07"
}