{
  "By": "lew", 
  "Contents": " ปกติแล้วเนื้อหาของ Blognone เปิดกว้างให้นำไปใช้ต่อ จนตอนนี้ก็ยังเปิด feed เนื้อหาเต็ม ไม่ย่อหรือบังคับให้เข้าเว็บเพื่ออ่าน แต่ที่ผ่านมาการพัฒนาแอพอ่านข่าวทำให้ผู้ใช้หลายคนสับสนว่าเป็นแอพที่ทาง Blognone สร้างขึ้นเอง (แม้จะระบุให้แจ้งแล้วก็ตาม) ตอนนี้เราเปลี่ยนนโยบายเพิ่มเติม ดังนี้  ห้ามใช้ชื่อ Blognone ในชื่อแอพ เพื่อป้องกันความสับสน ในข้อความอธิบายแอพ ยังคงสามารถระบุได้ว่าเป็นแอพสำหรับอ่านข่าวจาก Blognone ห้ามใช้โลโก้ Blognone ทั้งเวอร์ชั่นเก่าและใหม่ ไม่ว่าจะเป็นส่วนหนึ่งของโลโก้แอพ หรือส่วนใดๆ ในแอพ ไม่ว่าจะเป็นการดัดแปลงมีภาพหรือชื่อบริษัทประกอบหรือไม่ก็ตาม ทุกข่าวต้องมีลิงก์กลับมายังเว็บไซต์ ตัวข่าวต้องมีลิงก์กลับมายังเนื้อข่าวโดยตรง สามารถกดได้อย่างชัดเจนว่าอ่านข่าวจากเว็บไซต์ การแชร์เนื้อหา (หากมีปุ่มแชร์) จะต้องเป็นการแชร์ URL ของข่าวนั้นๆ ในกรณีที่มีความเปลี่ยนแปลงเว็บ ผู้พัฒนาต้องแก้ไขตามโดยเร็ว ในกรณีช้าที่สุดไม่เกิน 1 เดือน เช่นกรณี Blognone อัพเกรดใหญ่ Drupal ครั้งล่าสุด หากนักพัฒนาไม่สามารถพัฒนาได้ทัน จะต้องถอนแอพนั้นออกจากหน้าร้าน หรือถอนคำบรรยายว่าใช้อ่านข่าว Blognone ออกไป ห้ามขอรหัสผ่านผู้ใช้เพื่อการอ่าน หากแอพใดต้องการจะคอมเมนต์จากในแอพ (ซึ่งเราไม่ซัพพอร์ต) จะต้องใส่ข้อความดังนี้แจ้งเตือนผู้ใช้ ดังนี้ \"การใส่รหัสผ่านในแอพอื่นนี้ไม่ใช่การส่งรหัสผ่านถึงเว็บ Blognone โดยตรง ช่องโหว่ใดๆ ในการจัดเก็บและการส่งข้อมูลของแอพอาจจะทำให้รหัสผ่านของท่านรั่วไหลได้ ทาง Blognone ไม่มีส่วนรับรู้หรือตรวจสอบการพัฒนาแอพนี้\"  ทางเว็บไซต์ให้เวลาทุกแอพเป็นเวลา 2 เดือนนับจากนี้ (สิ้นสุด 31 ก.ค. 2016) ในการแก้ไข หลังจากนั้นหากพบจะมีการอีเมลแจ้งเตือนหรือแจ้งไปยังหน้าร้านแอพต่างๆ ต่อไป   ", 
  "Date": "24/May/2016", 
  "Image-Link": [
    "https://www.blognone.com/sites/default/files/styles/thumbnail/public/topics-images/Avatar-BN.png?itok=ZyY8fLgB", 
    "/sites/all/themes/blognone42/images/linebutton.png"
  ], 
  "Link": "https://www.blognone.com/node/81352", 
  "News": "ปรับเปลี่ยนนโยบายการการสร้างแอพอ่าน Blognone", 
  "Tags": [
    "Announcement", 
    "Blognone"
  ], 
  "Time": "21:15"
}