{
  "By": "mk", 
  "Contents": " ต่อจากข่าว อาการน่าเป็นห่วง Oracle ไม่สนใจพัฒนา Java EE ต่อแล้ว แต่ยังไม่บอกว่าจะทำอย่างไรต่อ ดูเหมือนว่าการกดดันผ่านสื่อนั้นได้ผล เพราะโฆษกของ Oracle ออกมาชี้แจงแล้ว Oracle ยืนยันว่าจะยังพัฒนา Java ต่อไป (Oracle is committed to Java) และมีแผนสำหรับ Java EE 8 เวอร์ชันถัดไปแล้ว โดยจะเปิดเผยในงานประจำปี JavaOne เดือนกันยายนนี้ เว็บไซต์ The Register รวบรวมข้อมูลมาวิเคราะห์ว่า Oracle พยายามสร้าง Java EE แบบปิดซอร์ส ทั้งในระดับรันไทม์และ API ซึ่งถ้าแผนนี้สำเร็จ โค้ดเกือบทั้งหมด (80-90%) ของ Java EE จะกลายเป็นโค้ดแบบปิด แนวทางนี้ทำให้รอบปีที่ผ่านมา Oracle แทบไม่ส่งโค้ดเข้าระบบซอร์สของ Java แบบโอเพนซอร์สเลย รวมถึงเลื่อนกำหนดออก Java EE 8 ออกไปเป็นปี 2017 อย่างไรก็ตาม The Register มองว่าหลังชุมชน Java ระแคะระคายเรื่องนี้ และรวมตัวกันออกมาโวย ส่งผลให้ Oracle เปลี่ยนใจและกลับมาพัฒนา Java EE ตามแผนเดิม ที่มา - The Register  สถิติการส่งโค้ดของ Oracle ที่รวบรวมโดยกลุ่ม Java EE Guardians - ที่มา    ", 
  "Date": "7/July/2016", 
  "Image-Link": [
    "https://www.blognone.com/sites/default/files/styles/thumbnail/public/topics-images/Java_logo.png?itok=XQHsMWsY", 
    "https://i.imgur.com/NiKAi0M.jpg", 
    "http://i.imgur.com/kxsWT1S.jpg", 
    "/sites/all/themes/blognone42/images/linebutton.png"
  ], 
  "Link": "https://www.blognone.com/node/83145", 
  "News": "Oracle ยืนยัน ยังพัฒนา Java EE ต่อไป เตรียมเผยรายละเอียดในงาน JavaOne", 
  "Tags": [
    "Java", 
    "Oracle", 
    "Open Source"
  ], 
  "Time": "21:30"
}