{
  "By": "nutmos", 
  "Contents": " Spotify ได้ออก Family Plan ใหม่ ในราคา 14.99 ดอลลาร์ต่อเดือน ใช้งาน Spotify Premium ได้ 6 บัญชี โดยตอนนี้เปิดให้ใช้ทุกประเทศที่มี Spotify เปิดให้บริการแล้ว (ยกเว้นประเทศแคนาดา) สำหรับ Family Plan ใหม่ของ Spotify นี้ ผู้สมัครจะสามารถใช้สมาชิกแบบ Spotify Premium ได้จำนวน 6 บัญชีแยกกัน โดยแต่เดิม Spotify ก็มี Family Plan อยู่แล้ว คิดราคา 14.99 ดอลลาร์ต่อเดือนสำหรับ 2 คน, 19.99 ดอลลาร์ต่อเดือนสำหรับ 3 คน, 24.99 ดอลลาร์ต่อเดือนสำหรับ 4 คน และ 29.99 ดอลลาร์ต่อเดือนสำหรับ 5 คน เท่ากับว่า Family Plan ใหม่นี้ราคาถูกลงกว่า Family Plan ที่ราคาแพงสุดของเดิมครึ่งหนึ่งเลยทีเดียว การออก Family Plan ใหม่ของ Spotify นั้นก็คงเดาได้ไม่ยากว่ามาสู้กับ Apple Music โดยก่อนหน้านี้ก็มี Google Play Music และ TIDAL ที่ออก Family Plan มาในลักษณะเดียวกัน ส่วนผู้ใช้ Family Plan เดิมของ Spotify อยู่ เดือนถัดไปจะได้รับการอัพเกรดเป็น Family Plan แบบใหม่โดยอัตโนมัติ ที่มา - The Verge   ", 
  "Date": "23/May/2016", 
  "Image-Link": [
    "https://www.blognone.com/sites/default/files/styles/thumbnail/public/topics-images/spotify500.png?itok=skNKsnYA", 
    "/sites/all/themes/blognone42/images/linebutton.png"
  ], 
  "Link": "https://www.blognone.com/node/81298", 
  "News": "Spotify ออก Family Plan ใหม่ ราคา 14.99 ดอลลาร์ต่อเดือน ใช้ได้ 6 คน", 
  "Tags": [
    "Spotify", 
    "Music Streaming"
  ], 
  "Time": "21:35"
}