{
  "By": "Lamicrosz", 
  "Contents": " หลังจากที่ไมโครซอฟท์เข้าซื้อ MinecraftEDU พร้อมบุกตลาดภาคการศึกษาด้วย Minecraft: Education Edition ไปเมื่อช่วงต้นปี ล่าสุดเปิดให้ทดสอบตัวเกมแบบ early access แล้ว และจะออกตัวเต็มในช่วงเดือนกันยายน ตัวเกมเพิ่มฟีเจอร์อย่าง การจุคนในเซิร์ฟเวอร์ได้ 30 คนโดยไม่ต้องมีเซิร์ฟเวอร์แยก, กล้อง, แฟ้มงาน, ตัวละคร NPC (non-player character) และกระดานดำ ตัวเกมสามารถเล่นได้บนระบบปฏิบัติการ Windows 10 และ OS X El Capiton, ต้องใช้บัญชี Office 365 Education แบบฟรีในการเล่น ในเวอร์ชันทดสอบจะเปิดให้ทดลองฟรีก่อน แต่ตัวเต็มจะมี 2 ราคา คือ 1 ดอลลาร์สหรัฐฯ (ประมาณ 35.20 บาท) และ 5 ดอลลาร์สหรัฐฯ (ประมาณ 176 บาท) ต่อคนต่อปี ขึ้นอยู่กับขนาดของโรงเรียนและจำนวนที่จะซื้อ ที่มา - Minecraft: Education Edition           ", 
  "Date": "13/June/2016", 
  "Image-Link": [
    "https://www.blognone.com/sites/default/files/styles/thumbnail/public/topics-images/minecraft-logo.png?itok=wUsaULhq", 
    "http://i.imgur.com/3X825ju.png", 
    "http://i.imgur.com/4j1oUg7.png", 
    "http://i.imgur.com/m4bxpy2.png", 
    "http://i.imgur.com/U1TSeZH.png", 
    "http://i.imgur.com/3BCpu18.png", 
    "http://i.imgur.com/O6R1SHk.png", 
    "http://i.imgur.com/Fgqn1tI.png", 
    "http://i.imgur.com/n7rOeKC.jpg", 
    "/sites/all/themes/blognone42/images/linebutton.png"
  ], 
  "Link": "https://www.blognone.com/node/82207", 
  "News": "Minecraft: Education Edition เปิดให้ทดสอบในรูปแบบ Early Access แล้ว", 
  "Tags": [
    "Minecraft", 
    "Education", 
    "Microsoft"
  ], 
  "Time": "21:52"
}