{
  "By": "trinakub", 
  "Contents": " Sony เปิดเผยรายงาน Investor Relations ประจำปี 2016 พบว่ายอดตัวเลขสมาชิก PS Plus สูงจนน่าตกใจเลยทีเดียว ปัจจุบันมีทั้งหมด 20.8 ล้านคนด้วยกัน ตัวเลขดังกล่าวได้มาจากการนับทุกแพลตฟอร์มรวมกัน ทาง Sony เปิดเผยต่อว่าระบบ PlayStation มีผู้ที่ใช้งานอยู่เป็นประจำสูงถึง 60 กว่าล้านคน ซึ่งประมาณหนึ่งในสามของจำนวนนั้นสมัคร PS Plus ไว้เป็นประจำ ปัจจุบันราคาของ PS Plus จะตกอยู่ที่ 49.99 ดอลลาร์สหรัฐต่อปี นั่นคือทาง Sony จะได้เงินจาก PS Plus ประมาณ 1,000 ล้านดอลลาร์สหรัฐต่อปีเลยทีเดียว สาเหตุที่ยอดตัวเลขของ PS Plus มีสูง คาดว่ามาจากการที่จะเล่นเกมออนไลน์บนเครื่อง PS4 ต้องเป็นสมาชิกของ PS Plus เท่านั้น และทาง Sony จะมีเกมจำนวนหนึ่งมาให้สมาชิกได้ดาวน์โหลดไปเล่นแบบฟรี ๆ ทุกเดือนด้วย รวมถึงยอดขายของเครื่อง PS4 เองก็สูงถึง 40 ล้านเครื่องแล้วเช่นกัน เมื่อนำทุกองค์ประกอบมารวมกันแล้ว จึงอาจจะไม่ใช่เรื่องแปลกใจเท่าไรนักที่ยอดสมาชิกจะมีจำนวนสูงถึงขนาดนั้นได้ ยอดตัวเลข PS Plus  ยอดขายของ PlayStation  ที่มา – EuroGamer   ", 
  "Date": "29/June/2016", 
  "Image-Link": [
    "https://www.blognone.com/sites/default/files/styles/thumbnail/public/topics-images/playstation_0.png?itok=khP6n8Ij", 
    "http://i.imgur.com/waL6y2k.png", 
    "http://i.imgur.com/QDSt2vF.jpg", 
    "/sites/all/themes/blognone42/images/linebutton.png"
  ], 
  "Link": "https://www.blognone.com/node/82831", 
  "News": "Sony เปิดเผย ยอดสมาชิก PlayStation Plus สูงเกือบ 21 ล้านแล้ว", 
  "Tags": [
    "Sony", 
    "PlayStation", 
    "Games"
  ], 
  "Time": "21:59"
}