{
  "By": "iDan", 
  "Contents": " หลังจาก Microsoft เปิดตัว Surface Pro 4 และ Surface Book ก็มีเสียงชื่นชมว่า \"มันเป็นแลปท็อปที่ยอดเยี่ยมมาก\" ปะปนไปกับเสียงบ่นกันหนาหูว่า \"แพงมาก!\" เมื่อคืนที่ผ่านมา (วันที่ 9 มิ.ย.) Microsoft เปิดตัวโครงการใหม่ชื่อ Surface Membership Plan สำหรับลูกค้าภาคธุรกิจอย่างเงียบๆ  โครงการนี้ลูกค้าสามารถทำสัญญาผ่อนชำระเงินเพื่อซื้อ Microsoft Surface 3 ไปจนถึง Microsoft Surface Book ที่อัตราการผ่อนชำระต่ำถึง 33 ดอลลาร์สหรัฐ และสามารถผ่อนชำระนานสูงสุด 30 เดือน แถมได้ประกันอุบัติเหตุตลอดระยะเวลาการผ่อนชำระ ส่วนลดในการซื้อฮาร์ดแวร์ และซอฟต์แวร์ของ Microsoft และการอบรมแบบตัวต่อตัว รวมทั้งลูกค้ามีสิทธิ์ในการอัพเกรด Surface เป็นรุ่นใหม่เมื่อมีการเปิดตัวอีกด้วย แน่นอนว่าการเปิดตัวโครงการนี้มีเป้าหมายหลักอยู่ที่การมัดใจลูกค้ากลุ่มองค์กรมากกว่าลูกค้าทั่วไป ซึ่ง Microsoft เองก็พยายามให้สินค้าตระกูล Surface เจริญเติบโตในตลาดกลุ่มองค์กรมาโดยตลอดเช่นกัน ที่มา: Microsoft ผ่าน Ars Technica, Thenextweb และ Thurrott    ", 
  "Date": "10/June/2016", 
  "Image-Link": [
    "https://www.blognone.com/sites/default/files/styles/thumbnail/public/topics-images/surface-book.png?itok=eHBLS5d-", 
    "https://i.imgur.com/wcV91GI.png", 
    "/sites/all/themes/blognone42/images/linebutton.png"
  ], 
  "Link": "https://www.blognone.com/node/82130", 
  "News": "Microsoft เปิดตัว Surface Membership Plan บริการซื้อ Surface เงินผ่อน", 
  "Tags": [
    "Surface Book", 
    "Microsoft", 
    "Surface", 
    "Surface Pro 4"
  ], 
  "Time": "21:54"
}