{
  "By": "mk", 
  "Contents": " ซัมซุงมีเทคโนโลยีสตอเรจแบบแฟลชที่เรียกว่า Universal Flash Storage (UFS) ใช้กับมือถือระดับเรือธงมาได้สักระยะหนึ่งแล้ว ล่าสุดซัมซุงออกการ์ดหน่วยความจำที่ใช้ UFS สู่ตลาดด้วยเช่นกัน (ชื่อเรียกก็ตรงตัวคือ UFS card หรือยาวหน่อย UFS removable memory card) การ์ด UFS มี 4 ขนาดความจุคือ 32, 64, 128, 256GB จุดเด่นของมันคือประสิทธิภาพดีกว่า microSD ทั่วไปมาก ซัมซุงระบุว่าอัตราการอ่านข้อมูลต่อเนื่อง (sequential read) อยู่ที่ 530MBps สูงกว่า microSD ถึง 5 เท่า และเทียบได้กับ SSD ที่ต่อผ่านพอร์ต SATA เลย ส่วนอัตราการเขียนข้อมูลแบบ sequential write ที่อยู่ 170MBps เหนือกว่า microSD ถึง 2 เท่า เหมาะสำหรับงานถ่ายภาพ-วิดีโอความละเอียดสูง   เทคนิคการทำงานของ UFS มีระบบจัดคิวคำสั่ง ช่วยให้สามารถอ่าน-เขียนข้อมูลในแต่ละตำแหน่งได้พร้อมกัน ช่วยให้ประสิทธิภาพดีขึ้น ซัมซุงพยายามผลักดันการใช้การ์ดหน่วยความจำแบบ UFS โดยนำสเปก Universal Flash Storage 2.0 ของตัวเอง ไปเสนอเป็นมาตรฐานของหน่วยงาน Joint Electron Device Engineering Council (JEDEC) ในชื่อว่า Universal Flash Storage (UFS) 1.0 Card Extension (อย่าสับสนเลขเวอร์ชันนะครับ) ซึ่งก็เพิ่งออกเป็นมาตรฐานในเดือนมีนาคม 2016 ที่ผ่านมา การ์ด UFS มีหน้าตาคล้าย microSD แต่ซัมซุงยังไม่ให้ข้อมูลว่าใช้ร่วมกันได้หรือไม่ และถ้าไม่ได้จะมีวิธีอ่านการ์ด UFS อย่างไร นอกจากนี้ซัมซุงยังไม่ได้ประกาศราคาและวันวางจำหน่าย UFS ด้วยเช่นกันครับ ที่มา - Samsung Newsroom   ", 
  "Date": "7/July/2016", 
  "Image-Link": [
    "https://www.blognone.com/sites/default/files/styles/thumbnail/public/topics-images/j8u2rhG1.jpg?itok=CJuE6qSo", 
    "https://c5.staticflickr.com/8/7350/28035769332_293797ca6b_z.jpg", 
    "https://c7.staticflickr.com/8/7403/28035770382_964e901344_z.jpg", 
    "/sites/all/themes/blognone42/images/linebutton.png"
  ], 
  "Link": "https://www.blognone.com/node/83146", 
  "News": "microSD หลบไป ซัมซุงเปิดตัวการ์ด UFS หน่วยความจำแบบใหม่ อ่านข้อมูลเร็วขึ้น 5 เท่า", 
  "Tags": [
    "Samsung", 
    "UFS", 
    "Storage", 
    "microSD"
  ], 
  "Time": "21:52"
}