{
  "By": "Lamicrosz", 
  "Contents": " Xbox Fitness บริการหลักสูตรการออกกำลังกายไปกับเทรนเนอร์ผู้เชี่ยวชาญเฉพาะด้าน ที่เปิดตัวมาพร้อมกับเครื่อง Xbox One ในปี 2013 แต่ทว่า ทางไมโครซอฟท์ได้ออกมาประกาศเตรียมปิดบริการนี้แล้ว โดยมีกำหนดการ ดังนี้  ตั้งแต่วันที่ 27 มิถุนายน 2016 จะปิดการซื้อเนื้อหาเพิ่ม ผู้ที่ซื้อไปแล้วจะยังใช้ได้จนถึง วันที่ 30 มิถุนายน 2017 หลังจากวันที่ 15 ธันวาคม 2016 สมาชิก Xbox Live Gold จะไม่ได้รับสิทธิพิเศษเพิ่มเติมจาก Xbox Fitness อีก วันที่ 1 กรกฎาคม 2017 ปิดบริการ Xbox Fitness และเนื้อหาที่เกี่ยวข้องอย่างถาวร  ข้อมูลเพิ่มเติมสามารถสอบถามได้ใน Xbox Fitness Forums และ Xbox Support ที่มา - Microsoft Studios     ", 
  "Date": "29/June/2016", 
  "Image-Link": [
    "https://www.blognone.com/sites/default/files/styles/thumbnail/public/topics-images/xbox.png?itok=Kznca_K_", 
    "http://i.imgur.com/RynJgZE.jpg", 
    "http://i.imgur.com/S67YuNk.jpg", 
    "/sites/all/themes/blognone42/images/linebutton.png"
  ], 
  "Link": "https://www.blognone.com/node/82832", 
  "News": "ไมโครซอฟท์ประกาศปิดบริการ Xbox Fitness", 
  "Tags": [
    "Xbox", 
    "Microsoft", 
    "Fitness"
  ], 
  "Time": "22:00"
}