{
  "By": "mk", 
  "Contents": " NVIDIA ประกาศผลประกอบการไตรมาสล่าสุด (นับเดือนกุมภาพันธ์-เมษายน 2016) รายได้ 1.3 พันล้านดอลลาร์ เติบโต 13% จากปีก่อน, กำไรสุทธิ 186 ล้านดอลลาร์ เพิ่มขึ้น 46% จากปีก่อน NVIDIA แยกธุรกิจออกเป็น 4 สายคือเกม, กราฟิกมืออาชีพ, ศูนย์ข้อมูล, ชิปสำหรับรถยนต์ ซึ่งธุรกิจทั้ง 4 สายเติบโตกันถ้วนหน้า และที่มาแรงคือธุรกิจด้าน deep learning ที่ต้องใช้ GPU ช่วยเร่งความเร็วในการประมวลผล ไตรมาสที่ผ่านมา NVIDIA ออกผลิตภัณฑ์สำคัญคือ GPU สถาปัตยกรรมใหม่ Pascal ซึ่งเริ่มจาก GeForce GTX 1080/1070 และ Tesla P100 ก่อน แต่ก็ระบุว่าจะขยายผลของ Pascal ต่อไปยังสายธุรกิจอื่นๆ ด้วยในอนาคต ที่มา - NVIDIA     ", 
  "Date": "13/May/2016", 
  "Image-Link": [
    "https://www.blognone.com/sites/default/files/styles/thumbnail/public/topics-images/nvidia.png?itok=4a7uUr5h", 
    "https://farm2.staticflickr.com/1610/24182050545_67760e9660_z.jpg", 
    "https://i.imgur.com/lHPNBS1.png", 
    "/sites/all/themes/blognone42/images/linebutton.png"
  ], 
  "Link": "https://www.blognone.com/node/80959", 
  "News": "NVIDIA เผยผลประกอบการออกมาดี รายได้โต 13%, กำไรเพิ่ม 46%", 
  "Tags": [
    "NVIDIA", 
    "Financial Report"
  ], 
  "Time": "22:12"
}