{
  "By": "mk", 
  "Contents": " สัญญาณว่าวงการสตาร์ตอัพในสหรัฐเริ่มหยุดความร้อนแรงลง เริ่มชัดเจนขึ้นเรื่อยๆ ล่าสุดบริษัท Agari เจ้าของเทคโนโลยีตรวจสอบอีเมลปลอม (phishing) ประกาศระดมทุนรอบใหม่ Series D อีก 22 ล้านดอลลาร์ จากนักลงทุน 7 บริษัท (รวมแล้วระดมทุนมาทั้งหมด 45 ล้านดอลลาร์) สตาร์ตอัพกลุ่มความปลอดภัยไซเบอร์ เป็นกลุ่มบริษัทที่นักลงทุนให้ความสนใจมากอยู่ช่วงหนึ่ง (ปีที่แล้ว มียอดเงินระดมทุนรวมถึง 3.3 พันล้านดอลลาร์) แต่ในปีนี้ สถานการณ์ด้านการระดมทุนถดถอยลงมาก และ Agari ถือเป็นบริษัทล่าสุดที่ระดมทุนได้สำเร็จ (บริษัทเปิดมาตั้งแต่ปี 2009) ซึ่งซีอีโอ Pat Peterson ก็ยอมรับว่าการระดมทุนรอบนี้ยากขึ้นมาก Peterson สรุปว่า \"ฤดูหนาวแห่งการระดมทุนมาถึงแล้ว\" (Winter has arrived) และจะมีเพื่อนร่วมวงการล้มหายตายจากกันไปอีกมาก ซึ่งตอนนี้ก็เริ่มเกิดสถานการณ์นี้แล้ว ที่มา - Fortune    ", 
  "Date": "24/May/2016", 
  "Image-Link": [
    "https://www.blognone.com/sites/default/files/styles/thumbnail/public/news-thumbnails/agari.png?itok=tlPCwON1", 
    "https://i.imgur.com/JYwH2lM.jpg", 
    "/sites/all/themes/blognone42/images/linebutton.png"
  ], 
  "Link": "https://www.blognone.com/node/81355", 
  "News": "Winter Has Arrived สตาร์ตอัพด้านความปลอดภัย บอกการระดมทุนจะยากขึ้นมาก", 
  "Tags": [
    "Startup"
  ], 
  "Time": "22:16"
}