{
  "By": "nutmos", 
  "Contents": " Uber ได้จับมือเป็นพาร์ทเนอร์กับ Pandora ผู้ให้บริการสถานีวิทยุออนไลน์ โดยนำฟีเจอร์เล่นเพลงของ Pandora ลงในแอพ Uber Partner เพื่อให้ผู้ใช้สามารถเพลิดเพลินไปกับเพลงจาก Pandora บนรถยนต์ได้ สำหรับวิธีใช้ Pandora บนรถยนต์ผ่านแอพ Uber Partner ให้ทำตามขั้นตอนนี้  ต่อโทรศัพท์เข้ากับบลูทูธของรถยนต์ หรือพอร์ต AUX และตั้งค่าวิทยุของรถยนต์ให้เรียบร้อย ในแอพ Uber Partner จะมีปุ่ม Play Music บนแผนที่ ให้แตะปุ่มนั้น จากนั้นจะต้องล็อกอินด้วยบัญชี Pandora (ซึ่งถ้าใครไม่มีสามารถสร้างจากตรงนี้ได้เลย) เลือกสถานี และเพลงจะเริ่มเล่นทันที  ตอนนี้ฟีเจอร์เล่นเพลงผ่าน Pandora บนแอพ Uber Partner เปิดให้ใช้แล้วในสหรัฐฯ, ออสเตรเลีย และนิวซีแลนด์ โดยช่วง 6 เดือนแรกจะไม่มีโฆษณา โดยรายละเอียดเพิ่มเติมให้ดูผ่าน uber.com/Pandora ที่มา - Uber Newsroom    ", 
  "Date": "27/June/2016", 
  "Image-Link": [
    "https://www.blognone.com/sites/default/files/styles/thumbnail/public/topics-images/uber_0.png?itok=6XhODw2-", 
    "http://i.cubeupload.com/006fHs.png", 
    "/sites/all/themes/blognone42/images/linebutton.png"
  ], 
  "Link": "https://www.blognone.com/node/82724", 
  "News": "Uber จับมือเป็นพาร์ทเนอร์กับ Pandora นำฟีเจอร์เล่นเพลงมาลงแอพ Uber Partner", 
  "Tags": [
    "Uber", 
    "Pandora"
  ], 
  "Time": "22:29"
}