{
  "By": "nutmos", 
  "Contents": " Instagram กำลังทดสอบระบบโปรไฟล์สำหรับธุรกิจ ซึ่งจะดูค่อนข้างคล้ายกับเพจของแบรนด์ใน Facebook โดยให้รายละเอียดเกี่ยวกับธุรกิจหรือร้านค้าเจ้าของโปรไฟล์นั้น สิ่งที่น่าสนใจคือโปรไฟล์สำหรับธุรกิจของ Instagram จะแยกออกจากโปรไฟล์ของบุคคลทั่วไป และมีปุ่มใหม่คือปุ่ม Contact ทางซ้ายของสถานะการติดตาม เพื่อติดต่อกับร้านค้าหรือธุรกิจได้โดยตรง เช่น ติดต่อผ่านทางอีเมล หรือนำทางโดยใช้แผนที่ โดยไม่ต้องผ่านระบบของ Instagram และโปรไฟล์สำหรับธุรกิจนี้ยังมีการจัดหมวดหมู่ด้วย ปัจจุบันหน้าโปรไฟล์สำหรับธุรกิจของ Instagram ยังอยู่ในช่วงทดสอบกับผู้ใช้กลุ่มเล็กๆ เท่านั้น ซึ่งทางโฆษกของ Instagram ก็ได้กล่าวว่ากำลังทดสอบระบบโปรไฟล์อยู่จริง โดยภาพตัวอย่างของหน้าโปรไฟล์สำหรับธุรกิจบน Instagram สามารถดูได้ท้ายข่าว ที่มา - Cult of Mac, TechCrunch     ", 
  "Date": "5/May/2016", 
  "Image-Link": [
    "https://www.blognone.com/sites/default/files/styles/thumbnail/public/topics-images/ig.png?itok=IUjEmhEC", 
    "http://i.cubeupload.com/Blmqw5.png", 
    "http://i.cubeupload.com/QoSd2J.png", 
    "/sites/all/themes/blognone42/images/linebutton.png"
  ], 
  "Link": "https://www.blognone.com/node/80666", 
  "News": "Instagram กำลังทดสอบโปรไฟล์สำหรับธุรกิจ", 
  "Tags": [
    "Instagram"
  ], 
  "Time": "22:30"
}