{
  "By": "arjin", 
  "Contents": " สำนักข่าว Bloomberg รายงานว่า Snapchat ตอนนี้มีจำนวนผู้ใช้งานต่อวันสูงถึง 150 ล้านคน ซึ่งตัวเลขนี้มีนัยสำคัญเนื่องจากสูงกว่าผู้ใช้งานต่อวันของ Twitter ที่มีอยู่ราว 140 ล้านคนแล้ว อย่างไรก็ตามตัวเลขนี้เป็นคาดการณ์ของ Bloomberg เท่านั้น ไม่ใช่ตัวเลขทางการจากทั้งสองบริษัท โดย Snapchat นั้นได้ตัวเลขจากผู้เกี่ยวข้อง ส่วน Twitter ใช้วิธีคำนวณจากจำนวนผู้ใช้งานประจำทุกเดือน 310 ล้านคน รวมกับข้อมูลที่ผู้บริหาร Twitter บอกว่ามีคนใช้งานทุกวันราว 44% อย่างไรก็ตามตัวเลขนี้ยังถือว่าห่างจากผู้นำอย่าง Facebook ที่มีอยู่ 1,090 ล้านคนมากนัก ที่มา: Bloomberg    ", 
  "Date": "2/June/2016", 
  "Image-Link": [
    "https://www.blognone.com/sites/default/files/styles/thumbnail/public/topics-images/snapchat.png?itok=JyM_TIkc", 
    "http://i.imgur.com/8WwBlKB.png", 
    "/sites/all/themes/blognone42/images/linebutton.png"
  ], 
  "Link": "https://www.blognone.com/node/81772", 
  "News": "Snapchat มีจำนวนผู้ใช้งานต่อวันสูงกว่า Twitter แล้ว", 
  "Tags": [
    "Snapchat", 
    "Twitter"
  ], 
  "Time": "22:47"
}