{
  "By": "nismod", 
  "Contents": " หลังจากก่อนหน้านี้เคยมีข่าวว่า Blizzard จะแจก World of Warcraft ให้กับผู้ที่ซื้อตั๋วชมภาพยนตร์ Warcraft ล่าสุดทาง Blizzard ออกมาประกาศยืนยันนโยบายนี้แล้ว โดยทาง ฺBlizzard ระบุรายละเอียดแต่เพียงว่าจะได้เกม World of Warcraft พร้อมไอเท็มจากภาพยนตร์เท่านั้น และที่สำคัญคือผู้ชมในประเทศไทยจะได้รับโปรโมชันนี้ด้วย เมื่อชมภาพยนตร์กับทาง SF Cinemas และจะแจกคนกว่าคีย์จะหมด แต่ไม่ได้ระบุว่าสาขาไหน และมีให้ทั้งหมดกี่คีย์ครับ ที่มา - Battle.net   ", 
  "Date": "17/May/2016", 
  "Image-Link": [
    "https://www.blognone.com/sites/default/files/styles/thumbnail/public/topics-images/warcraft.png?itok=CH4JPcSL", 
    "/sites/all/themes/blognone42/images/linebutton.png"
  ], 
  "Link": "https://www.blognone.com/node/81110", 
  "News": "Blizzard ยืนยันแล้วผู้ที่ซื้อตั๋วชม Warcraft จะได้คีย์ World of Warcraft ฟรี มีไทยด้วย", 
  "Tags": [
    "Warcraft", 
    "World of Warcraft", 
    "Movie", 
    "Blizzard"
  ], 
  "Time": "22:58"
}