{
  "By": "nismod", 
  "Contents": " ทางการกรุงเบอร์ลินของเยอรมนีออกกฎหมายห้ามไม่ให้เจ้าของอพาร์ทเม้นท์ปล่อยเช่าห้องพักทั้งหลังแบบระยะสั้นผ่าน Airbnb และเจ้าอื่นๆ ที่มีการให้บริการใกล้เคียงกัน โดยอ้างว่าเพื่อป้องกันปัญหาราคาเช่าอพาร์ทเม้นในเมืองหลวง รวมถึงเปิดโอกาสในการหาที่พักแบบระยะยาวสำหรับชาวเยอรมันมากยิ่งขึ้น แน่นอนว่าย่อมมีเสียงต่อต้านกฎหมายฉบับนี้ โดยกล่าวหาว่ารัฐกำลังพยายามช่วยเหลืออุตสาหกรรมโรงแรม เนื่องจากกรุงเบอร์ลินเป็นหนึ่งในเป้าหมายหลักของนักท่องเที่ยวที่เดินทางไปยุโรป ทำให้ Airbnb ค่อนข้างได้รับความนิยมอย่างสูงในช่วงที่ผ่านมา และมีเจ้าของอพาร์ทเม้นท์นำห้องพักทั้งหมดมาปล่อยให้เช่าเป็นจำนวนมาก อย่างไรก็ตามกฎหมายยังคงอนุญาตการปล่อยเช่าห้องพักเป็นห้องๆ เช่นเดิม ทั้งนี้กฎหมายฉบับนี้ออกมาตั้งแต่ปี 2014 และเพิ่งมีผลบังคับใช้เมื่อวันที่ 1 พฤษภาคมที่ผ่านมา โดยผู้ที่ฝ่าฝืนจะถูกปรับสูงถึงกว่า 1 แสนยูโร (ราว 4 ล้านบาท) ที่มา - The Local via Engadget   ", 
  "Date": "2/May/2016", 
  "Image-Link": [
    "https://www.blognone.com/sites/default/files/styles/thumbnail/public/topics-images/airbnb.png?itok=7ZNGY75J", 
    "/sites/all/themes/blognone42/images/linebutton.png"
  ], 
  "Link": "https://www.blognone.com/node/80536", 
  "News": "กรุงเบอร์ลินออกคำสั่งห้ามการปล่อยเช่าอพาร์ทเม้นท์ทั้งหลังผ่าน Airbnb", 
  "Tags": [
    "Airbnb", 
    "Germany", 
    "Sharing Economy"
  ], 
  "Time": "23:04"
}