{
  "By": "mk", 
  "Contents": " AIS ประกาศจับมือกับร้าน iStudio ทั้ง 3 บริษัทคือ COPPERWIRED, SPVi และ UFicon โดยมีความร่วมมือที่สำคัญคือร้าน iStudio จะให้บริการลูกค้า AIS ได้ด้วย เช่น การเปิดเบอร์ใหม่ เติมเงิน ย้ายค่ายเบอร์เดิม ฯลฯ นอกจากนี้ AIS จะมีสิทธิพิเศษในการซื้อสมาร์ทโฟนหรือสินค้าต่างๆ ให้กับลูกค้าของทั้งสองแบรนด์ด้วย AIS ระบุว่ากำลังเปลี่ยนตัวเองสู่  Digital Life Service Provider จึงมาเป็นพันธมิตรกับ iStudio เพื่อใช้เครือข่ายร้านทั้งหมด 60 แห่งเพื่อให้บริการลูกค้าให้ครบวงจรมากขึ้น ฝั่งผู้ประกอบการร้าน iStudio ก็บอกว่าเชี่ยวชาญเรื่องการขายสินค้าเทคโนโลยีอยู่แล้ว การจับมือกับ AIS ก็ช่วยให้มีผู้ให้บริการเครือข่ายเข้ามาเสริมบริการให้หลากหลายเช่นกัน ที่มา - อีเมลประชาสัมพันธ์ AIS    ", 
  "Date": "11/July/2016", 
  "Image-Link": [
    "https://www.blognone.com/sites/default/files/styles/thumbnail/public/topics-images/ais.png?itok=v9BMgBcj", 
    "https://i.imgur.com/hFB6Bmp.jpg", 
    "/sites/all/themes/blognone42/images/linebutton.png"
  ], 
  "Link": "https://www.blognone.com/node/83289", 
  "News": "AIS จับมือร้าน iStudio ลูกค้า AIS สามารถใช้บริการเติมเงิน เปลี่ยนโปรที่ร้าน iStudio ได้แล้ว", 
  "Tags": [
    "AIS", 
    "iStudio"
  ], 
  "Time": "23:09"
}