{
  "By": "lew", 
  "Contents": " ซิสโก้ออกรายงานวิจัย \"Roadmap to Digital Value in the Retail Banking Industry\" ระบุถึงความเปลี่ยนแปลงของอุตสาหกรรมธนาคารในยุคต่อไปที่กำลังใกล้เข้ามาเรื่อยๆ ความเปลี่ยนแปลงเหล่านี้เปิดโอกาสให้ธนาคารต่างๆ สามารถจับเอา \"คุณค่าใหม่\" (new value) เพื่อมาสร้างมูลค่าให้กับบริการของตนเอง รายงานฉบับนี้ออกมาประมาณหนึ่งเดือนหลังรายงาน Workforce Transformation in the Digital Vortex ที่ซิสโก้ร่วมกับวิทยาลัยธุรกิจ IMD จัดทำขึ้นแสดงให้เห็นว่าธุรกิจจำนวนมากกำลังจะถูกเปลี่ยนแปลงจากการเข้าสู่ยุคดิจิตอล (digital transformation) ที่ระบุว่าธนาคารจะเป็นธุรกิจลำดับที่สี่ที่จะถูกเปลี่ยนแปลงจากเข้าเข้าสู่ยุคดิจิตอลนี้ ถัดจากอุตสาหกรรมเทคโนโลยี, สื่อและความบันเทิง, และการค้าปลีก รายงานระบุว่าความเปลี่ยนแปลงจะแบ่งออกเป็นสามระดับ คือ การเปิดปรับปรุงบริการเดิมบนธุรกิจเดิม (enable), การเปิดบริการใหม่บนธุรกิจเดิม (differentiate), และการเปิดธุรกิจใหม่ (define) สำหรับโลกธุรกิจการเงินธนาคารนั้น ความเปลี่ยนแปลงระดับการปรับปรุงบริการเดิมอาจจะเป็นการออกรายงานการเงินให้กับลูกค้าได้เร็วขึ้น, การลดระยะเวลาอนุมัติวงเงินกู้, การทำธุรกิจบนฐานของข้อมูลที่รวดเร็ว ส่วนระดับการสร้างบริการใหม่ เช่น การสร้างเคาน์เตอร์เสมือนให้บริการผ่านการโทรศํพท์แบบวิดีโอ, การรองรับการจ่ายเงินผ่านอุปกรณ์เคลื่อนที่, หรือการวิเคราะห์การใช้งานพื้นที่ธนาคารอย่างละเอียดด้วยการวิเคราะห์วิดีโอ สุดท้ายคือระดับการสร้างธุรกิจใหม่ เช่น การใช้ blockchain เข้ามาเป็นส่วนหนึ่งของธุรกิจ, การออกรายงานคำแนะนำทางการเงินตามลักษณะของลูกค้าแต่ละราย ความเปลี่ยนแปลงเหล่านี้เราเริ่มเห็นบ้างแล้วจากการที่สตาร์ตอัพ FinTech หลายรายเริ่มเสนอบริการเหล่านี้โดยไม่ได้เป็นธนาคารเอง แม้ว่าตอนนี้ยังมีกำแพงหลายอย่างทำให้สตาร์ตอัพเหล่านี้ยังไม่สามารถเข้ามาแข่งกับธนาคารได้อย่างเต็มตัว แต่หากธนาคารไม่ปรับตัวเป็นเวลานานก็มีความเสี่ยงที่อนาคตจะสูญเสียมูลค่าไป ที่ผ่านมาธนาคารหลายแห่งปรับตัวช้าหรือไม่ปรับตัวเลย ทางซิสโก้ระบุว่าสาเหตุสำคัญเป็นเพราะความกังวลต่อความปลอดภัยไซเบอร์ที่มากขึ้นในช่วงหลัง ธนาคารหลายแห่งกลัวต่อการเปลี่ยนแปลงกับสินค้าหลายตัว หลายครั้งก็หยุดโครงการสำคัญๆ ไป รายงานฉบับเต็มมีให้ดาวน์โหลดแล้ว ที่มา - Cisco    ", 
  "Date": "27/May/2016", 
  "Image-Link": [
    "https://www.blognone.com/sites/default/files/styles/thumbnail/public/topics-images/cisco.png?itok=g5qUC7lL", 
    "//upic.me/i/h9/screenshot2016-05-27at23.59.jpg", 
    "/sites/all/themes/blognone42/images/linebutton.png"
  ], 
  "Link": "https://www.blognone.com/node/81522", 
  "News": "ซิสโก้ออกรายงาน ระบุธนาคารคืออุตสาหกรรมถัดไปที่จะถูกเปลี่ยนแปลงจากการเข้าสู่ยุคดิจิตอล", 
  "Tags": [
    "Cisco", 
    "FinTech", 
    "Banking"
  ], 
  "Time": "23:01"
}