{
  "By": "nutmos", 
  "Contents": " Microsoft ประกาศการอัพเดตซอฟต์แวร์ให้ Xbox One และแอพ Xbox บน Windows 10 ครั้งใหม่ ซึ่งตอนนี้ได้ออกพรีวิวสำหรับ summer update มาแล้ว และจะเปิดให้ทดสอบแอพ Xbox แบบเบต้าบน Windows 10 ตามมา สำหรับรายละเอียดคร่าวๆ ของการอัพเดต Xbox One มีดังนี้  Cortana: ซอฟต์แวร์อัพเดตของ Xbox One จะมี Cortana เป็นเวอร์ชันพรีวิวในสหรัฐฯ, สหราชอาณาจักร, ฝรั่งเศส, อิตาลี, เยอรมนี และสเปนก่อน ซึ่งผู้ใช้ Xbox One จะได้รับประสบการณ์ Cortana เหมือนบนอุปกรณ์ Windows 10 อื่นๆ สามารถเรียกใช้ได้ผ่าน Kinect หรือชุดหูฟัง โดย Cortana สามารถใช้หาเกมใหม่, เริ่มปาร์ตี้, ทำงานง่ายๆ, เปิด Xbox One (ใช้ผ่าน Kinect) และอื่นๆ เพียงพูด Hey Cortana หรือเปิดแอพก็ใช้ได้ทันที Game Collection ของ Xbox One จะมีการอัพเดตใหม่เพื่อให้หาและเปิดเกมได้เร็วขึ้น    ค้นหาเพื่อนบน Facebook ผ่าน Xbox One ได้แล้ว ปรับปรุงการแชร์ สามารถแชร์ภาพถ่ายหน้าจอ, คลิป GameDVR, และรางวัลที่ได้บน Xbox One ได้ง่ายขึ้น  รายละเอียดการอัพเดตของแอพ Xbox และการเล่นเกมบน Windows 10  แก้ไขและแบ่งปันคลิป GameDVR บนโปรแกรมแก้ไขวิดีโอใดๆ ก็ได้ และเมื่อแก้ไขเสร็จก็สามารถอัพโหลดคลิปกลับขึ้นไปยัง Xbox Live ผ่านแอพ Xbox ได้ การจัดการ GameDVR ที่อัพเดตใหม่ สามารถจัดการได้จากหน้าโปรไฟล์ รวมถึงแชร์หรืออัพโหลดได้ บันทึกเกมเป็นคลิปแบบ 60 ภาพต่อวินาที โดยเลือกการตั้งค่าคุณภาพที่ Very High ในแอพ Xbox จาก Windows Game bar แบ่งปันจากแอพ Xbox ไปยัง Twitter ได้ เช่น แบ่งปันคลิปเกม, ภาพหน้าจอจาก Xbox Live ไปยัง Twitter ผ่านตัวเลือกการแชร์ได้เลย Windows Game bar ปรับปรุงการรองรับเกมแบบเต็มหน้าจอ เช่น ใช้ Windows Game bar ขณะที่หลายๆ เกมกำลังเล่นแบบเต็มจอ โดยเพิ่มเกม 6 เกมที่รองรับ เช่น League of Legends, World of Warcraft, DOTA 2, Battlefield 4, Counterstrike: Global Offensive และ Diablo III โดยสามารถกดปุ่ม Windows และปุ่ม G เพื่อแสดง Windows Game bar ขณะกำลังเปิดเกมเต็มจอ  รายละเอียดการอัพเดตที่ได้รับทั้ง Xbox One และแอพ Xbox  เกม PC ดังๆ เช่น League of Legends และ XCOM 2 จะนำมาแสดงบน Xbox Live ด้วย ฉะนั้นไม่ว่าจะอยู่บน PC, Xbox หรือโทรศัพท์ก็จะสามารถเห็นได้ว่าเพื่อนกำลังเล่นเกมอะไรอยู่    ลดช่องว่างระหว่าง Xbox Store และ Windows Store โดยจะเริ่มรวมเกมที่ดีที่สุดบน Xbox Store และ Windows Store เพื่อให้นักเล่นเกมได้รับประสบการณ์ที่เหมือนกันระหว่างอุปกรณ์ โดยบน Xbox One จะปรับปรุงให้หาเกมที่ชอบได้เร็วขึ้น Activity Feed ที่เป็นตัวเองมากขึ้น สามารถเลือกได้ว่าอะไรจะโพสต์ลง Activity Feed ทั้งผ่าน Xbox One หรือแอพ Xbox  สำหรับรายละเอียดและภาพประกอบฉบับเต็มสามารถอ่านได้จากที่มา ที่มา - Xbox   ", 
  "Date": "6/June/2016", 
  "Image-Link": [
    "https://www.blognone.com/sites/default/files/styles/thumbnail/public/topics-images/xbox.png?itok=Kznca_K_", 
    "http://i.cubeupload.com/wpKeMy.png", 
    "http://i.cubeupload.com/kyAWey.png", 
    "/sites/all/themes/blognone42/images/linebutton.png"
  ], 
  "Link": "https://www.blognone.com/node/81929", 
  "News": "Microsoft ประกาศ summer update ของ Xbox: เพิ่ม Cortana ให้ Xbox One", 
  "Tags": [
    "Xbox", 
    "Xbox One", 
    "Microsoft"
  ], 
  "Time": "23:21"
}