{
  "By": "lew", 
  "Contents": " กูเกิลเปิดตัวแอป Spaces แอปแชตที่ร่วมเอา Google Search, YouTube, และ Chrome ไว้ในตัว โดยในกลุ่มแชตสามารถแชร์เนื้อหาและคอมเมนต์ต่อจากเนื้อหากันในกลุ่มไปได้เรื่อยๆ กูเกิลระบุว่าผู้ใช้สามารถเริ่มใช้ Spaces เองก่อนและดึงคนอื่นๆ เข้ามาร่วมกับ Space ที่สร้างขึ้นใหม่ได้ผ่านทางลิงก์ โดยการเปิดตัวครั้งนี้เริ่มต้นก่อนงาน Google I/O เพราะในงานจะมีการสร้าง Space สำหรับแต่ละห้องสัมมนาให้ผู้เข้าร่วมเข้าไปพูดคุยกันเป็นกลุ่มๆ ได้ทันที ในแง่หนึ่งแล้ว Spaces อาจจะเป็นความพยายามอีกครั้งของกูเกิลที่จะบุกตลาดเว็บเครือข่ายสังคมออนไลน์หลังจากที่ล้มเหลวกับ Google Wave และ Google+ ครั้งนี้กูเกิลอาจจะเรียนรู้จาก Google+ Communities ว่าเหตุใดมันจึงยังเป็นส่วนที่มีคนใช้งานอยู่พอสมควรใน Google+ และนำมาปรับปรุงเป็นแอปใหม่นี้ เว็บ Spaces ระบุว่าจะเปิดให้ดาวน์โหลดเร็วๆ นี้ ที่มา - Google Blog    ", 
  "Date": "16/May/2016", 
  "Image-Link": [
    "https://www.blognone.com/sites/default/files/styles/thumbnail/public/news-thumbnails/space.png?itok=98RMy8xQ", 
    "//upic.me/i/5l/00_posting.png", 
    "/sites/all/themes/blognone42/images/linebutton.png"
  ], 
  "Link": "https://www.blognone.com/node/81044", 
  "News": "กูเกิลเปิดตัวแอป Spaces: แชตเป็นกลุ่ม, แชร์เว็บ/วิดีโอ", 
  "Tags": [
    "Google", 
    "Social Network"
  ], 
  "Time": "23:26"
}