{
  "By": "Job_The_Gamer", 
  "Contents": " ไมโครซอฟท์ประกาศรายละเอียดการปรับปรุงเทคโนโลยีช่วยเหลือผู้พิการ (Assistive Technology) ที่จะมาพร้อมกับ Windows 10 Annniversary Update ซึ่งมีกำหนดการปล่อยอัพเดตในวันที่ 2 สิงหาคมนี้ การปรับปรุงในครั้งนี้ไมโครซอฟท์ได้เน้นไปที่การบรรยายเสียงหรือ narrator ของตัวอ่านหน้าจอบน Windows  และการเพิ่มฟังก์ชั่นช่วยเหลือผู้พิการบนแอพของค่ายตนเองอย่าง Microsoft Edge, Mail, Cortana และ Groove อีกทั้งยังได้ปรับปรุงเครื่องมือสำหรับนักพัฒนาซึ่งจะช่วยให้การพัฒนาแอพและเว็บไซต์ที่มีฟีเจอร์อำนวยความสะดวกให้ผู้พิการทำได้ง่ายขึ้นด้วย สำหรับรายการปรับปรุงการบรรยายเสียง narrator พอสรุปได้ดังนี้  อ่านออกเสียงได้เร็วขึ้นถึง 2 เท่าจากความเร็วเดิมที่ 400 คำต่อนาทีเป็น 800 คำต่อนาที เพิ่มภาษาที่รองรับทั้งภาษาอาหรับและภาษาที่ใช้ในกลุ่มประเทศนอร์ดิกหลายภาษา คำสั่งคีย์บอร์ดถูกเปลี่ยนให้คล้ายกันกับคำสั่งที่มีให้ใช้บนโปรแกรม screen reader อื่นๆ, ปรับปรุงคำสั่งคีย์บอร์ดให้ใช้ได้ง่ายและสะดวกขึ้น เพิ่มโหมดเพื่อใช้ในการ navigation ใหม่ในชื่อ scan mode ระหว่างเปิดใช้ที่โหมดนี้ผู้ใช้จะสามารถกดแป้น SPACE เพื่อเข้าถึงลิงค์บนเว็บเพจหรือเลือกกดปุ่มบนแอพที่ต้องการได้ รองรับการเลือกอ่านคุณสมบัติของคำ (level of vebosity) ถึง 6 ระดับ ตั้งแต่อ่านแต่ข้อความอย่างเดียว, ช่วยระบุว่าข้อความส่วนนั้นเป็นหัวข้อ, ไปจนถึงการระบุคุณสมบัติอย่างอื่นของข้อความเช่นการจัดรูปแบบหรือสีของข้อความ เลือกอ่านเครื่องหมายวรรคตอนได้หลายระดับ ตั้งแต่ไม่อ่านเลยไปจนถึงอ่านทั้งหมด ช่วยอ่านออกเสียงเมื่อมีการแนะนำคำ ยกตัวอย่างเช่น การอ่านคำค้นหาที่แอพแนะนำให้ ขณะที่ผู้ใช้งานกำลังพิมพ์ข้อมูลในกล่องค้นหา เพิ่มคีย์ลัด CAPSLOCK + E +E สำหรับส่งฟีดแบ็กในการใช้ narrator ให้กับไมโครซอฟท์  รายละเอียดการปรับปรุงทั้งหมดสามารถเข้าไปอ่านได้ที่ Microsoft Accessibility Blog ทั้งนี้ผู้ใช้งาน Assistive Technology บน Windows 7 และ Windows 8.1 ที่ยังอยากรอให้ฟังก์ชั่นข้างต้นสมบูรณ์ก่อน ก็ยังสามารถอัพเกรดเป็น Windows 10 ได้ฟรีแม้ว่าจะสิ้นสุดโปรโมชั่นอัพเกรดฟรีใน 29 กรกฎาคมไปแล้วครับ ที่มา - Microsoft Accessibility Blog via Windows Central, MSPoweruser   ", 
  "Date": "3/July/2016", 
  "Image-Link": [
    "https://www.blognone.com/sites/default/files/styles/thumbnail/public/topics-images/Windows_logo_Cyan_rgb_D.png?itok=bKOyx4bD", 
    "/sites/all/themes/blognone42/images/linebutton.png"
  ], 
  "Link": "https://www.blognone.com/node/82953", 
  "News": "ไมโครซอฟท์เผยรายละเอียดฟังก์ชั่นช่วยเหลือผู้พิการบน Windows 10 Anniversary Update", 
  "Tags": [
    "Windows 10", 
    "Microsoft", 
    "Accessibility"
  ], 
  "Time": "23:26"
}