{
  "By": "tekkasit", 
  "Contents": " หลังจากสี่ปีก่อนที่อเมซอนเปิดตัว Kindle Touch ซึ่งเป็นคินเดิลรุ่นสุดท้ายที่ยังมีฟีเจอร์อ่านออกเสียง นับแต่นั้นเป็นต้นมาอเมซอนก็เดินหน้าตัดช่องเสียบหูฟัง ตัดลำโพงออก และตัดฟีเจอร์อ่านออกเสียงออก (Text-to-Speech) หลังจากนั้นก็เดินหน้าขายหนังสือเสียงผ่าน Audible เต็มที่ ทำให้ผู้ที่มีปัญหาทางสายตาไม่มีทางเลือกมากนักในการใช้งานอุปกรณ์คินเดิล มาวันนี้อเมซอนเริ่มเปลี่ยนท่าที กลับมาให้ทางเลือกอ่านออกเสียงให้อุปกรณ์สายคินเดิลอีกครั้งใน Paperwhite รุ่นล่าสุด (รุ่นสาม) แล้วครับ อเมซอนเปิดฟีเจอร์ VoiceView for Kindle ที่เป็นบริการการเข้าถึงที่ช่วยผู้ใช้ที่พิการทางสายตาหรือมีปัญหาในการมองเห็นให้สามารถใช้งานอุปกรณ์ได้ เดิมมีเฉพาะตระกูล Kindle Fire เท่านั้น ให้กับ Kindle Paperwhite และวางจำหน่ายชุด Kindle Paperwhite พร้อมกับ Kindle Audio Adapter ในราคารวม 139.98 เหรียญสหรัฐ ซึ่งแพงกว่า Paperwhite 19.99 เหรียญแต่ก็ให้เครดิตคืน 19.99 เหรียญในบัญชี ทำให้เสมือนผู้ซื้อไม่ต้องจ่ายเงินเพิ่มขึ้นเลย เวลาใช้งาน Kindle Audio Adapter ให้เสียบช่อง micro USB คินเดิลก็จะสลับเข้าโหมดบริการการเข้าถึง (VoiceView) ทันที โดยสามารถอ่านต่อเนื่องได้ 6 ชั่วโมงโดยใช้ไฟเลี้ยงจาก Paperwhite เพียงอย่างเดียว ส่วนในเรื่องคุณภาพเสียง ทางอเมซอนโฆษณาว่า VoiceView for Kindle ไม่ได้ใช้เสียงสังเคราะห์ที่เหมือนหุ่นยนต์เหมือนคินเดิลรุ่นก่อนๆ แต่ใช้เสียง IVONA ซึ่งมีความเป็นธรรมชาติอย่างมาก ส่วนใครที่ซื้อคินเดิลรุ่นอื่นไปแล้วอาจต้องกลั้นใจรอต่อไป ว่าเมื่อไรที่อเมซอนจะขยายให้คินเดิลรุ่นอื่นสนับสนุนการทำงานร่วมกับอุปกรณ์เสริมตัวนี้ได้ และจะแยกขาย Kindle Audio Adapter เมื่อไร มีคนตาดีเจอว่าอเมซอนแยกขาย Kindle Audio Adapter แล้วครับ ที่มา: The Kindle Chronicles, Amazon   ", 
  "Date": "11/May/2016", 
  "Image-Link": [
    "https://www.blognone.com/sites/default/files/styles/thumbnail/public/news-thumbnails/61SJIv5OWjL._SL1000_.jpg?itok=m0NcO5GF", 
    "/sites/all/themes/blognone42/images/linebutton.png"
  ], 
  "Link": "https://www.blognone.com/node/80862", 
  "News": "Kindle Audio Adapter คินเดิลกลับมาอ่านหนังสือให้กับผู้พิการฟังได้แล้ว", 
  "Tags": [
    "Kindle Paperwhite", 
    "Text-to-Speech", 
    "E-book", 
    "Accessibility"
  ], 
  "Time": "23:34"
}