{
  "By": "sunnywalker", 
  "Contents": " สำนักข่าวซินหัวรายงานว่า จีนได้หัวหน้าทางหน่วยงานไซเบอร์คนใหม่แล้วคือ Xu Lin ผู้ซึ่งได้รับการคาดหวังว่าจะดำเนินการการควบคุมอินเทอร์เน็ตไปพร้อมกับพรรคคอมมิวนิสต์ นอกจากนี้ สำนักข่าว South China Morning Post ยังอธิบายเกี่ยวกับ Xu Lin ว่า เป็นพันธมิตรที่ใกล้ชิดและเป็นผู้สนับสนุนหลักของประธานาธิบดีสีจิ้นผิง Xu Lin ยังมีบทบาทสำคัญในหน่วยงานที่รับผิดชอบเรื่อง great firewall ที่ใช้ควบคุมการใช้อินเทอร์เน็ตของคนจีนทุกวันนี้ด้วย แต่จนถึงตอนนี้ยังไม่มีข้อความอย่างเป็นทางการจากรัฐบาลจีนเรื่องเปลี่ยนหัวหน้าหน่วยไซเบอร์อย่างกะทันหัน และดูเหมือน Lu Wei จะยังมีตำแหน่งในฐานะหัวหน้าฝ่ายประชาสัมพันธ์กลางของพรรคอยู่ ที่มา - The Register   ", 
  "Date": "30/June/2016", 
  "Image-Link": [
    "https://www.blognone.com/sites/default/files/styles/thumbnail/public/topics-images/china.png?itok=DbpIQN62", 
    "/sites/all/themes/blognone42/images/linebutton.png"
  ], 
  "Link": "https://www.blognone.com/node/82862", 
  "News": "จีนเปลี่ยนหัวหน้าหน่วยงาน Cyberspace เป็นคนใกล้ชิดของสีจิ้นผิง", 
  "Tags": [
    "China", 
    "Politics"
  ], 
  "Time": "23:35"
}