{
  "By": "Lamicrosz", 
  "Contents": " ไมโครซอฟท์ประกาศเพิ่มฟีเจอร์ใหม่ให้กับ Microsoft Band คือ Explore Tile ที่เป็นไปตามข่าวลือก่อนหน้า และอื่นๆ ดังนี้  กำหนดจุดที่น่าสนใจในการเดินทาง (points of interest) เก็บข้อมูลในการเดินทางของเราด้วย GPS ที่มีในเครื่อง สามารถเก็บข้อมูลด้วย GPS ได้มากกว่า 12 ชั่วโมง ซิงค์ข้อมูลกับโทรศัพท์และเปิดดูได้ด้วยแอพ Microsoft Health ระบบหยุดการเก็บข้อมูลให้อัตโนมัติ เมื่อเรานั่งพัก ปรับเสียงและข้ามเพลงได้เลย ผ่านตัวสายรัด ตัววัดค่ารังสี UV  นอกจากนี้ไมโครซอฟท์ยังได้ปล่อยแอพ Microsoft Health สำหรับพีซีและแท็บเล็ตแล้ว โดยสามารถเชื่อมต่อข้อมูลได้เองผ่านสาย USB รวมไปถึงการปรับแต่งต่างๆ และการอัพเดตเฟิร์มแวร์ ส่วนในตัวแอพได้เพิ่มระบบตารางอันดับจำนวนก้าวและอัตราการเต้นของหัวใจ เพื่อการแข่งขันกับเพื่อน ที่มา - Microsoft Devices Blog   ", 
  "Date": "17/May/2016", 
  "Image-Link": [
    "https://www.blognone.com/sites/default/files/styles/thumbnail/public/topics-images/ms-band.png?itok=tPmQmPJY", 
    "/sites/all/themes/blognone42/images/linebutton.png"
  ], 
  "Link": "https://www.blognone.com/node/81111", 
  "News": "ไมโครซอฟท์ออกอัพเดต Microsoft Band เพิ่ม Explore Tile เอาใจนักเดินป่า", 
  "Tags": [
    "Microsoft Band", 
    "Microsoft"
  ], 
  "Time": "23:48"
}