{
  "By": "mk", 
  "Contents": " Skype มีไคลเอนต์บนลินุกซ์มานานมาก แต่ความสามารถด้อยกว่าบนแพลตฟอร์มอื่นๆ พอสมควร วันนี้สถานการณ์เปลี่ยนไปแล้ว เพราะ Skype เปิดตัวไคลเอนต์สำหรับลินุกซ์ตัวใหม่ (ใช้ชื่อว่า Skype for Linux Alpha) ที่มีหน้าตาและความสามารถใกล้เคียงกับแพลตฟอร์มอื่นขึ้นมาก Skype for Linux มี UI แบบเดียวกับบนพีซี, ทำงานได้รวดเร็ว รองรับการแชร์ไฟล์ ภาพ วิดีโอ emoji และใช้ระบบโทรศัพท์-วิดีโอคอลล์บนสถาปัตยกรรมใหม่ของ Skype โดยตรง สามารถใช้สนทนากับ Skype เวอร์ชันอื่นๆ ได้ ยกเว้น Skype ตัวเก่าบนลินุกซ์ที่ยังใช้สถาปัตยกรรมเดิม Skype บอกว่าตอนนี้สถานะของไคลเอนต์ยังเป็นรุ่น Alpha ใครสนใจทดสอบเข้าไปดาวน์โหลดได้ที่ Skype Community มีเป็นแพ็กเกจทั้ง .deb และ .rpm ให้เลือก  นอกจากนี้ Skype ยังเอาใจผู้ใช้ Chromebook และ Chrome บนลินุกซ์ โดยปรับปรุง Skype for Web ให้รองรับการโทรศัพท์ผ่าน WebRTC จากเบราว์เซอร์ได้โดยตรง สถานะของฟีเจอร์นี้ยังอยู่ในรุ่น Alpha เช่นกัน ที่มา - Skype   ", 
  "Date": "14/July/2016", 
  "Image-Link": [
    "https://www.blognone.com/sites/default/files/styles/thumbnail/public/topics-images/skype.png?itok=scEYk_7O", 
    "https://i.imgur.com/Lw8DYb8.jpg", 
    "/sites/all/themes/blognone42/images/linebutton.png"
  ], 
  "Link": "https://www.blognone.com/node/83413", 
  "News": "Skype for Linux เปิดตัวเวอร์ชันใหม่ หน้าตา-ฟีเจอร์เทียบเท่าบน OS ตัวอื่น", 
  "Tags": [
    "Skype", 
    "Linux", 
    "WebRTC"
  ], 
  "Time": "10:07"
}