{
  "By": "magnamonkun", 
  "Contents": " หลังจากที่ Electronics Extreme ให้ข้อมูลเซิร์ฟเวอร์ที่จะเปิดให้บริการใหม่มาได้ระยะหนึ่ง ในวันนี้ การทดสอบรอบ Close Beta ก็ได้เริ่มขึ้นเป็นที่เรียบร้อยแล้ว การทดสอบในรอบนี้จะทดสอบกันจนถึงวันอาทิตย์ที่ 10 กรกฎาคม หลังจากนั้นทาง Electronics Extreme จะนำปัญหาที่พบไปแก้ไขเพื่อปรับปรุงตัวเกมให้พร้อมก่อนเปิดให้บริการจริงในรอบ Open Beta Test ต่อไปภายในเดือนนี้ สำหรับตัวเกม Episode Revo Classic ที่เปิดให้บริการในรอบนี้จะใช้ตัวเกมเวอร์ชัน 13.0 (Class 3) มาให้บริการ โดยปรับในส่วนรายละเอียดให้กลับไปเป็นเวอร์ชันเก่าตามที่บริษัทได้แจ้งไว้ก่อนหน้านี้ และใน Episode Revo Classic จะมีเซิร์ฟเวอร์ให้บริการทั้งหมดสองเซิร์ฟเวอร์ คือเซิร์ฟเวอร์โลกิ (Loki) และเซิร์ฟเวอร์ทอร์ (Thor) ในขณะที่เซิร์ฟเวอร์รวมจากทาง Asiasoft ทางบริษัทจะพร้อมให้บริการในอีก 3 เดือนนับจากนี้ โดยที่ผู้เล่นจะสามารถนำของติดตัวมาที่เซิร์ฟเวอร์ใหม่ได้ดังนี้  อนุญาตให้มีการ์ดบอสและ Sealed Card ทั้งที่สวมใส่ในไอเท็มแล้ว และยังไม่ได้สวมใส่ สูงสุดไม่เกิน 4 ใบต่อ 1`ID เกินจากนี้ลบออกจากระบบทั้งหมด ตัวอย่างเช่นมีไอเท็ม +10 Club ใส่การ์ด MasterSmith Card, Stormy Knight Card, Stormy Knight Card, Memory of Thanatos Card เคสนี้จะนับเป็น 4 ใบ อนุญาตให้มี Godly Items 1 ชิ้น/ID เกินจากนี้ลบออกจากระบบทั้งหมด เงิน Zeny ทั้งหมด, ไอเท็มทั่วไปที่สามารถขายคืน NPC ได้ในราคาสูง เช่น Witherless Rose, Crystal Mirror, 17carat Diamond ถูกลบออกทั้งหมด 1ID สามารถเชื่อมได้เพียง 1 เซิร์ฟเวอร์เก่าเท่านั้น กรณีเล่นมากกว่า 1 เซิร์ฟเวอร์ ต้องใช้ EXE ID ตามจำนวนเซิร์ฟเวอร์ที่เล่น สูงสุดไม่เกิน 3 ID/1 เลขบัตรประจำตัวประชาชน ข้อมูลทั้งหมด ยึดข้อมูลสุดท้าย ณ วันที่ 30 มิถุนายน พ.ศ. 2559 เวลา 23.59 น. (เวลาปิดให้บริการของ Asiasoft)  ทั้งนี้ทาง Electronics Extreme จะแจ้งรายละเอียดการเชื่อมโยง ID อีกครั้งหลังจากที่ได้รับข้อมูลจากทาง Gravity เป็นที่เรียบร้อยครับ ที่มา - Electronics Extreme (1, 2)    ", 
  "Date": "8/July/2016", 
  "Image-Link": [
    "https://www.blognone.com/sites/default/files/styles/thumbnail/public/topics-images/RO_icon_file.png?itok=1SEcSJvl", 
    "//upic.me/i/mi/screenloki000.jpg", 
    "/sites/all/themes/blognone42/images/linebutton.png"
  ], 
  "Link": "https://www.blognone.com/node/83177", 
  "News": "Ragnarok Online ให้บริการรอบ Closed Beta วันนี้ เซิร์ฟเวอร์รวมพร้อมเปิดอีก 3 เดือน", 
  "Tags": [
    "Ragnarok Online", 
    "Games", 
    "Thailand", 
    "MMORPG"
  ], 
  "Time": "17:32"
}