{
  "By": "nutmos", 
  "Contents": " Spotify ได้เปิดเผยตัวเลขผู้ใช้รอบใหม่ ซึ่งรอบนี้บอกว่าจำนวนผู้ใช้บริการต่อเดือน (monthly active user) ได้เติบโตขึ้นเรื่อย ๆ และตอนนี้ก็ถึง 100 ล้านคนแล้ว เพิ่มจากการประกาศในรอบที่แล้วที่ 75 ล้านคน ผลงานของ Spotify นั้นถือว่ายังคงทำได้ดี เนื่องจากบริการนี้ได้พยายามเปิดทางเข้าสู่ตลาดใหม่ ๆ มากขึ้น แม้ว่าทาง Spotify จะมีคู่แข่งอย่าง Apple Music หรือ Google Music ก็ตาม ส่วนยอดผู้ใช้แบบจ่ายเงินของ Spotify นั้นก็ยังถือว่ามากที่สุดในอุตสาหกรรมการฟังเพลงแบบสตรีมมิ่งเช่นกัน คือมีจำนวนถึง 30 ล้านคน แต่ก็ยังถือว่าน้อยอยู่เมื่อเทียบกับผู้ใช้ที่ฟังแบบฟรีมีโฆษณา ที่มา - Reuters   ", 
  "Date": "21/June/2016", 
  "Image-Link": [
    "https://www.blognone.com/sites/default/files/styles/thumbnail/public/topics-images/spotify500.png?itok=skNKsnYA", 
    "/sites/all/themes/blognone42/images/linebutton.png"
  ], 
  "Link": "https://www.blognone.com/node/82490", 
  "News": "Spotify เผยยอดผู้ใช้ต่อเดือนถึง 100 ล้านคนแล้ว", 
  "Tags": [
    "Spotify", 
    "Music Streaming"
  ], 
  "Time": "09:28"
}