{
  "By": "twometre", 
  "Contents": " คนที่ศีลเสมอกันมักไปด้วยกันได้ ถ้ามีรสนิยมคล้ายกันก็เช่นกัน แอพหาคู่อีกรายนามว่า Bumble สามารถผู้บัญชีผู้ใช้ของตนเข้ากับ Spotify ให้ผู้ใช้อีกฝ่ายที่กำลังค้นหาได้ล่วงรู้รสนิยมการฟังเพลงของผู้ใช้ด้วย คุณสมบัตินี้จะเปิดใช้งานในสัปดาห์หน้าครับ ทว่า ทั้งสองแอพนี้ยังไม่เข้าไทยอย่างเป็นทางการเลย เพิ่มเติม: Bumble คือแอพหาคู่แนวคิดคล้าย Tinder ด้วยการปัดขวาแสดงความถูกใจ โดยเลือกคู่ที่น่าจะเป็นไปได้จากความสนใจร่วมกัน และเปิดโอกาสให้สุภาพสตรีเดินเกม หากสุภาพบุรุษทักมาแต่สุภาพสตรีไม่ตอบกลับ การจับคู่นั้นจะหายไปภายใน 24 ชั่วโมง ส่วนการหาคู่เพศเดียวกันหรือความสัมพันธ์แบบเพื่อน ต่างฝ่ายต่างเปิดเกมก่อนได้ และกฎของแอพคือต้องใช้ภาพจริงของตนเองเท่านั้น ที่มา - Bumble     ", 
  "Date": "16/June/2016", 
  "Image-Link": [
    "https://www.blognone.com/sites/default/files/styles/thumbnail/public/news-thumbnails/logo_huge.1.png?itok=P2fe_kfM", 
    "//upic.me/i/x7/spotify-bumble-796x398.png", 
    "//upic.me/i/w6/bumble-640.png", 
    "/sites/all/themes/blognone42/images/linebutton.png"
  ], 
  "Link": "https://www.blognone.com/node/82345", 
  "News": "หาคู่ชีวิตจากรสนิยมการฟังเพลง เมื่อแอพ Bumble ทำงานร่วมกับ Spotify", 
  "Tags": [
    "Spotify", 
    "Love"
  ], 
  "Time": "19:32"
}