{
  "By": "mk", 
  "Contents": " ต่อจากข่าว เกม No Man’s Sky ประกาศเลื่อนวันจำหน่าย จากเดือนมิถุนายนเป็นเดือนสิงหาคม ปรากฏว่ามีแฟนเกมที่ไม่พอใจจำนวนหนึ่ง ส่งคำขู่ฆ่าไปยัง Sean Murray ผู้สร้างเกมนี้ด้วย (แต่เจ้าตัวก็ดูจะขำๆ โดยบอกว่าสำนักงานของ Hello Games จะวางกับดักเอาไว้เหมือนภาพยนตร์เรื่อง Home Alone) นอกจากนี้ Jason Schreier นักเขียนของเว็บไซต์ Gizmodo ที่รายงานข่าวการดีเลย์เป็นคนแรก ก็ได้รับข้อความข่มขู่ทาง Twitter ด้วยอีกคน สำหรับคนที่ไม่ได้ติดตาม เกม No Man's Sky เป็นเกมแบบ open world ท่องอวกาศ โดยเกมจะสร้างจักรวาลขนาดใหญ่ขึ้นมาใหม่หมดด้วยอัลกอริทึม (procedural generation) ด้วยแนวคิดแหวกแนวแต่ดูยิ่งใหญ่แบบนี้ ส่งผลให้เกมถูกจับตามองเป็นอย่างมากครับ (ลง PS4 และพีซี) ที่มา - Polygon I have received loads of death threats this week, but don't worry, Hello Games now looks like the house from Home Alone #pillowfort — Sean Murray (@NoMansSky) May 28, 2016 What it's like to write about video games on the internet: pic.twitter.com/a4yRcGMbsA — Jason Schreier (@jasonschreier) May 27, 2016   ", 
  "Date": "30/May/2016", 
  "Image-Link": [
    "https://www.blognone.com/sites/default/files/styles/thumbnail/public/topics-images/nomanssky.jpeg?itok=p-E8-QpB", 
    "/sites/all/themes/blognone42/images/linebutton.png"
  ], 
  "Link": "https://www.blognone.com/node/81619", 
  "News": "ผู้สร้างเกม No Man's Sky ถูกขู่ฆ่า หลังประกาศเลื่อนวันวางขายเกม", 
  "Tags": [
    "No Man's Sky", 
    "Games"
  ], 
  "Time": "21:42"
}