{
  "By": "Lamicrosz", 
  "Contents": " บริษัท Gole จากประเทศจีน เปิดระดมทุน Gole1 พีซีขนาด 5 นิ้วที่ใช้งานได้ทั้ง Windows 10 และ Android 5.1 บนเว็บไซต์ Indiegogo คาดว่าจะส่งสินค้าได้ภายในเดือนกรกฎาคม สเปค  ระบบปฏิบัติการ: Windows 10 Home และ Android 5.1 หน้าจอ: 5 นิ้ว ความละเอียด 1280x720 พิกเซล หน่วยประมวลผล: Intel Atom Z8300 ควอดคอร์ แรม: 2 และ 4 GB พื้นที่ความจุ: 32 และ 64 GB รองรับ Micro SD สูงสุด 64 GB พอร์ต: USB 2.0 x 3, USB 3.0 x 1, HDMI, Ethernet แบตเตอรี่: 2600 mAh รองรับการชาร์จไฟด้วยช่อง Micro USB น้ำหนัก: 200 กรัม หนา: 20 มิลลิเมตร รองรับ Bluetooth 4.0 และ Wi-Fi b/g/n/ac  ราคาเริ่มต้นที่ 79 ดอลลาร์สหรัฐฯ (ประมาณ 2,823 บาท) ตอนนี้ยอดระดมทุนไปถึง 90,000 ดอลลาร์แล้ว จากยอดเดิมที่ตั้งไว้ 30,000 ดอลลาร์ ผู้ที่สนใจสามารถไปดูรายละเอียดเพิ่มได้ที่เว็บไซต์ Indiegogo ที่มา - Indiegogo via Windows Central      ", 
  "Date": "29/May/2016", 
  "Image-Link": [
    "https://www.blognone.com/sites/default/files/styles/thumbnail/public/topics-images/Windows_logo_Cyan_rgb_D.png?itok=bKOyx4bD", 
    "http://i.imgur.com/PZYD3qx.jpg", 
    "http://i.imgur.com/KzlqOXv.jpg", 
    "http://i.imgur.com/rtY0xLo.jpg", 
    "/sites/all/themes/blognone42/images/linebutton.png"
  ], 
  "Link": "https://www.blognone.com/node/81555", 
  "News": "Gole1 พีซี 5 นิ้ว ที่ใช้งานได้ทั้ง Windows 10 และ Android", 
  "Tags": [
    "Windows 10", 
    "Android", 
    "All-in-One"
  ], 
  "Time": "00:34"
}