{
  "By": "mk", 
  "Contents": " คนที่อยากติดตามการผจญภัยของ Cloud และผองเพื่อนบน Android สามารถจับจองเป็นเจ้าของเกมได้แล้ว คล้อยหลังเกมเวอร์ชัน iOS ที่ออกเมื่อเกือบ 1 ปีก่อนหน้านี้ เกมวางขายราคา 15.99 ดอลลาร์ หรือ 559 บาทใน Google Play Store ของประเทศไทย เกมมีขนาดประมาณ 2GB แต่ต้องใช้พื้นที่ว่างประมาณ 4GB ในการติดตั้ง และระบบปฏิบัติการต้องเป็น Android 4.3 ขึ้นไป บนเว็บของ Square Enix Japan มีรายชื่ออุปกรณ์ Android ที่ทดสอบกับเกมแล้ว ซึ่งมีไม่เยอะนัก ใครสนใจลองดูรายชื่อประกอบการพิจารณาซื้อเกมก่อนได้ครับ ที่มา - 9to5google    ", 
  "Date": "9/July/2016", 
  "Image-Link": [
    "https://www.blognone.com/sites/default/files/styles/thumbnail/public/news-thumbnails/ff7.png?itok=lxKlb11q", 
    "https://i.imgur.com/dUlIsVZ.jpg", 
    "/sites/all/themes/blognone42/images/linebutton.png"
  ], 
  "Link": "https://www.blognone.com/node/83203", 
  "News": "Final Fantasy VII ลง Android แล้ว ตั้งราคา 559 บาท", 
  "Tags": [
    "Final Fantasy", 
    "Games", 
    "Android", 
    "Square Enix"
  ], 
  "Time": "07:55"
}