{
  "By": "magnamonkun", 
  "Contents": " ในรอบปีที่ผ่านมาเราเห็น Square Enix ประกาศรีเมค/รีมาสเตอร์เกมตระกูล Final Fantasy กันหลายภาค ไม่ว่าจะเป็น Final Fantasy VII, Final Fantasy Adventure และ Final Fantasy XI ที่ทำร่วมกับ Nexon ล่าสุดในวันนี้ก็มีอีกหนึ่งภาคที่ประกาศรีมาสเตอร์อีกเช่นกัน ซึ่งนั่นก็คือ Final Fantasy XII ที่มาในชื่อใหม่เอี่ยม Final Fantasy XII: The Zodiac Age รายละเอียดเบื้องต้นคือเกมนี้จะเป็นการนำเกม Final Fantasy XII และ Final Fantasy XII: International Zodiac Job System ซึ่งเป็นเกมตัวสุดท้ายของเครื่อง PlayStation 2 มาลง PlayStation 4 ทั้งหมด โดยจะมีการปรับปรุงงานกราฟิกให้เข้ากับเครื่องรุ่นปัจจุบัน ปรับปรุงระบบตัวเกมใหม่ และเพิ่มเติมในส่วนเนื้อเรื่องที่ยังขาดหายไปเป็นการเพิ่มเติม เบื้องต้น Square Enix ระบุว่าเกมนี้จะลงให้กับ PlayStation 4 เครื่องเดียวในปี 2017 ก่อน (Xbox One ยังไม่ยืนยัน) รายละเอียดอื่นๆ คาดว่าในงาน E3 สัปดาห์หนัา ทาง Square Enix น่าจะออกมาให้ข้อมูลเพิ่มเติมครับ ที่มา - Gematsu    ", 
  "Date": "6/June/2016", 
  "Image-Link": [
    "https://www.blognone.com/sites/default/files/styles/thumbnail/public/topics-images/final-fantasy.png?itok=J1HjXnRX", 
    "//upic.me/i/am/thezodiacage.jpg", 
    "/sites/all/themes/blognone42/images/linebutton.png"
  ], 
  "Link": "https://www.blognone.com/node/81914", 
  "News": "Square Enix ประกาศรีมาสเตอร์ FFXII ลง PS4 ในชื่อ \"Final Fantasy XII: The Zodiac Age\"", 
  "Tags": [
    "Final Fantasy", 
    "Square Enix", 
    "Games", 
    "PS4"
  ], 
  "Time": "17:18"
}