{
  "By": "lew", 
  "Contents": " John Wetter อาสาสมัครของ The National Museum of Computing at Bletchley Park พิพิธภัณฑ์ที่รวบรวมอุปกรณ์เข้ารหัสสมัยสงครามโลกเอาไว้จำนวนมาก ระบุว่าเพื่อนของเขาเจอโพสต์บน eBay ขายเครื่องโทรเลขในราคา 9.5 ปอนด์ เขาและเพื่อนคิดว่าที่จริงแล้วมันคือเครื่องพิมพ์ข้อความ (teleprinter) สำหรับเครื่องเข้ารหัส Lorenz SZ42 เขาจึงขับรถไปยังบ้านหญิงที่โพสต์ประกาศเพื่อขอซื้อโดยตรงใน Essex หญิงเจ้าของเครื่องยืนยันว่าราคาขายอยู่ที่ 9.5 ปอนด์ Wetter จึงจ่ายไป 10 ปอนด์โดยระบุว่า \"ไม่ต้องทอน\" การค้นพบครั้งนี้เป็นการรวบรวมชิ้นส่วนหายากของเครื่อง Lorenz SZ42 ครั้งสำคัญ เพราะเครื่องเข้ารหัสนี้ถูกใช้เข้ารหัสสำหรับสื่อสารระหว่าง German High Command ในช่วงยุคฮิตเลอร์เพราะเชื่อว่ามันถอดรหัสไม่ได้ แต่ไม่ได้ใช้งานในวงกว้างเช่น Enigma เพราะเครื่องมีขนาดใหญ่ จนตอนนี้ทั้งโลกมีเครื่อง Lorenz SZ42 อยู่รอดเพียงสี่เครื่องเท่านั้น และเครื่องหนึ่งที่อังกฤษยืมมาจากพิพิธภัณฑ์ทางทหารของนอร์เวย์ก็ไม่มีมอเตอร์ ระหว่างนี้ทางอังกฤษกำลังหาทางทำให้เครื่องใช้งานได้ โดยต้องใช้มอเตอร์ MWM 608/42 จากบริษัท Lorenz หรือไม่ก็สร้างมอเตอร์ขึ้นใหม่ที่ทำงานได้เหมือนกัน การถอดมอเตอร์จาก teleprinter ก็เป็นทางเลือกหนึ่ง ที่มา - BBC, The National Museum of Computing  For clarification: teleprinter found in Essex. Lorenz SZ42 encryption machine on long loan from Norwegian Armed Forces Museum. — TNMOC (@tnmoc) May 29, 2016   ", 
  "Date": "30/May/2016", 
  "Image-Link": [
    "https://www.blognone.com/sites/default/files/styles/thumbnail/public/topics-images/1280px-Flag_of_the_United_Kingdom.svg_.png?itok=uzQi5eG9", 
    "//upic.me/i/m7/jr-hex10_0.jpg", 
    "/sites/all/themes/blognone42/images/linebutton.png"
  ], 
  "Link": "https://www.blognone.com/node/81585", 
  "News": "ชิ้นส่วนเครื่องเข้ารหัสสมัยสงครามโลกถูกขายบน eBay ราคา 9.5 ปอนด์", 
  "Tags": [
    "United Kingdom", 
    "Cryptography"
  ], 
  "Time": "01:43"
}