{
  "By": "Lamicrosz", 
  "Contents": " ไมโครซอฟท์เผยว่า ทางบริษัทกำลังพัฒนาแอพใหม่สำหรับภาคการศึกษา ที่มีชื่อว่า Whiteboard ซึ่งเปิดให้สร้าง, สำรวจและแบ่งปันไอเดียด้วยกัน ฟีเจอร์คร่าวๆ มี ดังนี้  รองรับการเขียนด้วยปากกา และ/หรือ นิ้วมือ ได้พร้อมกัน ระบบช่วยวิเคราะห์ลายมือและรูปทรงเรขาคณิต รองรับการนำเนื้อหาอื่นๆ อย่างวิดีโอหรือภาพ มาแทรกลงหน้ากระดานได้ รองรับการทำงานร่วมกันแบบ real time ผ่าน OneNote Class Notebook และการมอบหมายและควบคุมงานผ่านระบบ Microsoft Classroom  ตัวแอพจะออกมาให้ใช้งานภายในปีนี้ ดาวน์โหลดได้ผ่าน Windows Store ที่มา - Microsoft TechNet    ", 
  "Date": "1/July/2016", 
  "Image-Link": [
    "https://www.blognone.com/sites/default/files/styles/thumbnail/public/topics-images/MSFT_logo_rgb_C-Gray.png?itok=j3hJhqua", 
    "http://i.imgur.com/8jPC7aJ.png", 
    "/sites/all/themes/blognone42/images/linebutton.png"
  ], 
  "Link": "https://www.blognone.com/node/82919", 
  "News": "Whiteboard แอพสำหรับการเรียนการสอนจากทางไมโครซอฟท์", 
  "Tags": [
    "Microsoft", 
    "Windows 10", 
    "App", 
    "Education"
  ], 
  "Time": "22:23"
}