{
  "By": "mk", 
  "Contents": " ช่วงนี้เราเห็นข่าวความร่วมมือระหว่างบริษัทไอทีกับบริษัทรถยนต์ออกมาเรื่อยๆ รายล่าสุดคือ LG Electronics ประกาศจับมือ Volkswagen Group ของเยอรมนี ร่วมกันพัฒนารถยนต์ที่เชื่อมต่อเน็ตได้ (connected car) จุดสำคัญของความร่วมมือนี้คือการทำงานร่วมกันระหว่างรถยนต์ต่อเน็ตของ Volkswagen กับบ้านอัจฉริยะของ LG เพื่อให้เจ้าของรถสามารถควบคุมอุปกรณ์ต่างๆ ในบ้านได้ระหว่างขับขี่ ทั้งสองบริษัทเคยร่วมกันพัฒนารถยนต์ต้นแบบมาก่อนแล้วในปี 2015 ที่มา - Volkswagen, ภาพจาก VW.com    ", 
  "Date": "8/July/2016", 
  "Image-Link": [
    "https://www.blognone.com/sites/default/files/styles/thumbnail/public/topics-images/vw.png?itok=QTb39oFM", 
    "https://i.imgur.com/38rtcrb.jpg", 
    "/sites/all/themes/blognone42/images/linebutton.png"
  ], 
  "Link": "https://www.blognone.com/node/83181", 
  "News": "LG จับมือ Volkswagen พัฒนาวิธีเชื่อมต่อระหว่างรถอัจฉริยะ-บ้านอัจฉริยะ", 
  "Tags": [
    "Volkswagen", 
    "LG", 
    "Smart Home", 
    "Automobile"
  ], 
  "Time": "19:58"
}