{
  "By": "twometre", 
  "Contents": "
อาจจะยังไม่เท่เหมือน Yeezy หรือ NMD ในตอนนี้ แต่รองเท้า AlphaBounce ของ Adidas คู่นี้ ใช้เทคนิค motion capture  ชื่อ ARAMIS ในการออกแบบ จำลองการก้าวย่างจากการถ่ายภาพทีละช็อตขณะใช้งานจริง เมื่อเท้ากดลงไปบนรองเท้า กล้องรอบๆ จะจำลองแรงกดเค้นของเท้าแต่ละส่วนด้วยครับ เริ่มจำหน่ายแล้วในราคา 100 เหรียญสหรัฐฯ (ประมาณ 3,500 บาท) เข้ามาดูรองเท้าคู่นี้ด้านในครับ
ที่มา - Engadget


 ", 
  "Date": "18/June/2016", 
  "Image-Link": "https://www.blognone.com/sites/default/files/badges/badge-writer.png", 
  "Link": "https://www.blognone.com/node/82396", 
  "News": "Adidas โชว์รองเท้าวิ่ง AlphaBounce ออกแบบด้วยเทคนิค motion capture", 
  "Tags": [
    "Adidas", 
    "Shoe", 
    "Running", 
    "Motion Capture"
  ], 
  "Time": "06:28"
}