{
  "By": "nrad6949", 
  "Contents": "
เมื่อวันพฤหัสบดีที่ผ่านมา Jide Tech บริษัทที่ทำ Remix OS ก่อตั้งโดยอดีตพนักงานของ Google จากประเทศจีน แถลงเปิดตัว Remix Pro แท็บเล็ตตัวใหม่แทน Ultratablet ที่เปิดตัวไปเมื่อต้นปีที่แล้ว และประกาศความร่วมมือกับ Acer ออกโน้ตบุ๊กที่ติดตั้งระบบปฏิบัติการ Remix OS มาตั้งแต่ต้น
สำหรับ Remix Pro เป็นแท็บเล็ตสไตล์เดียวกับ Samsung Galaxy TabPro S คือใช้ตัวเคสเป็นขาตั้ง (แบบเดิมขาตั้งเป็นส่วนหนึ่งของตัวเครื่องแบบเดียวกับ Surface) หน้าจอขนาด 12 นิ้วที่ความละเอียด 2,160 x 1,440 พิกเซล หน่วยประมวลผลกลางเป็น Qualcomm Snapdragon 652 ทำงานแปดแกนประมวลผล แรม 3 GB และพื้นที่เก็บข้อมูลแบบ eMMC ขนาด 32 GB พร้อมช่องใส่ microSD กล้องหน้า 5 เมกะพิกเซล กล้องหลัง 8 เมกะพิกเซล พร้อมแบต 9,000 mAh และ Wi-Fi รวมถึง Bluetooth ทั้งหมดหนัก 1.4 ปอนด์ (ประมาณ 630 กรัม) มาพร้อม Remix OS 3.0 ที่พัฒนาจาก Android 6.0 Marshmallow
นอกจากจะเปิดตัว Remix Pro แล้ว ยังแถลงร่วมมือกับ Acer เปิดตัว ES1-131 โน้ตบุ๊กตัวแรกที่ติดตั้ง Remix OS มาตั้งแต่ต้น หน้าจอขนาด 11.6 นิ้วที่ควาละเอียด 1,366 x 768 พิกเซล ใช้หน่วยประมวลผลกลางเป็น Intel Celeron N3150 แรม 4 GB และฮาร์ดดิสก์ 500 GB รวมไปถึงเปิดเผยสเปกแพลตฟอร์มสำหรับเครื่องตั้งโต๊ะแบบ Remix Mini PC (สเปคคล้ายๆ ASUS Chromebit) และคอมพิวเตอร์ของ AOC ที่เคยแถลงไปแล้วเมื่อเดือนพฤษภาคม
ผลิตภัณฑ์ทั้งหมดยังไม่ระบุว่าจะวางจำหน่ายเมื่อใด ยกเว้นกรณีของ Acer ES1-131 ที่ระบุชัดเจนว่าจะวางจำหน่ายจำนวนจำกัดในประเทศจีนเท่านั้น
ที่มา - Liliputing (1,2), Android Police
ภาพ Remix Pro จาก Android Police
 ", 
  "Date": "18/June/2016", 
  "Image-Link": "https://www.blognone.com/sites/default/files/badges/badge-writer.png", 
  "Link": "https://www.blognone.com/node/82403", 
  "News": "Jide เปิดตัว Remix Pro รุ่นใหม่พร้อม Remix OS 3.0, ร่วมมือ Acer ออกโน้ตบุ๊ก", 
  "Tags": [
    "Remix OS", 
    "Android", 
    "Acer", 
    "Tablet", 
    "China"
  ], 
  "Time": "11:21"
}