{
  "By": "trinakub", 
  "Contents": "
"Xbox Play Anywhere" คือโปรเจคที่ทาง Microsoft ได้ประกาศออกมาภายในงาน E3 ครั้งล่าสุดที่ผ่านมา ซึ่งเกม "Xbox Play Anywhere" ก็คือเกมที่เพียงแค่เราซื้อเกมบน Xbox One หรือ Windows 10 ก็จะได้รับของอีกแพลตฟอร์มไปฟรี ๆ นั่นก็คือซื้อแค่ครั้งเดียวก็สามารถเล่นได้บนทั้ง 2 เครื่อง และเกมดังกล่าวจะมีการแชร์ข้อมูลต่าง ๆ ระหว่างกันด้วย ซึ่งก็คือ ไฟล์ Save, Add-on, DLC และ Achievement
ล่าสุดนี้ทาง Microsoft ก็ได้ประกาศถึงรายชื่อเกมที่อยู่ในรายการ "Xbox Play Anywhere" ออกมาแล้ว
รายชื่อเกม Xbox Play Anywhere

Gear of War 4
Forza Horizon 3
ReCord
Sea of Thieves
Halo Wars 2
Scalebound
Killer Instinct Season 3
State of Decay 2
Ark: Survival Evolved
Cuphead
We Happy Few
Crackdown 3

ที่มา – www.xbox.com
 ", 
  "Date": "18/June/2016", 
  "Image-Link": "https://www.blognone.com/sites/default/files/badges/badge-contributer.png", 
  "Link": "https://www.blognone.com/node/82422", 
  "News": "Microsoft ประกาศรายชื่อเกม Xbox Play Anywhere ที่เล่นบนพีซีได้ด้วย", 
  "Tags": [
    "Xbox One", 
    "Games", 
    "Microsoft", 
    "Windows 10"
  ], 
  "Time": "23:39"
}