{
  "By": "trinakub", 
  "Contents": " ในเดือนเมษายนที่ผ่านมา ได้มีการประมูลสิทธิในการนำ Pokémon ไปสร้างเป็นภาพยนตร์ ซึ่งผลจากการที่ Pokémon Go ประสบความสำเร็จครั้งใหญ่นั้น ส่งผลให้การประมูลดุเดือดมากขึ้นเรื่อย ๆ จากรายงานของทาง deadline ดูเหมือนว่าทาง Hollywood จะแข่งขันกันหนักขึ้นเรื่อย ๆ ในการประมูลครั้งนี้ ซึ่งทาง Legandary Pictures ผู้สร้างหนัง The Hunger Games และ Warcraft ได้พยายามอย่างเต็มที่และรุกอย่างหนักหน่วง เพื่อให้ได้มาซึ่งสิทธิในการสร้างภาพยนตร์ Pokémon แต่ทาง Warner Bros. ผู้สร้างหนัง Harry Potter เองก็ไม่ยอมง่าย ๆ เช่นกัน ซึ่งทาง WB เองก็เคยมีประสบการณ์กับภาพยนตร์ Pokémon มาก่อนถึง 3 ภาคด้วยกัน [Pokémon: The First Movie (1999), Pokémon: The Movie 2000, Pokémon 3: The Movie (2001)] แต่หนัง Pokémon ที่จะสร้างในครั้งนี้จะไม่ใช่ Animation แต่อยู่ในรูปแบบของ Live-action แทน ณ ตอนนี้เองการประมูลก็ยังไม่สิ้นสุดลง ต้องติดตามกันต่อไปว่าสุดท้ายแล้ว ใครจะเป็นผู้ได้สิทธิในการสร้างหนังครั้งนี้ไป ที่มา – Gamespot    ", 
  "Date": "14/July/2016", 
  "Image-Link": [
    "https://www.blognone.com/sites/default/files/styles/thumbnail/public/topics-images/pokemon.png?itok=7HuOXT6S", 
    "http://i.imgur.com/fjalmer.jpg", 
    "/sites/all/themes/blognone42/images/linebutton.png"
  ], 
  "Link": "https://www.blognone.com/node/83406", 
  "News": "Hollywood แข่งขันดุเดือด แย่งชิงสิทธิในการสร้างภาพยนตร์คนแสดงจาก Pokémon", 
  "Tags": [
    "Pokemon", 
    "Games", 
    "Movie"
  ], 
  "Time": "01:27"
}