{
  "By": "nutmos", 
  "Contents": " Spotify ได้เผยว่าหลังจากที่เกม Pokemon Go ได้เปิดตัวให้ผู้ใช้ได้เล่นกันไปแล้ว ทำให้ความนิยมเพลง Pokemon ที่อยู่บน Spotify สูงขึ้นมากทั่วโลก ข้อมูลของ Spotify นี้เก็บสัปดาห์ที่ผ่านมา คือในช่วงวันที่ 3-10 กรกฎาคม (Pokemon Go เปิดให้ดาวน์โหลดวันที่ 6 กรกฎาคม) ก็พบว่าเพลงของ Pokemon โดยรวมมียอดการสตรีมมิ่งสูงขึ้นถึง 3 เท่าหลังจาก Pokemon Go เปิดตัว โดยเฉพาะเพลงธีม Gotta Catch 'Em All ที่สูงที่สุดถึง 362% ส่วน 5 อันดับของเพลงในหมวดของ Pokemon ที่ดังที่สุดใน Spotify ได้แก่ Pokemon Theme, Pokerap, Pokemon Johto, Go Pokemon Go และ I Want To Be A Hero และตอนนี้มีเพลย์ลิสต์ที่เป็นธีม Pokemon บนแพลตฟอร์ม Spotify แล้วทั้งหมด 197,000 เพลย์ลิสต์ ที่มา - VentureBeat   ", 
  "Date": "12/July/2016", 
  "Image-Link": [
    "https://www.blognone.com/sites/default/files/styles/thumbnail/public/topics-images/spotify500.png?itok=skNKsnYA", 
    "/sites/all/themes/blognone42/images/linebutton.png"
  ], 
  "Link": "https://www.blognone.com/node/83295", 
  "News": "Spotify เผยเพลง Pokemon มีความนิยมสูงขึ้น 3 เท่าหลัง Pokemon Go เปิดให้ดาวน์โหลด", 
  "Tags": [
    "Spotify", 
    "Pokemon"
  ], 
  "Time": "08:00"
}