{
  "By": "nismod", 
  "Contents": " ในฐานะที่ Pokemon Go กำลังฮิตกันทั่วบ้านทั่วเมือง ประกอบการรูปแบบของการเล่นที่ผู้เล่นต้องตระเวนไปตามพื้นที่ต่างๆ เพื่อจับโปเกมอน เก็บไอเท็มและต่อสู้ในยิม ในสหรัฐและแคนาดาจึงเริ่มเห็นการประกาศโฆษณา บริการขับรถตระเวนรอบเมืองเพื่อพาเหล่าเทรนเนอร์ไปจับโปเกมอนแทนการเดินบ้างแล้ว การบริการและราคาในแต่ละท้องที่อาจแตกต่างกันไปในรายละเอียด อย่างผู้ให้บริการรายหนึ่งในเมืองฮิวสตัน รัฐเท็กซัสระบุว่ามีการให้บริการฟรี Wi-Fi ในรถเพื่อประหยัดดาต้าของผู้โดยสารด้วย โดยคิดค่าบริการที่ 30 เหรียญ (ประมาณ 1,050 บาท) ต่อชั่วโมง แต่ก็มีโปรโมชันลดราคาสำหรับลูกค้าที่เลือกอยู่ทีมสีฟ้า (Mystic) ไม่เพียงแค่คนขับรถอิสระเท่านั้น บริการอย่าง Uber และ Lyft ก็ถูกเรียกใช้บริการเพื่อตามจับโปเกมอนในสถานที่ต่างๆ เช่นกัน ก็ไม่แน่ใจเหมือนกันว่าหากเกมนี้เข้าไทยแล้ว รถจักรยานยนต์รับจ้างอาจจะได้รับความนิยมเพิ่มขึ้นอีกเท่าตัวก็เป็นได้ ที่มา - Polygon   ", 
  "Date": "12/July/2016", 
  "Image-Link": [
    "https://www.blognone.com/sites/default/files/styles/thumbnail/public/topics-images/pokemon.png?itok=7HuOXT6S", 
    "/sites/all/themes/blognone42/images/linebutton.png"
  ], 
  "Link": "https://www.blognone.com/node/83323", 
  "News": "เปิดโลกธุรกิจใหม่ บริการขับรถพาผู้เล่นตระเวนจับ Pokemon รอบเมืองกำลังจะมา", 
  "Tags": [
    "Pokemon", 
    "Games", 
    "Canada", 
    "USA"
  ], 
  "Time": "15:33"
}