{
  "By": "trinakub", 
  "Contents": " เกม Pokémon กับ Nintendo เป็นสิ่งที่อยู่คู่กันมาอย่างช้านาน ดังนั้นย่อมเป็นธรรมดาที่จะมีการออกโมเดลใหม่เพื่อมาฉลองการเปิดตัวภาคใหม่ ซึ่งภาค Sun and Moon ก็ไม่ใช่ข้อยกเว้น ทาง Nintendo จึงได้จัด 3DS XL มาให้เราถึง 2 ลวดลายด้วยกัน ลายแรกจะเป็นธีมสีเหลืองลวดลายพิกาจู ส่วนลายที่สองจะเป็นลายสีดำพร้อมกับ Pokémon ในตำนานประจำภาค Solagaleo และ Lunala วาดอยู่บนเครื่อง ราคาตกอยู่ที่ 20,304 เยน พร้อมแถมรหัสไอเทม Pokéball 100 ลูก 3DS XL ทั้ง 2 ลวดลายจะวางจำหน่ายวันที่ 18 พฤศจิกายน 2559 นี้ ที่มา – NintendoLife     ", 
  "Date": "18/June/2016", 
  "Image-Link": [
    "https://www.blognone.com/sites/default/files/styles/thumbnail/public/topics-images/pokemon.png?itok=7HuOXT6S", 
    "http://i.imgur.com/P9FHWXA.jpg", 
    "http://i.imgur.com/korQaju.jpg", 
    "/sites/all/themes/blognone42/images/linebutton.png"
  ], 
  "Link": "https://www.blognone.com/node/82418", 
  "News": "ญี่ปุ่นฉลองเปิดตัว Pokémon Sun and Moon จัด 3DS XL Special Edition เพิ่ม 2 โมเดล", 
  "Tags": [
    "Pokemon", 
    "Nintendo 3DS", 
    "Nintendo", 
    "Games"
  ], 
  "Time": "21:20"
}