{
  "By": "nrad6949", 
  "Contents": " เว็บไซต์นิตยสาร Wired ฝั่งประเทศอังกฤษ รายงานว่าระบบเครือข่ายประสาทเทียม (artificial neural network) ของ Google เริ่มสามารถแต่งกลอนเป็นภาษาอังกฤษได้แล้ว หลังจากที่นักวิจัยได้ฝึกระบบมาระยะหนึ่ง รายงานข่าวระบุว่า ระบบเครือข่ายประสาทเทียมถูกฝึกจากนักวิจัยด้วยหนังสือที่ไม่ได้ตีพิมพ์มากกว่า 11,000 เล่ม โดยมีหนังสือในหมวดโรแมนติกมากกว่า 3,000 เล่ม ซึ่งทำให้ระบบประสาทเทียม สามารถแต่งกลอนขั้นพื้นฐานออกมาได้ โดยในงานวิจัยที่อธิบายรายละเอียดเพิ่มเติม (อ่านได้จากที่มา) ซึ่งเป็นความร่วมมือระหว่างบริษัทและนักวิจัยจาก Stanford University และ University of Massachusetts Amherst ระบุว่ากลอนดังกล่าวได้มาด้วยวิธีการแบบ continuous sampling และมีสัมผัสกันในบทกลอน Engadget ระบุว่าผลงานดังกล่าวแสดงให้เห็นถึงแนวโน้มและโอกาส (potential) ของระบบเครือข่ายประสาทเทียมและปัญญาประดิษฐ์ซึ่งในวันหนึ่งอาจสามารถเขียนงานหรือทำงานให้กับเราแทบจะแทนที่มนุษย์ได้ ที่มา - Wired ผ่าน Engadget, งานวิจัย   ", 
  "Date": "17/May/2016", 
  "Image-Link": [
    "https://www.blognone.com/sites/default/files/styles/thumbnail/public/topics-images/Artificial-intelligence-elon-musk-hawking.jpg?itok=enWxyF0M", 
    "/sites/all/themes/blognone42/images/linebutton.png"
  ], 
  "Link": "https://www.blognone.com/node/81062", 
  "News": "ระบบเครือข่ายประสาทเทียมของ Google เริ่มแต่งกลอนได้แล้ว", 
  "Tags": [
    "Artificial Intelligence", 
    "Google", 
    "Literature"
  ], 
  "Time": "10:49"
}