{
  "By": "nismod", 
  "Contents": " Interactive Corp (IAC) เจ้าของ Tinder แอพหาคู่ชื่ดังได้ขาย Ask.fm โซเชียลเน็ตเวิร์คแบบถาม-ตอบที่ซื้อมาในปี 2014 ไปให้กับบริษัท Noosphere บริษัทจัดการทรัพย์สินที่มีความเชี่ยวชาญด้านเทคโนโลยีและเศรษฐกิจดิจิทัล ทาง IAC ไม่ได้เปิดเผยสาเหตุของการขายรวมถึงมูลค่าในครั้งนี้ ขณะที่ทาง Noosphere ให้เหตุผลในการเข้าซื้อครั้งนี้ว่า ต้องการลงทุนกับ Ask.fm ที่มีการเติบโตและมีการพัฒนาด้านความปลอดภัยอย่างต่อเนื่อง โดยผู้บริหาร Noosphere ระบุว่ายังไม่มีแผนในการเปลี่ยนแปลง Ask.fm ใดๆ รวมถึงจะยังคงจ้างพนักงานทุกคนอยู่เช่นเดิม ที่มา - BBC   ", 
  "Date": "6/July/2016", 
  "Image-Link": [
    "https://www.blognone.com/sites/default/files/styles/thumbnail/public/news-thumbnails/Avatar_logo_orange.png?itok=sjqYMpCt", 
    "/sites/all/themes/blognone42/images/linebutton.png"
  ], 
  "Link": "https://www.blognone.com/node/83066", 
  "News": "Interactive Corp เจ้าของ Tinder ขายกิจการ Ask.fm ", 
  "Tags": [
    "Ask.fm", 
    "Acquisition"
  ], 
  "Time": "11:07"
}