{
  "By": "lew", 
  "Contents": " Apache เปิดตัวระบบปฏิบัติการสำหรับ IoT ของตัวเองในชื่อ Mynewt สำหรับอุปกรณ์ขนาดเล็กที่ต้องทำงานโดยใช้พลังงานต่ำ, มีหน่วยความจำน้อย, และมีพื้นที่เก็บข้อมูลน้อย Mynewt จะมีเครื่องมือช่วยเหลือสำหรับการพัฒนาหลายอย่าง เช่น bootloader, ระบบไฟล์, ระบบเก็บข้อมูล time-series, JSON, shell ในชั้นการเชื่อมต่อรองรับ Bluetooth LE 4.2 และจะรองรับ Wi-Fi ในอนาคต ตอนนี้ Mynewt ออกรุ่น 0.9.0 ยังรองรับบอร์ดที่เป็น Cortex-M0 และ M4 เท่านั้น บอร์ดที่รองรับเช่น Arduino Zero โครงการระบบปฏิบัติการสำหรับ IoT แบบโอเพนซอร์สเริ่มมีโครงการเข้ามาแข่งขันกันมากขึ้นเรื่อยๆ ก่อนหน้านี้มีโครงการ mbed OS ของ ARM และ Zephyr ของ Linux Foundation ฟีเจอร์ต่างๆ ในตอนนี้ยังไม่เท่ากันนัก นักพัฒนาคงต้องตัดสินใจจากฟีเจอร์ที่ต้องการกันดีๆ ที่มา - CNX Software    ", 
  "Date": "17/June/2016", 
  "Image-Link": [
    "https://www.blognone.com/sites/default/files/styles/thumbnail/public/topics-images/3SUWuPPR.jpg?itok=zss27Wk3", 
    "//upic.me/i/9y/os_arch.png", 
    "/sites/all/themes/blognone42/images/linebutton.png"
  ], 
  "Link": "https://www.blognone.com/node/82353", 
  "News": "Apache เปิดตัวระบบปฏิบัติการสำหรับ IoT ในชื่อ Mynewt", 
  "Tags": [
    "Apache", 
    "Internet of Things"
  ], 
  "Time": "01:31"
}