{
  "By": "trinakub", 
  "Contents": " ล่าสุดภายในงาน Dead or Alive Festival 2016 ทาง Koei Tecmo ประกาศการร่วมมือกับค่าย SNK นำตัวละคร Mai Shiranui จากซีรี่ส์เกม The King of Fighters มาเป็นตัวละคร DLC ภายในเกมต่อสู้ Dead or Alive 5: Last Round ตัวละคร Mai Shiranui จะเพิ่มเข้ามาภายในเดือนกันยายน ปีนี้ โดยจะมาพร้อมกับชุด costume จากตัวละครหญิงอื่น ๆ ในซีรี่ส์ King of Fighters ด้วย  Mai Shiranui ปรากฏตัวครั้งแรกบนเกมต่อสู้ Fatal Fury 2 จากค่าย SNK และกลายเป็นตัวละครยอดนิยมอันดับต้น ๆ ของค่ายนี้ภายในเวลาไม่นาน ต่อมาได้ปรากฏตัวภายในเกม The King of Fighters อีกหลายภาค และจะปรากฏตัวในภาคล่าสุด The King of Fighters 14 ที่ลง PlayStation 4 เร็ว ๆ นี้ด้วย นอกจาก Mai Shiranui แล้ว ยังมี DLC costume อีกจำนวนมากที่จะเพิ่มเข้ามาวันที่ 19 กรกฎาคม นี้ พร้อมกับด่านใหม่จากซีรี่ส์ Attack on Titan ที่มา – Polygon   ", 
  "Date": "11/July/2016", 
  "Image-Link": [
    "https://www.blognone.com/sites/default/files/styles/thumbnail/public/news-thumbnails/Dead%20or%20Alive%20Logo.png?itok=yZO7AftK", 
    "http://i.imgur.com/sz8JW1K.jpg", 
    "/sites/all/themes/blognone42/images/linebutton.png"
  ], 
  "Link": "https://www.blognone.com/node/83245", 
  "News": "Koei Tecmo จับมือ SNK นำ Mai Shiranui จาก King of Fighters ลงเกม Dead or Alive 5", 
  "Tags": [
    "Dead or Alive", 
    "Games", 
    "DLC", 
    "Koei Tecmo", 
    "SNK Playmore"
  ], 
  "Time": "08:53"
}