{
  "By": "nismod", 
  "Contents": " ในฐานะเกมยอดฮิตแห่งปีของ Overwatch ก็ย่อมหนีไม่พ้นโปรแกรมโกงต่างๆ โดยก่อนหน้านี้ Blizzard เคยจัดการกับฝั่งผู้เล่นไปแล้ว ล่าสุดหันมาจัดการกับผู้ผลิตโปรแกรมโกงบ้างแล้ว โดยได้ยื่นฟ้อง Bossland GmbH บริษัทสัญชาติเยอรมันที่เป็นเจ้าของโปรแกรมโกงอย่าง Watchover Tyrant พร้อมเรียกค่าเสียหาย Blizzard ระบุในคำร้องว่า Bossland นั้นละเมิดลิขสิทธิ, ละเมิดกฎหมาย Digital Millennium Copyright Act, ก่อให้เกิดการแข่งขันที่ไม่เป็นธรรมและทำให้บริษัทสูญเสียรายได้ไปหลายล้านเหรียญ ทั้งนี้ไม่เพียงเฉพาะ Overwatch เท่านั้น Bossland ยังเขียนโปรแกรมโกงให้กับเกมอื่นๆ ของ Blizzard อย่าง Diablo 3, World of Warcraft และ Heroes of the Storm ซึ่งการฟ้องร้องครั้งนี้ไม่ใช่ครั้งแรกระหว่าง Blizzard และ Bossland โดย Bossland เพิ่งชนะคดีที่ Blizzard ฟ้องร้องเรื่องบ็อทในเกม Heroes of the Storm ไปเมื่อช่วงต้นปีที่ผ่านมา ที่มา - TorrentFreak   ", 
  "Date": "5/July/2016", 
  "Image-Link": [
    "https://www.blognone.com/sites/default/files/styles/thumbnail/public/topics-images/overwatch.png?itok=TLgOiXnG", 
    "/sites/all/themes/blognone42/images/linebutton.png"
  ], 
  "Link": "https://www.blognone.com/node/83012", 
  "News": "Blizzard ฟ้องบริษัทเยอรมันที่สร้างโปรแกรมโกงเกม Overwatch", 
  "Tags": [
    "Overwatch", 
    "Blizzard", 
    "Germany", 
    "Lawsuit", 
    "DMCA"
  ], 
  "Time": "11:58"
}