{
  "By": "magnamonkun", 
  "Contents": " แม้ว่าเราเห็นไมโครซอฟท์เปิดให้ผู้พัฒนาเกมสามารถวางระบบให้ผู้เล่นสามารถเล่นข้ามแพลตฟอร์มกันได้มาระยะหนึ่ง จนถึงวันนี้เรายังไม่เห็นเกมใหญ่ระดับ Blockbuster เปิดใช้ฟีเจอร์นี้กันสักเท่าไหร่ แต่ดูเหมือนว่า Blizzard ไม่ได้คิดเช่นนั้น เพราะล่าสุดมีรายงานว่า Blizzard กำลังพิจารณานำระบบ Cross-play มาใช้กับ Overwatch แล้ว @PlayOverwatch (ทวิตเตอร์ของ Blizzard) ตอบคำถามของผู้ใช้ @bickiya ที่ถามว่า \"เมื่อไหร่ Overwatch จะสามารถเล่นข้ามแพลตฟอร์มกันได้\" ทาง Blizzard เลยตอบคำถามกลับไปว่าปัจจุบัน Overwatch ยังไม่รองรับฟีเจอร์นี้ แต่พวกเขากำลังพิจารณานำระบบดังกล่าวมาใช้กับเวอร์ชันคอนโซล ซึ่งเป็นการบอกเป็นนัยๆ ว่า Blizzard กำลังพิจารณาทำฟีเจอร์เพื่อให้ผู้เล่น Xbox One กับ PS4 สามารถมาเจอกันได้นั่นเอง ก่อนหน้านี้ตัวแทนของ Blizzard เผยผ่านงาน BlizzCon เมื่อปีที่แล้วว่าเกม Overwatch จะไม่รองรับระบบ Cross-play (ซึ่งมีเฉพาะ PS4-PC) เนื่องจากลักษณะของผู้เล่น PC กับ PS4 แตกต่างกัน และรูปแบบวิธีการเล่นของสองแพลตฟอร์มก็แตกต่างกันมาก ดังนั้นเพื่อเป็นการป้องกันความได้เปรียบเสียเปรียบ จึงไม่นำระบบนี้มาใช้กับเกมนี้ อย่างไรก็ตาม Blizzard ยังไม่ได้ระบุเป็นแน่ชัดว่าจะมีฟีเจอร์นี้ให้จริงหรือไม่ และจะเปิดให้ใช้งานกันเมื่อไหร่กันแน่ครับ ที่มา - @PlayOverwatch, GameSpot  @bickiya There is no cross platform play. We'll keep an eye on cross-platform possibilities on the consoles. — Overwatch (@PlayOverwatch) June 4, 2016   ", 
  "Date": "8/June/2016", 
  "Image-Link": [
    "https://www.blognone.com/sites/default/files/styles/thumbnail/public/topics-images/overwatch.png?itok=TLgOiXnG", 
    "http://i.imgur.com/g5dSjPL.jpg", 
    "/sites/all/themes/blognone42/images/linebutton.png"
  ], 
  "Link": "https://www.blognone.com/node/82012", 
  "News": "Blizzard กำลังพิจารณาให้ Overwatch สามารถ Cross-play ระหว่าง Xbox One-PS4", 
  "Tags": [
    "Overwatch", 
    "Games", 
    "Blizzard", 
    "Activision Blizzard"
  ], 
  "Time": "16:01"
}