{
  "By": "nismod", 
  "Contents": " Overwatch เกมล่าสุดจากค่าย Blizzard เปิดทดสอบแบบ Open Beta ไปเมื่อวันที่ 5 ที่ผ่านมา โดยนอกจากตัวเกมจะได้รับความสนใจอย่างล้นหลามแล้ว Pornhub เว็บไซต์ภาพยนตร์ผู้ใหญ่ได้เปิดเผยว่าด้วย ยอดค้นหาที่เกี่ยวกับเกม Overwatch ได้พุ่งสูงถึง 817% ในวันเปิดทดสอบด้วยเช่นกัน แน่นอนว่าตัวละครที่ได้รับความสนใจที่สุดคงหนีไม่พ้นตัวละครผู้หญิงทั้ง 2 ตัว โดย Tracer ได้รับความสนใจเหนือ Widowmaker ชนิดนำโด่ง (ไม่น่าแปลกใจ) ซึ่ง Pornhub ระบุด้วยว่ายอดการค้นหานี้พุ่งสูงทั้งในยุโรป เอเชียและอเมริกาใต้ ทั้งนี้วิดีโอบน Pornhub ส่วนใหญ่ยังคงเป็นวิดีโอเกี่ยวกับโมเดลของตัวละครเท่านั้น ที่มา - Venture Beat  ภาพจาก Blizzard   ", 
  "Date": "9/May/2016", 
  "Image-Link": [
    "https://www.blognone.com/sites/default/files/styles/thumbnail/public/topics-images/overwatch.png?itok=TLgOiXnG", 
    "https://farm8.staticflickr.com/7400/26306156393_156684b46a_z.jpg", 
    "/sites/all/themes/blognone42/images/linebutton.png"
  ], 
  "Link": "https://www.blognone.com/node/80761", 
  "News": "ยอดค้นหา Overwatch บน Pornhub พุ่งขึ้น 817% ในช่วงทดสอบ ส่วนใหญ่หาตัวละคร Tracer", 
  "Tags": [
    "Overwatch", 
    "Pornhub"
  ], 
  "Time": "18:10"
}