{
  "By": "mk", 
  "Contents": " Overwatch เตรียมปรับกฎการเล่นครั้งสำคัญในโหมดแข่งขันแบบ Competitive Play โดยไม่อนุญาตให้หนึ่งทีมมีตัวละครซ้ำกันแล้ว เพื่อแก้ปัญหาทีมเดียวกันมีตัวละครแบบเดียวกันหลายตัว ซึ่งอาจส่งผลกระทบต่อสมดุลของการแข่งขันได้ ส่วนโหมด Quick Play จะยังอนุญาตให้มีตัวละครซ้ำกันได้อยู่ ตอนนี้ Blizzard เริ่มใช้กฎใหม่ในเซิร์ฟเวอร์ทดสอบ (Public Test Realm หรือ PTR) และจะตามไปยังตัวเกมเวอร์ชันหลักในเร็วๆ นี้ นอกจากนี้ Blizzard ยังมีแผนจะยกเลิกระบบ Sudden Death หรือการดวลกันในกรณีผลการแข่งขันออกมาเสมอ และจะเปิดให้จบเกมด้วยผลเสมอได้แทน เพราะต้องการให้ผู้เล่นรู้สึกว่าไม่เสียเวลาเปล่าในการเล่นเกมแมตช์นั้น (เล่นในเกมหลักเสมอ แล้วมาดวลแพ้) สุดท้าย Blizzard จะปรับค่าให้ตัวละคร 2 ตัวคือ D.Va กับ Zenyatta ให้มีความสามารถเพิ่มขึ้นเล็กน้อย เพื่อให้เกมในภาพรวมสมดุลขึ้น ไม่มีตัวละครใดที่ด้อยความสามารถจนเกินไป ที่มา - Overwatch, Gamespot    ", 
  "Date": "13/July/2016", 
  "Image-Link": [
    "https://www.blognone.com/sites/default/files/styles/thumbnail/public/topics-images/overwatch.png?itok=TLgOiXnG", 
    "https://i.imgur.com/ZHZgYjj.jpg", 
    "/sites/all/themes/blognone42/images/linebutton.png"
  ], 
  "Link": "https://www.blognone.com/node/83401", 
  "News": "Overwatch ปรับกฎ ห้ามเลือกตัวละครซ้ำในโหมด Competitive Play, จบเกมด้วยผลเสมอได้", 
  "Tags": [
    "Overwatch", 
    "Blizzard", 
    "Games"
  ], 
  "Time": "20:28"
}