{
  "By": "trinakub", 
  "Contents": " ข่าวใหญ่ของวันสำหรับวงการเกมการ์ด Hearthstone จากค่าย Blizzard เนื่องจาก Orange โปรชื่อดังจากเกม Hearthstone ตัดสินใจออกจากทีม Archon ให้เหตุผลว่า ทีม Archon ไม่ได้โฟกัสไปที่การทำ Pro Team อีกต่อไปแล้วตนจึงตัดสินใจลาออกจากทีม Jon \"Orange\" Westberg โปรเกมเมอร์จาก Hearthstone เป็นผู้เล่นที่น่าจับตามองมากซึ่งเขาสามารถทำเงินจากการแข่งขันไปได้ทั้งหมด 35,000 ดอลลาร์ ในปี 2015 และในปี 2016 เขาสามารถทำเงินไปได้แล้วกว่า 6,000 ดอลลาร์ ทำให้เขาติดอันดับ Top 25 ผู้เล่น Hearthstone ที่สามารถทำเงินได้สูงสุด เขาให้สัมภาษณ์กับ Daily Dot ว่า \"ผมขอขอบคุณทีม Archon มากสำหรับเวลาที่มีให้กัน ทีม Archon ทำให้เราขึ้นมาจากผู้เล่นธรรมดาให้เป็นที่รู้จักในยุโรป และอนุญาตให้ผมไปแข่งทั่วทุกมุมโลก ผมจะไม่มีวันนี้ถ้าไม่ได้รับการช่วยเหลือจาก Amaz, Backspace และคนอื่นๆ ที่เกี่ยวข้อง\"  ที่มา - Icy-veins   ", 
  "Date": "5/June/2016", 
  "Image-Link": [
    "https://www.blognone.com/sites/default/files/styles/thumbnail/public/topics-images/hearthstone.png?itok=XxZMy2sx", 
    "http://i.imgur.com/U4WUFFo.jpg", 
    "/sites/all/themes/blognone42/images/linebutton.png"
  ], 
  "Link": "https://www.blognone.com/node/81859", 
  "News": "[Hearthstone] โปร Jon \"Orange\" Westberg ออกจากทีม Archon แล้ว", 
  "Tags": [
    "Hearthstone", 
    "eSport", 
    "Games"
  ], 
  "Time": "10:31"
}