{
  "By": "sunnywalker", 
  "Contents": " สตรีมมิ่ง Netflix และ Amazon Prime ถูกเรียกร้องให้มีเนื้อหาที่คณะกรรมาธิการ EU เสนออย่างน้อย 5 รายการในแคตตาล็อก กำหนดให้มีการประกาศในสัปดาห์หน้า เหตุที่มีการเรียกร้องเช่นนี้เพราะทางคณะกรรมาธิการ EU ต้องการเพิ่มการระดมทุนในภาพยนตร์ยุโรปและรายการโทรทัศน์ โดยทำการศึกษามาพบว่า ผู้กระจายเสียงทางวิทยุหรือโทรทัศน์ (broadcaster) ลงทุนราวๆ 20% ของรายได้ไปกับเนื้อหาของยุโรป แต่ได้รับส่วนแบ่งลดลงร้อยละ 1 อันมีสาเหตุจากธุรกิจสตรีมมิ่ง \"เป็นที่ชัดเจนว่าระบบการจัดหาเงินทุนภาพยนตร์ในปัจจุบันถูกท้าทายจากการเปลี่ยนแปลงอย่างรวดเร็วในโดยเทคโนโลยีดิจิตอล\" Guenther Oettinger คณะกรรมาธิการ EU ฝ่ายดิจิทัลกล่าวในเทศกาลภาพยนตร์เมืองคานส์ อย่างไรก็ตามมีเสียงวิจารณ์ว่า ผู้นำ EU ควรจะปล่อยให้ตลาดกำหนดทิศทางเนื้อหาที่ดีหรือไม่ดีเอาเอง คณะกรรมาธิการ EU ล้มเหลวในการทำความเข้าใจโลกดิจิทัล บริการสมาชิกอย่าง Netflix และ Amazon ควรพิจารณาเพียงสิ่งเดียวเมื่อมีการวางเนื้อหาบนแพลตฟอร์มของพวกเขา ซึ่งก็คือสิ่งที่ผู้ชมของพวกเขาต้องการดู  ที่มา - Reuter   ", 
  "Date": "22/May/2016", 
  "Image-Link": [
    "https://www.blognone.com/sites/default/files/styles/thumbnail/public/topics-images/eu-flag.png?itok=5wwQInGK", 
    "http://i.imgur.com/asEDnrp.png", 
    "/sites/all/themes/blognone42/images/linebutton.png"
  ], 
  "Link": "https://www.blognone.com/node/81255", 
  "News": "EU เรียกร้องให้มี content ที่ผลิตใน EU อยู่ใน Netflix และ Amazon  ", 
  "Tags": [
    "EU", 
    "Netflix", 
    "Amazon"
  ], 
  "Time": "19:18"
}