{
  "By": "ตะโร่งโต้ง", 
  "Contents": "
ทีมนักวิจัยของ Fraunhofer Institute for Applied Solid State Physics ในประเทศเยอรมนีทำการทดลองส่งข้อมูลผ่านคลื่นวิทยุได้เร็ว 6Gbps ทำลายสถิติเดิมได้สำเร็จแบบเหนือกว่าเป็น 10 เท่า
การส่งข้อมูลดังกล่าวเป็นการส่งด้วยคลื่นวิทยุในย่านความถี่ 71-76 GHz ซึ่งโดยทั่วไปแล้วย่านความถี่นี้จะใช้งานสำหรับการส่งสัญญาณภาคพื้นดินและการส่งสัญญาณดาวเทียม โดยทำการส่งข้อมูลจากเสาสัญญาณสูงเท่าตึก 45 ชั้นซึ่งตั้งอยู่ใน Cologne ไปยังศูนย์ Space Observation Radar ซึ่งตั้งอยู่ใน Wachtberg ห่างออกไปราว 37 กิโลเมตรจากเสาส่งสัญญาณ
ด้วยการลดสัญญาณรบกวนลงได้มาก ทำให้สามารถประหยัดแบนด์วิดท์ส่วนหนึ่งได้เนื่องจากไม่ต้องเปลืองแบนด์วิดท์ไปกับสัญญาณรบกวนที่ติดพ่วงไปกับข้อมูลที่ต้องการส่ง นอกจากนี้ทีมวิจัยยังได้พัฒนาตัวส่งและตัวรับสัญญาณประสิทธิภาพสูงขึ้นมาเป็นพิเศษ โดยเฉพาะตัวส่งสัญญาณนั้นได้รับการพัฒนาให้ใช้ชิปสารกึ่งตัวนำ gallium-nitride ที่มีคุณสมบัติเพิ่มกำลังของการส่งได้มาก ในขณะที่ด้านตัวรับสัญญาณนั้นมีการใช้ทรานซิสเตอร์  indium-gallium-arsenide มาทำเป็นตัวขยายสัญญาณแบบสัญญาณรบกวนต่ำเป็นพิเศษ โดยตัวรับนั้นมีความไวต่อสัญญาณทำให้สามารถดักจับสัญญาณได้แม้สัญญาณดังกล่าวจะอ่อนมาก
ความเป็นไปได้ในการประยุกต์ใช้เทคโนโลยีการส่งข้อมูลแบบนี้ อาจมีการนำไปใช้ในพื้นที่ซึ่งต้องการเชื่อมต่ออินเทอร์เน็ตแต่ไม่อาจติดตั้งสายใยแก้วหรือสายสัญญาณอื่นได้ เช่น ในเขตพื้นที่ภัยพิบัติ นอกจากนี้เทคโนโลยีนี้อาจเหมาะสำหรับการใช้งานทดแทนสายใยแก้วในบางกรณีซึ่งอาจใช้เงินลงทุนน้อยกว่า
ที่มา - Gizmodo

 ", 
  "Date": "25/May/2016", 
  "Image-Link": "https://www.blognone.com/sites/default/files/badges/badge-writer.png", 
  "Link": "https://www.blognone.com/node/81383", 
  "News": "นักวิจัยทำลายสถิติการส่งข้อมูลผ่านคลื่นวิทยุได้ไกล 37 กิโลเมตร ด้วยความเร็ว 6Gbps", 
  "Tags": [
    "Radio", 
    "Telecom", 
    "Research"
  ], 
  "Time": "13:16"
}