{
  "By": "nismod", 
  "Contents": "
Huawei ยื่นฟ้องซัมซุงทั้งในสหรัฐและจีน ฐานละเมิดสิทธิบัตร 12 ชิ้น (บางสำนักข่าวระบุว่า 11 ชิ้น) ซึ่งเกี่ยวกับข้องกับเทคโนโลยีด้าน cellular เน็ตเวิร์คและเทคโนโลยีในสมาร์ทโฟน โดยทาง Huawei ระบุว่าซัมซุงนำเทคโนโลยีนี้ไปใช้ในเรือธงตั้งแต่รุ่น Galaxy S2 เป็นต้นมา
อย่างไรก็ตามทาง Huawei ไม่ได้เรียกร้องให้มีคำสั่งห้ามขายสมาร์ทโฟนของซัมซุงในประเทศทั้งสอง แต่เป็นการฟ้องเรียกร้องค่าเสียหาย ขณะที่ BBC รายงานว่าแท้จริงแล้ว Huawei ต้องการตกลงแลกเปลี่ยนการใช้สิทธิบัตรกับซัมซุงมากกว่าเรียกค่าเสียหาย
ที่มา - SCMP, BBC
 ", 
  "Date": "25/May/2016", 
  "Image-Link": "https://www.blognone.com/sites/default/files/badges/badge-trainee-shadow.png", 
  "Link": "https://www.blognone.com/node/81391", 
  "News": "Huawei ฟ้องซัมซุงฐานละเมิดสิทธิบัตรหลายชิ้น", 
  "Tags": [
    "Huawei", 
    "Samsung", 
    "Lawsuits"
  ], 
  "Time": "14:50"
}