{
  "By": "trinakub", 
  "Contents": " เป็นข่าวดีสำหรับแฟน ๆ ที่ชื่นชอบเกมจากสตูดิโอ Microsoft ล่าสุดบริษัทยืนยันผ่านบล็อกหลัก ถึงอนาคตของเกมจากสตูดิโอ Microsoft ว่าทุกเกมต่อจากนี้ไปจะอยู่ในรูปแบบของ Xbox Play Anywhere ทั้งหมด “เกมใหม่ ๆ ทุกเกมจากทางสตูดิโอ Microsoft จะรองรับระบบ Xbox Play Anywhere และสามารถเข้าถึงได้อย่างง่ายดายจาก Windows Store” คำประกาศจาก Microsoft ระบบ Xbox Play Anywhere เอง ก็จะเปิดให้บริการวันที่ 13 กันยายน ปีนี้แล้ว การประกาศครั้งนี้ยังส่งผลให้เกิดข่าวลือถึงการนำเกม Halo 6 ลง Windows 10 ด้วย แม้จะยังไม่มีประกาศอย่างเป็นทางการ แต่ก็มีความเป็นไปได้สูงมาก เพราะช่วงหลัง Microsoft พยายามผลักดันเกม Halo ลง PC อยู่พอสมควร ทั้งการปล่อย Halo 5 Forge Tool และ Halo Wars 2 บน Windows 10 รวมถึงการ port Halo ภาค 1, 2, Spartan Assault และ Spartan Strike มาลง PC ด้วย ดังนั้นการที่ Halo 6 มีข่าวลือว่าจะทำลง PC นั้นไม่ใช่เรื่องแปลก “ทั้งหมดนี้เป็นเพียงแค่จุดเริ่มต้นเท่านั้น” ความเห็นต่อการนำ Halo 5 Forge ลง PC จาก Josh Holmes แต่อย่างไรก็ตาม Halo 5: Guardians เองก็เคยมีข่าวลือว่าจะทำลง PC ด้วย แต่ก็โดนปฏิเสธไปเรียบร้อยแล้ว หวังว่าทาง Microsoft จะไม่ปล่อยให้โอกาสในการนำ Halo ภาคต่อไปมาลง PC หลุดลอยไป ที่มา – GameSpot    ", 
  "Date": "6/July/2016", 
  "Image-Link": [
    "https://www.blognone.com/sites/default/files/styles/thumbnail/public/topics-images/halo.png?itok=N2iqoNZf", 
    "http://i.imgur.com/qXpuVqy.jpg", 
    "/sites/all/themes/blognone42/images/linebutton.png"
  ], 
  "Link": "https://www.blognone.com/node/83046", 
  "News": "เกม Microsoft ทุกเกมต่อไปนี้จะเป็น Xbox Play Anywhere, สัญญาณบอก Halo 6 ได้ลง PC", 
  "Tags": [
    "Halo", 
    "Microsoft", 
    "Windows 10", 
    "Games", 
    "Xbox"
  ], 
  "Time": "00:09"
}