{
  "By": "mk", 
  "Contents": " ไมโครซอฟท์ออกมาประกาศยอดการใช้งาน Windows 10 ว่ามีอุปกรณ์ 300 ล้านเครื่องใช้งานแล้ว และเตือนว่าการอัพเกรดระบบปฏิบัติการฟรีจาก Windows 7/8.1 จะสิ้นสุดในวันที่ 29 กรกฎาคม 2016 (ครบรอบ 1 ปี Windows 10) หลังจากวันที่ 29 กรกฎาคม ผู้ใช้ Windows 7/8.1 จะเสียสิทธิการใช้งาน Windows 10 ฟรี และถ้าต้องการใช้ ต้องซื้อ Windows 10 Home ตัวเต็มในราคา 119 ดอลลาร์ ที่มา - Microsoft   ", 
  "Date": "6/May/2016", 
  "Image-Link": [
    "https://www.blognone.com/sites/default/files/styles/thumbnail/public/topics-images/Windows_logo_Cyan_rgb_D.png?itok=bKOyx4bD", 
    "/sites/all/themes/blognone42/images/linebutton.png"
  ], 
  "Link": "https://www.blognone.com/node/80669", 
  "News": "ไมโครซอฟท์เตือน อัพเกรดเป็น Windows 10 ฟรีได้ถึง 29 กรกฎาคม 2016 เท่านั้น", 
  "Tags": [
    "Windows 10", 
    "Microsoft"
  ], 
  "Time": "07:58"
}