{
  "By": "nuntawat", 
  "Contents": " ไมโครซอฟท์ปล่อย Windows 10 Build 14366 และเตรียมปล่อย Windows 10 Mobile Build 14364 ให้ Windows Insider กลุ่ม Fast ring มีรายละเอียดดังนี้ Windows 10  ปล่อยส่วนเสริม (extension) Office Online for Microsoft Edge สามารถใช้ Word, Excel, PowerPoint, OneNote และ Sway Online โดยไม่ต้องติดตั้งแอปลงเครื่อง อัพเดต Windows Store เป็นรุ่น  11606.1000.43.0 แก้บั๊กและปรับปรุงเล็กน้อยจำนวนมาก อาทิ แก้บั๊กเมนู Start ไม่ทำงานขณะลงแอปภาษาอื่น อาทิ ภาษาจีน, บั๊กใน Windows Ink Workspace, บั๊กลำดับหน้าจอใน Settings > System > Display เด้งผิดลำดับและทำให้ scaling เปลี่ยนค่า, ย้ายหมวด “Recently added” ในเมนู Start ไปอยู่เหนือ “Most used” เป็นต้น Known issue อาทิ Desktop App Converter Preview (Project Centennial) ไม่ทำงาน (ให้ข้าม build นี้หากต้องการใช้) เป็นต้น  Windows 10 Mobile  แก้บั๊กจำนวนมาก อาทิ โลโก้แอปไม่ปรากฏในการแจ้งเตือน ถึงแม้จะปรากฏใน Action Center, Microsoft Edge ล่มขณะ scroll ในบางหน้าเว็บ, เครื่องเปลี่ยนเป็นโหมดสั่นเองเมื่อตัดการเชื่อมต่อกับลำโพงบลูทูธ Known issue อาทิ ติดตั้งแอปผ่าน Visual Studio 2015 Update 2 ไม่ได้, การใช้ดาต้าบนเครื่องสองซิมมีปัญหา เป็นต้น  ที่มา: Microsoft - Windows Experience Blog   ", 
  "Date": "15/June/2016", 
  "Image-Link": [
    "https://www.blognone.com/sites/default/files/styles/thumbnail/public/topics-images/Windows_logo_Cyan_rgb_D.png?itok=bKOyx4bD", 
    "/sites/all/themes/blognone42/images/linebutton.png"
  ], 
  "Link": "https://www.blognone.com/node/82263", 
  "News": "ไมโครซอฟท์ปล่อย Windows 10 Build 14366, เตรียมปล่อย Windows 10 Mobile Build 14364", 
  "Tags": [
    "Windows 10", 
    "Windows 10 Mobile", 
    "Microsoft"
  ], 
  "Time": "08:31"
}