{
  "By": "nutmos", 
  "Contents": " Microsoft ได้เคยคาดการณ์ไว้ในงานประชุมนักพัฒนาของ Microsoft เมื่อเดือนเมษายน 2015 ว่าทางบริษัทมีเป้าหมายให้ Windows 10 ติดตั้งบนอุปกรณ์ให้ครบ 1 พันล้านเครื่องภายใน 2-3 ปีนี้ ล่าสุดทางผู้บริหารของ Microsoft ได้เผยว่าเป้าหมายนี้อาจจะใช้เวลานานกว่าเดิม Yusuf Mehdi หัวหน้าฝ่ายการตลาด Windows ได้กล่าวว่า Windows 10 ได้เปิดตัวอย่างร้อนแรงที่สุดในประวัติศาสตร์ ด้วยยอดอุปกรณ์ที่ใช้งานต่อเดือน (monthly active) อยู่ที่ 350 ล้านเครื่อง ซึ่งตัว Mehdi บอกว่า Microsoft พอใจกับการพัฒนาจนถึงวันนี้ แต่ด้วยการจะไปโฟกัสที่ธุรกิจฮาร์ดแวร์มือถือ จึงทำให้เป้าหมายยอดอุปกรณ์ที่ใช้งานต่อเดือนถึงพันล้านเครื่องอาจจะไม่ทันภายในปี 2018 ที่มา - Bloomberg   ", 
  "Date": "16/July/2016", 
  "Image-Link": [
    "https://www.blognone.com/sites/default/files/styles/thumbnail/public/topics-images/Windows_logo_Cyan_rgb_D.png?itok=bKOyx4bD", 
    "/sites/all/themes/blognone42/images/linebutton.png"
  ], 
  "Link": "https://www.blognone.com/node/83509", 
  "News": "Microsoft เผย เป้าหมายยอดใช้งาน Windows 10 ให้ได้พันล้านเครื่องอาจไม่ทันในปี 2018", 
  "Tags": [
    "Windows 10", 
    "Windows", 
    "Microsoft"
  ], 
  "Time": "09:48"
}