{
  "By": "Lamicrosz", 
  "Contents": " ไมโครซอฟท์ยังคงเดินหน้าปล่อยรุ่นทดสอบใหม่ ให้กลุ่มผู้ใช้ Fast ring ได้ลองใช้อย่างต่อเนื่อง ล่าสุด ทางบริษัทได้ปล่อย Windows 10/ Windows 10 Mobile build 14390 ที่ยังคงเน้นไปที่การแก้บั้กเป็นส่วนใหญ่ สิ่งที่แก้ไข  แก้ปัญหา 0x80004005 หลังจากเปิดโหมดนักพัฒนา ในหน้าการตั้งค่า บนเครื่องที่ไม่ได้ตั้งเป็นภาษาอังกฤษ  ปัญหาที่พบบนพีซี  ไม่สามารถใช้งาน Windows Server 2016 Tech Preview 5 VMs บน Windows 10 พร้อม secure boot ได้  ปัญหาที่พบบนโทรศัพท์  พบปัญหาในการใช้งานแอพอัดเสียงโทรศัพท์ โดยจะออกอัพเดตแก้ไขผ่าน Windows Store เมื่อใช้งานฟีเจอร์ tap to pay บนแอพ Wallet ขณะที่ตัวเครื่องล็อก จะต้องใส่รหัสพิน 2 ครั้ง โดยจะออกอัพเดตแก้ไขผ่าน Windows Store เนื่องด้วยการเปลี่ยนระบบสำรองข้อมูล ทำให้เมื่อเราย้อนกลับไปยังรุ่น 10586 จะไม่สามารถดึงแอพที่เราปักหมุดไว้ในหน้า Start ได้  ที่มา - Windows Experience Blog   ", 
  "Date": "16/July/2016", 
  "Image-Link": [
    "https://www.blognone.com/sites/default/files/styles/thumbnail/public/topics-images/Windows_logo_Cyan_rgb_D.png?itok=bKOyx4bD", 
    "/sites/all/themes/blognone42/images/linebutton.png"
  ], 
  "Link": "https://www.blognone.com/node/83513", 
  "News": "ไมโครซอฟท์ปล่อย Windows 10/Windows 10 Mobile รุ่นทดสอบ 14390", 
  "Tags": [
    "Windows 10", 
    "Windows 10 Mobile", 
    "Microsoft"
  ], 
  "Time": "14:34"
}