{
  "By": "Lamicrosz", 
  "Contents": " แอพเล่นมัลติมีเดีย VLC เวอร์ชัน Windows 10 เปิดให้ผู้ใช้ทั่วไปดาวน์โหลดไปใช้งานได้แล้ว โดยในขณะนี้จะยังไม่สามารถเล่นไฟล์ DVD และ Blu-ray ได้ เนื่องด้วยข้อจำกัดของ API แต่ทั้งนี้ก็ยังรองรับฟีเจอร์ของ Windows 10 หลายอย่าง เช่น Cortana, Continuum และ Live Tiles รวมถึงการใช้เทคโนโลยีที่ช่วยในการประหยัดพลังงานและเล่นวิดีโอความละเอียด 4K ได้ลื่นขึ้น ด้านเวอร์ชัน Xbox One, Surface Hub, HoloLens, Windows 8.1, Windows RT และ Windows Phone 8.1 จะตามมาในภายหลัง ดาวน์โหลดแอพ VLC ได้ที่ Windows Store ที่มา - JB Kempf via Neowin Announcing VLC for UWP 2.0 (beta)Running on all Windows 10 devices!https://t.co/hOZWd1siEzhttps://t.co/3Fe2yAqTlI pic.twitter.com/sqsZ8ihSig — VideoLAN (@videolan) June 29, 2016      ", 
  "Date": "30/June/2016", 
  "Image-Link": [
    "https://www.blognone.com/sites/default/files/styles/thumbnail/public/topics-images/vlc.png?itok=Xsma48uL", 
    "http://i.imgur.com/ENTncEY.png", 
    "http://i.imgur.com/3yjS6jd.png", 
    "http://i.imgur.com/oKxaNNn.png", 
    "/sites/all/themes/blognone42/images/linebutton.png"
  ], 
  "Link": "https://www.blognone.com/node/82857", 
  "News": "VLC for Windows 10 เปิดให้คนทั่วไปใช้งานแล้ว บนพีซีและโทรศัพท์", 
  "Tags": [
    "VLC", 
    "UWP", 
    "Windows 10", 
    "Windows 10 Mobile"
  ], 
  "Time": "15:10"
}