{
  "By": "nuntawat", 
  "Contents": " เมื่อต้นปีมีข่าวว่า Tencent บริษัทแม่ WeChat หยุดพัฒนาแอพบน Windows 10 แต่ล่าสุด เมื่อกลางเดือนที่แล้วมีคนโพสต์ภาพ WeChat UWP บน Windows 10 Mobile และมีคนพบว่าสไลด์ Windows Ink ในงาน WinHEC 2016 ของไมโครซอฟท์มีการกล่าวถึง WeChat บน Windows 10 ซึ่งผู้ใช้สามารถวาดเขียนลงบนไวท์บอร์ดและรูปภาพได้ จากหลักฐานข้างต้น แสดงให้เห็นว่าโครงการพัฒนา WeChat UWP บน Windows 10 น่าจะดำเนินอยู่ต่อไป ก็คงต้องตามกันต่อว่าจะได้เห็นแอปข้างต้นเมื่อไร ที่มา: @hykenblue, Nokiapoweruser #Wechat UWP for #Windows10Mobile pic.twitter.com/8fqadibUyK — Hyken Wong (@hykenblue) April 18, 2016    ", 
  "Date": "12/May/2016", 
  "Image-Link": [
    "https://www.blognone.com/sites/default/files/styles/thumbnail/public/topics-images/wechat.png?itok=vLn9W362", 
    "http://i.imgur.com/MnR3a6P.jpg", 
    "/sites/all/themes/blognone42/images/linebutton.png"
  ], 
  "Link": "https://www.blognone.com/node/80900", 
  "News": "WeChat UWP บน Windows 10 รองรับ Windows Ink โผล่ในสไลด์นำเสนอจากไมโครซอฟท์", 
  "Tags": [
    "WeChat", 
    "Windows 10", 
    "UWP", 
    "Leak"
  ], 
  "Time": "17:11"
}