{
  "By": "Lamicrosz", 
  "Contents": " Zotac ผู้ผลิตฮาร์ดแวร์คอมพิวเตอร์ เปิดตัวพีซีขนาดจิ๋วของตัวเอง ที่มาใน 2 รุ่นย่อยคือ PI220 และ PI221 ที่รุ่นแรกจะมาพร้อมพัดลมระบายความร้อน แต่รุ่นหลังจะไม่มีมาให้ ทำให้เกิดเสียงรบกวนน้อยลง ด้านสเปคที่เหลือจะเหมือนกัน ดังนี้  ระบบปฏิบัติการ: Windows 10 Home 32 บิต หน่วยประมวลผล: Intel Atom x5-Z8300 ความถี่ 1.44 GHz แรม: 2GB DDR3L พื้นที่ความจุ: 32 GB eMMC รองรับ Micro SD มาพร้อมพอร์ต HDMI, Ethernet และ USB 3.0 รองรับ Wi-Fi 802.11ac และ Bluetooth 4.0  ราคาและวันวางจำหน่ายยังไม่เปิดเผย ที่มา - Zotac via MSPoweruser     ", 
  "Date": "14/May/2016", 
  "Image-Link": [
    "https://www.blognone.com/sites/default/files/styles/thumbnail/public/news-thumbnails/zotac-vector-logo-400x400_0.png?itok=lFAr6MUj", 
    "http://i.imgur.com/gNWLfd7.jpg", 
    "http://i.imgur.com/FzyuQRo.png", 
    "/sites/all/themes/blognone42/images/linebutton.png"
  ], 
  "Link": "https://www.blognone.com/node/80985", 
  "News": "Zotac เปิดตัวพีซีขนาดจิ๋ว 2 รุ่น ใช้ Atom, แรม 2GB, Windows 10", 
  "Tags": [
    "Zotac", 
    "Windows 10", 
    "micropc"
  ], 
  "Time": "20:27"
}