{
  "By": "nutmos", 
  "Contents": " ทางการของกรุง Seoul ประเทศเกาหลีใต้ ได้ประกาศเปิดตัวป้ายสำหรับเตือนการเล่นสมาร์ทโฟนขณะกำลังเดินเท้า โดยติดตั้งไว้ใน 5 จุดหลักของเมือง ซึ่งป้ายนี้จะมีกลุ่มเป้าหมายคือเด็ก, วัยรุ่น และผู้ใหญ่วัยเริ่มต้น ซึ่งเป็นผู้ใช้สมาร์ทโฟนส่วนใหญ่ของประเทศ สถานที่ 5 แห่งที่จะนำป้ายไปติดไว้ ได้แก่ Hongdae, City Hall, Yonsei University, Gangnam Station และ Jamsil Station ซึ่งเป็นสถานที่ที่มีอุบัติเหตุเกี่ยวกับคนเดินเท้าเกิดขึ้นบ่อย การเดินคุยหรือแชทนั้นถือว่าเป็นเรื่องธรรมดาของการเดินเท้าหรือเดินทางโดยการขนส่งสาธารณะในเมืองมานานแล้ว และเพื่อการป้องกันอุบัติเหตุ หลาย ๆ เมืองใหญ่จึงเริ่มใช้มาตรการเตือนผู้เดินเท้าเยอะขึ้น ซึ่งทางการเกาหลีใต้หวังว่าข้อความเหล่านี้จะเรียบง่ายและชัดเจน ฉะนั้นคนเดินเท้าที่แม้จะเดินโดยมองแต่สมาร์ทโฟนก็สามารถเห็นได้ง่าย ๆ ที่มา - TechCrunch, Seoul Metropolitan Government    ", 
  "Date": "27/June/2016", 
  "Image-Link": [
    "https://www.blognone.com/sites/default/files/styles/thumbnail/public/topics-images/Flag_of_South_Korea.svg_.png?itok=sCG7lOBb", 
    "http://i.cubeupload.com/eoUgby.png", 
    "/sites/all/themes/blognone42/images/linebutton.png"
  ], 
  "Link": "https://www.blognone.com/node/82695", 
  "News": "เกาหลีใต้เปิดตัวป้ายเตือนให้ผู้ใช้ระวังการเล่นสมาร์ทโฟนขณะเดินทางเท้า", 
  "Tags": [
    "South Korea"
  ], 
  "Time": "11:21"
}