{
  "By": "mk", 
  "Contents": " กูเกิลออก Chrome 51 รุ่นเสถียร ฟีเจอร์ใหม่ในรุ่นนี้คือ Credential Management API ที่ช่วยให้เว็บไซต์สามารถสื่อสารข้อมูลล็อกอินกับตัว Chrome ได้ง่ายขึ้น สามารถใช้บริการอย่าง Google Smart Lock ของ Android เพื่อช่วยยืนยันตัวตนกับเว็บไซต์ได้ นอกจากนี้ยังมีฟีเจอร์ที่ประกาศไปแล้วคือ Chrome 51 Beta ปรับปรุงการเรนเดอร์เพจที่อยู่นอกจอ ประหยัดแบตได้ถึง 30% และอุดช่องโหว่ความปลอดภัยอีก 42 จุด ที่มา - Google Chrome Releases, 9to5google    ", 
  "Date": "26/May/2016", 
  "Image-Link": [
    "https://www.blognone.com/sites/default/files/styles/thumbnail/public/topics-images/chrome-500.png?itok=q5EXf4iz", 
    "https://i.imgur.com/NBzlf6S.png", 
    "/sites/all/themes/blognone42/images/linebutton.png"
  ], 
  "Link": "https://www.blognone.com/node/81422", 
  "News": "Chrome 51 ออกแล้ว", 
  "Tags": [
    "Chrome", 
    "Browser", 
    "Google"
  ], 
  "Time": "08:27"
}