{
  "By": "vvkungx", 
  "Contents": " Browser ในปัจจุบันจะมีเครื่องมือสำหรับนักพัฒนาเว็บไซต์มาให้ใช้งานกัน แต่ก็ยังมีความสามารถที่ขาดๆ เกินๆ บ้างไปพอสมควร ล่าสุดมี Browser น้องใหม่ชื่อว่า Blisk ที่มาพร้อมฟีเจอร์สำหรับนักพัฒนาเว็บไซต์โดยเฉพาะ Blisk เป็น browser ที่พัฒนาด้วย Chromium เน้นใช้งานเพื่อการพัฒนาเว็บไซต์ทั้งการสร้าง prototype, พัฒนา, ทดสอบและหาบั๊กบนงาน ฟีเจอร์หลักๆ คือทดสอบเว็บไซต์ได้บนมือถือและแท็บเล็ตจำลองที่ใช้งานได้เสมือนจริง, ทดสอบได้พร้อมกันทั้งเดสก์ท็อปและมือถือ หากเราเลื่อนหน้าจอฝั่งมือถือลงมา ฝั่งเดสก์ท็อปก็จะเลื่อนตามลงมาด้วย, หากมีการเปลี่ยนแปลงโค้ดใน IDE Blisk จะอัพเดตความเปลี่ยนแปลงบน browser ให้ทันทีโดยไม่ต้องกด refresh เอง  นอกจากนี้ Blisk สามารถตรวจสอบและวิเคราะห์การทำงานของเว็บไซต์ได้ทุกๆ device, สร้าง screenshots ได้ภายในตัวและรองรับการเชื่อมต่อกับเครื่องมือพัฒนาภายนอกเช่น Trello, BitBucket หรือ Google Drive ได้อีกด้วย  ตอนนี้ Blisk เปิดให้ใช้งานแล้วบน Windows สามารถไปโหลดมาใช้งานกันได้เลย ส่วนผู้ใช้ Mac และ Linux อาจจะต้องอดใจรอก่อน ซึ่ง account Twiter ของ Blisk รายงานว่าบน Mac อาจจะมาในเดือนมิถุนายน ดูรายละเอียดเพิ่มเติมและดาวน์โหลดใช้งานกันได้ที่ https://blisk.io/ ที่มา : The Next Web   ", 
  "Date": "14/May/2016", 
  "Image-Link": [
    "https://www.blognone.com/sites/default/files/styles/thumbnail/public/news-thumbnails/12345533_197006240640425_6002701172095158024_n.jpg?itok=wuMMMWGY", 
    "//upic.me/i/8k/blisk-browser-scroll-feature-1.gif", 
    "//upic.me/i/4r/blisk-browser-1-796x369.jpg", 
    "/sites/all/themes/blognone42/images/linebutton.png"
  ], 
  "Link": "https://www.blognone.com/node/80978", 
  "News": "Blisk browser สำหรับนักพัฒนาเว็บไซต์โดยเฉพาะ", 
  "Tags": [
    "Browser", 
    "Mobile Web", 
    "Development"
  ], 
  "Time": "11:18"
}