{
  "By": "Lamicrosz", 
  "Contents": " หลังจากที่ไมโครซอฟท์ออกผลการทดสอบการใช้พลังงานของเบราว์เซอร์หลักอย่าง Microsoft Edge, Google Chrome, Mozilla Firefox และ Opera ซึ่งในผลการทดสอบออกมาว่า Microsoft Edge ชนะ Opera เผยว่า ไมโครซอฟท์ไม่ได้บอกระเบียบวิธีในการทดสอบ ทำให้การทดสอบอาจคลาดเคลื่อนจากความเป็นจริง ในส่วนของผลการทดสอบบน Lenovo Yoga 500 หน้าจอ 14 นิ้ว, หน่วยประมวลผล Intel Core i3 5005U, แรม 4 GB, พื้นที่เก็บข้อมูล 500 GB, ระบบปฏิบัติการ Windows 10, เปิดไฟ backlight ไว้ที่ 100% ปิดการทำงานเบื้องหลังทุกอย่าง ทดสอบด้วยวิธีการ ดังนี้  ชาร์จแบตเตอรี่ให้เต็มที่ 100% เปิดเว็บไซต์ chicagotribune.com, elitedaily.com, faz.net, latimes.com, mashable.com, mlive.com, nj.com, nydailynews.com และ youtube.com/watch?v=tnsQ8DjD6YE พร้อมกัน กดลูกศรลง 30 วินาที และขึ้นอีก 30 วินาที  ผลการทดสอบออกมาว่า Opera เวอร์ชัน 39.0.2248.0 เปิดฟีเจอร์ปิดกั้นโฆษณาและประหยัดพลังงาน สามารถใช้งานได้นานกว่า Microsoft Edge เวอร์ชัน 25.10586.0.0 เป็นจำนวน 22% และมากกว่า Google Chrome เวอร์ชัน 51.0.2704.103 ถึง 35% ที่มา - Opera blogs    ", 
  "Date": "23/June/2016", 
  "Image-Link": [
    "https://www.blognone.com/sites/default/files/styles/thumbnail/public/topics-images/opera-500.png?itok=df7AEFnP", 
    "http://i.imgur.com/3SrpI08.png", 
    "/sites/all/themes/blognone42/images/linebutton.png"
  ], 
  "Link": "https://www.blognone.com/node/82602", 
  "News": "Opera โต้ เบราว์เซอร์ของตัวเองประหยัดพลังงานกว่า Microsoft Edge", 
  "Tags": [
    "Opera", 
    "Microsoft Edge", 
    "Browser"
  ], 
  "Time": "21:41"
}