{
  "By": "mk", 
  "Contents": " จากข่าว Craig Steven Wright ออกมายอมรับแล้วว่าเป็นผู้สร้าง Bitcoin แต่ก็เกิดการถกเถียงกันอย่างกว้างขวางว่าเขาเป็นตัวจริงหรือไม่ ล่าสุดเขาลบโพสต์ทั้งหมดบนเว็บไซต์ทิ้ง และเขียนโพสต์ใหม่ว่า I'm Sorry ระบุว่าเขาไม่มี \"ความกล้า\" พอที่จะเปิดเผยเรื่องราวทั้งหมด รวมถึงหลักฐานต่างๆ ตามที่เคยสัญญาเอาไว้ เขาบอกว่าไม่เข้มแข็งพอที่จะต่อสู้กับข้อกล่าวหาต่างๆ ทั้งของเก่าและของใหม่ รวมถึงขอโทษผู้สนับสนุนว่าเขาเป็นตัวจริงคือ Jon Matonis กับ Gavin Andresen เขาลงท้ายโพสต์ว่า \"goodbye\" และคาดว่าคงไม่โผล่ออกมาสู่สาธารณะอีกครับ  ที่มา - Craig Wright, BBC อย่างไรก็ตาม Jon Matonis อดีตผู้อำนวยการ Bitcoin Foundation ซึ่งได้พบกับ Wright ออกมาทวีตว่าคงไม่มีการโอนเงิน Bitcoin บล็อคแรกๆ ที่เป็นของ Satoshi Nakamoto ให้เห็นอีก แต่เขาก็คิดว่าจะไม่มี Satoshi คนอื่นปรากฏตัวอีกเช่นกัน (บอกเป็นนัยว่ายังเชื่อว่า Craig Wright คือ Satoshi) There won't be an on-chain signing from early bitcoin blocks, but there also won't be another Satoshi. — Jon Matonis (@jonmatonis) May 5, 2016   ", 
  "Date": "6/May/2016", 
  "Image-Link": [
    "https://www.blognone.com/sites/default/files/styles/thumbnail/public/topics-images/bitcoin.png?itok=gZ3OHhsT", 
    "https://i.imgur.com/iDsS09E.png", 
    "/sites/all/themes/blognone42/images/linebutton.png"
  ], 
  "Link": "https://www.blognone.com/node/80679", 
  "News": "ปิดคดี Craig Wright ผู้อ้างว่าเป็น Satoshi Nakamoto ลบโพสต์ทั้งหมดทิ้งแล้ว", 
  "Tags": [
    "Bitcoin"
  ], 
  "Time": "12:01"
}