{
  "By": "Lamicrosz", 
  "Contents": " Futuremark เจ้าของซอฟต์แวร์ทดสอบกราฟิก 3DMark ออกชุดการทดสอบสำหรับ DirectX 12 ในชื่อ Time Spy ให้กลุ่มผู้ใช้ทั่วไปแล้ว โดยผู้ที่เสียเงินซื้อไปก่อนแล้ว จะได้รับการอัพเดตฟรี แต่ทั้งนี้หากใครที่ต้องการตัวเลือกในการข้ามเดโม, ตัวเลือกการปรับแต่งการทดสอบและการทดสอบแบบ stress test จำเป็นต้องจ่ายเงินซื้อรุ่นอัพเกรดเพิ่มในราคา 219 บาท (ขณะนี้กำลังลดราคาเหลือ 109.50 บาท) สำหรับเวอร์ชัน Steam ส่วนใครที่ยังไม่เคยเป็นเจ้าของ 3DMark มาก่อน ทาง Futuremark เผยว่า จะปรับราคาขึ้นหลังวันที่ 23 กรกฎาคม ที่มา - 3DMark (Steam)     ", 
  "Date": "16/July/2016", 
  "Image-Link": [
    "https://www.blognone.com/sites/default/files/styles/thumbnail/public/topics-images/futuremark.png?itok=YRWDzDK0", 
    "http://i.imgur.com/jWEaBEp.png", 
    "http://i.imgur.com/FnuQkDK.png", 
    "/sites/all/themes/blognone42/images/linebutton.png"
  ], 
  "Link": "https://www.blognone.com/node/83508", 
  "News": "ชุดการทดสอบ 3DMark Time Spy มาแล้ว", 
  "Tags": [
    "Benchmark", 
    "Futuremark", 
    "DirectX"
  ], 
  "Time": "03:11"
}