{
  "By": "sunnywalker", 
  "Contents": " เจ้าหน้าที่ตำรวจใน New Orleans จะมีกล้องติดตัวไว้ตลอดเวลาหรือที่เรียกว่า body camera ประมาณ 1,400 ตัว ซึ่งสามารถนำมาเป็นหลักฐานเวลาเกิดคดีความเหตุการณ์ร้ายต่างๆ แต่การตรวจสอบไฟล์วิดีโอทั้งหมดต้องใช้เวลานานมาก หน่วยงานอัยการใน New Orleans จึงเซ็นสัญญากับ Vū Digital ผู้ให้บริการโซลูชั่นสำหรับ digital content เป็นเวลา 2 ปีในการนำเอาเทคโนโลยีโซลูชั่นมาใช้กับไฟล์วิดีโอที่หน่วยงานตำรวจมี ใช้ระบบอัลกอริทึมจับข้อมูล ตรวจจับใบหน้า เสียง ข้อความเสียงได้ เทคโนโลยีของ Vū Digital คือ S.M.A.R.R.T.(Storage, Metadata, Automated, Redaction, Review, Technology) ฟีเจอร์หลักๆ มีดังนี้  เก็บข้อมูลและคำนวณข้อมูลบนคลาวด์ สามารถเข้าถึงข้อมูลได้ผ่านสมาร์ทโฟน การค้นหาวิดีโอที่รวดเร็วขึ้น เรียกคืนและจัดการข้อมูลได้อย่างรวดเร็ว อ่านข้อมูลวิดีโออัตโนมัติ  เรียงลำดับเวลาให้ดูง่าย ถอดเสียงจากวิดีโออัตโนมัติ และตั้งเป็น tag ค้นหาได้   ที่มา - Engadget via PR Newswire   ", 
  "Date": "14/July/2016", 
  "Image-Link": [
    "https://www.blognone.com/sites/default/files/styles/thumbnail/public/topics-images/Flag_of_the_United_States.svg_.png?itok=D_Hwf4EE", 
    "/sites/all/themes/blognone42/images/linebutton.png"
  ], 
  "Link": "https://www.blognone.com/node/83439", 
  "News": "ตำรวจ New Orleans นำอัลกอริทึมมาใช้จัดการไฟล์วิดิโอ ช่วยค้นหาหลักฐานง่ายขึ้น", 
  "Tags": [
    "Video", 
    "Algorithm", 
    "Police", 
    "Crime", 
    "USA"
  ], 
  "Time": "16:22"
}