{
  "By": "sunnywalker", 
  "Contents": " Solar Roadways หรือถนนจากแผงโซลาร์เป็นนวัตกรรมจากบริษัท Solar Roadways มีฐานที่ไอดาโฮ ทางบริษัทหมายมั่นปั้นมือจะให้เป็นถนนแห่งอนาคตชนิดที่จะทำให้ลืมถนนแอสฟัสต์แบบเดิมๆ ล่าสุดทำสัญญากับหน่วยงานจราจรในเมือง Missouri มีแผนจะสร้างถนนแผงโซลาร์นี้ที่ Route 66 เป็นที่แรก ตัวถนนเป็นแผงทำจากแก้วเทมเปอร์ ประกอบด้วยโมดุลเล็กๆ รวมกัน ออกแบบมาให้สามารถสัญจรได้ รับน้ำหนักได้ และเดินบนถนนได้ มีความร้อนในตัว แก้ปัญหาหิมะกองสูงตามท้องถนนได้ นอกจากนี้ยังมีไฟ LED ในตัว ใช้แทนการตีเส้นถนนแบบเดิม ในแต่ละโมดุลมีตัวประมวลผล หรือ microprocessor ที่จะเชื่อมต่อกับโมดุลอื่นๆ ตัวควบคุมกลาง หรือแม้แต่รถที่สัญจรไปมา ขึ้นชื่อว่าถนนต้องมีการซ่อมแซมกันบ้าง Solar Roadways ซ่อมแซมง่ายกว่าถนนแบบเดิม เพราะประกอบด้วยโมดุลเล็ก จึงซ่อมแซมเฉพาะจุดเล็กๆได้ ไม่ต้องต้องรื้อโครงสร้าง เป็นสาเหตุให้การจราจรติดขัด จากที่ฟังมาดูเป็นนวัตกรรมที่ยอดเยี่ยมแต่ยังมีสิ่งที่ต้องนำมาพิจารณาคือ ภัยธรรมชาติต่างๆ ช่องระหว่างแผงที่น้ำอาจซึมเข้าไปได้  ภาพจาก Solar Roadways ที่มา - CleanTechnica   ", 
  "Date": "5/July/2016", 
  "Image-Link": [
    "https://www.blognone.com/sites/default/files/styles/thumbnail/public/topics-images/Flag_of_the_United_States.svg_.png?itok=D_Hwf4EE", 
    "http://i.imgur.com/N254reP.png", 
    "/sites/all/themes/blognone42/images/linebutton.png"
  ], 
  "Link": "https://www.blognone.com/node/83029", 
  "News": "หน่วยงานทางหลวงใน Missouri เตรียมนำถนนแผงโซลาร์มาสร้างที่ Route 66 เป็นที่แรก ", 
  "Tags": [
    "Innovation", 
    "Power", 
    "solar cell", 
    "USA"
  ], 
  "Time": "15:20"
}