{
  "By": "sunnywalker", 
  "Contents": " บริษัท DeNA บริษัทเกมในญี่ปุ่น ร่วมมือกับ EasyMile S.A. สตาร์ทอัพทำรถบัสไร้คนขับจากเยอรมัน ทำ EZ10 รถบัสไร้คนขับขนาดเล็ก จุได้ 12 คน เตรียมให้บริการในชิบะ โดยแผนระยะแรกจะให้บริการในพื้นที่ 21,000 ตารางเมตรในสวนสาธารณะ Toyosuna ใกล้กับศูนย์การค้า AEON Hiroshi Nakajima ผู้จัดการฝ่ายรถอัตโนมัติของ DeNA ระบุว่า ในอนาคตอยากจะให้บริการรถบัสรอบๆศูนย์การค้า AEON Complex ในชิบะด้วย และในปีหน้าวางแผนจะให้บริการรถแทกซี่ไร้คนขับตามทางหลวงด้วย ส่วนความกังวลเกี่ยวกับรถไร้คนขับสืบเนื่องจากประเด็น Tesla ที่มีผู้เสียชีวิตนั้น ทางบริษัท DeNA ระบุว่า ตระหนักดีว่าความปลอดภัยสำคัญที่สุด และบริษัทจะดำเนินธุรกิจบนฐานคิดว่า การเกิดอุบัติเหตุร้ายแรง จะไม่เป็นที่ยอมรับในโอกาสใดๆ ที่มา - Japan Times   ", 
  "Date": "12/July/2016", 
  "Image-Link": [
    "https://www.blognone.com/sites/default/files/styles/thumbnail/public/topics-images/flag-of-japan.png?itok=E37979Qt", 
    "/sites/all/themes/blognone42/images/linebutton.png"
  ], 
  "Link": "https://www.blognone.com/node/83321", 
  "News": "เดือนหน้า อาจมีรถบัสไร้คนขับให้บริการในเมืองชิบะ ประเทศญี่ปุ่น", 
  "Tags": [
    "Driverless Car", 
    "Japan"
  ], 
  "Time": "15:16"
}