{
  "By": "nismod", 
  "Contents": " เคยมีข่าวเมื่อหลายปีที่แล้วว่า ทีมเทคนิคและทีมความปลอดภัยของทำเนียบขาวมีความคิดจะเปลี่ยนสมาร์ทโฟนที่หน่วยงานรัฐบาลสหรัฐเลือกใช้จาก BlackBerry เป็นยี่ห้ออื่น (ข่าวเก่า) ล่าสุดประธานาธิบดีบารัก โอบามาได้ไปให้สัมภาษณ์ในรายการ Tonight Show ของ Jimmy Fallon ยอมรับว่าเลิกใช้ BlackBerry รุ่นเก่าไปเรียบร้อยแล้ว โอบามาบอกว่า เขาเป็นประธานาธิบดีคนแรกที่ได้ใช้ BlackBerry แต่ตลาดสมาร์ทโฟนเปลี่ยนจนแทบไม่มีใครใช้ BlackBerry แล้ว ตัวเขาก็ยังคงมี BlackBerry เครื่องนั้นเหน็บอยู่ที่เข็มขัดมาโดยตลอด จนกระทั่งปีนี้ เจ้าหน้าที่เพิ่งมาแจ้งว่าจะเปลี่ยนเป็นสมาร์ทโฟนให้ ซึ่งเจ้าตัวก็ระบุว่าค่อนข้างตื่นเต้นมาก แต่ทว่าสมาร์ทโฟนเครื่องนี้ถูกล็อคไว้ทุกอย่าง (locked down) จะโทรออก ส่งข้อความ ถ่ายรูปหรือแม้แต่ฟังเพลงก็ไม่ได้ ด้วยเหตุผลด้านความปลอดภัย ซึ่งโอบามาเปรียบเทียบขำๆ ว่าเหมือนโทรศัพท์ของเล่นที่เอาไว้ให้เด็ก 3 ขวบเล่นก็ไม่ผิด อย่างไรก็ตามโอบามาไม่ได้ระบุว่าเปลี่ยนเป็นสมาร์ทโฟนยี่ห้ออะไรและรุ่นใด ที่มา - The Tonight Show via Engadget นาทีที่ 2.13 เป็นต้นไป   ", 
  "Date": "13/June/2016", 
  "Image-Link": [
    "https://www.blognone.com/sites/default/files/styles/thumbnail/public/topics-images/blackberry.png?itok=UF9IMwyw", 
    "/sites/all/themes/blognone42/images/linebutton.png"
  ], 
  "Link": "https://www.blognone.com/node/82193", 
  "News": "โอบามายอมรับ เลิกใช้สมาร์ทโฟน BlackBerry", 
  "Tags": [
    "BlackBerry", 
    "Obama", 
    "Whitehouse", 
    "Government"
  ], 
  "Time": "13:20"
}