{
  "By": "nismod", 
  "Contents": " ในขณะที่กระแสการถ่ายทอดสดผ่าน Facebook Live กำลังเป็นที่นิยม พล.อ.ประยุทธ์ จันทร์โอชา นายกรัฐมนตรีออกมาเตือนกลุ่มทางการเมืองต่างๆ ว่าการแสดงความคิดเห็นทางการเมืองที่เกี่ยวข้องกับร่างรัฐธรรมนูญนั้น อาจผิดกฎหมายประชามติ นายกรัฐมนตรีระบุว่าได้แจ้งเตือนเรื่องการใช้ Facebook Live นี้ไปยังนายสุเทพ เทือกสุบรรณ เลขาธิการกลุ่ม กปปส. รวมถึงนายจตุพร พรหมพันธ์ุ หัวหน้ากลุ่ม นปช. แล้ว ทั้งนี้ในประเด็นเรื่องร่างรัฐธรรมนูญ นายวิษณุ เครืองาม รองนายกรัฐมนตรีกล่าวว่า ทางกกต. กำลังเตรียมการจัดดีเบตเรื่องร่างรัฐธรรมนูญระหว่างกลุ่ม กปปส. และ นปช. ผ่านทางโทรทัศน์อยู่ด้วย ที่มา - Coconuts Bangkok   ", 
  "Date": "29/June/2016", 
  "Image-Link": [
    "https://www.blognone.com/sites/default/files/styles/thumbnail/public/topics-images/fb-500.png?itok=7KEmyKx1", 
    "/sites/all/themes/blognone42/images/linebutton.png"
  ], 
  "Link": "https://www.blognone.com/node/82826", 
  "News": "นายกรัฐมนตรีเตือน Facebook Live เรื่องร่างรัฐธรรมนูญอาจผิดกฎหมาย", 
  "Tags": [
    "Facebook", 
    "Thailand", 
    "Law", 
    "Government"
  ], 
  "Time": "19:17"
}