{
  "By": "nismod", 
  "Contents": " ถึงแม้ผู้พัฒนาเกม RPG ในปัจจุบันจะทำให้เกมมีไดนามิกมากยิ่งขึ้น อย่างการเลือกทำสิ่งต่างๆ ของผู้เล่นจะส่งผลต่อตัวละครแตกต่างกันไป แต่ทว่ายังคงไม่มีเกม RPG เกมไหนที่ตัวละครจะมีอายุมากขึ้นเรื่อยๆ ตามเวลาที่เล่นจนแก่และตายลงไป Chronicle of Elyria เกมที่เปิดระดมทุนบน Kickstarter ได้เลือกหยิบเอาไดนามิกตรงนี้มาเป็นจุดขายและสร้างความแตกต่าง เกมนี้เป็น MMORPG ที่เรื่องราวเกิดขึ้นในยุคกลาง ลักษณะเดียวกับ Skyrim แต่ทว่าตัวผู้เล่นจะมีอายุราว 10 ถึง 14 เดือนในเวลาจริง และยิ่งตัวละครอายุมากขึ้น ริ้วรอย สีผมและผิวหนังจะมีการเปลี่ยนแปลงไปตามการเวลา ไม่แตกต่างจากคนจริง ขณะที่หากผู้เล่นตายในเกม ตัวละครก็จะมีอายุน้อยลง 2 วันในเวลาจริง แต่หากตัวละครมีฐานะและอิทธิพลในเกมอย่างเช่นกษัตริย์ การตายจะส่งผลต่ออายุตัวละครมากขึ้นหลายเท่าตัว สภาพแวดล้อมของเกมก็ส่งผลต่อตัวละครด้วย เพราะเกมมีลักษณะกึ่งเซอร์ไววัล ผู้เล่นจะต้องเอาตัวรอดในสภาพอากาศที่เลวร้าย เผชิญความหิวและกระหายหากอยู่นอกเมืองเป็นต้น และหากผู้เล่นเกิดฆ่าผู้เล่นคนอื่นในเกม แน่นอนว่าจะต้องถูกประกาศจับและตั้งค่าหัว ทำให้นอกจากจะอยู่ในเมืองไม่ได้แล้ว ยังอาจถูกจับจับคุก ซึ่งส่งผลต่อทั้งการเงินและอายุขัยของตัวละครด้วย ขณะที่สภาพแวดล้อมในเกม รวมถึงสถานการณ์ต่างๆ ก็จะเปลี่ยนแปลงไปเรื่อยๆ ตามกาลเวลา (chronicle) หรือแม้แต่เควสท์ที่อาจจะโผล่มาให้ทำเพียงครั้งเดียว (เพราะ NPC ไม่ต้องการแล้ว) ก็มีเช่นกัน Chronicle of Elyria เปิดระดมทุนแล้วบน Kickstarter โดยตั้งเป้าไว้ที่ 9 แสนเหรียญ และขณะนี้ทำไปได้เพียง 230,000 เหรียญและเหลือระยะเวลาอีกราว 30 วัน ใครที่สนใจก็ลองใช้วิจารณญานสนับสนุนกันดูได้ ส่วนรายละเอียดอื่นๆ ในเกมดูได้จากที่มาเลยครับ ที่มา - KickStarter     ", 
  "Date": "4/May/2016", 
  "Image-Link": [
    "https://www.blognone.com/sites/default/files/styles/thumbnail/public/news-thumbnails/Elyria.PNG?itok=ZLI_-xvh", 
    "https://farm8.staticflickr.com/7532/26712053922_6391ea653b_z.jpg", 
    "/sites/all/themes/blognone42/images/linebutton.png"
  ], 
  "Link": "https://www.blognone.com/node/80603", 
  "News": "Chronicle of Elyria เกมเซอร์ไววัล MMORPG ที่ตัวละครแก่และตายได้ ", 
  "Tags": [
    "Games", 
    "Kickstarter", 
    "MMO"
  ], 
  "Time": "11:40"
}