{
  "By": "Phantip", 
  "Contents": " ก่อนหน้านี้ไมโครซอฟท์มี Excel Survey ฟีเจอร์สร้างฟอร์มแบบสอบถามบน OneDrive ล่าสุดไมโครซอฟท์ได้เปิดตัว Forms แอพสร้างฟอร์มเก็บข้อมูลให้ผู้ใช้ Office 365 Education ได้ใช้กันเรียบร้อยแล้ว พร้อมฟีเจอร์ควิซและการตรวจคำตอบให้คะแนนอัตโนมัติ ไม่นานนักก่อนที่ Google จะเพิ่มฟีเจอร์ควิซให้กับ Google Forms โดยผู้ใช้สามารถเข้าไปที่ forms.office.com เพื่อสร้างฟอร์มแบบสอบถาม โดยคำถามจะมีอยู่ 5 แบบ ได้แก่  Choice คำถามหลายตัวเลือก สุ่มการเรียงลำดับตัวเลือกได้ Quiz แบบทดสอบ เลือกคำตอบที่ถูกต้อง พร้อมเพิ่มข้อความถ้าผู้ทำควิซเลือกตอบข้อนั้นๆ ได้ เช่น คุณครูสามารถตั้งค่าให้แสดงข้อความว่า \"ถูกค่ะลูก\" ถ้านักเรียนตอบถูก หรือ \"ไม่ใช่ค่ะ ลองไปทบทวนบทที่ 4 เรื่องเคมีอินทรีย์ดูนะคะ\" ถ้านักเรียนตอบผิด Text คำถามเติมคำ Rating โหวตให้คะแนนแบบสเกลตัวเลขหรือแบบดาว Date คำถามเลือกวันที่  เมื่อสร้างฟอร์มเสร็จแล้วก็สามารถส่งลิงก์ ฝังลงบนเว็บ หรือสร้าง QR Code ให้คนอื่นทำแบบสอบถาม รวมถึงสามารถดูคำตอบและเวลาเฉลี่ยที่ผู้ทำควิซใช้ตอบแบบสอบถามได้ทันที ทั้งในรูปแบบแผนภูมิบนเว็บหรือจะเปิดบน Excel ก็ได้ เหมาะสำหรับคุณครูที่ต้องการสร้างควิซให้นักเรียน หรือผู้ที่ต้องการสร้างแบบสอบถามเก็บข้อมูลผู้ใช้ เท่าที่ลองดูทั้ง Microsoft Forms และ Google Forms ก็ไม่ต่างกันมากนัก ลองไปเล่นกันได้ครับ หมายเหตุ: ตอนนี้ Microsoft Forms ยังเป็นรุ่น Preview ที่เปิดให้ผู้ใช้ Office 365 Education ซึ่งเป็นแพ็คเกจที่ทางสถาบันการศึกษาขอใช้งานได้ฟรีเท่านั้น ยังไม่มีการประกาศปล่อยแอพให้ผู้ใช้ Office 365 แพ็คเกจอื่นและผู้ใช้ทั่วไปในตอนนี้ ที่มา - Office Blogs   ", 
  "Date": "29/June/2016", 
  "Image-Link": [
    "https://www.blognone.com/sites/default/files/styles/thumbnail/public/topics-images/Ofc_rgb_Orng166_D.png?itok=lEJctquv", 
    "/sites/all/themes/blognone42/images/linebutton.png"
  ], 
  "Link": "https://www.blognone.com/node/82783", 
  "News": "Microsoft Forms แอพสร้างฟอร์มเก็บข้อมูล รองรับควิซ ตรวจคำตอบให้คะแนนอัตโนมัติ", 
  "Tags": [
    "Microsoft", 
    "Education", 
    "Microsoft Office", 
    "Office 365"
  ], 
  "Time": "00:32"
}