{
  "By": "lew", 
  "Contents": " เมื่อวานนี้ Civilization เปิดตัวเป็นทางการไปแล้ว @isosavi ก็ทวีตไปถามทีมงานว่าจะมีบนแมคด้วยเลยไหม แต่ทางทีมงานก็ตอบกลับมามากกว่าที่ถาม คือนอกจากแมคแล้ว Civilization VI จะรองรับลินุกซ์อีกด้วย โดยระบุว่ารายละเอียดเพิ่มเติมจะมาในอีกไม่กี่เดือนนี้ แม้ว่า Civilization V จะออกมาตั้งแต่ปี 2010 แต่ก็เพิ่งรองรับลินุกซ์ในปี 2014 การที่ทีมงานประกาศตั้งแต่แรกๆ เช่นนี้ก็ชวนให้หวังว่าคนใช้ลินุกซ์จะไม่ต้องรอนาน ที่มา - @CivGames @isosavi Civilization VI will be available on Mac and Linux too. We will have more info to share on those platforms in the coming months. — Civilization (@CivGame) May 11, 2016    ", 
  "Date": "13/May/2016", 
  "Image-Link": [
    "https://www.blognone.com/sites/default/files/styles/thumbnail/public/topics-images/civ6.jpg?itok=wk1NSlRU", 
    "//upic.me/i/2m/13165908_10154061956650359_4128818711079118567_n.jpg", 
    "/sites/all/themes/blognone42/images/linebutton.png"
  ], 
  "Link": "https://www.blognone.com/node/80914", 
  "News": "อดนอนทั่วหล้า Civilization VI จะมีทั้งบนแมคและลินุกซ์", 
  "Tags": [
    "Civilization", 
    "Games", 
    "Linux"
  ], 
  "Time": "02:00"
}