{
  "By": "mk", 
  "Contents": " Pinterest ประกาศซื้อกิจการแอพคีย์บอร์ด Fleksy เป้าหมายคือซื้อทีมงาน Fleksy เข้าไปร่วมเป็นทีมงานของ Pinterest ตัวคีย์บอร์ด Fleksy จะยังเปิดใช้งานไปอีกระยะหนึ่ง (ไม่ระบุว่านานเท่าไร) และ Fleksy ก็เตรียมเปิดซอร์สโค้ดบางส่วนของคีย์บอร์ด ในส่วนที่เกี่ยวข้องกับการใช้งานของคนตาบอดหรือคนพิการทางสายตาด้วย ที่มา - Fleksy   ", 
  "Date": "16/June/2016", 
  "Image-Link": [
    "https://www.blognone.com/sites/default/files/styles/thumbnail/public/topics-images/fleksy.png?itok=sfeLzCV3", 
    "/sites/all/themes/blognone42/images/linebutton.png"
  ], 
  "Link": "https://www.blognone.com/node/82318", 
  "News": "Pinterest ซื้อบริษัททำแอพคีย์บอร์ด Fleksy ดึงทีมงานเข้าบริษัท", 
  "Tags": [
    "Fleksy", 
    "Pinterest", 
    "Acquisition"
  ], 
  "Time": "09:23"
}